timestamp,value
1620696881872,1.0
1620696881872,1.0
1620696882528,1.0
1620696882528,1.0
1620696882959,0.0
1620696882959,0.0
1620696883566,8.0
1620696883566,8.0
1620696884346,0.0
1620696884346,0.0
1620696884931,1.0
1620696884931,1.0
1620696885375,10.0
1620696885375,10.0
1620696885806,10.0
1620696885806,10.0
1620696886286,8.0
1620696886286,8.0
1620696886698,0.0
1620696886698,0.0
1620696887174,0.0
1620696887174,0.0
1620696887511,0.0
1620696887511,0.0
1620696887864,0.0
1620696887864,0.0
1620696888313,1.0
1620696888313,1.0
1620696888734,0.0
1620696888734,0.0
1620696889212,0.0
1620696889212,0.0
1620696889648,0.0
1620696889648,0.0
1620696890065,1.0
1620696890065,1.0
1620696890378,0.0
1620696890378,0.0
1620696890854,0.0
1620696890854,0.0
1620696891301,0.0
1620696891301,0.0
1620696891751,0.0
1620696891751,0.0
1620696892137,0.0
1620696892137,0.0
1620696892615,0.0
1620696892615,0.0
1620696893067,0.0
1620696893067,0.0
1620696893578,0.0
1620696893578,0.0
1620696893984,10.0
1620696893984,10.0
1620696894365,0.0
1620696894365,0.0
1620696894700,8.0
1620696894700,8.0
1620696895152,0.0
1620696895152,0.0
1620696895524,1.0
1620696895524,1.0
1620696895795,8.0
1620696895795,8.0
1620696896284,1.0
1620696896284,1.0
1620696896813,1.0
1620696896813,1.0
1620696897317,0.0
1620696897317,0.0
1620696897876,0.0
1620696897876,0.0
1620696898325,1.0
1620696898325,1.0
1620696898759,1.0
1620696898759,1.0
1620696899224,0.0
1620696899224,0.0
1620696899690,10.0
1620696899690,10.0
1620696900135,8.0
1620696900135,8.0
1620696900636,0.0
1620696900636,0.0
1620696901071,10.0
1620696901071,10.0
1620696901855,0.0
1620696901855,0.0
1620696902601,0.0
1620696902601,0.0
1620696903679,0.0
1620696903679,0.0
1620696904075,0.0
1620696904075,0.0
1620696904561,0.0
1620696904561,0.0
1620696905004,8.0
1620696905004,8.0
1620696905434,10.0
1620696905434,10.0
1620696905960,1.0
1620696905960,1.0
1620696906360,0.0
1620696906360,0.0
1620696906866,10.0
1620696906866,10.0
1620696907390,0.0
1620696907390,0.0
1620696907837,0.0
1620696907837,0.0
1620696908699,0.0
1620696908699,0.0
1620696909667,0.0
1620696909667,0.0
1620696910423,0.0
1620696910423,0.0
1620696911301,0.0
1620696911301,0.0
1620696912502,0.0
1620696912502,0.0
1620696913340,0.0
1620696913340,0.0
1620696914514,0.0
1620696914514,0.0
1620696915034,0.0
1620696915034,0.0
1620696915499,8.0
1620696915499,8.0
1620696915933,0.0
1620696915933,0.0
1620696916360,1.0
1620696916360,1.0
1620696916851,0.0
1620696916851,0.0
1620696917275,0.0
1620696917275,0.0
1620696917793,0.0
1620696917793,0.0
1620696918288,0.0
1620696918288,0.0
1620696918722,1.0
1620696918722,1.0
1620696919193,0.0
1620696919193,0.0
1620696919748,0.0
1620696919748,0.0
1620696920723,0.0
1620696920723,0.0
1620696921688,0.0
1620696921688,0.0
1620696922551,0.0
1620696922551,0.0
1620696923037,1.0
1620696923037,1.0
1620696923430,0.0
1620696923430,0.0
1620696923851,0.0
1620696923851,0.0
1620696924218,0.0
1620696924218,0.0
1620696924639,10.0
1620696924639,10.0
1620696925091,1.0
1620696925091,1.0
1620696925940,0.0
1620696925940,0.0
1620696926741,0.0
1620696926741,0.0
1620696927507,0.0
1620696927507,0.0
1620696927965,1.0
1620696927965,1.0
1620696928369,10.0
1620696928369,10.0
1620696928727,0.0
1620696928727,0.0
1620696929131,10.0
1620696929131,10.0
1620696929620,10.0
1620696929620,10.0
1620696930147,0.0
1620696930147,0.0
1620696930583,0.0
1620696930583,0.0
1620696931140,0.0
1620696931140,0.0
1620696931697,0.0
1620696931697,0.0
1620696932146,1.0
1620696932146,1.0
1620696932599,0.0
1620696932599,0.0
1620696933034,0.0
1620696933034,0.0
1620696933417,8.0
1620696933417,8.0
1620696933796,8.0
1620696933796,8.0
1620696934167,0.0
1620696934167,0.0
1620696934575,0.0
1620696934575,0.0
1620696935052,0.0
1620696935052,0.0
1620696935485,10.0
1620696935485,10.0
1620696935888,0.0
1620696935888,0.0
1620696936410,0.0
1620696936410,0.0
1620696936868,0.0
1620696936868,0.0
1620696937252,1.0
1620696937252,1.0
1620696937721,10.0
1620696937721,10.0
1620696938157,0.0
1620696938157,0.0
1620696938641,0.0
1620696938641,0.0
1620696939194,0.0
1620696939194,0.0
1620696939617,0.0
1620696939617,0.0
1620696939998,1.0
1620696939998,1.0
1620696940473,8.0
1620696940473,8.0
1620696940883,0.0
1620696940883,0.0
1620696941362,0.0
1620696941362,0.0
1620696941799,1.0
1620696941799,1.0
1620696942155,0.0
1620696942155,0.0
1620696942602,0.0
1620696942602,0.0
1620696943098,0.0
1620696943098,0.0
1620696943462,1.0
1620696943462,1.0
1620696943869,8.0
1620696943869,8.0
1620696944255,1.0
1620696944255,1.0
1620696944685,0.0
1620696944685,0.0
1620696945094,0.0
1620696945094,0.0
1620696945491,1.0
1620696945491,1.0
1620696945903,10.0
1620696945903,10.0
1620696946279,0.0
1620696946279,0.0
1620696946812,0.0
1620696946812,0.0
1620696947078,0.0
1620696947078,0.0
1620696947501,0.0
1620696947501,0.0
1620696947994,0.0
1620696947994,0.0
1620696948385,8.0
1620696948385,8.0
1620696948732,10.0
1620696948732,10.0
1620696949225,8.0
1620696949225,8.0
1620696949643,8.0
1620696949643,8.0
1620696950176,0.0
1620696950176,0.0
1620696950727,1.0
1620696950727,1.0
1620696951192,0.0
1620696951192,0.0
1620696951625,8.0
1620696951625,8.0
1620696952102,0.0
1620696952102,0.0
1620696952492,10.0
1620696952492,10.0
1620696952924,10.0
1620696952924,10.0
1620696953277,0.0
1620696953277,0.0
1620696953541,1.0
1620696953541,1.0
1620696953854,10.0
1620696953854,10.0
1620696954207,0.0
1620696954207,0.0
1620696954655,0.0
1620696954655,0.0
1620696955082,0.0
1620696955082,0.0
1620696955541,8.0
1620696955541,8.0
1620696955981,15.0
1620696955981,15.0
1620696956349,10.0
1620696956349,10.0
1620696956768,0.0
1620696956768,0.0
1620696957126,8.0
1620696957126,8.0
1620696957569,10.0
1620696957569,10.0
1620696957981,0.0
1620696957981,0.0
1620696958322,8.0
1620696958322,8.0
1620696958671,10.0
1620696958671,10.0
1620696959091,8.0
1620696959091,8.0
1620696959523,1.0
1620696959523,1.0
1620696959884,0.0
1620696959884,0.0
1620696960288,8.0
1620696960288,8.0
1620696960761,0.0
1620696960761,0.0
1620696961169,10.0
1620696961169,10.0
1620696961629,8.0
1620696961629,8.0
1620696962045,0.0
1620696962045,0.0
1620696962482,10.0
1620696962482,10.0
1620696962968,10.0
1620696962968,10.0
1620696963457,0.0
1620696963457,0.0
1620696963914,1.0
1620696963914,1.0
1620696964356,8.0
1620696964356,8.0
1620696964764,1.0
1620696964764,1.0
1620696965191,10.0
1620696965191,10.0
1620696965547,1.0
1620696965547,1.0
1620696965875,1.0
1620696965875,1.0
1620696966236,0.0
1620696966236,0.0
1620696966591,10.0
1620696966591,10.0
1620696966946,0.0
1620696966946,0.0
1620696967420,0.0
1620696967420,0.0
1620696967919,10.0
1620696967919,10.0
1620696968431,10.0
1620696968431,10.0
1620696969142,0.0
1620696969142,0.0
1620696969949,0.0
1620696969949,0.0
1620696970888,0.0
1620696970888,0.0
1620696971812,0.0
1620696971812,0.0
1620696972536,0.0
1620696972536,0.0
1620696972982,10.0
1620696972982,10.0
1620696973401,8.0
1620696973401,8.0
1620696973883,10.0
1620696973883,10.0
1620696974377,8.0
1620696974377,8.0
1620696974869,15.0
1620696974869,15.0
1620696975336,8.0
1620696975336,8.0
1620696975846,10.0
1620696975846,10.0
1620696976248,0.0
1620696976248,0.0
1620696976732,10.0
1620696976732,10.0
1620696977251,10.0
1620696977251,10.0
1620696977696,0.0
1620696977696,0.0
1620696978068,0.0
1620696978068,0.0
1620696978491,10.0
1620696978491,10.0
1620696978844,10.0
1620696978844,10.0
1620696979267,10.0
1620696979267,10.0
1620696979710,0.0
1620696979710,0.0
1620696980038,8.0
1620696980038,8.0
1620696980394,0.0
1620696980394,0.0
1620696980776,10.0
1620696980776,10.0
1620696981140,8.0
1620696981140,8.0
1620696981454,0.0
1620696981454,0.0
1620696981864,1.0
1620696981864,1.0
1620696982307,0.0
1620696982307,0.0
1620696982763,0.0
1620696982763,0.0
1620696983324,8.0
1620696983324,8.0
1620696983784,10.0
1620696983784,10.0
1620696984295,10.0
1620696984295,10.0
1620696984823,10.0
1620696984823,10.0
1620696985253,8.0
1620696985253,8.0
1620696985738,10.0
1620696985738,10.0
1620696986168,8.0
1620696986168,8.0
1620696986572,10.0
1620696986572,10.0
1620696986957,10.0
1620696986957,10.0
1620696987388,10.0
1620696987388,10.0
1620696987756,10.0
1620696987756,10.0
1620696988222,10.0
1620696988222,10.0
1620696988654,10.0
1620696988654,10.0
1620696989049,10.0
1620696989049,10.0
1620696989437,10.0
1620696989437,10.0
1620696989885,8.0
1620696989885,8.0
1620696990388,10.0
1620696990388,10.0
1620696990789,0.0
1620696990789,0.0
1620696991092,0.0
1620696991092,0.0
1620696991463,10.0
1620696991463,10.0
1620696991962,1.0
1620696991962,1.0
1620696992475,8.0
1620696992475,8.0
1620696993083,10.0
1620696993083,10.0
1620696993845,0.0
1620696993845,0.0
1620696994693,0.0
1620696994693,0.0
1620696995671,0.0
1620696995671,0.0
1620696996668,0.0
1620696996668,0.0
1620696997219,0.0
1620696997219,0.0
1620696997545,8.0
1620696997545,8.0
1620696997917,0.0
1620696997917,0.0
1620696998329,0.0
1620696998329,0.0
1620696998741,10.0
1620696998741,10.0
1620696999161,0.0
1620696999161,0.0
1620696999624,10.0
1620696999624,10.0
1620697000120,10.0
1620697000120,10.0
1620697000557,10.0
1620697000557,10.0
1620697001023,10.0
1620697001023,10.0
1620697001448,10.0
1620697001448,10.0
1620697001862,10.0
1620697001862,10.0
1620697002314,10.0
1620697002314,10.0
1620697002800,10.0
1620697002800,10.0
1620697003359,10.0
1620697003359,10.0
1620697003753,10.0
1620697003753,10.0
1620697004118,0.0
1620697004118,0.0
1620697004649,0.0
1620697004649,0.0
1620697005083,1.0
1620697005083,1.0
1620697005518,0.0
1620697005518,0.0
1620697005882,8.0
1620697005882,8.0
1620697006276,0.0
1620697006276,0.0
1620697006684,10.0
1620697006684,10.0
1620697007139,0.0
1620697007139,0.0
1620697007646,0.0
1620697007646,0.0
1620697008100,0.0
1620697008100,0.0
1620697008532,0.0
1620697008532,0.0
1620697009002,0.0
1620697009002,0.0
1620697009442,10.0
1620697009442,10.0
1620697010204,0.0
1620697010204,0.0
1620697011329,0.0
1620697011329,0.0
1620697012358,0.0
1620697012358,0.0
1620697013264,0.0
1620697013264,0.0
1620697014068,0.0
1620697014068,0.0
1620697014898,0.0
1620697014898,0.0
1620697015367,0.0
1620697015367,0.0
1620697015763,1.0
1620697015763,1.0
1620697016161,0.0
1620697016161,0.0
1620697016623,10.0
1620697016623,10.0
1620697017019,1.0
1620697017019,1.0
1620697017489,8.0
1620697017489,8.0
1620697017935,8.0
1620697017935,8.0
1620697018422,8.0
1620697018422,8.0
1620697018783,0.0
1620697018783,0.0
1620697019273,1.0
1620697019273,1.0
1620697019751,0.0
1620697019751,0.0
1620697020192,0.0
1620697020192,0.0
1620697020605,1.0
1620697020605,1.0
1620697021043,1.0
1620697021043,1.0
1620697021398,0.0
1620697021398,0.0
1620697021837,0.0
1620697021837,0.0
1620697022217,10.0
1620697022217,10.0
1620697022614,10.0
1620697022614,10.0
1620697023002,0.0
1620697023002,0.0
1620697023364,0.0
1620697023364,0.0
1620697023754,10.0
1620697023754,10.0
1620697024146,0.0
1620697024146,0.0
1620697024553,8.0
1620697024553,8.0
1620697025082,15.0
1620697025082,15.0
1620697025503,1.0
1620697025503,1.0
1620697025868,0.0
1620697025868,0.0
1620697026288,0.0
1620697026288,0.0
1620697026665,8.0
1620697026665,8.0
1620697027064,0.0
1620697027064,0.0
1620697027508,0.0
1620697027508,0.0
1620697027868,10.0
1620697027868,10.0
1620697028323,0.0
1620697028323,0.0
1620697028821,8.0
1620697028821,8.0
1620697029234,0.0
1620697029234,0.0
1620697029683,8.0
1620697029683,8.0
1620697030139,8.0
1620697030139,8.0
1620697030558,10.0
1620697030558,10.0
1620697030973,10.0
1620697030973,10.0
1620697031331,1.0
1620697031331,1.0
1620697031725,8.0
1620697031725,8.0
1620697032236,8.0
1620697032236,8.0
1620697033007,0.0
1620697033007,0.0
1620697033710,0.0
1620697033710,0.0
1620697034629,0.0
1620697034629,0.0
1620697035781,0.0
1620697035781,0.0
1620697036927,0.0
1620697036927,0.0
1620697037978,0.0
1620697037978,0.0
1620697038986,0.0
1620697038986,0.0
1620697039878,0.0
1620697039878,0.0
1620697041136,0.0
1620697041136,0.0
1620697042096,0.0
1620697042096,0.0
1620697043214,0.0
1620697043214,0.0
1620697044632,0.0
1620697044632,0.0
1620697045521,0.0
1620697045521,0.0
1620697046506,0.0
1620697046506,0.0
1620697047245,0.0
1620697047245,0.0
1620697047659,10.0
1620697047659,10.0
1620697047998,0.0
1620697047998,0.0
1620697048403,10.0
1620697048403,10.0
1620697048864,0.0
1620697048864,0.0
1620697049296,0.0
1620697049296,0.0
1620697049763,10.0
1620697049763,10.0
1620697050112,15.0
1620697050112,15.0
1620697050590,0.0
1620697050590,0.0
1620697051004,8.0
1620697051004,8.0
1620697051353,10.0
1620697051353,10.0
1620697051788,0.0
1620697051788,0.0
1620697052132,0.0
1620697052132,0.0
1620697052482,10.0
1620697052482,10.0
1620697052871,8.0
1620697052871,8.0
1620697053325,10.0
1620697053325,10.0
1620697053713,10.0
1620697053713,10.0
1620697054118,8.0
1620697054118,8.0
1620697054547,0.0
1620697054547,0.0
1620697054957,10.0
1620697054957,10.0
1620697055408,15.0
1620697055408,15.0
1620697055883,8.0
1620697055883,8.0
1620697056296,10.0
1620697056296,10.0
1620697056671,10.0
1620697056671,10.0
1620697057055,10.0
1620697057055,10.0
1620697057399,0.0
1620697057399,0.0
1620697057812,0.0
1620697057812,0.0
1620697058185,1.0
1620697058185,1.0
1620697058554,1.0
1620697058554,1.0
1620697058899,10.0
1620697058899,10.0
1620697059277,10.0
1620697059277,10.0
1620697059678,0.0
1620697059678,0.0
1620697060078,0.0
1620697060078,0.0
1620697060494,10.0
1620697060494,10.0
1620697060971,10.0
1620697060971,10.0
1620697061365,10.0
1620697061365,10.0
1620697061805,10.0
1620697061805,10.0
1620697062220,0.0
1620697062220,0.0
1620697062605,8.0
1620697062605,8.0
1620697063119,10.0
1620697063119,10.0
1620697063563,8.0
1620697063563,8.0
1620697064017,0.0
1620697064017,0.0
1620697064389,8.0
1620697064389,8.0
1620697064774,10.0
1620697064774,10.0
1620697065243,10.0
1620697065243,10.0
1620697065642,15.0
1620697065642,15.0
1620697066042,15.0
1620697066042,15.0
1620697066494,10.0
1620697066494,10.0
1620697066908,10.0
1620697066908,10.0
1620697067269,8.0
1620697067269,8.0
1620697067710,0.0
1620697067710,0.0
1620697068187,15.0
1620697068187,15.0
1620697068588,0.0
1620697068588,0.0
1620697068996,8.0
1620697068996,8.0
1620697069416,8.0
1620697069416,8.0
1620697069907,8.0
1620697069907,8.0
1620697070412,0.0
1620697070412,0.0
1620697070784,10.0
1620697070784,10.0
1620697071186,10.0
1620697071186,10.0
1620697071539,0.0
1620697071539,0.0
1620697071963,10.0
1620697071963,10.0
1620697072448,10.0
1620697072448,10.0
1620697072878,10.0
1620697072878,10.0
1620697073337,8.0
1620697073337,8.0
1620697073730,10.0
1620697073730,10.0
1620697074186,10.0
1620697074186,10.0
1620697074545,8.0
1620697074545,8.0
1620697074993,10.0
1620697074993,10.0
1620697075393,15.0
1620697075393,15.0
1620697075927,10.0
1620697075927,10.0
1620697076362,8.0
1620697076362,8.0
1620697076770,10.0
1620697076770,10.0
1620697077239,0.0
1620697077239,0.0
1620697077592,10.0
1620697077592,10.0
1620697077967,10.0
1620697077967,10.0
1620697078369,8.0
1620697078369,8.0
1620697078778,10.0
1620697078778,10.0
1620697079285,10.0
1620697079285,10.0
1620697079816,10.0
1620697079816,10.0
1620697080161,1.0
1620697080161,1.0
1620697080557,8.0
1620697080557,8.0
1620697081032,8.0
1620697081032,8.0
1620697081478,8.0
1620697081478,8.0
1620697081838,0.0
1620697081838,0.0
1620697082291,10.0
1620697082291,10.0
1620697082741,8.0
1620697082741,8.0
1620697083171,0.0
1620697083171,0.0
1620697083675,8.0
1620697083675,8.0
1620697084073,0.0
1620697084073,0.0
1620697084425,10.0
1620697084425,10.0
1620697084794,10.0
1620697084794,10.0
1620697085203,10.0
1620697085203,10.0
1620697085576,10.0
1620697085576,10.0
1620697085987,10.0
1620697085987,10.0
1620697086402,0.0
1620697086402,0.0
1620697086901,10.0
1620697086901,10.0
1620697087281,0.0
1620697087281,0.0
1620697087622,8.0
1620697087622,8.0
1620697088032,8.0
1620697088032,8.0
1620697088564,0.0
1620697088564,0.0
1620697089045,10.0
1620697089045,10.0
1620697089444,10.0
1620697089444,10.0
1620697089786,1.0
1620697089786,1.0
1620697090244,10.0
1620697090244,10.0
1620697090669,10.0
1620697090669,10.0
1620697091171,0.0
1620697091171,0.0
1620697091730,8.0
1620697091730,8.0
1620697092224,8.0
1620697092224,8.0
1620697092602,8.0
1620697092602,8.0
1620697093026,8.0
1620697093026,8.0
1620697093465,0.0
1620697093465,0.0
1620697093907,10.0
1620697093907,10.0
1620697094422,10.0
1620697094422,10.0
1620697094910,8.0
1620697094910,8.0
1620697095368,8.0
1620697095368,8.0
1620697095776,15.0
1620697095776,15.0
1620697096167,0.0
1620697096167,0.0
1620697096611,0.0
1620697096611,0.0
1620697097061,0.0
1620697097061,0.0
1620697097440,8.0
1620697097440,8.0
1620697097967,8.0
1620697097967,8.0
1620697098755,0.0
1620697098755,0.0
1620697099601,0.0
1620697099601,0.0
1620697100465,0.0
1620697100465,0.0
1620697101457,0.0
1620697101457,0.0
1620697101958,0.0
1620697101958,0.0
1620697102275,0.0
1620697102275,0.0
1620697102687,8.0
1620697102687,8.0
1620697103094,10.0
1620697103094,10.0
1620697103510,10.0
1620697103510,10.0
1620697103914,10.0
1620697103914,10.0
1620697104339,10.0
1620697104339,10.0
1620697104754,0.0
1620697104754,0.0
1620697105213,10.0
1620697105213,10.0
1620697105630,15.0
1620697105630,15.0
1620697106030,0.0
1620697106030,0.0
1620697106480,10.0
1620697106480,10.0
1620697106893,10.0
1620697106893,10.0
1620697107338,8.0
1620697107338,8.0
1620697107756,15.0
1620697107756,15.0
1620697108176,10.0
1620697108176,10.0
1620697108622,0.0
1620697108622,0.0
1620697109033,10.0
1620697109033,10.0
1620697109448,10.0
1620697109448,10.0
1620697109903,0.0
1620697109903,0.0
1620697110344,10.0
1620697110344,10.0
1620697110762,8.0
1620697110762,8.0
1620697111161,10.0
1620697111161,10.0
1620697111612,10.0
1620697111612,10.0
1620697112104,8.0
1620697112104,8.0
1620697112800,0.0
1620697112800,0.0
1620697113633,0.0
1620697113633,0.0
1620697114447,0.0
1620697114447,0.0
1620697115221,0.0
1620697115221,0.0
1620697116075,0.0
1620697116075,0.0
1620697116941,0.0
1620697116941,0.0
1620697118118,0.0
1620697118118,0.0
1620697118922,0.0
1620697118922,0.0
1620697119941,0.0
1620697119941,0.0
1620697121257,0.0
1620697121257,0.0
1620697122334,0.0
1620697122334,0.0
1620697123195,0.0
1620697123195,0.0
1620697123693,10.0
1620697123693,10.0
1620697124403,0.0
1620697124403,0.0
1620697125236,0.0
1620697125236,0.0
1620697126036,0.0
1620697126036,0.0
1620697127207,0.0
1620697127207,0.0
1620697128025,0.0
1620697128025,0.0
1620697129039,0.0
1620697129039,0.0
1620697130158,0.0
1620697130158,0.0
1620697131222,0.0
1620697131222,0.0
1620697132346,0.0
1620697132346,0.0
1620697133456,0.0
1620697133456,0.0
1620697134732,0.0
1620697134732,0.0
1620697136186,0.0
1620697136186,0.0
1620697137091,0.0
1620697137091,0.0
1620697138001,0.0
1620697138001,0.0
1620697138881,0.0
1620697138881,0.0
1620697139773,0.0
1620697139773,0.0
1620697140884,0.0
1620697140884,0.0
1620697141442,10.0
1620697141442,10.0
1620697141933,0.0
1620697141933,0.0
1620697142495,10.0
1620697142495,10.0
1620697142952,10.0
1620697142952,10.0
1620697143454,0.0
1620697143454,0.0
1620697143917,10.0
1620697143917,10.0
1620697144429,10.0
1620697144429,10.0
1620697144935,0.0
1620697144935,0.0
1620697145308,8.0
1620697145308,8.0
1620697145731,10.0
1620697145731,10.0
1620697146196,10.0
1620697146196,10.0
1620697146572,0.0
1620697146572,0.0
1620697146965,0.0
1620697146965,0.0
1620697147334,0.0
1620697147334,0.0
1620697147747,1.0
1620697147747,1.0
1620697148228,0.0
1620697148228,0.0
1620697148622,0.0
1620697148622,0.0
1620697149058,1.0
1620697149058,1.0
1620697149408,0.0
1620697149408,0.0
1620697149791,8.0
1620697149791,8.0
1620697150167,0.0
1620697150167,0.0
1620697150665,0.0
1620697150665,0.0
1620697151098,8.0
1620697151098,8.0
1620697151502,10.0
1620697151502,10.0
1620697151880,10.0
1620697151880,10.0
1620697152337,0.0
1620697152337,0.0
1620697152706,0.0
1620697152706,0.0
1620697153107,0.0
1620697153107,0.0
1620697153604,0.0
1620697153604,0.0
1620697154101,0.0
1620697154101,0.0
1620697154530,10.0
1620697154530,10.0
1620697154954,10.0
1620697154954,10.0
1620697155372,8.0
1620697155372,8.0
1620697155858,10.0
1620697155858,10.0
1620697156360,10.0
1620697156360,10.0
1620697156856,10.0
1620697156856,10.0
1620697157347,10.0
1620697157347,10.0
1620697157718,10.0
1620697157718,10.0
1620697158131,0.0
1620697158131,0.0
1620697158553,8.0
1620697158553,8.0
1620697158977,10.0
1620697158977,10.0
1620697159739,0.0
1620697159739,0.0
1620697160509,0.0
1620697160509,0.0
1620697161018,10.0
1620697161018,10.0
1620697161511,10.0
1620697161511,10.0
1620697161998,10.0
1620697161998,10.0
1620697162506,0.0
1620697162506,0.0
1620697163014,8.0
1620697163014,8.0
1620697163405,8.0
1620697163405,8.0
1620697163782,8.0
1620697163782,8.0
1620697164173,0.0
1620697164173,0.0
1620697164546,8.0
1620697164546,8.0
1620697164926,10.0
1620697164926,10.0
1620697165374,15.0
1620697165374,15.0
1620697165758,10.0
1620697165758,10.0
1620697166154,15.0
1620697166154,15.0
1620697166544,10.0
1620697166544,10.0
1620697166909,10.0
1620697166909,10.0
1620697167326,10.0
1620697167326,10.0
1620697167757,0.0
1620697167757,0.0
1620697168180,0.0
1620697168180,0.0
1620697168711,1.0
1620697168711,1.0
1620697169489,0.0
1620697169489,0.0
1620697170298,0.0
1620697170298,0.0
1620697170728,0.0
1620697170728,0.0
1620697171166,2.0
1620697171166,2.0
1620697171602,8.0
1620697171602,8.0
1620697172029,8.0
1620697172029,8.0
1620697172447,8.0
1620697172447,8.0
1620697172858,10.0
1620697172858,10.0
1620697173301,0.0
1620697173301,0.0
1620697173712,8.0
1620697173712,8.0
1620697174057,10.0
1620697174057,10.0
1620697174393,1.0
1620697174393,1.0
1620697174752,0.0
1620697174752,0.0
1620697175081,10.0
1620697175081,10.0
1620697175516,0.0
1620697175516,0.0
1620697176270,0.0
1620697176270,0.0
1620697177172,0.0
1620697177172,0.0
1620697178033,0.0
1620697178033,0.0
1620697178807,0.0
1620697178807,0.0
1620697179637,0.0
1620697179637,0.0
1620697180490,0.0
1620697180490,0.0
1620697181281,0.0
1620697181281,0.0
1620697181959,0.0
1620697181959,0.0
1620697182865,0.0
1620697182865,0.0
1620697183906,0.0
1620697183906,0.0
1620697184919,0.0
1620697184919,0.0
1620697185712,0.0
1620697185712,0.0
1620697186517,0.0
1620697186517,0.0
1620697187436,0.0
1620697187436,0.0
1620697188365,0.0
1620697188365,0.0
1620697189237,0.0
1620697189237,0.0
1620697189919,0.0
1620697189919,0.0
1620697190397,10.0
1620697190397,10.0
1620697190781,8.0
1620697190781,8.0
1620697191199,10.0
1620697191199,10.0
1620697191615,1.0
1620697191615,1.0
1620697192053,8.0
1620697192053,8.0
1620697192456,10.0
1620697192456,10.0
1620697192927,10.0
1620697192927,10.0
1620697193319,15.0
1620697193319,15.0
1620697193766,10.0
1620697193766,10.0
1620697194211,15.0
1620697194211,15.0
1620697194697,10.0
1620697194697,10.0
1620697195205,10.0
1620697195205,10.0
1620697195632,8.0
1620697195632,8.0
1620697195963,1.0
1620697195963,1.0
1620697196391,0.0
1620697196391,0.0
1620697196804,8.0
1620697196804,8.0
1620697197276,10.0
1620697197276,10.0
1620697197740,10.0
1620697197740,10.0
1620697198132,1.0
1620697198132,1.0
1620697198501,0.0
1620697198501,0.0
1620697198901,10.0
1620697198901,10.0
1620697199263,10.0
1620697199263,10.0
1620697199667,0.0
1620697199667,0.0
1620697200095,0.0
1620697200095,0.0
1620697200488,0.0
1620697200488,0.0
1620697200924,10.0
1620697200924,10.0
1620697201379,1.0
1620697201379,1.0
1620697201824,0.0
1620697201824,0.0
1620697202275,8.0
1620697202275,8.0
1620697202724,0.0
1620697202724,0.0
1620697203169,8.0
1620697203169,8.0
1620697203570,10.0
1620697203570,10.0
1620697204010,0.0
1620697204010,0.0
1620697204482,8.0
1620697204482,8.0
1620697204922,0.0
1620697204922,0.0
1620697205243,1.0
1620697205243,1.0
1620697205622,0.0
1620697205622,0.0
1620697205981,1.0
1620697205981,1.0
1620697206358,8.0
1620697206358,8.0
1620697206790,0.0
1620697206790,0.0
1620697207114,0.0
1620697207114,0.0
1620697207652,10.0
1620697207652,10.0
1620697208170,10.0
1620697208170,10.0
1620697208511,8.0
1620697208511,8.0
1620697208956,10.0
1620697208956,10.0
1620697209326,0.0
1620697209326,0.0
1620697209715,0.0
1620697209715,0.0
1620697210118,10.0
1620697210118,10.0
1620697210496,10.0
1620697210496,10.0
1620697210828,10.0
1620697210828,10.0
1620697211281,8.0
1620697211281,8.0
1620697211695,0.0
1620697211695,0.0
1620697212172,0.0
1620697212172,0.0
1620697212572,10.0
1620697212572,10.0
1620697213013,1.0
1620697213013,1.0
1620697213526,0.0
1620697213526,0.0
1620697214453,0.0
1620697214453,0.0
1620697215331,0.0
1620697215331,0.0
1620697215866,8.0
1620697215866,8.0
1620697216358,8.0
1620697216358,8.0
1620697216808,10.0
1620697216808,10.0
1620697217242,10.0
1620697217242,10.0
1620697217732,0.0
1620697217732,0.0
1620697218119,10.0
1620697218119,10.0
1620697218616,0.0
1620697218616,0.0
1620697219110,0.0
1620697219110,0.0
1620697219524,1.0
1620697219524,1.0
1620697219943,0.0
1620697219943,0.0
1620697220303,0.0
1620697220303,0.0
1620697220765,0.0
1620697220765,0.0
1620697221203,1.0
1620697221203,1.0
1620697221537,8.0
1620697221537,8.0
1620697221981,10.0
1620697221981,10.0
1620697222419,10.0
1620697222419,10.0
1620697222802,0.0
1620697222802,0.0
1620697223203,10.0
1620697223203,10.0
1620697223642,0.0
1620697223642,0.0
1620697224005,8.0
1620697224005,8.0
1620697224455,0.0
1620697224455,0.0
1620697225168,0.0
1620697225168,0.0
1620697226288,0.0
1620697226288,0.0
1620697227447,0.0
1620697227447,0.0
1620697228317,0.0
1620697228317,0.0
1620697229130,0.0
1620697229130,0.0
1620697229931,0.0
1620697229931,0.0
1620697230498,0.0
1620697230498,0.0
1620697231235,0.0
1620697231235,0.0
1620697231738,8.0
1620697231738,8.0
1620697232111,10.0
1620697232111,10.0
1620697232495,10.0
1620697232495,10.0
1620697232935,8.0
1620697232935,8.0
1620697233412,8.0
1620697233412,8.0
1620697233765,10.0
1620697233765,10.0
1620697234155,10.0
1620697234155,10.0
1620697234552,10.0
1620697234552,10.0
1620697234943,8.0
1620697234943,8.0
1620697235399,0.0
1620697235399,0.0
1620697235832,0.0
1620697235832,0.0
1620697236379,10.0
1620697236379,10.0
1620697236836,8.0
1620697236836,8.0
1620697237284,10.0
1620697237284,10.0
1620697237761,0.0
1620697237761,0.0
1620697238169,8.0
1620697238169,8.0
1620697238648,10.0
1620697238648,10.0
1620697239154,0.0
1620697239154,0.0
1620697239600,8.0
1620697239600,8.0
1620697240091,8.0
1620697240091,8.0
1620697240477,8.0
1620697240477,8.0
1620697240859,10.0
1620697240859,10.0
1620697241197,8.0
1620697241197,8.0
1620697241487,8.0
1620697241487,8.0
1620697241820,15.0
1620697241820,15.0
1620697242258,8.0
1620697242258,8.0
1620697242680,0.0
1620697242680,0.0
1620697243184,8.0
1620697243184,8.0
1620697244025,0.0
1620697244025,0.0
1620697244564,10.0
1620697244564,10.0
1620697245000,0.0
1620697245000,0.0
1620697245445,0.0
1620697245445,0.0
1620697246319,10.0
1620697246319,10.0
1620697246716,1.0
1620697246716,1.0
1620697247083,10.0
1620697247083,10.0
1620697247469,8.0
1620697247469,8.0
1620697247821,10.0
1620697247821,10.0
1620697248189,0.0
1620697248189,0.0
1620697248612,8.0
1620697248612,8.0
1620697248923,8.0
1620697248923,8.0
1620697249304,10.0
1620697249304,10.0
1620697249760,10.0
1620697249760,10.0
1620697250220,8.0
1620697250220,8.0
1620697250729,10.0
1620697250729,10.0
1620697251154,8.0
1620697251154,8.0
1620697251528,10.0
1620697251528,10.0
1620697251914,10.0
1620697251914,10.0
1620697252300,10.0
1620697252300,10.0
1620697252654,0.0
1620697252654,0.0
1620697253089,0.0
1620697253089,0.0
1620697253569,8.0
1620697253569,8.0
1620697254106,1.0
1620697254106,1.0
1620697254860,0.0
1620697254860,0.0
1620697255778,0.0
1620697255778,0.0
1620697256594,0.0
1620697256594,0.0
1620697257322,0.0
1620697257322,0.0
1620697258265,0.0
1620697258265,0.0
1620697259366,0.0
1620697259366,0.0
1620697260383,0.0
1620697260383,0.0
1620697261441,0.0
1620697261441,0.0
1620697262442,0.0
1620697262442,0.0
1620697263332,0.0
1620697263332,0.0
1620697264158,0.0
1620697264158,0.0
1620697264643,10.0
1620697264643,10.0
1620697264989,1.0
1620697264989,1.0
1620697265405,1.0
1620697265405,1.0
1620697265745,10.0
1620697265745,10.0
1620697266086,0.0
1620697266086,0.0
1620697266456,10.0
1620697266456,10.0
1620697266763,10.0
1620697266763,10.0
1620697267087,15.0
1620697267087,15.0
1620697267507,0.0
1620697267507,0.0
1620697267907,10.0
1620697267907,10.0
1620697268351,10.0
1620697268351,10.0
1620697268837,10.0
1620697268837,10.0
1620697269284,0.0
1620697269284,0.0
1620697269742,0.0
1620697269742,0.0
1620697270173,0.0
1620697270173,0.0
1620697270576,0.0
1620697270576,0.0
1620697270962,10.0
1620697270962,10.0
1620697271400,8.0
1620697271400,8.0
1620697271875,1.0
1620697271875,1.0
1620697272455,10.0
1620697272455,10.0
1620697272805,8.0
1620697272805,8.0
1620697273174,1.0
1620697273174,1.0
1620697273516,10.0
1620697273516,10.0
1620697273916,0.0
1620697273916,0.0
1620697274344,0.0
1620697274344,0.0
1620697274748,10.0
1620697274748,10.0
1620697275133,0.0
1620697275133,0.0
1620697275491,1.0
1620697275491,1.0
1620697276007,8.0
1620697276007,8.0
1620697276481,10.0
1620697276481,10.0
1620697276920,8.0
1620697276920,8.0
1620697277318,0.0
1620697277318,0.0
1620697277714,0.0
1620697277714,0.0
1620697278096,8.0
1620697278096,8.0
1620697278507,8.0
1620697278507,8.0
1620697278890,1.0
1620697278890,1.0
1620697279217,8.0
1620697279217,8.0
1620697279668,1.0
1620697279668,1.0
1620697280063,10.0
1620697280063,10.0
1620697280522,15.0
1620697280522,15.0
1620697280982,1.0
1620697280982,1.0
1620697281425,8.0
1620697281425,8.0
1620697281853,10.0
1620697281853,10.0
1620697282330,0.0
1620697282330,0.0
1620697282815,10.0
1620697282815,10.0
1620697283249,8.0
1620697283249,8.0
1620697283621,10.0
1620697283621,10.0
1620697283974,0.0
1620697283974,0.0
1620697284375,10.0
1620697284375,10.0
1620697284788,10.0
1620697284788,10.0
1620697285133,10.0
1620697285133,10.0
1620697285495,10.0
1620697285495,10.0
1620697285841,8.0
1620697285841,8.0
1620697286164,10.0
1620697286164,10.0
1620697286533,10.0
1620697286533,10.0
1620697286978,15.0
1620697286978,15.0
1620697287396,10.0
1620697287396,10.0
1620697287744,10.0
1620697287744,10.0
1620697288156,10.0
1620697288156,10.0
1620697288541,15.0
1620697288541,15.0
1620697288963,0.0
1620697288963,0.0
1620697289402,8.0
1620697289402,8.0
1620697289779,8.0
1620697289779,8.0
1620697290243,0.0
1620697290243,0.0
1620697290669,10.0
1620697290669,10.0
1620697291036,10.0
1620697291036,10.0
1620697291441,8.0
1620697291441,8.0
1620697291882,10.0
1620697291882,10.0
1620697292268,0.0
1620697292268,0.0
1620697292666,8.0
1620697292666,8.0
1620697293078,8.0
1620697293078,8.0
1620697293447,10.0
1620697293447,10.0
1620697293798,1.0
1620697293798,1.0
1620697294265,0.0
1620697294265,0.0
1620697294726,10.0
1620697294726,10.0
1620697295184,8.0
1620697295184,8.0
1620697295590,0.0
1620697295590,0.0
1620697295972,11.0
1620697295972,11.0
1620697296323,8.0
1620697296323,8.0
1620697296730,0.0
1620697296730,0.0
1620697297175,8.0
1620697297175,8.0
1620697297641,0.0
1620697297641,0.0
1620697298068,10.0
1620697298068,10.0
1620697298423,0.0
1620697298423,0.0
1620697298759,10.0
1620697298759,10.0
1620697299150,1.0
1620697299150,1.0
1620697299518,0.0
1620697299518,0.0
1620697299881,0.0
1620697299881,0.0
1620697300368,0.0
1620697300368,0.0
1620697300879,1.0
1620697300879,1.0
1620697301409,0.0
1620697301409,0.0
1620697301968,10.0
1620697301968,10.0
1620697302386,8.0
1620697302386,8.0
1620697302735,8.0
1620697302735,8.0
1620697303134,0.0
1620697303134,0.0
1620697303472,0.0
1620697303472,0.0
1620697303845,10.0
1620697303845,10.0
1620697304233,0.0
1620697304233,0.0
1620697304638,0.0
1620697304638,0.0
1620697305051,10.0
1620697305051,10.0
1620697305489,8.0
1620697305489,8.0
1620697305930,10.0
1620697305930,10.0
1620697306291,0.0
1620697306291,0.0
1620697306666,0.0
1620697306666,0.0
1620697306997,8.0
1620697306997,8.0
1620697307340,8.0
1620697307340,8.0
1620697307731,8.0
1620697307731,8.0
1620697308084,1.0
1620697308084,1.0
1620697308437,0.0
1620697308437,0.0
1620697308842,10.0
1620697308842,10.0
1620697309232,0.0
1620697309232,0.0
1620697309630,10.0
1620697309630,10.0
1620697310045,10.0
1620697310045,10.0
1620697310415,0.0
1620697310415,0.0
1620697310808,10.0
1620697310808,10.0
1620697311213,0.0
1620697311213,0.0
1620697311663,10.0
1620697311663,10.0
1620697312058,8.0
1620697312058,8.0
1620697312461,8.0
1620697312461,8.0
1620697312872,8.0
1620697312872,8.0
1620697313257,0.0
1620697313257,0.0
1620697313649,0.0
1620697313649,0.0
1620697314078,8.0
1620697314078,8.0
1620697314447,15.0
1620697314447,15.0
1620697314822,15.0
1620697314822,15.0
1620697315189,10.0
1620697315189,10.0
1620697315511,10.0
1620697315511,10.0
1620697315904,0.0
1620697315904,0.0
1620697316342,10.0
1620697316342,10.0
1620697316807,10.0
1620697316807,10.0
1620697317337,0.0
1620697317337,0.0
1620697317852,10.0
1620697317852,10.0
1620697318225,10.0
1620697318225,10.0
1620697318581,0.0
1620697318581,0.0
1620697318917,8.0
1620697318917,8.0
1620697319345,1.0
1620697319345,1.0
1620697319798,0.0
1620697319798,0.0
1620697320253,8.0
1620697320253,8.0
1620697320691,0.0
1620697320691,0.0
1620697321191,1.0
1620697321191,1.0
1620697321644,10.0
1620697321644,10.0
1620697322122,10.0
1620697322122,10.0
1620697322643,0.0
1620697322643,0.0
1620697323178,10.0
1620697323178,10.0
1620697323590,1.0
1620697323590,1.0
1620697323962,0.0
1620697323962,0.0
1620697324321,10.0
1620697324321,10.0
1620697324722,10.0
1620697324722,10.0
1620697325152,1.0
1620697325152,1.0
1620697325581,8.0
1620697325581,8.0
1620697326075,10.0
1620697326075,10.0
1620697326575,10.0
1620697326575,10.0
1620697327032,10.0
1620697327032,10.0
1620697327470,10.0
1620697327470,10.0
1620697327891,0.0
1620697327891,0.0
1620697328294,10.0
1620697328294,10.0
1620697328682,1.0
1620697328682,1.0
1620697329055,15.0
1620697329055,15.0
1620697329428,0.0
1620697329428,0.0
1620697329848,8.0
1620697329848,8.0
1620697330188,8.0
1620697330188,8.0
1620697330496,0.0
1620697330496,0.0
1620697330929,1.0
1620697330929,1.0
1620697331329,0.0
1620697331329,0.0
1620697331697,10.0
1620697331697,10.0
1620697332172,0.0
1620697332172,0.0
1620697332918,0.0
1620697332918,0.0
1620697333870,0.0
1620697333870,0.0
1620697334976,0.0
1620697334976,0.0
1620697335999,0.0
1620697335999,0.0
1620697336694,0.0
1620697336694,0.0
1620697337187,10.0
1620697337187,10.0
1620697337625,8.0
1620697337625,8.0
1620697338038,10.0
1620697338038,10.0
1620697338432,0.0
1620697338432,0.0
1620697338860,8.0
1620697338860,8.0
1620697339268,1.0
1620697339268,1.0
1620697339685,10.0
1620697339685,10.0
1620697340136,10.0
1620697340136,10.0
1620697340466,10.0
1620697340466,10.0
1620697340824,0.0
1620697340824,0.0
1620697341235,8.0
1620697341235,8.0
1620697341662,10.0
1620697341662,10.0
1620697342069,0.0
1620697342069,0.0
1620697342467,8.0
1620697342467,8.0
1620697342956,10.0
1620697342956,10.0
1620697343373,10.0
1620697343373,10.0
1620697343778,15.0
1620697343778,15.0
1620697344158,10.0
1620697344158,10.0
1620697344543,8.0
1620697344543,8.0
1620697345027,8.0
1620697345027,8.0
1620697345468,10.0
1620697345468,10.0
1620697345879,8.0
1620697345879,8.0
1620697346318,10.0
1620697346318,10.0
1620697346810,10.0
1620697346810,10.0
1620697347136,10.0
1620697347136,10.0
1620697347564,0.0
1620697347564,0.0
1620697347925,10.0
1620697347925,10.0
1620697348297,10.0
1620697348297,10.0
1620697348745,10.0
1620697348745,10.0
1620697349242,10.0
1620697349242,10.0
1620697349660,10.0
1620697349660,10.0
1620697350150,8.0
1620697350150,8.0
1620697350884,0.0
1620697350884,0.0
1620697351962,0.0
1620697351962,0.0
1620697352695,0.0
1620697352695,0.0
1620697353390,0.0
1620697353390,0.0
1620697354160,0.0
1620697354160,0.0
1620697354632,10.0
1620697354632,10.0
1620697354995,0.0
1620697354995,0.0
1620697355419,10.0
1620697355419,10.0
1620697355778,10.0
1620697355778,10.0
1620697356138,10.0
1620697356138,10.0
1620697356489,10.0
1620697356489,10.0
1620697356893,10.0
1620697356893,10.0
1620697357402,0.0
1620697357402,0.0
1620697357880,8.0
1620697357880,8.0
1620697358323,10.0
1620697358323,10.0
1620697358736,10.0
1620697358736,10.0
1620697359212,10.0
1620697359212,10.0
1620697359691,10.0
1620697359691,10.0
1620697360149,10.0
1620697360149,10.0
1620697360556,10.0
1620697360556,10.0
1620697361016,10.0
1620697361016,10.0
1620697361436,8.0
1620697361436,8.0
1620697361825,0.0
1620697361825,0.0
1620697362242,10.0
1620697362242,10.0
1620697362604,8.0
1620697362604,8.0
1620697363023,0.0
1620697363023,0.0
1620697363472,10.0
1620697363472,10.0
1620697363938,1.0
1620697363938,1.0
1620697364356,8.0
1620697364356,8.0
1620697364802,10.0
1620697364802,10.0
1620697365168,10.0
1620697365168,10.0
1620697365523,8.0
1620697365523,8.0
1620697365966,0.0
1620697365966,0.0
1620697366386,0.0
1620697366386,0.0
1620697366882,1.0
1620697366882,1.0
1620697367394,10.0
1620697367394,10.0
1620697367901,10.0
1620697367901,10.0
1620697368393,10.0
1620697368393,10.0
1620697368890,10.0
1620697368890,10.0
1620697369346,10.0
1620697369346,10.0
1620697369794,1.0
1620697369794,1.0
1620697370276,10.0
1620697370276,10.0
1620697370712,8.0
1620697370712,8.0
1620697371222,0.0
1620697371222,0.0
1620697371631,10.0
1620697371631,10.0
1620697371976,10.0
1620697371976,10.0
1620697372401,10.0
1620697372401,10.0
1620697372765,10.0
1620697372765,10.0
1620697373150,10.0
1620697373150,10.0
1620697373638,8.0
1620697373638,8.0
1620697374082,10.0
1620697374082,10.0
1620697374511,10.0
1620697374511,10.0
1620697374926,0.0
1620697374926,0.0
1620697375284,8.0
1620697375284,8.0
1620697375699,0.0
1620697375699,0.0
1620697376177,10.0
1620697376177,10.0
1620697376711,1.0
1620697376711,1.0
1620697377178,0.0
1620697377178,0.0
1620697377704,10.0
1620697377704,10.0
1620697378154,0.0
1620697378154,0.0
1620697378638,10.0
1620697378638,10.0
1620697379165,0.0
1620697379165,0.0
1620697379583,1.0
1620697379583,1.0
1620697380096,10.0
1620697380096,10.0
1620697380844,0.0
1620697380844,0.0
1620697381825,0.0
1620697381825,0.0
1620697382782,0.0
1620697382782,0.0
1620697383744,0.0
1620697383744,0.0
1620697384717,0.0
1620697384717,0.0
1620697385208,10.0
1620697385208,10.0
1620697385575,0.0
1620697385575,0.0
1620697385931,10.0
1620697385931,10.0
1620697386334,10.0
1620697386334,10.0
1620697386705,0.0
1620697386705,0.0
1620697387144,0.0
1620697387144,0.0
1620697387647,0.0
1620697387647,0.0
1620697388166,8.0
1620697388166,8.0
1620697388503,10.0
1620697388503,10.0
1620697388944,8.0
1620697388944,8.0
1620697389361,0.0
1620697389361,0.0
1620697389730,0.0
1620697389730,0.0
1620697390035,0.0
1620697390035,0.0
1620697390456,8.0
1620697390456,8.0
1620697390853,0.0
1620697390853,0.0
1620697391282,10.0
1620697391282,10.0
1620697391686,0.0
1620697391686,0.0
1620697392081,10.0
1620697392081,10.0
1620697392534,0.0
1620697392534,0.0
1620697392965,0.0
1620697392965,0.0
1620697393407,0.0
1620697393407,0.0
1620697393796,0.0
1620697393796,0.0
1620697394320,10.0
1620697394320,10.0
1620697394765,1.0
1620697394765,1.0
1620697395281,8.0
1620697395281,8.0
1620697395754,15.0
1620697395754,15.0
1620697396209,0.0
1620697396209,0.0
1620697396735,0.0
1620697396735,0.0
1620697397196,0.0
1620697397196,0.0
1620697397538,0.0
1620697397538,0.0
1620697397910,8.0
1620697397910,8.0
1620697398363,0.0
1620697398363,0.0
1620697398729,0.0
1620697398729,0.0
1620697399176,0.0
1620697399176,0.0
1620697399681,10.0
1620697399681,10.0
1620697400151,0.0
1620697400151,0.0
1620697400614,10.0
1620697400614,10.0
1620697401007,10.0
1620697401007,10.0
1620697401368,8.0
1620697401368,8.0
1620697401764,10.0
1620697401764,10.0
1620697402150,8.0
1620697402150,8.0
1620697402556,1.0
1620697402556,1.0
1620697402976,0.0
1620697402976,0.0
1620697403333,8.0
1620697403333,8.0
1620697403721,8.0
1620697403721,8.0
1620697404139,0.0
1620697404139,0.0
1620697404558,0.0
1620697404558,0.0
1620697404951,8.0
1620697404951,8.0
1620697405363,10.0
1620697405363,10.0
1620697405698,0.0
1620697405698,0.0
1620697406040,0.0
1620697406040,0.0
1620697406358,10.0
1620697406358,10.0
1620697406685,8.0
1620697406685,8.0
1620697407088,8.0
1620697407088,8.0
1620697407572,0.0
1620697407572,0.0
1620697408001,10.0
1620697408001,10.0
1620697408408,8.0
1620697408408,8.0
1620697408821,10.0
1620697408821,10.0
1620697409126,10.0
1620697409126,10.0
1620697409550,10.0
1620697409550,10.0
1620697410002,10.0
1620697410002,10.0
1620697410416,8.0
1620697410416,8.0
1620697410832,8.0
1620697410832,8.0
1620697411257,10.0
1620697411257,10.0
1620697411649,8.0
1620697411649,8.0
1620697412077,8.0
1620697412077,8.0
1620697412560,8.0
1620697412560,8.0
1620697412963,10.0
1620697412963,10.0
1620697413384,0.0
1620697413384,0.0
1620697413841,10.0
1620697413841,10.0
1620697414232,10.0
1620697414232,10.0
1620697414640,10.0
1620697414640,10.0
1620697415145,10.0
1620697415145,10.0
1620697415560,10.0
1620697415560,10.0
1620697415963,10.0
1620697415963,10.0
1620697416383,0.0
1620697416383,0.0
1620697416789,10.0
1620697416789,10.0
1620697417139,10.0
1620697417139,10.0
1620697417499,10.0
1620697417499,10.0
1620697417885,8.0
1620697417885,8.0
1620697418287,8.0
1620697418287,8.0
1620697418679,10.0
1620697418679,10.0
1620697419058,10.0
1620697419058,10.0
1620697419412,10.0
1620697419412,10.0
1620697419801,8.0
1620697419801,8.0
1620697420153,8.0
1620697420153,8.0
1620697420510,10.0
1620697420510,10.0
1620697420980,8.0
1620697420980,8.0
1620697421458,10.0
1620697421458,10.0
1620697421763,10.0
1620697421763,10.0
1620697422256,8.0
1620697422256,8.0
1620697422650,0.0
1620697422650,0.0
1620697423068,8.0
1620697423068,8.0
1620697423511,10.0
1620697423511,10.0
1620697423892,10.0
1620697423892,10.0
1620697424282,8.0
1620697424282,8.0
1620697424677,10.0
1620697424677,10.0
1620697425033,8.0
1620697425033,8.0
1620697425412,10.0
1620697425412,10.0
1620697425741,8.0
1620697425741,8.0
1620697426126,0.0
1620697426126,0.0
1620697426394,10.0
1620697426394,10.0
1620697426781,10.0
1620697426781,10.0
1620697427177,10.0
1620697427177,10.0
1620697427547,10.0
1620697427547,10.0
1620697427925,8.0
1620697427925,8.0
1620697428318,10.0
1620697428318,10.0
1620697428724,10.0
1620697428724,10.0
1620697429147,8.0
1620697429147,8.0
1620697429546,10.0
1620697429546,10.0
1620697429939,15.0
1620697429939,15.0
1620697430418,8.0
1620697430418,8.0
1620697430864,10.0
1620697430864,10.0
1620697431245,10.0
1620697431245,10.0
1620697431724,8.0
1620697431724,8.0
1620697432421,0.0
1620697432421,0.0
1620697433354,0.0
1620697433354,0.0
1620697434320,0.0
1620697434320,0.0
