timestamp,value
1618994184983,0.0
1618994184983,0.0
1618994185442,0.0
1618994185442,0.0
1618994185878,1.0
1618994185878,1.0
1618994186379,0.0
1618994186379,0.0
1618994187254,0.0
1618994187254,0.0
1618994188470,0.0
1618994188470,0.0
1618994189220,0.0
1618994189220,0.0
1618994190094,0.0
1618994190094,0.0
1618994191144,0.0
1618994191144,0.0
1618994191582,1.0
1618994191582,1.0
1618994192044,1.0
1618994192044,1.0
1618994192522,0.0
1618994192522,0.0
1618994192939,0.0
1618994192939,0.0
1618994193434,0.0
1618994193434,0.0
1618994193844,1.0
1618994193844,1.0
1618994194302,10.0
1618994194302,10.0
1618994194702,1.0
1618994194702,1.0
1618994195189,0.0
1618994195189,0.0
1618994195610,0.0
1618994195610,0.0
1618994196103,1.0
1618994196103,1.0
1618994196477,0.0
1618994196477,0.0
1618994196692,0.0
1618994196692,0.0
1618994197021,1.0
1618994197021,1.0
1618994197386,0.0
1618994197386,0.0
1618994198028,1.0
1618994198028,1.0
1618994198452,1.0
1618994198452,1.0
1618994198989,0.0
1618994198989,0.0
1618994199956,0.0
1618994199956,0.0
1618994201397,0.0
1618994201397,0.0
1618994202345,0.0
1618994202345,0.0
1618994203177,0.0
1618994203177,0.0
1618994203902,0.0
1618994203902,0.0
1618994204759,0.0
1618994204759,0.0
1618994205662,0.0
1618994205662,0.0
1618994206526,0.0
1618994206526,0.0
1618994207012,1.0
1618994207012,1.0
1618994207376,1.0
1618994207376,1.0
1618994207768,1.0
1618994207768,1.0
1618994208819,0.0
1618994208819,0.0
1618994209758,0.0
1618994209758,0.0
1618994210591,0.0
1618994210591,0.0
1618994211066,1.0
1618994211066,1.0
1618994211402,1.0
1618994211402,1.0
1618994211904,1.0
1618994211904,1.0
1618994212472,1.0
1618994212472,1.0
1618994212898,1.0
1618994212898,1.0
1618994213320,1.0
1618994213320,1.0
1618994213857,1.0
1618994213857,1.0
1618994214292,0.0
1618994214292,0.0
1618994214778,1.0
1618994214778,1.0
1618994215182,1.0
1618994215182,1.0
1618994215586,1.0
1618994215586,1.0
1618994216021,0.0
1618994216021,0.0
1618994216571,0.0
1618994216571,0.0
1618994216935,0.0
1618994216935,0.0
1618994217313,1.0
1618994217313,1.0
1618994217787,0.0
1618994217787,0.0
1618994218134,0.0
1618994218134,0.0
1618994218581,0.0
1618994218581,0.0
1618994219094,0.0
1618994219094,0.0
1618994219931,0.0
1618994219931,0.0
1618994220819,0.0
1618994220819,0.0
1618994221710,0.0
1618994221710,0.0
1618994222586,0.0
1618994222586,0.0
1618994223344,0.0
1618994223344,0.0
1618994224242,0.0
1618994224242,0.0
1618994225132,0.0
1618994225132,0.0
1618994226076,0.0
1618994226076,0.0
1618994226934,0.0
1618994226934,0.0
1618994227454,0.0
1618994227454,0.0
1618994227843,1.0
1618994227843,1.0
1618994228339,1.0
1618994228339,1.0
1618994228853,0.0
1618994228853,0.0
1618994229297,1.0
1618994229297,1.0
1618994229779,1.0
1618994229779,1.0
1618994230316,0.0
1618994230316,0.0
1618994230795,2.0
1618994230795,2.0
1618994231214,0.0
1618994231214,0.0
1618994231729,0.0
1618994231729,0.0
1618994232670,0.0
1618994232670,0.0
1618994233668,0.0
1618994233668,0.0
1618994234531,0.0
1618994234531,0.0
1618994235601,0.0
1618994235601,0.0
1618994236920,0.0
1618994236920,0.0
1618994237780,0.0
1618994237780,0.0
1618994238264,0.0
1618994238264,0.0
1618994238741,0.0
1618994238741,0.0
1618994239166,1.0
1618994239166,1.0
1618994239631,1.0
1618994239631,1.0
1618994240046,8.0
1618994240046,8.0
1618994240488,1.0
1618994240488,1.0
1618994240914,1.0
1618994240914,1.0
1618994241350,1.0
1618994241350,1.0
1618994241783,0.0
1618994241783,0.0
1618994242235,0.0
1618994242235,0.0
1618994242644,0.0
1618994242644,0.0
1618994243014,0.0
1618994243014,0.0
1618994243480,0.0
1618994243480,0.0
1618994243924,0.0
1618994243924,0.0
1618994244342,1.0
1618994244342,1.0
1618994244713,0.0
1618994244713,0.0
1618994245158,0.0
1618994245158,0.0
1618994245673,1.0
1618994245673,1.0
1618994246029,1.0
1618994246029,1.0
1618994246498,1.0
1618994246498,1.0
1618994246920,1.0
1618994246920,1.0
1618994247462,0.0
1618994247462,0.0
1618994247928,0.0
1618994247928,0.0
1618994248284,0.0
1618994248284,0.0
1618994248713,1.0
1618994248713,1.0
1618994249074,0.0
1618994249074,0.0
1618994249537,0.0
1618994249537,0.0
1618994249959,1.0
1618994249959,1.0
1618994250432,0.0
1618994250432,0.0
1618994250911,0.0
1618994250911,0.0
1618994251379,1.0
1618994251379,1.0
1618994251771,1.0
1618994251771,1.0
1618994252130,1.0
1618994252130,1.0
1618994252556,0.0
1618994252556,0.0
1618994252917,0.0
1618994252917,0.0
1618994253297,1.0
1618994253297,1.0
1618994253702,0.0
1618994253702,0.0
1618994254131,0.0
1618994254131,0.0
1618994254506,1.0
1618994254506,1.0
1618994254922,0.0
1618994254922,0.0
1618994255318,1.0
1618994255318,1.0
1618994255754,1.0
1618994255754,1.0
1618994256158,1.0
1618994256158,1.0
1618994256510,0.0
1618994256510,0.0
1618994256903,0.0
1618994256903,0.0
1618994257300,1.0
1618994257300,1.0
1618994257689,1.0
1618994257689,1.0
1618994258090,0.0
1618994258090,0.0
1618994258527,1.0
1618994258527,1.0
1618994258934,1.0
1618994258934,1.0
1618994259427,0.0
1618994259427,0.0
1618994259884,0.0
1618994259884,0.0
1618994260330,2.0
1618994260330,2.0
1618994260731,1.0
1618994260731,1.0
1618994261114,0.0
1618994261114,0.0
1618994261496,1.0
1618994261496,1.0
1618994262329,0.0
1618994262329,0.0
1618994263426,0.0
1618994263426,0.0
1618994263914,0.0
1618994263914,0.0
1618994264272,0.0
1618994264272,0.0
1618994264698,0.0
1618994264698,0.0
1618994265153,1.0
1618994265153,1.0
1618994265560,0.0
1618994265560,0.0
1618994266012,1.0
1618994266012,1.0
1618994266442,0.0
1618994266442,0.0
1618994266804,1.0
1618994266804,1.0
1618994267216,0.0
1618994267216,0.0
1618994267578,0.0
1618994267578,0.0
1618994267961,1.0
1618994267961,1.0
1618994268347,0.0
1618994268347,0.0
1618994268684,0.0
1618994268684,0.0
1618994269041,0.0
1618994269041,0.0
1618994269472,0.0
1618994269472,0.0
1618994269937,0.0
1618994269937,0.0
1618994270440,1.0
1618994270440,1.0
1618994270845,1.0
1618994270845,1.0
1618994271347,0.0
1618994271347,0.0
1618994271851,1.0
1618994271851,1.0
1618994272263,0.0
1618994272263,0.0
1618994272721,1.0
1618994272721,1.0
1618994273184,1.0
1618994273184,1.0
1618994273576,1.0
1618994273576,1.0
1618994273982,1.0
1618994273982,1.0
1618994274472,0.0
1618994274472,0.0
1618994274959,0.0
1618994274959,0.0
1618994275353,0.0
1618994275353,0.0
1618994275784,0.0
1618994275784,0.0
1618994276204,0.0
1618994276204,0.0
1618994276629,0.0
1618994276629,0.0
1618994276978,1.0
1618994276978,1.0
1618994277300,0.0
1618994277300,0.0
1618994277703,1.0
1618994277703,1.0
1618994278046,1.0
1618994278046,1.0
1618994278474,0.0
1618994278474,0.0
1618994278920,0.0
1618994278920,0.0
1618994279495,0.0
1618994279495,0.0
1618994279979,0.0
1618994279979,0.0
1618994280401,0.0
1618994280401,0.0
1618994280756,1.0
1618994280756,1.0
1618994281312,0.0
1618994281312,0.0
1618994281818,1.0
1618994281818,1.0
1618994282247,1.0
1618994282247,1.0
1618994282702,0.0
1618994282702,0.0
1618994283168,0.0
1618994283168,0.0
1618994283658,0.0
1618994283658,0.0
1618994283920,0.0
1618994283920,0.0
1618994284341,0.0
1618994284341,0.0
1618994284813,0.0
1618994284813,0.0
1618994285277,1.0
1618994285277,1.0
1618994285710,0.0
1618994285710,0.0
1618994286078,1.0
1618994286078,1.0
1618994286525,0.0
1618994286525,0.0
1618994286943,0.0
1618994286943,0.0
1618994287350,0.0
1618994287350,0.0
1618994287832,0.0
1618994287832,0.0
1618994288282,0.0
1618994288282,0.0
1618994288677,0.0
1618994288677,0.0
1618994289070,1.0
1618994289070,1.0
1618994289453,8.0
1618994289453,8.0
1618994289848,0.0
1618994289848,0.0
1618994290335,0.0
1618994290335,0.0
1618994290788,0.0
1618994290788,0.0
1618994291322,1.0
1618994291322,1.0
1618994291706,1.0
1618994291706,1.0
1618994292157,0.0
1618994292157,0.0
1618994292647,0.0
1618994292647,0.0
1618994293084,0.0
1618994293084,0.0
1618994293494,0.0
1618994293494,0.0
1618994293990,1.0
1618994293990,1.0
1618994294786,0.0
1618994294786,0.0
1618994295654,0.0
1618994295654,0.0
1618994296731,0.0
1618994296731,0.0
1618994298508,0.0
1618994298508,0.0
1618994299391,0.0
1618994299391,0.0
1618994300496,0.0
1618994300496,0.0
1618994301776,0.0
1618994301776,0.0
1618994303097,0.0
1618994303097,0.0
1618994304696,0.0
1618994304696,0.0
1618994305986,0.0
1618994305986,0.0
1618994307063,0.0
1618994307063,0.0
1618994308276,0.0
1618994308276,0.0
1618994309290,0.0
1618994309290,0.0
1618994310114,0.0
1618994310114,0.0
1618994311477,0.0
1618994311477,0.0
1618994312352,0.0
1618994312352,0.0
1618994313270,0.0
1618994313270,0.0
1618994314177,0.0
1618994314177,0.0
1618994315026,0.0
1618994315026,0.0
1618994316190,0.0
1618994316190,0.0
1618994317479,0.0
1618994317479,0.0
1618994318293,0.0
1618994318293,0.0
1618994319041,0.0
1618994319041,0.0
1618994319770,0.0
1618994319770,0.0
1618994320576,0.0
1618994320576,0.0
1618994321113,0.0
1618994321113,0.0
1618994321508,0.0
1618994321508,0.0
1618994321992,0.0
1618994321992,0.0
1618994322369,0.0
1618994322369,0.0
1618994322777,0.0
1618994322777,0.0
1618994323240,0.0
1618994323240,0.0
1618994323635,0.0
1618994323635,0.0
1618994324025,0.0
1618994324025,0.0
1618994324452,1.0
1618994324452,1.0
1618994324821,0.0
1618994324821,0.0
1618994325189,0.0
1618994325189,0.0
1618994325619,0.0
1618994325619,0.0
1618994326053,0.0
1618994326053,0.0
1618994326422,1.0
1618994326422,1.0
1618994326868,1.0
1618994326868,1.0
1618994327303,0.0
1618994327303,0.0
1618994327753,0.0
1618994327753,0.0
1618994328131,1.0
1618994328131,1.0
1618994328525,1.0
1618994328525,1.0
1618994328920,1.0
1618994328920,1.0
1618994329389,0.0
1618994329389,0.0
1618994329836,1.0
1618994329836,1.0
1618994330254,1.0
1618994330254,1.0
1618994330667,0.0
1618994330667,0.0
1618994331150,0.0
1618994331150,0.0
1618994331665,0.0
1618994331665,0.0
1618994332056,0.0
1618994332056,0.0
1618994332456,0.0
1618994332456,0.0
1618994332902,0.0
1618994332902,0.0
1618994333277,0.0
1618994333277,0.0
1618994333734,1.0
1618994333734,1.0
1618994334132,1.0
1618994334132,1.0
1618994334590,1.0
1618994334590,1.0
1618994335052,0.0
1618994335052,0.0
1618994335486,0.0
1618994335486,0.0
1618994335914,0.0
1618994335914,0.0
1618994336276,1.0
1618994336276,1.0
1618994336681,0.0
1618994336681,0.0
1618994337106,0.0
1618994337106,0.0
1618994337529,0.0
1618994337529,0.0
1618994337912,0.0
1618994337912,0.0
1618994338256,1.0
1618994338256,1.0
1618994338707,0.0
1618994338707,0.0
1618994339160,0.0
1618994339160,0.0
1618994339545,1.0
1618994339545,1.0
1618994339965,0.0
1618994339965,0.0
1618994340372,0.0
1618994340372,0.0
1618994340738,1.0
1618994340738,1.0
1618994341156,0.0
1618994341156,0.0
1618994341600,1.0
1618994341600,1.0
1618994342024,0.0
1618994342024,0.0
1618994342384,0.0
1618994342384,0.0
1618994342849,0.0
1618994342849,0.0
1618994343293,1.0
1618994343293,1.0
1618994343783,1.0
1618994343783,1.0
1618994344253,0.0
1618994344253,0.0
1618994344623,1.0
1618994344623,1.0
1618994345059,8.0
1618994345059,8.0
1618994345579,8.0
1618994345579,8.0
1618994345985,1.0
1618994345985,1.0
1618994346409,1.0
1618994346409,1.0
1618994346809,0.0
1618994346809,0.0
1618994347280,0.0
1618994347280,0.0
1618994347689,1.0
1618994347689,1.0
1618994348095,0.0
1618994348095,0.0
1618994348557,1.0
1618994348557,1.0
1618994348954,0.0
1618994348954,0.0
1618994349331,1.0
1618994349331,1.0
1618994349753,1.0
1618994349753,1.0
1618994350174,1.0
1618994350174,1.0
1618994350630,0.0
1618994350630,0.0
1618994351051,0.0
1618994351051,0.0
1618994351471,1.0
1618994351471,1.0
1618994351911,0.0
1618994351911,0.0
1618994352341,1.0
1618994352341,1.0
1618994352780,0.0
1618994352780,0.0
1618994353242,1.0
1618994353242,1.0
1618994353680,1.0
1618994353680,1.0
1618994354010,0.0
1618994354010,0.0
1618994354491,0.0
1618994354491,0.0
1618994354907,0.0
1618994354907,0.0
1618994355347,0.0
1618994355347,0.0
1618994355787,8.0
1618994355787,8.0
1618994356156,0.0
1618994356156,0.0
1618994356622,0.0
1618994356622,0.0
1618994357036,0.0
1618994357036,0.0
1618994357502,0.0
1618994357502,0.0
1618994357960,0.0
1618994357960,0.0
1618994358419,1.0
1618994358419,1.0
1618994358913,1.0
1618994358913,1.0
1618994359320,0.0
1618994359320,0.0
1618994359699,0.0
1618994359699,0.0
1618994360183,0.0
1618994360183,0.0
1618994360692,0.0
1618994360692,0.0
1618994361087,0.0
1618994361087,0.0
1618994361622,0.0
1618994361622,0.0
1618994362094,0.0
1618994362094,0.0
1618994362536,0.0
1618994362536,0.0
1618994362998,1.0
1618994362998,1.0
1618994363397,0.0
1618994363397,0.0
1618994363920,0.0
1618994363920,0.0
1618994364832,0.0
1618994364832,0.0
1618994365575,0.0
1618994365575,0.0
1618994366312,0.0
1618994366312,0.0
1618994367059,0.0
1618994367059,0.0
1618994367791,0.0
1618994367791,0.0
1618994368255,0.0
1618994368255,0.0
1618994368704,0.0
1618994368704,0.0
1618994369103,0.0
1618994369103,0.0
1618994369579,1.0
1618994369579,1.0
1618994370055,1.0
1618994370055,1.0
1618994370408,1.0
1618994370408,1.0
1618994370798,0.0
1618994370798,0.0
1618994371181,1.0
1618994371181,1.0
1618994371553,1.0
1618994371553,1.0
1618994371945,0.0
1618994371945,0.0
1618994372318,0.0
1618994372318,0.0
1618994372688,0.0
1618994372688,0.0
1618994373080,0.0
1618994373080,0.0
1618994373462,1.0
1618994373462,1.0
1618994373859,1.0
1618994373859,1.0
1618994374289,1.0
1618994374289,1.0
1618994374685,0.0
1618994374685,0.0
1618994375242,0.0
1618994375242,0.0
1618994375679,0.0
1618994375679,0.0
1618994376080,0.0
1618994376080,0.0
1618994376506,0.0
1618994376506,0.0
1618994376931,0.0
1618994376931,0.0
1618994377329,0.0
1618994377329,0.0
1618994377718,1.0
1618994377718,1.0
1618994378129,1.0
1618994378129,1.0
1618994378586,0.0
1618994378586,0.0
1618994378959,1.0
1618994378959,1.0
1618994379365,0.0
1618994379365,0.0
1618994379796,1.0
1618994379796,1.0
1618994380161,1.0
1618994380161,1.0
1618994380555,0.0
1618994380555,0.0
1618994380984,1.0
1618994380984,1.0
1618994381430,1.0
1618994381430,1.0
1618994381880,0.0
1618994381880,0.0
1618994382379,1.0
1618994382379,1.0
1618994382764,1.0
1618994382764,1.0
1618994383253,0.0
1618994383253,0.0
1618994383659,0.0
1618994383659,0.0
1618994384061,0.0
1618994384061,0.0
1618994384472,1.0
1618994384472,1.0
1618994384912,0.0
1618994384912,0.0
1618994385279,1.0
1618994385279,1.0
1618994385733,1.0
1618994385733,1.0
1618994386135,0.0
1618994386135,0.0
1618994386575,1.0
1618994386575,1.0
1618994386986,0.0
1618994386986,0.0
1618994387385,0.0
1618994387385,0.0
1618994387771,31.0
1618994387771,31.0
1618994388119,0.0
1618994388119,0.0
1618994388570,0.0
1618994388570,0.0
1618994389065,1.0
1618994389065,1.0
1618994389574,31.0
1618994389574,31.0
1618994390008,1.0
1618994390008,1.0
1618994390436,1.0
1618994390436,1.0
1618994390761,1.0
1618994390761,1.0
1618994391211,0.0
1618994391211,0.0
1618994391688,1.0
1618994391688,1.0
1618994392129,1.0
1618994392129,1.0
1618994392589,1.0
1618994392589,1.0
1618994393046,0.0
1618994393046,0.0
1618994393473,0.0
1618994393473,0.0
1618994393922,1.0
1618994393922,1.0
1618994394396,0.0
1618994394396,0.0
1618994394847,1.0
1618994394847,1.0
1618994395194,0.0
1618994395194,0.0
1618994395595,0.0
1618994395595,0.0
1618994396006,1.0
1618994396006,1.0
1618994396455,1.0
1618994396455,1.0
1618994396890,0.0
1618994396890,0.0
1618994397372,1.0
1618994397372,1.0
1618994397791,0.0
1618994397791,0.0
1618994398207,0.0
1618994398207,0.0
1618994398602,1.0
1618994398602,1.0
1618994398984,0.0
1618994398984,0.0
1618994399405,0.0
1618994399405,0.0
1618994399800,0.0
1618994399800,0.0
1618994400203,1.0
1618994400203,1.0
1618994400672,1.0
1618994400672,1.0
1618994401093,0.0
1618994401093,0.0
1618994401485,0.0
1618994401485,0.0
1618994401889,0.0
1618994401889,0.0
1618994402317,1.0
1618994402317,1.0
1618994402777,0.0
1618994402777,0.0
1618994403224,1.0
1618994403224,1.0
1618994403611,1.0
1618994403611,1.0
1618994404069,1.0
1618994404069,1.0
1618994404540,0.0
1618994404540,0.0
1618994404972,0.0
1618994404972,0.0
1618994405414,1.0
1618994405414,1.0
1618994405802,1.0
1618994405802,1.0
1618994406229,0.0
1618994406229,0.0
1618994406665,0.0
1618994406665,0.0
1618994407099,0.0
1618994407099,0.0
1618994407582,1.0
1618994407582,1.0
1618994408035,1.0
1618994408035,1.0
1618994408512,0.0
1618994408512,0.0
1618994409152,0.0
1618994409152,0.0
1618994409884,0.0
1618994409884,0.0
1618994410723,0.0
1618994410723,0.0
1618994411733,0.0
1618994411733,0.0
1618994412609,0.0
1618994412609,0.0
1618994413393,0.0
1618994413393,0.0
1618994414266,0.0
1618994414266,0.0
1618994415160,0.0
1618994415160,0.0
1618994416255,0.0
1618994416255,0.0
1618994417110,0.0
1618994417110,0.0
1618994417879,0.0
1618994417879,0.0
1618994418927,0.0
1618994418927,0.0
1618994419998,0.0
1618994419998,0.0
1618994420795,0.0
1618994420795,0.0
1618994421658,0.0
1618994421658,0.0
1618994422554,0.0
1618994422554,0.0
1618994423426,0.0
1618994423426,0.0
1618994424345,0.0
1618994424345,0.0
1618994425200,0.0
1618994425200,0.0
1618994425994,0.0
1618994425994,0.0
1618994426745,0.0
1618994426745,0.0
1618994427545,0.0
1618994427545,0.0
1618994428385,0.0
1618994428385,0.0
1618994429259,0.0
1618994429259,0.0
1618994430356,0.0
1618994430356,0.0
1618994431251,0.0
1618994431251,0.0
1618994432044,0.0
1618994432044,0.0
1618994432533,0.0
1618994432533,0.0
1618994432934,1.0
1618994432934,1.0
1618994433361,1.0
1618994433361,1.0
1618994433782,0.0
1618994433782,0.0
1618994434175,0.0
1618994434175,0.0
1618994434612,0.0
1618994434612,0.0
1618994434999,1.0
1618994434999,1.0
1618994435462,0.0
1618994435462,0.0
1618994435917,1.0
1618994435917,1.0
1618994436329,0.0
1618994436329,0.0
1618994436753,1.0
1618994436753,1.0
1618994437170,1.0
1618994437170,1.0
1618994437630,0.0
1618994437630,0.0
1618994438118,0.0
1618994438118,0.0
1618994438608,0.0
1618994438608,0.0
1618994439058,0.0
1618994439058,0.0
1618994439494,0.0
1618994439494,0.0
1618994439930,0.0
1618994439930,0.0
1618994440406,0.0
1618994440406,0.0
1618994440857,0.0
1618994440857,0.0
1618994441343,0.0
1618994441343,0.0
1618994441790,0.0
1618994441790,0.0
1618994442214,0.0
1618994442214,0.0
1618994442700,1.0
1618994442700,1.0
1618994443131,0.0
1618994443131,0.0
1618994443528,0.0
1618994443528,0.0
1618994444024,0.0
1618994444024,0.0
1618994444513,1.0
1618994444513,1.0
1618994444995,0.0
1618994444995,0.0
1618994445473,1.0
1618994445473,1.0
1618994445900,0.0
1618994445900,0.0
1618994446289,0.0
1618994446289,0.0
1618994446679,0.0
1618994446679,0.0
1618994447054,0.0
1618994447054,0.0
1618994447481,0.0
1618994447481,0.0
1618994447862,0.0
1618994447862,0.0
1618994448291,0.0
1618994448291,0.0
1618994448688,1.0
1618994448688,1.0
1618994449092,1.0
1618994449092,1.0
1618994449537,0.0
1618994449537,0.0
1618994449969,0.0
1618994449969,0.0
1618994450388,0.0
1618994450388,0.0
1618994450757,0.0
1618994450757,0.0
1618994451143,1.0
1618994451143,1.0
1618994451599,1.0
1618994451599,1.0
1618994452021,0.0
1618994452021,0.0
1618994452400,0.0
1618994452400,0.0
1618994452822,0.0
1618994452822,0.0
1618994453228,0.0
1618994453228,0.0
1618994453643,0.0
1618994453643,0.0
1618994454050,1.0
1618994454050,1.0
1618994454411,1.0
1618994454411,1.0
1618994454766,0.0
1618994454766,0.0
1618994455203,0.0
1618994455203,0.0
1618994455609,1.0
1618994455609,1.0
1618994456038,0.0
1618994456038,0.0
1618994456399,0.0
1618994456399,0.0
1618994456761,1.0
1618994456761,1.0
1618994457218,0.0
1618994457218,0.0
1618994457667,1.0
1618994457667,1.0
1618994458055,1.0
1618994458055,1.0
1618994458447,0.0
1618994458447,0.0
1618994458856,0.0
1618994458856,0.0
1618994459261,0.0
1618994459261,0.0
1618994459698,1.0
1618994459698,1.0
1618994460084,0.0
1618994460084,0.0
1618994460525,0.0
1618994460525,0.0
1618994460878,1.0
1618994460878,1.0
1618994461269,0.0
1618994461269,0.0
1618994461699,0.0
1618994461699,0.0
1618994462108,0.0
1618994462108,0.0
1618994462466,0.0
1618994462466,0.0
1618994462901,0.0
1618994462901,0.0
1618994463258,0.0
1618994463258,0.0
1618994463678,0.0
1618994463678,0.0
1618994464095,1.0
1618994464095,1.0
1618994464478,0.0
1618994464478,0.0
1618994464926,1.0
1618994464926,1.0
1618994465367,1.0
1618994465367,1.0
1618994465759,0.0
1618994465759,0.0
1618994466256,0.0
1618994466256,0.0
1618994466775,1.0
1618994466775,1.0
1618994467222,1.0
1618994467222,1.0
1618994467701,1.0
1618994467701,1.0
1618994468152,0.0
1618994468152,0.0
1618994468621,0.0
1618994468621,0.0
1618994469092,1.0
1618994469092,1.0
1618994469508,1.0
1618994469508,1.0
1618994470030,0.0
1618994470030,0.0
1618994470810,0.0
1618994470810,0.0
1618994471394,1.0
1618994471394,1.0
1618994472220,0.0
1618994472220,0.0
1618994473001,0.0
1618994473001,0.0
1618994473774,0.0
1618994473774,0.0
1618994474536,0.0
1618994474536,0.0
1618994475289,0.0
1618994475289,0.0
1618994476127,0.0
1618994476127,0.0
1618994476938,0.0
1618994476938,0.0
1618994477723,0.0
1618994477723,0.0
1618994478652,0.0
1618994478652,0.0
1618994479134,1.0
1618994479134,1.0
1618994479506,1.0
1618994479506,1.0
1618994479891,1.0
1618994479891,1.0
1618994480370,1.0
1618994480370,1.0
1618994480806,1.0
1618994480806,1.0
1618994481245,0.0
1618994481245,0.0
1618994481742,0.0
1618994481742,0.0
1618994482241,1.0
1618994482241,1.0
1618994482661,1.0
1618994482661,1.0
1618994483075,0.0
1618994483075,0.0
1618994483499,1.0
1618994483499,1.0
1618994483880,0.0
1618994483880,0.0
1618994484308,1.0
1618994484308,1.0
1618994484762,2.0
1618994484762,2.0
1618994485323,0.0
1618994485323,0.0
1618994485826,0.0
1618994485826,0.0
1618994486191,0.0
1618994486191,0.0
1618994486665,0.0
1618994486665,0.0
1618994487125,1.0
1618994487125,1.0
1618994487581,0.0
1618994487581,0.0
1618994488068,1.0
1618994488068,1.0
1618994488613,0.0
1618994488613,0.0
1618994489089,0.0
1618994489089,0.0
1618994489522,1.0
1618994489522,1.0
1618994489915,1.0
1618994489915,1.0
1618994490330,0.0
1618994490330,0.0
1618994490659,1.0
1618994490659,1.0
1618994491011,0.0
1618994491011,0.0
1618994491396,1.0
1618994491396,1.0
1618994491750,1.0
1618994491750,1.0
1618994492191,1.0
1618994492191,1.0
1618994492692,0.0
1618994492692,0.0
1618994493144,1.0
1618994493144,1.0
1618994493610,0.0
1618994493610,0.0
1618994494062,1.0
1618994494062,1.0
1618994494463,0.0
1618994494463,0.0
1618994494886,1.0
1618994494886,1.0
1618994495288,0.0
1618994495288,0.0
1618994495671,0.0
1618994495671,0.0
1618994496106,1.0
1618994496106,1.0
1618994496543,1.0
1618994496543,1.0
1618994496924,1.0
1618994496924,1.0
1618994497322,1.0
1618994497322,1.0
1618994497718,1.0
1618994497718,1.0
1618994498118,1.0
1618994498118,1.0
1618994498523,0.0
1618994498523,0.0
1618994498940,1.0
1618994498940,1.0
1618994499250,1.0
1618994499250,1.0
1618994499681,1.0
1618994499681,1.0
1618994500116,1.0
1618994500116,1.0
1618994500564,0.0
1618994500564,0.0
1618994500951,0.0
1618994500951,0.0
1618994501283,0.0
1618994501283,0.0
1618994501724,0.0
1618994501724,0.0
1618994502199,1.0
1618994502199,1.0
1618994502663,1.0
1618994502663,1.0
1618994503091,0.0
1618994503091,0.0
1618994503456,1.0
1618994503456,1.0
1618994503873,1.0
1618994503873,1.0
1618994504329,0.0
1618994504329,0.0
1618994504775,1.0
1618994504775,1.0
1618994505163,1.0
1618994505163,1.0
1618994505630,0.0
1618994505630,0.0
1618994506012,1.0
1618994506012,1.0
1618994506523,0.0
1618994506523,0.0
1618994507259,0.0
1618994507259,0.0
1618994508201,0.0
1618994508201,0.0
1618994509058,0.0
1618994509058,0.0
1618994509882,0.0
1618994509882,0.0
1618994510728,0.0
1618994510728,0.0
1618994511611,0.0
1618994511611,0.0
1618994512671,0.0
1618994512671,0.0
1618994513763,0.0
1618994513763,0.0
1618994514635,0.0
1618994514635,0.0
1618994515613,0.0
1618994515613,0.0
1618994516687,0.0
1618994516687,0.0
1618994517510,0.0
1618994517510,0.0
1618994518272,0.0
1618994518272,0.0
1618994519159,0.0
1618994519159,0.0
1618994519668,0.0
1618994519668,0.0
1618994520075,1.0
1618994520075,1.0
1618994520848,0.0
1618994520848,0.0
1618994521263,1.0
1618994521263,1.0
1618994521791,0.0
1618994521791,0.0
1618994522599,0.0
1618994522599,0.0
1618994523613,0.0
1618994523613,0.0
1618994524397,0.0
1618994524397,0.0
1618994525094,0.0
1618994525094,0.0
1618994525809,0.0
1618994525809,0.0
1618994526539,0.0
1618994526539,0.0
1618994527007,1.0
1618994527007,1.0
1618994527418,0.0
1618994527418,0.0
1618994527833,0.0
1618994527833,0.0
1618994528251,0.0
1618994528251,0.0
1618994528756,0.0
1618994528756,0.0
1618994529225,0.0
1618994529225,0.0
1618994529638,1.0
1618994529638,1.0
1618994530059,0.0
1618994530059,0.0
1618994530452,0.0
1618994530452,0.0
1618994530854,0.0
1618994530854,0.0
1618994531320,1.0
1618994531320,1.0
1618994531762,0.0
1618994531762,0.0
1618994532233,1.0
1618994532233,1.0
1618994532654,0.0
1618994532654,0.0
1618994533095,0.0
1618994533095,0.0
1618994533518,0.0
1618994533518,0.0
1618994533930,0.0
1618994533930,0.0
1618994534311,0.0
1618994534311,0.0
1618994534745,1.0
1618994534745,1.0
1618994535145,1.0
1618994535145,1.0
1618994535623,0.0
1618994535623,0.0
1618994536044,0.0
1618994536044,0.0
1618994536429,1.0
1618994536429,1.0
1618994536874,1.0
1618994536874,1.0
1618994537306,0.0
1618994537306,0.0
1618994537736,1.0
1618994537736,1.0
1618994538206,1.0
1618994538206,1.0
1618994538624,0.0
1618994538624,0.0
1618994539049,0.0
1618994539049,0.0
1618994539485,1.0
1618994539485,1.0
1618994539891,0.0
1618994539891,0.0
1618994540322,0.0
1618994540322,0.0
1618994540765,0.0
1618994540765,0.0
1618994541150,1.0
1618994541150,1.0
1618994541602,0.0
1618994541602,0.0
1618994542063,0.0
1618994542063,0.0
1618994542585,1.0
1618994542585,1.0
1618994543355,0.0
1618994543355,0.0
1618994544317,0.0
1618994544317,0.0
1618994545231,0.0
1618994545231,0.0
1618994546176,0.0
1618994546176,0.0
1618994546986,0.0
1618994546986,0.0
1618994547820,0.0
1618994547820,0.0
1618994548577,0.0
1618994548577,0.0
1618994549413,0.0
1618994549413,0.0
1618994550167,0.0
1618994550167,0.0
1618994550956,0.0
1618994550956,0.0
1618994551887,0.0
1618994551887,0.0
1618994552821,0.0
1618994552821,0.0
1618994553555,0.0
1618994553555,0.0
1618994554351,0.0
1618994554351,0.0
1618994555270,0.0
1618994555270,0.0
1618994555982,0.0
1618994555982,0.0
1618994556709,0.0
1618994556709,0.0
1618994557459,0.0
1618994557459,0.0
1618994558249,0.0
1618994558249,0.0
1618994559004,0.0
1618994559004,0.0
1618994559756,0.0
1618994559756,0.0
1618994560759,0.0
1618994560759,0.0
1618994561636,0.0
1618994561636,0.0
1618994562116,0.0
1618994562116,0.0
1618994562506,0.0
1618994562506,0.0
1618994562948,1.0
1618994562948,1.0
1618994563326,1.0
1618994563326,1.0
1618994563743,0.0
1618994563743,0.0
1618994564124,0.0
1618994564124,0.0
1618994564493,1.0
1618994564493,1.0
1618994564898,1.0
1618994564898,1.0
1618994565275,1.0
1618994565275,1.0
1618994565652,1.0
1618994565652,1.0
1618994566063,1.0
1618994566063,1.0
1618994566443,1.0
1618994566443,1.0
1618994566835,1.0
1618994566835,1.0
1618994567278,1.0
1618994567278,1.0
1618994567661,1.0
1618994567661,1.0
1618994568042,0.0
1618994568042,0.0
1618994568449,0.0
1618994568449,0.0
1618994568852,1.0
1618994568852,1.0
1618994569303,0.0
1618994569303,0.0
1618994569697,0.0
1618994569697,0.0
1618994570079,0.0
1618994570079,0.0
1618994570521,0.0
1618994570521,0.0
1618994570971,0.0
1618994570971,0.0
1618994571362,0.0
1618994571362,0.0
1618994571826,1.0
1618994571826,1.0
1618994572261,1.0
1618994572261,1.0
1618994572727,1.0
1618994572727,1.0
1618994573168,0.0
1618994573168,0.0
1618994573514,0.0
1618994573514,0.0
1618994573954,1.0
1618994573954,1.0
1618994574354,0.0
1618994574354,0.0
1618994574748,1.0
1618994574748,1.0
1618994575160,1.0
1618994575160,1.0
1618994575590,1.0
1618994575590,1.0
1618994576111,0.0
1618994576111,0.0
1618994576840,0.0
1618994576840,0.0
1618994577829,0.0
1618994577829,0.0
1618994578706,0.0
1618994578706,0.0
1618994579615,0.0
1618994579615,0.0
1618994580423,0.0
1618994580423,0.0
1618994581417,0.0
1618994581417,0.0
1618994582254,0.0
1618994582254,0.0
1618994583212,0.0
1618994583212,0.0
1618994584095,0.0
1618994584095,0.0
1618994585121,0.0
1618994585121,0.0
1618994586274,0.0
1618994586274,0.0
1618994587308,0.0
1618994587308,0.0
1618994588350,0.0
1618994588350,0.0
1618994589175,0.0
1618994589175,0.0
1618994590114,0.0
1618994590114,0.0
1618994591019,0.0
1618994591019,0.0
1618994591999,0.0
1618994591999,0.0
1618994592823,0.0
1618994592823,0.0
1618994593549,0.0
1618994593549,0.0
1618994594356,0.0
1618994594356,0.0
1618994595107,0.0
1618994595107,0.0
1618994595893,0.0
1618994595893,0.0
1618994596744,0.0
1618994596744,0.0
1618994597187,1.0
1618994597187,1.0
1618994597577,0.0
1618994597577,0.0
1618994597983,0.0
1618994597983,0.0
1618994598329,0.0
1618994598329,0.0
1618994598679,0.0
1618994598679,0.0
1618994599096,1.0
1618994599096,1.0
1618994599496,10.0
1618994599496,10.0
1618994600018,1.0
1618994600018,1.0
1618994600526,0.0
1618994600526,0.0
1618994600943,0.0
1618994600943,0.0
1618994601394,0.0
1618994601394,0.0
1618994601810,0.0
1618994601810,0.0
1618994602265,0.0
1618994602265,0.0
1618994602673,0.0
1618994602673,0.0
1618994603106,1.0
1618994603106,1.0
1618994603592,0.0
1618994603592,0.0
1618994604002,0.0
1618994604002,0.0
1618994604396,0.0
1618994604396,0.0
1618994604862,1.0
1618994604862,1.0
1618994605173,1.0
1618994605173,1.0
1618994605580,0.0
1618994605580,0.0
1618994605992,0.0
1618994605992,0.0
1618994606443,1.0
1618994606443,1.0
1618994606924,10.0
1618994606924,10.0
1618994607343,1.0
1618994607343,1.0
1618994607772,0.0
1618994607772,0.0
1618994608212,0.0
1618994608212,0.0
1618994608610,1.0
1618994608610,1.0
1618994609050,0.0
1618994609050,0.0
1618994609477,0.0
1618994609477,0.0
1618994609878,0.0
1618994609878,0.0
1618994610310,0.0
1618994610310,0.0
1618994610750,1.0
1618994610750,1.0
1618994611153,10.0
1618994611153,10.0
1618994611621,0.0
1618994611621,0.0
1618994612081,8.0
1618994612081,8.0
1618994612536,1.0
1618994612536,1.0
1618994612944,1.0
1618994612944,1.0
1618994613349,0.0
1618994613349,0.0
1618994613782,1.0
1618994613782,1.0
1618994614160,1.0
1618994614160,1.0
1618994614558,1.0
1618994614558,1.0
1618994615007,0.0
1618994615007,0.0
1618994615377,0.0
1618994615377,0.0
1618994615768,1.0
1618994615768,1.0
1618994616139,0.0
1618994616139,0.0
1618994616564,1.0
1618994616564,1.0
1618994617050,10.0
1618994617050,10.0
1618994617460,0.0
1618994617460,0.0
1618994617863,0.0
1618994617863,0.0
1618994618319,1.0
1618994618319,1.0
1618994618670,1.0
1618994618670,1.0
1618994619064,0.0
1618994619064,0.0
1618994619404,1.0
1618994619404,1.0
1618994619781,1.0
1618994619781,1.0
1618994620173,0.0
1618994620173,0.0
1618994620580,0.0
1618994620580,0.0
1618994620949,1.0
1618994620949,1.0
1618994621399,8.0
1618994621399,8.0
1618994621689,31.0
1618994621689,31.0
1618994622088,1.0
1618994622088,1.0
1618994622494,0.0
1618994622494,0.0
1618994622892,0.0
1618994622892,0.0
1618994623341,1.0
1618994623341,1.0
1618994623839,0.0
1618994623839,0.0
1618994624263,0.0
1618994624263,0.0
1618994624713,1.0
1618994624713,1.0
1618994625131,0.0
1618994625131,0.0
1618994625588,0.0
1618994625588,0.0
1618994626036,0.0
1618994626036,0.0
1618994626430,31.0
1618994626430,31.0
1618994626935,1.0
1618994626935,1.0
1618994627870,0.0
1618994627870,0.0
1618994628745,0.0
1618994628745,0.0
1618994629609,0.0
1618994629609,0.0
1618994630471,0.0
1618994630471,0.0
1618994631243,0.0
1618994631243,0.0
1618994631752,0.0
1618994631752,0.0
1618994632113,1.0
1618994632113,1.0
1618994632531,1.0
1618994632531,1.0
1618994632913,1.0
1618994632913,1.0
1618994633294,0.0
1618994633294,0.0
1618994633790,1.0
1618994633790,1.0
1618994634242,1.0
1618994634242,1.0
1618994634669,0.0
1618994634669,0.0
1618994635119,0.0
1618994635119,0.0
1618994635552,0.0
1618994635552,0.0
1618994635965,0.0
1618994635965,0.0
1618994636347,1.0
1618994636347,1.0
1618994636739,1.0
1618994636739,1.0
1618994637166,1.0
1618994637166,1.0
1618994637509,1.0
1618994637509,1.0
1618994637901,0.0
1618994637901,0.0
1618994638275,1.0
1618994638275,1.0
1618994638671,1.0
1618994638671,1.0
1618994638993,0.0
1618994638993,0.0
1618994639377,0.0
1618994639377,0.0
1618994639725,0.0
1618994639725,0.0
1618994640141,0.0
1618994640141,0.0
1618994640574,0.0
1618994640574,0.0
1618994640961,1.0
1618994640961,1.0
1618994641359,1.0
1618994641359,1.0
1618994641783,1.0
1618994641783,1.0
1618994642136,1.0
1618994642136,1.0
1618994642574,1.0
1618994642574,1.0
1618994643080,1.0
1618994643080,1.0
1618994643457,0.0
1618994643457,0.0
1618994643885,0.0
1618994643885,0.0
1618994644299,1.0
1618994644299,1.0
1618994644678,0.0
1618994644678,0.0
1618994645063,0.0
1618994645063,0.0
1618994645486,31.0
1618994645486,31.0
1618994645876,1.0
1618994645876,1.0
1618994646325,0.0
1618994646325,0.0
1618994646731,0.0
1618994646731,0.0
1618994647109,0.0
1618994647109,0.0
1618994647488,0.0
1618994647488,0.0
1618994647828,1.0
1618994647828,1.0
1618994648208,0.0
1618994648208,0.0
1618994648583,1.0
1618994648583,1.0
1618994649036,1.0
1618994649036,1.0
1618994649438,1.0
1618994649438,1.0
1618994649841,0.0
1618994649841,0.0
1618994650200,1.0
1618994650200,1.0
1618994650628,1.0
1618994650628,1.0
1618994651040,1.0
1618994651040,1.0
1618994651461,1.0
1618994651461,1.0
1618994651887,0.0
1618994651887,0.0
1618994652351,0.0
1618994652351,0.0
1618994652675,0.0
1618994652675,0.0
1618994653062,8.0
1618994653062,8.0
1618994653429,0.0
1618994653429,0.0
1618994653851,1.0
1618994653851,1.0
1618994654262,1.0
1618994654262,1.0
1618994654655,0.0
1618994654655,0.0
1618994655131,0.0
1618994655131,0.0
1618994655558,1.0
1618994655558,1.0
1618994655943,0.0
1618994655943,0.0
1618994656391,0.0
1618994656391,0.0
1618994656812,0.0
1618994656812,0.0
1618994657207,1.0
1618994657207,1.0
1618994657638,1.0
1618994657638,1.0
1618994658079,1.0
1618994658079,1.0
1618994658482,0.0
1618994658482,0.0
1618994658908,1.0
1618994658908,1.0
1618994659298,1.0
1618994659298,1.0
1618994659717,0.0
1618994659717,0.0
1618994660139,0.0
1618994660139,0.0
1618994660505,0.0
1618994660505,0.0
1618994660934,0.0
1618994660934,0.0
1618994661348,1.0
1618994661348,1.0
1618994661780,0.0
1618994661780,0.0
1618994662241,1.0
1618994662241,1.0
1618994662656,0.0
1618994662656,0.0
1618994663037,0.0
1618994663037,0.0
1618994663527,1.0
1618994663527,1.0
1618994664012,1.0
1618994664012,1.0
1618994664441,1.0
1618994664441,1.0
1618994664909,1.0
1618994664909,1.0
1618994665326,0.0
1618994665326,0.0
1618994665752,0.0
1618994665752,0.0
1618994666162,1.0
1618994666162,1.0
1618994666598,0.0
1618994666598,0.0
1618994667076,0.0
1618994667076,0.0
1618994667491,0.0
1618994667491,0.0
1618994667931,0.0
1618994667931,0.0
1618994668366,0.0
1618994668366,0.0
1618994668821,0.0
1618994668821,0.0
1618994669304,0.0
1618994669304,0.0
1618994669723,1.0
1618994669723,1.0
1618994670121,1.0
1618994670121,1.0
1618994670554,0.0
1618994670554,0.0
1618994670990,0.0
1618994670990,0.0
1618994671381,0.0
1618994671381,0.0
1618994671824,0.0
1618994671824,0.0
1618994672246,0.0
1618994672246,0.0
1618994672641,0.0
1618994672641,0.0
1618994673061,0.0
1618994673061,0.0
1618994673482,0.0
1618994673482,0.0
1618994673884,1.0
1618994673884,1.0
1618994674269,0.0
1618994674269,0.0
1618994674603,1.0
1618994674603,1.0
1618994674993,0.0
1618994674993,0.0
1618994675384,1.0
1618994675384,1.0
1618994675749,1.0
1618994675749,1.0
1618994676142,0.0
1618994676142,0.0
1618994676544,1.0
1618994676544,1.0
1618994676877,0.0
1618994676877,0.0
1618994677297,1.0
1618994677297,1.0
1618994677725,0.0
1618994677725,0.0
1618994678091,0.0
1618994678091,0.0
1618994678484,0.0
1618994678484,0.0
1618994678900,0.0
1618994678900,0.0
1618994679306,0.0
1618994679306,0.0
1618994679738,0.0
1618994679738,0.0
1618994680081,1.0
1618994680081,1.0
1618994680458,0.0
1618994680458,0.0
1618994680856,0.0
1618994680856,0.0
1618994681211,0.0
1618994681211,0.0
1618994681616,0.0
1618994681616,0.0
1618994682075,1.0
1618994682075,1.0
1618994682508,1.0
1618994682508,1.0
1618994682986,0.0
1618994682986,0.0
1618994683445,0.0
1618994683445,0.0
1618994683891,1.0
1618994683891,1.0
1618994684411,0.0
1618994684411,0.0
1618994684814,0.0
1618994684814,0.0
1618994685197,1.0
1618994685197,1.0
1618994685642,0.0
1618994685642,0.0
1618994686025,1.0
1618994686025,1.0
1618994686397,0.0
1618994686397,0.0
1618994686799,1.0
1618994686799,1.0
1618994687166,0.0
1618994687166,0.0
1618994687504,1.0
1618994687504,1.0
1618994687905,0.0
1618994687905,0.0
1618994688257,8.0
1618994688257,8.0
1618994688659,0.0
1618994688659,0.0
1618994689039,1.0
1618994689039,1.0
1618994689480,1.0
1618994689480,1.0
1618994689989,0.0
1618994689989,0.0
1618994690393,0.0
1618994690393,0.0
1618994690801,0.0
1618994690801,0.0
1618994691201,0.0
1618994691201,0.0
1618994691617,1.0
1618994691617,1.0
1618994692002,1.0
1618994692002,1.0
1618994692407,1.0
1618994692407,1.0
1618994692801,0.0
1618994692801,0.0
1618994693207,1.0
1618994693207,1.0
1618994693624,1.0
1618994693624,1.0
1618994694020,0.0
1618994694020,0.0
1618994694511,0.0
1618994694511,0.0
1618994694922,0.0
1618994694922,0.0
1618994695324,0.0
1618994695324,0.0
1618994695762,1.0
1618994695762,1.0
1618994696149,0.0
1618994696149,0.0
1618994696532,1.0
1618994696532,1.0
1618994696986,0.0
1618994696986,0.0
1618994697364,1.0
1618994697364,1.0
1618994697788,1.0
1618994697788,1.0
1618994698231,1.0
1618994698231,1.0
1618994698601,1.0
1618994698601,1.0
1618994698947,1.0
1618994698947,1.0
1618994699369,1.0
1618994699369,1.0
1618994699779,0.0
1618994699779,0.0
1618994700273,1.0
1618994700273,1.0
1618994700748,1.0
1618994700748,1.0
1618994701130,0.0
1618994701130,0.0
1618994701588,0.0
1618994701588,0.0
1618994702020,0.0
1618994702020,0.0
1618994702468,1.0
1618994702468,1.0
1618994703015,0.0
1618994703015,0.0
1618994703554,1.0
1618994703554,1.0
1618994704086,1.0
1618994704086,1.0
1618994704549,1.0
1618994704549,1.0
1618994705008,1.0
1618994705008,1.0
1618994705480,0.0
1618994705480,0.0
1618994705888,0.0
1618994705888,0.0
1618994706273,10.0
1618994706273,10.0
1618994706743,0.0
1618994706743,0.0
1618994707110,1.0
1618994707110,1.0
1618994707498,0.0
1618994707498,0.0
1618994707955,1.0
1618994707955,1.0
1618994708409,0.0
1618994708409,0.0
1618994708845,1.0
1618994708845,1.0
1618994709275,8.0
1618994709275,8.0
1618994709700,0.0
1618994709700,0.0
1618994710175,8.0
1618994710175,8.0
1618994710691,0.0
1618994710691,0.0
1618994711096,1.0
1618994711096,1.0
1618994711521,0.0
1618994711521,0.0
1618994711939,8.0
1618994711939,8.0
1618994712398,0.0
1618994712398,0.0
1618994712896,0.0
1618994712896,0.0
1618994713344,0.0
1618994713344,0.0
1618994713908,1.0
1618994713908,1.0
1618994714363,10.0
1618994714363,10.0
1618994714718,0.0
1618994714718,0.0
1618994715192,10.0
1618994715192,10.0
1618994715565,8.0
1618994715565,8.0
1618994715966,1.0
1618994715966,1.0
1618994716332,0.0
1618994716332,0.0
1618994716713,1.0
1618994716713,1.0
1618994717191,8.0
1618994717191,8.0
1618994717688,8.0
1618994717688,8.0
1618994718065,0.0
1618994718065,0.0
1618994718504,0.0
1618994718504,0.0
1618994718899,0.0
1618994718899,0.0
1618994719298,1.0
1618994719298,1.0
1618994719733,8.0
1618994719733,8.0
1618994720114,0.0
1618994720114,0.0
1618994720588,1.0
1618994720588,1.0
1618994720992,0.0
1618994720992,0.0
1618994721392,10.0
1618994721392,10.0
1618994721811,1.0
1618994721811,1.0
1618994722179,8.0
1618994722179,8.0
1618994722633,2.0
1618994722633,2.0
1618994723009,0.0
1618994723009,0.0
1618994723428,0.0
1618994723428,0.0
1618994723902,0.0
1618994723902,0.0
1618994724331,1.0
1618994724331,1.0
1618994724719,0.0
1618994724719,0.0
1618994725160,1.0
1618994725160,1.0
1618994725584,1.0
1618994725584,1.0
1618994725978,0.0
1618994725978,0.0
1618994726383,1.0
1618994726383,1.0
