timestamp,value
1618982646428,68.04400973142745
1618982647180,68.05066984826232
1618982647983,71.00978278107448
1618982649494,68.53040822707551
1618982650940,66.41320436184216
1618982651701,66.5878266798777
1618982652447,66.79595766449938
1618982653185,67.1315639355141
1618982655279,62.54251914074709
1618982656017,62.66439612671367
1618982657465,60.712224209029756
1618982658254,60.70832654158931
1618982659733,58.595732755996096
1618982660467,58.881845529759
1618982661259,59.01505931529842
1618982662529,57.75221172923357
1618982663949,56.02154065585912
1618982664760,55.91001469501553
1618982666319,53.9114122283123
1618982667124,54.22438211994379
1618982667975,55.693735322670236
1618982669389,54.032385120507755
1618982670177,54.06895955101136
1618982671639,54.18883046279292
1618982672998,54.403185270228775
1618982674404,52.85852982720943
1618982675749,51.49957757471495
1618982677254,49.85604896794654
1618982678048,52.704438209997406
1618982678850,52.55429186814304
1618982680350,52.4404977337402
1618982681099,52.526769611547905
1618982681857,54.23964158444841
1618982682616,54.17882153478126
1618982683967,52.84372099237514
1618982685537,52.15422822368654
1618982686383,53.48960618946063
1618982687212,53.44666401511828
1618982688013,55.31541494950717
1618982688796,55.37064068676205
1618982689543,55.63654794507336
1618982690911,55.756879190826425
1618982692432,53.919033023250975
1618982693190,55.68198976249497
1618982694584,55.590992239451175
1618982695323,57.363814360944886
1618982696062,59.07351462601149
1618982697447,59.42762873658645
1618982698182,59.59893492730021
1618982699639,57.72310074643665
1618982701093,57.850629289503615
1618982702498,56.0768338608372
1618982703927,54.371687574846035
1618982704672,54.40628080613969
1618982706070,54.29157971530851
1618982707449,54.76618217459347
1618982708754,53.64217397784166
1618982710204,52.19279321911229
1618982711554,50.97547302371597
1618982712920,49.741775933113225
1618982714268,48.53362330555472
1618982717624,44.92301094384444
1618982719585,44.19502897996952
1618982722278,41.253860201049996
1618982723594,41.365585528829016
1618982724910,40.558611046029554
1618982726170,39.856591996337976
1618982727501,39.92874316494783
1618982728762,39.24163961773149
1618982730107,39.38575680404539
1618982731410,39.57935327204824
1618982732732,39.69003931496843
1618982734686,39.01358443256545
1618982736117,38.167790824730254
1618982737469,38.21856515849734
1618982738828,38.24233876886568
1618982739564,38.94789404679818
1618982740858,39.14679048187547
1618982742197,39.15974159269718
1618982743557,39.16874138593695
1618982744953,39.107050466736126
1618982749041,38.19505207290595
1618982750408,38.9315824156943
1618982751884,40.53287352841605
1618982752665,41.27840315322969
1618982754039,41.19539704604287
1618982754810,41.89930235915767
1618982756390,41.5384944497302
1618982757142,42.28291817673942
1618982758566,42.16686524917597
1618982759347,42.95450537994439
1618982760131,43.798379416163236
1618982760866,45.83552022876202
1618982762365,45.70872405087167
1618982763160,46.70857515725027
1618982764548,46.65526826623736
1618982765986,45.41729810903944
1618982766742,46.35962762556302
1618982767516,47.39571412406103
1618982768299,48.50096452251447
1618982769126,49.64219149425726
1618982771385,53.70668069485165
1618982772192,55.08515890140361
1618982773698,55.00995863617839
1618982775077,53.54325621349411
1618982775827,55.076615932994876
1618982777251,53.473700609127846
1618982778051,55.39921179848098
1618982778895,55.16528922770393
1618982784412,55.16528922770393
1618982785188,55.16528922770393
1618982785955,55.16528922770393
1618982787390,55.16528922770393
1618982788223,55.16528922770393
1618982789080,55.16528922770393
1618982789841,55.16528922770393
1618982790628,55.16528922770393
1618982792229,55.16528922770393
1618982793073,55.16528922770393
1618982795370,55.16528922770393
1618982796204,55.16528922770393
1618982797599,55.16528922770393
1618982798370,55.16528922770393
1618982799178,55.16528922770393
1618982800046,55.16528922770393
1618982800876,55.16528922770393
1618982801727,55.16528922770393
1618982802634,55.16528922770393
1618982803590,55.16528922770393
1618982806099,55.16528922770393
1618982806949,55.1433690833922
1618982807856,54.79275667153177
1618982808763,56.14525488612268
1618982809593,56.151770374073294
1618982810372,56.36125535678504
1618982811252,56.04643147933765
1618982812168,55.71042537973852
1618982813076,57.56249043923007
1618982813912,57.58223426842564
1618982814782,61.815365847288525
1618982815663,61.67000524092265
1618982816557,63.296323796986066
1618982817385,63.100549621562365
1618982818232,62.980961327747806
1618982819148,62.81855880091932
1618982820078,62.46207055829999
1618982820970,62.36095455913144
1618982821788,62.65150569841556
1618982822628,62.980958022246774
1618982823500,68.96274287816003
1618982824379,68.84504237383675
1618982825251,68.98525336731394
1618982826098,69.22495965915476
1618982826886,69.39240816984574
1618982827695,69.27264187845238
1618982828558,69.33814201052415
1618982829454,69.4206453759718
1618982830293,69.69895453310681
1618982831117,69.74880433112179
1618982832015,69.63391073965543
1618982832937,69.46727457478649
1618982833802,69.58629901441444
1618982834627,69.59749852670791
1618982835477,69.64819766715682
1618982836355,69.74310881418633
1618982837265,69.81810869958078
1618982838093,70.08154162571998
1618982838886,70.18303149755958
1618982839717,70.22590679348447
1618982840591,70.20941831262901
1618982841440,70.3367277056605
1618982842256,70.56526837471077
1618982843086,70.63483350928273
1618982844003,70.10511619543277
1618982844926,69.64064325437222
1618982845816,69.53507343309374
1618982846620,69.90726859077488
1618982847417,70.07809970618585
1618982848244,70.06404495963054
1618982849083,70.30516189872681
1618982849911,70.69675897778139
1618982850673,71.12746515939666
1618982852212,68.24130443708376
1618982853065,68.16577211398483
1618982853943,68.22479204799117
1618982854740,68.66962613680418
1618982855560,68.6969909687501
1618982856356,68.69078174860745
1618982857149,68.8358368544776
1618982857891,69.3646389821988
1618982859346,67.0176380370668
1618982860128,67.14655939630762
1618982860963,67.12574335467728
1618982861790,67.4662883606991
1618982862560,68.04837377429286
1618982863386,68.29598112299075
1618982864235,68.12143008226464
1618982865047,68.06434530948181
1618982866635,65.25020080749302
1618982867486,65.20798930458562
1618982868345,65.09903489053296
1618982869160,64.90952963850263
1618982869933,67.71540906455392
1618982870757,67.8259784349562
1618982871616,67.90346797723375
1618982872418,67.87870889265388
1618982873206,68.00697842274592
1618982874067,67.75283494799636
1618982874931,67.48404845804569
1618982875730,67.27004156727979
1618982876574,69.65578606525553
1618982877446,69.28857322298053
1618982878289,69.26033540240898
1618982879078,69.40995235758712
1618982879869,69.33038232412657
1618982880690,69.34745031674161
1618982881524,69.40814173697808
1618982882305,69.53423938378747
1618982883093,72.9135513845494
1618982883939,72.93727017922035
1618982884783,72.99947227464845
1618982885583,73.06783971400267
1618982886342,73.12871836680162
1618982887155,73.18139655718113
1618982888010,73.19564054084518
1618982888840,73.07464300753307
1618982889616,73.12563904952995
1618982890403,73.45573548197886
1618982891212,73.70501667668134
1618982892004,73.73444502756112
1618982892756,74.15568652685724
1618982894236,71.4740893620288
1618982895079,71.47026667164566
1618982895912,71.28724446641658
1618982896671,71.42036233811467
1618982898175,68.63217785342577
1618982898998,68.67425158514465
1618982899833,68.46185048958777
1618982900645,68.36588555983741
1618982901424,68.62855105569581
1618982902866,66.36087208140043
1618982903655,66.40184871600397
1618982904454,66.25531319300661
1618982905260,66.28197345738383
1618982906012,66.65914159023824
1618982906777,66.90111045808186
1618982907572,66.83071007016842
1618982908394,66.70008340845423
1618982909188,66.75669177422922
1618982909934,66.92977878202193
1618982910702,66.86708589729137
1618982911527,69.39829939467337
1618982912389,69.32425031600319
1618982913221,69.32578822265802
1618982913964,69.39132474284152
1618982914732,72.47479688938155
1618982915558,72.46221472909254
1618982916425,72.32255134675154
1618982917258,72.23454122127285
1618982918037,72.23376290350816
1618982918794,75.3409413034421
1618982919610,75.21273923292055
1618982920431,75.10869166542624
1618982921283,74.8902436672653
1618982922098,74.60145571063879
1618982922919,74.34022584932319
1618982923808,73.9062657916904
1618982924716,73.52437047974465
1618982925560,73.29249109267218
1618982926342,73.1334960553619
1618982927169,72.8733772237539
1618982928022,72.75039853577695
1618982928872,72.80383588850509
1618982929663,72.98562414325502
1618982930402,73.00146179343785
1618982931207,72.83891491868462
1618982932080,72.63371170251355
1618982932925,72.7263074508282
1618982933688,73.03497571952234
1618982934467,73.03416227716154
1618982935291,72.73825399943729
1618982936099,72.77787761150525
1618982936838,73.1374140475396
1618982937575,73.65401431870863
1618982938387,73.66819867871168
1618982939227,73.58432948119365
1618982940039,73.93542233761623
1618982940801,74.60070903000563
1618982941592,74.8513218837008
1618982942429,74.59524619415058
1618982943275,74.50384629210821
1618982944080,74.73053104636311
1618982944831,75.19087202864489
1618982945641,75.10447501878073
1618982946483,74.62293961399783
1618982947328,74.43500574110976
1618982948106,74.87896750889298
1618982949525,72.2885208359013
1618982950292,72.27402697326926
1618982951093,72.17938743158373
1618982951883,72.32539339137558
1618982952624,72.61365655930942
1618982953374,72.56891855076239
1618982954143,72.43229768225699
1618982954938,72.50749591556222
1618982956385,69.93766688875762
1618982957870,67.30060471275841
1618982958620,67.34448516852758
1618982960096,64.85185242831277
1618982960862,65.10076893773231
1618982961668,65.24360930691377
1618982962410,65.46395560059969
1618982963165,65.45261519742087
1618982963903,65.71105632877698
1618982964640,66.09083921486734
1618982965390,66.43893613989125
1618982966830,64.08791836993665
1618982967584,66.45153351865177
1618982968321,66.56103799720054
1618982969098,66.64745738839264
1618982970435,64.68248124585362
1618982971185,64.65424927930712
1618982973215,60.48302347376385
1618982974466,59.043454703386935
1618982975802,57.5105742775905
1618982977786,56.07151735133107
1618982979187,56.31283016036356
1618982981175,53.20228546377891
1618982981916,54.99618074439809
1618982983332,53.40452037222245
1618982984699,52.10344653009723
1618982986162,50.523312045616464
1618982986913,50.55151705102663
1618982988321,49.14390900972485
1618982989087,49.08535976787209
1618982989880,48.9990914751789
1618982990643,50.392519935910755
1618982991394,50.3977072067083
1618982992148,50.36224302350731
1618982992960,50.28871168450677
1618982993767,51.43134504753647
1618982994537,51.38637000515922
1618982995283,54.37677285272245
1618982996056,55.583038280038444
1618982996882,56.92724655195222
1618982997664,60.367863650728474
1618982999107,60.21756606619702
1618982999870,64.19152697520545
1618983000670,63.98635981439039
1618983001445,66.2489852173669
1618983002204,68.55006053827215
1618983003003,71.2549976473975
1618983003848,70.81724576977624
1618983004697,73.27728760700315
1618983005493,73.14205021189538
1618983006254,73.29052596579498
1618983007039,73.1876139477783
1618983007838,72.97630325643392
1618983008637,72.77724643649252
1618983010064,70.16120530870066
1618983010820,70.36679100283169
1618983011586,70.38428234514095
1618983012331,70.38697822133041
1618983013080,70.48638661172168
1618983013896,70.53020553030859
1618983014784,70.09477222090436
1618983015632,72.61721583537006
1618983017183,69.30706164453079
1618983018805,66.167564725939
1618983020232,63.875393585537196
1618983021635,61.7572818397
1618983022981,60.06542626555986
1618983024445,58.26208850943429
1618983025265,58.3432387187514
1618983026108,58.212048933630484
1618983031201,58.212048933630484
1618983031958,58.212048933630484
1618983032745,58.212048933630484
1618983034082,58.212048933630484
1618983035475,58.212048933630484
1618983036811,58.212048933630484
1618983038197,58.212048933630484
1618983038944,58.212048933630484
1618983041061,58.212048933630484
1618983044814,58.212048933630484
1618983045608,58.212048933630484
1618983047695,58.212048933630484
1618983048982,58.212048933630484
1618983050362,58.212048933630484
1618983052113,58.212048933630484
1618983053317,58.212048933630484
1618983054574,58.212048933630484
1618983062682,58.212048933630484
1618983064042,58.212048933630484
1618983065441,58.212048933630484
1618983066199,58.212048933630484
1618983067584,58.212048933630484
1618983069000,58.212048933630484
1618983069745,58.212048933630484
1618983070506,58.212048933630484
1618983071996,58.212048933630484
1618983072841,58.212048933630484
1618983073629,58.212048933630484
1618983075088,58.212048933630484
1618983075865,58.212048933630484
1618983076610,58.212048933630484
1618983077395,58.212048933630484
1618983078830,58.212048933630484
1618983080339,58.212048933630484
1618983081147,58.212048933630484
1618983081918,58.212048933630484
1618983083389,58.212048933630484
1618983084151,58.212048933630484
1618983084954,57.3843935203647
1618983085715,59.18978360659045
1618983086483,59.15800121086579
1618983087308,60.84001813032527
1618983088152,62.655264313582165
1618983088992,62.34668560343338
1618983089800,62.1942182388899
1618983090575,64.58827343919192
1618983091387,64.70563304594343
1618983092215,64.56561892629199
1618983093056,66.78796102477222
1618983093819,66.83696725924322
1618983095174,64.64044024449156
1618983096534,62.70209341911737
1618983097906,62.90353271481682
1618983098695,65.37401536518165
1618983099511,65.3457957930813
1618983100347,65.11372953916353
1618983101228,67.26761687033702
1618983104399,59.26289697683653
1618983105277,59.046508129744524
1618983106142,58.745728757165104
1618983106981,58.54242247373346
1618983108436,56.79776474290112
1618983109223,56.9516622766427
1618983110044,57.0023680208734
1618983110810,57.11467241189499
1618983111548,57.21695309711793
1618983112328,57.301678294530035
1618983113184,57.22754846434176
1618983113991,57.32119977283608
1618983114754,57.318921764209556
1618983115532,58.94361836600637
1618983116352,60.5507759127803
1618983117210,62.166222428568034
1618983119613,57.3661672415951
1618983120477,57.235253921103656
1618983121367,57.08898145550079
1618983122167,57.30969658575097
1618983123730,62.07917111890732
1618983124562,62.22500114468093
1618983125387,62.356110028395435
1618983126130,62.66778974308976
1618983127498,62.95418823721984
1618983128968,60.77238972584002
1618983130418,58.89743703385436
1618983131207,58.831938918327644
1618983132025,58.60228281285884
1618983132850,58.47471911303203
1618983137837,48.675457643610535
1618983139257,47.49892810752237
1618983140585,46.45605170403703
1618983142059,45.2369795721109
1618983142807,45.35972644456178
1618983151115,45.35972644456178
1618983152488,45.35972644456178
1618983154473,45.35972644456178
1618983155850,45.35972644456178
1618983157858,45.35972644456178
1618983159219,45.35972644456178
1618983160496,45.35972644456178
1618983164492,45.35972644456178
1618983165988,45.35972644456178
1618983170710,45.35972644456178
1618983172510,45.35972644456178
1618983174332,45.35972644456178
1618983175678,45.35972644456178
1618983176686,45.35972644456178
1618983178795,45.35972644456178
1618983180353,45.35972644456178
1618983181918,45.35972644456178
1618983183486,45.35972644456178
1618983184522,45.35972644456178
1618983185502,45.35972644456178
1618983186461,45.35972644456178
1618983187438,34.33445744347
1618983188356,35.41681712665201
1618983189245,35.93272029317741
1618983190191,37.11376401670882
1618983191146,37.58617805888062
1618983193072,36.84246108376882
1618983194180,40.4204698960467
1618983198029,37.452783743694184
1618983200784,39.901492525303325
1618983202645,39.8217802771549
1618983204518,39.753970626586195
1618983207923,37.21498785256267
1618983210003,36.01717406911136
1618983210970,37.296845249452694
