timestamp,value
1620697687996,0.0
1620697687996,0.0
1620697688871,0.0
1620697688871,0.0
1620697689597,0.0
1620697689597,0.0
1620697690081,10.0
1620697690081,10.0
1620697690551,10.0
1620697690551,10.0
1620697690956,10.0
1620697690956,10.0
1620697691392,8.0
1620697691392,8.0
1620697691796,0.0
1620697691796,0.0
1620697692156,10.0
1620697692156,10.0
1620697692652,10.0
1620697692652,10.0
1620697692971,8.0
1620697692971,8.0
1620697693402,10.0
1620697693402,10.0
1620697693935,10.0
1620697693935,10.0
1620697694271,8.0
1620697694271,8.0
1620697694674,10.0
1620697694674,10.0
1620697695397,10.0
1620697695397,10.0
1620697695811,10.0
1620697695811,10.0
1620697696199,15.0
1620697696199,15.0
1620697696629,10.0
1620697696629,10.0
1620697697049,8.0
1620697697049,8.0
1620697697391,0.0
1620697697391,0.0
1620697697802,0.0
1620697697802,0.0
1620697698215,10.0
1620697698215,10.0
1620697698584,10.0
1620697698584,10.0
1620697699079,10.0
1620697699079,10.0
1620697699521,8.0
1620697699521,8.0
1620697699906,10.0
1620697699906,10.0
1620697700134,10.0
1620697700134,10.0
1620697700498,10.0
1620697700498,10.0
1620697701000,10.0
1620697701000,10.0
1620697701395,8.0
1620697701395,8.0
1620697701818,10.0
1620697701818,10.0
1620697702396,10.0
1620697702396,10.0
1620697702779,10.0
1620697702779,10.0
1620697703238,10.0
1620697703238,10.0
1620697703725,10.0
1620697703725,10.0
1620697704138,10.0
1620697704138,10.0
1620697704589,10.0
1620697704589,10.0
1620697705012,10.0
1620697705012,10.0
1620697705375,10.0
1620697705375,10.0
1620697705734,8.0
1620697705734,8.0
1620697706089,10.0
1620697706089,10.0
1620697706443,10.0
1620697706443,10.0
1620697706815,10.0
1620697706815,10.0
1620697707167,10.0
1620697707167,10.0
1620697707512,10.0
1620697707512,10.0
1620697707855,8.0
1620697707855,8.0
1620697708256,10.0
1620697708256,10.0
1620697708552,10.0
1620697708552,10.0
1620697708952,8.0
1620697708952,8.0
1620697709393,8.0
1620697709393,8.0
1620697709822,8.0
1620697709822,8.0
1620697710240,10.0
1620697710240,10.0
1620697710645,10.0
1620697710645,10.0
1620697711219,10.0
1620697711219,10.0
1620697711729,10.0
1620697711729,10.0
1620697712266,10.0
1620697712266,10.0
1620697712850,10.0
1620697712850,10.0
1620697713333,10.0
1620697713333,10.0
1620697713812,10.0
1620697713812,10.0
1620697714267,15.0
1620697714267,15.0
1620697714587,8.0
1620697714587,8.0
1620697714941,8.0
1620697714941,8.0
1620697715139,10.0
1620697715139,10.0
1620697715487,10.0
1620697715487,10.0
1620697715831,10.0
1620697715831,10.0
1620697716158,10.0
1620697716158,10.0
1620697716576,10.0
1620697716576,10.0
1620697716908,10.0
1620697716908,10.0
1620697717354,8.0
1620697717354,8.0
1620697717713,10.0
1620697717713,10.0
1620697718027,8.0
1620697718027,8.0
1620697718380,8.0
1620697718380,8.0
1620697718815,10.0
1620697718815,10.0
1620697719373,8.0
1620697719373,8.0
1620697719719,8.0
1620697719719,8.0
1620697720211,10.0
1620697720211,10.0
1620697720784,10.0
1620697720784,10.0
1620697721132,10.0
1620697721132,10.0
1620697721547,10.0
1620697721547,10.0
1620697722001,10.0
1620697722001,10.0
1620697722422,10.0
1620697722422,10.0
1620697722844,10.0
1620697722844,10.0
1620697723157,10.0
1620697723157,10.0
1620697723503,8.0
1620697723503,8.0
1620697723881,10.0
1620697723881,10.0
1620697724231,10.0
1620697724231,10.0
1620697724616,10.0
1620697724616,10.0
1620697725058,10.0
1620697725058,10.0
1620697725425,8.0
1620697725425,8.0
1620697725802,8.0
1620697725802,8.0
1620697726212,8.0
1620697726212,8.0
1620697726698,10.0
1620697726698,10.0
1620697727175,10.0
1620697727175,10.0
1620697727638,10.0
1620697727638,10.0
1620697728107,10.0
1620697728107,10.0
1620697728601,10.0
1620697728601,10.0
1620697728985,8.0
1620697728985,8.0
1620697729446,10.0
1620697729446,10.0
1620697729858,10.0
1620697729858,10.0
1620697730315,8.0
1620697730315,8.0
1620697730667,8.0
1620697730667,8.0
1620697731010,10.0
1620697731010,10.0
1620697731483,8.0
1620697731483,8.0
1620697731852,10.0
1620697731852,10.0
1620697732257,10.0
1620697732257,10.0
1620697732603,8.0
1620697732603,8.0
1620697733003,8.0
1620697733003,8.0
1620697733389,10.0
1620697733389,10.0
1620697733867,10.0
1620697733867,10.0
1620697734338,10.0
1620697734338,10.0
1620697734724,10.0
1620697734724,10.0
1620697735145,10.0
1620697735145,10.0
1620697735560,10.0
1620697735560,10.0
1620697735879,16.0
1620697735879,16.0
1620697736237,8.0
1620697736237,8.0
1620697736724,8.0
1620697736724,8.0
1620697737116,10.0
1620697737116,10.0
1620697737509,15.0
1620697737509,15.0
1620697737838,10.0
1620697737838,10.0
1620697738207,10.0
1620697738207,10.0
1620697738562,10.0
1620697738562,10.0
1620697738937,8.0
1620697738937,8.0
1620697739252,10.0
1620697739252,10.0
1620697739614,10.0
1620697739614,10.0
1620697740020,10.0
1620697740020,10.0
1620697740374,10.0
1620697740374,10.0
1620697740769,10.0
1620697740769,10.0
1620697741062,10.0
1620697741062,10.0
1620697741451,8.0
1620697741451,8.0
1620697741847,10.0
1620697741847,10.0
1620697742307,8.0
1620697742307,8.0
1620697742687,8.0
1620697742687,8.0
1620697743199,10.0
1620697743199,10.0
1620697743574,8.0
1620697743574,8.0
1620697744034,8.0
1620697744034,8.0
1620697744556,8.0
1620697744556,8.0
1620697745001,10.0
1620697745001,10.0
1620697745426,10.0
1620697745426,10.0
1620697745766,8.0
1620697745766,8.0
1620697746570,0.0
1620697746570,0.0
1620697747037,10.0
1620697747037,10.0
1620697747376,10.0
1620697747376,10.0
1620697747799,10.0
1620697747799,10.0
1620697748231,8.0
1620697748231,8.0
1620697748787,15.0
1620697748787,15.0
1620697749268,10.0
1620697749268,10.0
1620697749704,10.0
1620697749704,10.0
1620697750166,10.0
1620697750166,10.0
1620697750639,10.0
1620697750639,10.0
1620697751080,8.0
1620697751080,8.0
1620697751574,10.0
1620697751574,10.0
1620697752088,8.0
1620697752088,8.0
1620697752466,10.0
1620697752466,10.0
1620697752932,10.0
1620697752932,10.0
1620697753499,8.0
1620697753499,8.0
1620697754007,10.0
1620697754007,10.0
1620697754528,8.0
1620697754528,8.0
1620697755025,8.0
1620697755025,8.0
1620697755398,10.0
1620697755398,10.0
1620697755846,10.0
1620697755846,10.0
1620697756143,8.0
1620697756143,8.0
1620697756546,10.0
1620697756546,10.0
1620697756958,10.0
1620697756958,10.0
1620697757411,10.0
1620697757411,10.0
1620697757771,10.0
1620697757771,10.0
1620697758212,8.0
1620697758212,8.0
1620697758621,10.0
1620697758621,10.0
1620697759028,10.0
1620697759028,10.0
1620697759443,10.0
1620697759443,10.0
1620697759822,10.0
1620697759822,10.0
1620697760202,8.0
1620697760202,8.0
1620697760600,10.0
1620697760600,10.0
1620697761040,8.0
1620697761040,8.0
1620697761362,8.0
1620697761362,8.0
1620697761763,8.0
1620697761763,8.0
1620697762199,10.0
1620697762199,10.0
1620697762532,8.0
1620697762532,8.0
1620697762962,10.0
1620697762962,10.0
1620697763338,10.0
1620697763338,10.0
1620697763785,10.0
1620697763785,10.0
1620697764237,8.0
1620697764237,8.0
1620697764720,10.0
1620697764720,10.0
1620697765169,10.0
1620697765169,10.0
1620697765598,10.0
1620697765598,10.0
1620697765968,10.0
1620697765968,10.0
1620697766406,10.0
1620697766406,10.0
1620697766762,10.0
1620697766762,10.0
1620697767061,10.0
1620697767061,10.0
1620697767455,10.0
1620697767455,10.0
1620697767885,10.0
1620697767885,10.0
1620697768332,8.0
1620697768332,8.0
1620697768862,10.0
1620697768862,10.0
1620697769308,10.0
1620697769308,10.0
1620697769667,15.0
1620697769667,15.0
1620697770135,10.0
1620697770135,10.0
1620697770582,10.0
1620697770582,10.0
1620697771001,10.0
1620697771001,10.0
1620697771482,10.0
1620697771482,10.0
1620697771881,10.0
1620697771881,10.0
1620697772338,10.0
1620697772338,10.0
1620697772866,10.0
1620697772866,10.0
1620697773343,10.0
1620697773343,10.0
1620697773811,10.0
1620697773811,10.0
1620697774250,8.0
1620697774250,8.0
1620697774736,8.0
1620697774736,8.0
1620697775165,10.0
1620697775165,10.0
1620697775725,10.0
1620697775725,10.0
1620697776205,15.0
1620697776205,15.0
1620697776621,10.0
1620697776621,10.0
1620697776929,8.0
1620697776929,8.0
1620697777274,10.0
1620697777274,10.0
1620697777701,8.0
1620697777701,8.0
1620697778096,10.0
1620697778096,10.0
1620697778566,8.0
1620697778566,8.0
1620697779183,10.0
1620697779183,10.0
1620697780063,0.0
1620697780063,0.0
1620697781116,0.0
1620697781116,0.0
1620697782055,0.0
1620697782055,0.0
1620697782823,0.0
1620697782823,0.0
1620697783336,10.0
1620697783336,10.0
1620697783761,15.0
1620697783761,15.0
1620697784240,10.0
1620697784240,10.0
1620697784712,10.0
1620697784712,10.0
1620697785233,10.0
1620697785233,10.0
1620697785752,10.0
1620697785752,10.0
1620697786281,10.0
1620697786281,10.0
1620697786796,10.0
1620697786796,10.0
1620697787246,10.0
1620697787246,10.0
1620697787603,10.0
1620697787603,10.0
1620697787973,10.0
1620697787973,10.0
1620697788374,10.0
1620697788374,10.0
1620697788756,15.0
1620697788756,15.0
1620697789106,10.0
1620697789106,10.0
1620697789515,8.0
1620697789515,8.0
1620697790021,8.0
1620697790021,8.0
1620697790393,10.0
1620697790393,10.0
1620697790888,8.0
1620697790888,8.0
1620697791341,10.0
1620697791341,10.0
1620697791826,8.0
1620697791826,8.0
1620697792285,10.0
1620697792285,10.0
1620697792725,10.0
1620697792725,10.0
1620697793179,10.0
1620697793179,10.0
1620697793582,15.0
1620697793582,15.0
1620697793957,10.0
1620697793957,10.0
1620697794459,8.0
1620697794459,8.0
1620697794909,8.0
1620697794909,8.0
1620697795437,8.0
1620697795437,8.0
1620697795694,10.0
1620697795694,10.0
1620697796156,8.0
1620697796156,8.0
1620697796560,10.0
1620697796560,10.0
1620697796965,10.0
1620697796965,10.0
1620697797322,10.0
1620697797322,10.0
1620697797701,15.0
1620697797701,15.0
1620697798056,8.0
1620697798056,8.0
1620697798452,10.0
1620697798452,10.0
1620697798792,8.0
1620697798792,8.0
1620697799152,10.0
1620697799152,10.0
1620697799516,10.0
1620697799516,10.0
1620697799849,10.0
1620697799849,10.0
1620697800234,10.0
1620697800234,10.0
1620697800573,8.0
1620697800573,8.0
1620697800919,8.0
1620697800919,8.0
1620697801346,10.0
1620697801346,10.0
1620697801842,10.0
1620697801842,10.0
1620697802248,10.0
1620697802248,10.0
1620697802661,10.0
1620697802661,10.0
1620697802967,10.0
1620697802967,10.0
1620697803448,10.0
1620697803448,10.0
1620697803993,8.0
1620697803993,8.0
1620697804407,15.0
1620697804407,15.0
1620697804885,8.0
1620697804885,8.0
1620697805271,10.0
1620697805271,10.0
1620697805734,15.0
1620697805734,15.0
1620697806262,10.0
1620697806262,10.0
1620697807040,0.0
1620697807040,0.0
1620697807538,8.0
1620697807538,8.0
1620697807990,8.0
1620697807990,8.0
1620697808411,10.0
1620697808411,10.0
1620697808864,8.0
1620697808864,8.0
1620697809305,10.0
1620697809305,10.0
1620697809618,8.0
1620697809618,8.0
1620697810068,10.0
1620697810068,10.0
1620697810549,10.0
1620697810549,10.0
1620697810931,10.0
1620697810931,10.0
1620697811422,10.0
1620697811422,10.0
1620697811851,10.0
1620697811851,10.0
1620697812278,8.0
1620697812278,8.0
1620697812712,10.0
1620697812712,10.0
1620697813123,8.0
1620697813123,8.0
1620697813618,8.0
1620697813618,8.0
1620697814108,10.0
1620697814108,10.0
1620697814556,8.0
1620697814556,8.0
1620697815077,8.0
1620697815077,8.0
1620697815473,10.0
1620697815473,10.0
1620697815842,10.0
1620697815842,10.0
1620697816270,10.0
1620697816270,10.0
1620697816598,8.0
1620697816598,8.0
1620697817004,10.0
1620697817004,10.0
1620697817472,8.0
1620697817472,8.0
1620697818202,0.0
1620697818202,0.0
1620697819124,0.0
1620697819124,0.0
1620697820194,0.0
1620697820194,0.0
1620697820910,0.0
1620697820910,0.0
1620697821624,0.0
1620697821624,0.0
1620697822147,10.0
1620697822147,10.0
1620697822514,8.0
1620697822514,8.0
1620697822833,15.0
1620697822833,15.0
1620697823199,8.0
1620697823199,8.0
1620697823640,8.0
1620697823640,8.0
1620697824054,8.0
1620697824054,8.0
1620697824435,8.0
1620697824435,8.0
1620697824808,10.0
1620697824808,10.0
1620697825183,8.0
1620697825183,8.0
1620697825569,10.0
1620697825569,10.0
1620697825941,15.0
1620697825941,15.0
1620697826344,10.0
1620697826344,10.0
1620697826697,10.0
1620697826697,10.0
1620697827142,10.0
1620697827142,10.0
1620697827461,8.0
1620697827461,8.0
1620697827895,10.0
1620697827895,10.0
1620697828365,10.0
1620697828365,10.0
1620697828816,10.0
1620697828816,10.0
1620697829255,8.0
1620697829255,8.0
1620697829615,0.0
1620697829615,0.0
1620697829991,10.0
1620697829991,10.0
1620697830309,10.0
1620697830309,10.0
1620697830661,8.0
1620697830661,8.0
1620697831000,10.0
1620697831000,10.0
1620697831356,15.0
1620697831356,15.0
1620697831741,10.0
1620697831741,10.0
1620697832124,0.0
1620697832124,0.0
1620697832438,8.0
1620697832438,8.0
1620697832790,8.0
1620697832790,8.0
1620697833119,10.0
1620697833119,10.0
1620697833502,10.0
1620697833502,10.0
1620697833943,10.0
1620697833943,10.0
1620697834379,10.0
1620697834379,10.0
1620697834867,8.0
1620697834867,8.0
1620697835268,10.0
1620697835268,10.0
1620697835675,10.0
1620697835675,10.0
1620697836138,15.0
1620697836138,15.0
1620697836604,15.0
1620697836604,15.0
1620697836976,10.0
1620697836976,10.0
1620697837376,10.0
1620697837376,10.0
1620697837864,0.0
1620697837864,0.0
1620697838332,15.0
1620697838332,15.0
1620697838697,10.0
1620697838697,10.0
1620697839125,8.0
1620697839125,8.0
1620697839575,8.0
1620697839575,8.0
1620697839942,8.0
1620697839942,8.0
1620697840322,10.0
1620697840322,10.0
1620697840686,0.0
1620697840686,0.0
1620697841017,10.0
1620697841017,10.0
1620697841473,10.0
1620697841473,10.0
1620697842185,0.0
1620697842185,0.0
1620697843168,0.0
1620697843168,0.0
1620697843951,0.0
1620697843951,0.0
1620697844866,0.0
1620697844866,0.0
1620697845821,0.0
1620697845821,0.0
1620697846700,0.0
1620697846700,0.0
1620697847169,1.0
1620697847169,1.0
1620697847548,10.0
1620697847548,10.0
1620697847887,10.0
1620697847887,10.0
1620697848261,15.0
1620697848261,15.0
1620697848664,8.0
1620697848664,8.0
1620697849026,10.0
1620697849026,10.0
1620697849442,1.0
1620697849442,1.0
1620697849907,0.0
1620697849907,0.0
1620697850425,0.0
1620697850425,0.0
1620697850813,0.0
1620697850813,0.0
1620697851201,0.0
1620697851201,0.0
1620697851587,10.0
1620697851587,10.0
1620697852042,10.0
1620697852042,10.0
1620697852539,10.0
1620697852539,10.0
1620697852909,1.0
1620697852909,1.0
1620697853314,0.0
1620697853314,0.0
1620697853782,0.0
1620697853782,0.0
1620697854194,10.0
1620697854194,10.0
1620697854667,10.0
1620697854667,10.0
1620697855086,10.0
1620697855086,10.0
1620697855508,10.0
1620697855508,10.0
1620697856002,10.0
1620697856002,10.0
1620697856478,10.0
1620697856478,10.0
1620697856890,10.0
1620697856890,10.0
1620697857322,8.0
1620697857322,8.0
1620697857738,10.0
1620697857738,10.0
1620697858113,10.0
1620697858113,10.0
1620697858523,0.0
1620697858523,0.0
1620697858909,0.0
1620697858909,0.0
1620697859264,10.0
1620697859264,10.0
1620697859644,10.0
1620697859644,10.0
1620697860019,0.0
1620697860019,0.0
1620697860442,0.0
1620697860442,0.0
1620697860899,10.0
1620697860899,10.0
1620697861316,10.0
1620697861316,10.0
1620697861788,8.0
1620697861788,8.0
1620697862122,10.0
1620697862122,10.0
1620697862537,8.0
1620697862537,8.0
1620697862933,0.0
1620697862933,0.0
1620697863324,10.0
1620697863324,10.0
1620697863714,8.0
1620697863714,8.0
1620697864121,10.0
1620697864121,10.0
1620697864508,8.0
1620697864508,8.0
1620697864950,10.0
1620697864950,10.0
1620697865342,1.0
1620697865342,1.0
1620697865743,10.0
1620697865743,10.0
1620697866108,15.0
1620697866108,15.0
1620697866550,0.0
1620697866550,0.0
1620697866963,8.0
1620697866963,8.0
1620697867255,10.0
1620697867255,10.0
1620697867682,10.0
1620697867682,10.0
1620697868021,10.0
1620697868021,10.0
1620697868386,0.0
1620697868386,0.0
1620697868822,10.0
1620697868822,10.0
1620697869212,10.0
1620697869212,10.0
1620697869701,10.0
1620697869701,10.0
1620697870174,10.0
1620697870174,10.0
1620697870559,10.0
1620697870559,10.0
1620697871345,0.0
1620697871345,0.0
1620697872275,0.0
1620697872275,0.0
1620697872776,10.0
1620697872776,10.0
1620697873166,8.0
1620697873166,8.0
1620697873560,10.0
1620697873560,10.0
1620697873960,8.0
1620697873960,8.0
1620697874341,10.0
1620697874341,10.0
1620697874741,10.0
1620697874741,10.0
1620697875076,10.0
1620697875076,10.0
1620697875398,8.0
1620697875398,8.0
1620697875753,8.0
1620697875753,8.0
1620697876102,8.0
1620697876102,8.0
1620697876549,10.0
1620697876549,10.0
1620697877020,10.0
1620697877020,10.0
1620697877870,0.0
1620697877870,0.0
1620697878951,0.0
1620697878951,0.0
1620697879727,0.0
1620697879727,0.0
1620697880513,0.0
1620697880513,0.0
1620697881443,0.0
1620697881443,0.0
1620697882478,0.0
1620697882478,0.0
1620697883555,0.0
1620697883555,0.0
1620697884730,0.0
1620697884730,0.0
1620697885128,10.0
1620697885128,10.0
1620697885489,8.0
1620697885489,8.0
1620697885936,10.0
1620697885936,10.0
1620697886333,10.0
1620697886333,10.0
1620697886856,8.0
1620697886856,8.0
1620697887285,8.0
1620697887285,8.0
1620697887748,10.0
1620697887748,10.0
1620697888240,10.0
1620697888240,10.0
1620697888812,10.0
1620697888812,10.0
1620697889668,0.0
1620697889668,0.0
1620697890643,0.0
1620697890643,0.0
1620697891096,10.0
1620697891096,10.0
1620697891458,10.0
1620697891458,10.0
1620697891872,10.0
1620697891872,10.0
1620697892292,10.0
1620697892292,10.0
1620697892658,10.0
1620697892658,10.0
1620697893108,8.0
1620697893108,8.0
1620697893592,10.0
1620697893592,10.0
1620697894057,10.0
1620697894057,10.0
1620697894439,10.0
1620697894439,10.0
1620697894871,10.0
1620697894871,10.0
1620697895269,10.0
1620697895269,10.0
1620697895712,0.0
1620697895712,0.0
1620697896133,10.0
1620697896133,10.0
1620697896457,8.0
1620697896457,8.0
1620697896950,0.0
1620697896950,0.0
1620697897365,10.0
1620697897365,10.0
1620697897777,10.0
1620697897777,10.0
1620697898289,15.0
1620697898289,15.0
1620697898763,10.0
1620697898763,10.0
1620697899097,10.0
1620697899097,10.0
1620697899454,8.0
1620697899454,8.0
1620697899774,8.0
1620697899774,8.0
1620697900109,8.0
1620697900109,8.0
1620697900520,8.0
1620697900520,8.0
1620697900882,0.0
1620697900882,0.0
1620697901260,8.0
1620697901260,8.0
1620697901639,8.0
1620697901639,8.0
1620697902027,15.0
1620697902027,15.0
1620697902451,10.0
1620697902451,10.0
1620697902813,10.0
1620697902813,10.0
1620697903164,10.0
1620697903164,10.0
1620697903539,10.0
1620697903539,10.0
1620697903948,10.0
1620697903948,10.0
1620697904384,10.0
1620697904384,10.0
1620697904873,10.0
1620697904873,10.0
1620697905340,10.0
1620697905340,10.0
1620697905685,10.0
1620697905685,10.0
1620697906166,10.0
1620697906166,10.0
1620697906625,10.0
1620697906625,10.0
1620697907105,10.0
1620697907105,10.0
1620697907586,10.0
1620697907586,10.0
1620697907951,8.0
1620697907951,8.0
1620697908489,10.0
1620697908489,10.0
1620697908954,8.0
1620697908954,8.0
1620697909452,8.0
1620697909452,8.0
1620697909905,10.0
1620697909905,10.0
1620697910275,15.0
1620697910275,15.0
1620697910624,8.0
1620697910624,8.0
1620697910992,8.0
1620697910992,8.0
1620697911452,10.0
1620697911452,10.0
1620697911879,15.0
1620697911879,15.0
1620697912302,10.0
1620697912302,10.0
1620697912690,15.0
1620697912690,15.0
1620697913182,8.0
1620697913182,8.0
1620697913604,10.0
1620697913604,10.0
1620697914038,10.0
1620697914038,10.0
1620697914490,10.0
1620697914490,10.0
1620697914857,10.0
1620697914857,10.0
1620697915206,8.0
1620697915206,8.0
1620697915611,10.0
1620697915611,10.0
1620697915976,10.0
1620697915976,10.0
1620697916317,10.0
1620697916317,10.0
1620697916693,10.0
1620697916693,10.0
1620697917059,10.0
1620697917059,10.0
1620697917414,10.0
1620697917414,10.0
1620697917870,10.0
1620697917870,10.0
1620697918332,10.0
1620697918332,10.0
1620697918743,10.0
1620697918743,10.0
1620697919147,10.0
1620697919147,10.0
1620697919552,10.0
1620697919552,10.0
1620697919967,0.0
1620697919967,0.0
1620697920400,0.0
1620697920400,0.0
1620697920806,10.0
1620697920806,10.0
1620697921225,10.0
1620697921225,10.0
1620697921705,10.0
1620697921705,10.0
1620697922080,10.0
1620697922080,10.0
1620697922504,10.0
1620697922504,10.0
1620697922933,8.0
1620697922933,8.0
1620697923286,8.0
1620697923286,8.0
1620697923723,10.0
1620697923723,10.0
1620697924106,10.0
1620697924106,10.0
1620697924484,1.0
1620697924484,1.0
1620697924906,10.0
1620697924906,10.0
1620697925309,0.0
1620697925309,0.0
1620697925693,0.0
1620697925693,0.0
1620697926040,10.0
1620697926040,10.0
1620697926374,0.0
1620697926374,0.0
1620697926837,1.0
1620697926837,1.0
1620697927173,1.0
1620697927173,1.0
1620697927521,10.0
1620697927521,10.0
1620697927911,0.0
1620697927911,0.0
1620697928298,15.0
1620697928298,15.0
1620697928680,8.0
1620697928680,8.0
1620697929165,10.0
1620697929165,10.0
1620697929641,10.0
1620697929641,10.0
1620697930038,10.0
1620697930038,10.0
1620697930544,10.0
1620697930544,10.0
1620697930984,8.0
1620697930984,8.0
1620697931453,10.0
1620697931453,10.0
1620697931898,15.0
1620697931898,15.0
1620697932283,8.0
1620697932283,8.0
1620697932634,15.0
1620697932634,15.0
1620697933072,10.0
1620697933072,10.0
1620697933834,0.0
1620697933834,0.0
1620697934753,0.0
1620697934753,0.0
1620697935593,0.0
1620697935593,0.0
1620697936341,0.0
1620697936341,0.0
1620697936837,8.0
1620697936837,8.0
1620697937190,8.0
1620697937190,8.0
1620697937639,8.0
1620697937639,8.0
1620697938026,10.0
1620697938026,10.0
1620697938365,0.0
1620697938365,0.0
1620697938766,10.0
1620697938766,10.0
1620697939118,10.0
1620697939118,10.0
1620697939501,10.0
1620697939501,10.0
1620697939905,10.0
1620697939905,10.0
1620697940289,15.0
1620697940289,15.0
1620697940662,10.0
1620697940662,10.0
1620697941063,0.0
1620697941063,0.0
1620697941582,8.0
1620697941582,8.0
1620697942011,8.0
1620697942011,8.0
1620697942515,8.0
1620697942515,8.0
1620697942901,0.0
1620697942901,0.0
1620697943305,10.0
1620697943305,10.0
1620697943742,10.0
1620697943742,10.0
1620697944157,10.0
1620697944157,10.0
1620697944528,0.0
1620697944528,0.0
1620697944962,8.0
1620697944962,8.0
1620697945365,10.0
1620697945365,10.0
1620697945802,8.0
1620697945802,8.0
1620697946270,10.0
1620697946270,10.0
1620697946733,0.0
1620697946733,0.0
1620697947171,8.0
1620697947171,8.0
1620697947661,10.0
1620697947661,10.0
1620697948165,10.0
1620697948165,10.0
1620697948606,10.0
1620697948606,10.0
1620697949013,10.0
1620697949013,10.0
1620697949378,15.0
1620697949378,15.0
1620697949586,10.0
1620697949586,10.0
1620697949913,8.0
1620697949913,8.0
1620697950268,10.0
1620697950268,10.0
1620697950601,8.0
1620697950601,8.0
1620697950936,10.0
1620697950936,10.0
1620697951263,10.0
1620697951263,10.0
1620697951598,8.0
1620697951598,8.0
1620697951969,15.0
1620697951969,15.0
1620697952296,15.0
1620697952296,15.0
1620697952642,8.0
1620697952642,8.0
1620697953067,10.0
1620697953067,10.0
1620697953500,10.0
1620697953500,10.0
1620697953923,10.0
1620697953923,10.0
1620697954408,10.0
1620697954408,10.0
1620697954805,15.0
1620697954805,15.0
1620697955309,8.0
1620697955309,8.0
1620697955808,10.0
1620697955808,10.0
1620697956281,8.0
1620697956281,8.0
1620697956682,10.0
1620697956682,10.0
1620697957041,10.0
1620697957041,10.0
1620697957520,8.0
1620697957520,8.0
1620697957922,8.0
1620697957922,8.0
1620697958269,15.0
1620697958269,15.0
1620697958652,10.0
1620697958652,10.0
1620697959090,10.0
1620697959090,10.0
1620697959457,10.0
1620697959457,10.0
1620697959858,10.0
1620697959858,10.0
1620697960332,10.0
1620697960332,10.0
1620697960740,10.0
1620697960740,10.0
1620697961158,10.0
1620697961158,10.0
1620697961657,8.0
1620697961657,8.0
1620697962095,10.0
1620697962095,10.0
1620697962449,8.0
1620697962449,8.0
1620697962822,10.0
1620697962822,10.0
1620697963164,8.0
1620697963164,8.0
1620697963502,8.0
1620697963502,8.0
1620697963877,8.0
1620697963877,8.0
1620697964179,10.0
1620697964179,10.0
1620697964517,10.0
1620697964517,10.0
1620697964968,10.0
1620697964968,10.0
1620697965389,8.0
1620697965389,8.0
1620697965785,10.0
1620697965785,10.0
1620697966189,10.0
1620697966189,10.0
1620697966583,15.0
1620697966583,15.0
1620697967021,8.0
1620697967021,8.0
1620697967382,10.0
1620697967382,10.0
1620697967771,10.0
1620697967771,10.0
1620697968104,10.0
1620697968104,10.0
1620697968478,10.0
1620697968478,10.0
1620697968851,10.0
1620697968851,10.0
1620697969290,10.0
1620697969290,10.0
1620697969722,8.0
1620697969722,8.0
1620697970164,10.0
1620697970164,10.0
1620697970643,8.0
1620697970643,8.0
1620697971098,10.0
1620697971098,10.0
1620697971606,10.0
1620697971606,10.0
1620697972166,8.0
1620697972166,8.0
1620697972664,10.0
1620697972664,10.0
1620697973083,10.0
1620697973083,10.0
1620697973615,0.0
1620697973615,0.0
1620697974406,0.0
1620697974406,0.0
1620697974949,0.0
1620697974949,0.0
1620697975319,8.0
1620697975319,8.0
1620697975705,10.0
1620697975705,10.0
1620697976129,10.0
1620697976129,10.0
1620697976539,1.0
1620697976539,1.0
1620697976985,8.0
1620697976985,8.0
1620697977422,1.0
1620697977422,1.0
1620697977790,10.0
1620697977790,10.0
1620697978222,0.0
1620697978222,0.0
1620697978637,0.0
1620697978637,0.0
1620697979076,0.0
1620697979076,0.0
1620697979557,0.0
1620697979557,0.0
1620697979917,0.0
1620697979917,0.0
1620697980289,0.0
1620697980289,0.0
1620697980685,8.0
1620697980685,8.0
1620697981178,8.0
1620697981178,8.0
1620697981609,0.0
1620697981609,0.0
1620697981939,8.0
1620697981939,8.0
1620697982282,1.0
1620697982282,1.0
1620697982620,0.0
1620697982620,0.0
1620697982977,10.0
1620697982977,10.0
1620697983299,10.0
1620697983299,10.0
1620697983689,10.0
1620697983689,10.0
1620697984130,1.0
1620697984130,1.0
1620697984506,0.0
1620697984506,0.0
1620697984968,8.0
1620697984968,8.0
1620697985424,10.0
1620697985424,10.0
1620697985824,10.0
1620697985824,10.0
1620697986221,10.0
1620697986221,10.0
1620697986574,0.0
1620697986574,0.0
1620697986902,10.0
1620697986902,10.0
1620697987312,10.0
1620697987312,10.0
1620697987679,10.0
1620697987679,10.0
1620697988051,10.0
1620697988051,10.0
1620697988368,0.0
1620697988368,0.0
1620697988740,0.0
1620697988740,0.0
1620697989062,10.0
1620697989062,10.0
1620697989497,0.0
1620697989497,0.0
1620697989873,8.0
1620697989873,8.0
1620697990367,10.0
1620697990367,10.0
1620697990904,10.0
1620697990904,10.0
1620697991417,8.0
1620697991417,8.0
1620697991733,10.0
1620697991733,10.0
1620697992130,8.0
1620697992130,8.0
1620697992559,10.0
1620697992559,10.0
1620697992943,0.0
1620697992943,0.0
1620697993326,0.0
1620697993326,0.0
1620697993653,8.0
1620697993653,8.0
1620697994013,0.0
1620697994013,0.0
1620697994400,0.0
1620697994400,0.0
1620697994807,0.0
1620697994807,0.0
1620697995194,10.0
1620697995194,10.0
1620697995581,1.0
1620697995581,1.0
1620697995958,0.0
1620697995958,0.0
1620697996334,1.0
1620697996334,1.0
1620697996722,0.0
1620697996722,0.0
1620697997142,0.0
1620697997142,0.0
1620697997542,0.0
1620697997542,0.0
1620697997932,8.0
1620697997932,8.0
1620697998305,8.0
1620697998305,8.0
1620697998790,0.0
1620697998790,0.0
1620697999220,10.0
1620697999220,10.0
1620697999620,0.0
1620697999620,0.0
1620698000064,0.0
1620698000064,0.0
1620698000413,10.0
1620698000413,10.0
1620698000760,0.0
1620698000760,0.0
1620698001132,1.0
1620698001132,1.0
1620698001499,0.0
1620698001499,0.0
1620698001884,10.0
1620698001884,10.0
1620698002331,10.0
1620698002331,10.0
1620698002774,10.0
1620698002774,10.0
1620698003280,8.0
1620698003280,8.0
1620698003673,0.0
1620698003673,0.0
1620698004062,10.0
1620698004062,10.0
1620698004445,10.0
1620698004445,10.0
1620698004794,0.0
1620698004794,0.0
1620698005165,8.0
1620698005165,8.0
1620698005629,0.0
1620698005629,0.0
1620698006095,10.0
1620698006095,10.0
1620698006575,10.0
1620698006575,10.0
1620698007072,10.0
1620698007072,10.0
1620698007526,0.0
1620698007526,0.0
1620698007927,0.0
1620698007927,0.0
1620698008314,10.0
1620698008314,10.0
1620698008704,0.0
1620698008704,0.0
1620698009125,0.0
1620698009125,0.0
1620698009504,15.0
1620698009504,15.0
1620698009881,8.0
1620698009881,8.0
1620698010251,10.0
1620698010251,10.0
1620698010706,10.0
1620698010706,10.0
1620698011068,0.0
1620698011068,0.0
1620698011476,15.0
1620698011476,15.0
1620698011910,10.0
1620698011910,10.0
1620698012435,10.0
1620698012435,10.0
1620698012988,10.0
1620698012988,10.0
1620698013685,0.0
1620698013685,0.0
1620698014378,0.0
1620698014378,0.0
1620698015115,0.0
1620698015115,0.0
1620698015634,0.0
1620698015634,0.0
1620698016200,8.0
1620698016200,8.0
1620698016618,8.0
1620698016618,8.0
1620698017072,15.0
1620698017072,15.0
1620698017420,8.0
1620698017420,8.0
1620698017859,10.0
1620698017859,10.0
1620698018272,10.0
1620698018272,10.0
1620698018712,10.0
1620698018712,10.0
1620698019095,10.0
1620698019095,10.0
1620698019459,8.0
1620698019459,8.0
1620698019875,8.0
1620698019875,8.0
1620698020316,8.0
1620698020316,8.0
1620698020696,8.0
1620698020696,8.0
1620698021093,10.0
1620698021093,10.0
1620698021473,10.0
1620698021473,10.0
1620698021896,10.0
1620698021896,10.0
1620698022316,10.0
1620698022316,10.0
1620698022534,10.0
1620698022534,10.0
1620698022911,8.0
1620698022911,8.0
1620698023392,10.0
1620698023392,10.0
1620698023770,10.0
1620698023770,10.0
1620698024151,10.0
1620698024151,10.0
1620698024598,15.0
1620698024598,15.0
1620698024991,10.0
1620698024991,10.0
1620698025417,10.0
1620698025417,10.0
1620698025847,10.0
1620698025847,10.0
1620698026208,8.0
1620698026208,8.0
1620698026575,10.0
1620698026575,10.0
1620698026961,8.0
1620698026961,8.0
1620698027326,8.0
1620698027326,8.0
1620698027782,10.0
1620698027782,10.0
1620698028232,10.0
1620698028232,10.0
1620698028641,10.0
1620698028641,10.0
1620698029113,15.0
1620698029113,15.0
1620698029578,10.0
1620698029578,10.0
1620698030043,8.0
1620698030043,8.0
1620698030557,8.0
1620698030557,8.0
1620698030969,10.0
1620698030969,10.0
1620698031380,0.0
1620698031380,0.0
1620698031808,10.0
1620698031808,10.0
1620698032212,0.0
1620698032212,0.0
1620698032752,8.0
1620698032752,8.0
1620698033262,10.0
1620698033262,10.0
1620698033743,8.0
1620698033743,8.0
1620698034214,8.0
1620698034214,8.0
1620698034625,8.0
1620698034625,8.0
1620698035008,10.0
1620698035008,10.0
1620698035364,0.0
1620698035364,0.0
1620698035791,10.0
1620698035791,10.0
1620698036184,10.0
1620698036184,10.0
1620698036551,0.0
1620698036551,0.0
1620698036957,10.0
1620698036957,10.0
1620698037366,10.0
1620698037366,10.0
1620698037794,8.0
1620698037794,8.0
1620698038198,8.0
1620698038198,8.0
1620698038508,10.0
1620698038508,10.0
1620698038909,1.0
1620698038909,1.0
1620698039327,15.0
1620698039327,15.0
1620698039794,10.0
1620698039794,10.0
1620698040267,10.0
1620698040267,10.0
1620698040638,10.0
1620698040638,10.0
1620698041060,10.0
1620698041060,10.0
1620698041543,10.0
1620698041543,10.0
1620698041990,0.0
1620698041990,0.0
1620698042494,8.0
1620698042494,8.0
1620698042946,8.0
1620698042946,8.0
1620698043338,10.0
1620698043338,10.0
1620698043768,8.0
1620698043768,8.0
1620698044169,0.0
1620698044169,0.0
1620698044503,10.0
1620698044503,10.0
1620698044931,10.0
1620698044931,10.0
1620698045349,10.0
1620698045349,10.0
1620698045772,10.0
1620698045772,10.0
1620698046274,10.0
1620698046274,10.0
1620698046719,10.0
1620698046719,10.0
1620698047134,8.0
1620698047134,8.0
1620698047539,10.0
1620698047539,10.0
1620698047911,10.0
1620698047911,10.0
1620698048254,15.0
1620698048254,15.0
1620698048676,10.0
1620698048676,10.0
1620698049030,10.0
1620698049030,10.0
1620698049413,10.0
1620698049413,10.0
1620698049800,10.0
1620698049800,10.0
1620698050180,8.0
1620698050180,8.0
1620698050509,10.0
1620698050509,10.0
1620698050880,10.0
1620698050880,10.0
1620698051231,0.0
1620698051231,0.0
1620698051603,10.0
1620698051603,10.0
1620698052044,10.0
1620698052044,10.0
1620698052397,10.0
1620698052397,10.0
1620698052865,10.0
1620698052865,10.0
1620698053344,10.0
1620698053344,10.0
1620698053748,10.0
1620698053748,10.0
1620698054304,10.0
1620698054304,10.0
1620698055401,0.0
1620698055401,0.0
1620698056179,0.0
1620698056179,0.0
1620698056920,0.0
1620698056920,0.0
1620698057755,0.0
1620698057755,0.0
1620698058613,0.0
1620698058613,0.0
1620698059353,0.0
1620698059353,0.0
1620698060055,0.0
1620698060055,0.0
1620698060875,0.0
1620698060875,0.0
1620698061373,15.0
1620698061373,15.0
1620698061775,8.0
1620698061775,8.0
1620698062108,8.0
1620698062108,8.0
1620698062519,10.0
1620698062519,10.0
1620698062932,8.0
1620698062932,8.0
1620698063361,8.0
1620698063361,8.0
1620698063728,8.0
1620698063728,8.0
1620698064098,8.0
1620698064098,8.0
1620698064482,10.0
1620698064482,10.0
1620698064923,10.0
1620698064923,10.0
1620698065325,10.0
1620698065325,10.0
1620698065752,10.0
1620698065752,10.0
1620698066191,10.0
1620698066191,10.0
1620698066614,10.0
1620698066614,10.0
1620698067024,8.0
1620698067024,8.0
1620698067442,8.0
1620698067442,8.0
1620698067860,10.0
1620698067860,10.0
1620698068239,10.0
1620698068239,10.0
1620698068622,10.0
1620698068622,10.0
1620698068967,10.0
1620698068967,10.0
1620698069420,10.0
1620698069420,10.0
1620698069821,8.0
1620698069821,8.0
1620698070212,10.0
1620698070212,10.0
1620698070563,8.0
1620698070563,8.0
1620698070940,10.0
1620698070940,10.0
1620698071361,10.0
1620698071361,10.0
1620698071828,15.0
1620698071828,15.0
1620698072264,10.0
1620698072264,10.0
1620698072626,8.0
1620698072626,8.0
1620698072999,8.0
1620698072999,8.0
1620698073321,10.0
1620698073321,10.0
1620698073716,10.0
1620698073716,10.0
1620698074164,8.0
1620698074164,8.0
1620698074588,8.0
1620698074588,8.0
1620698075020,8.0
1620698075020,8.0
1620698075450,10.0
1620698075450,10.0
1620698075888,10.0
1620698075888,10.0
1620698076290,10.0
1620698076290,10.0
1620698076637,10.0
1620698076637,10.0
1620698076981,1.0
1620698076981,1.0
1620698077375,8.0
1620698077375,8.0
1620698077750,10.0
1620698077750,10.0
1620698078116,10.0
1620698078116,10.0
1620698078543,8.0
1620698078543,8.0
1620698079024,15.0
1620698079024,15.0
1620698079379,10.0
1620698079379,10.0
1620698079787,10.0
1620698079787,10.0
1620698080184,10.0
1620698080184,10.0
1620698080584,10.0
1620698080584,10.0
1620698080943,8.0
1620698080943,8.0
1620698081315,10.0
1620698081315,10.0
1620698081664,10.0
1620698081664,10.0
1620698082044,10.0
1620698082044,10.0
1620698082460,8.0
1620698082460,8.0
1620698082918,10.0
1620698082918,10.0
1620698083404,8.0
1620698083404,8.0
1620698083918,10.0
1620698083918,10.0
1620698084693,8.0
1620698084693,8.0
1620698085118,10.0
1620698085118,10.0
1620698085467,10.0
1620698085467,10.0
1620698085885,0.0
1620698085885,0.0
1620698086322,10.0
1620698086322,10.0
1620698086674,8.0
1620698086674,8.0
1620698087065,10.0
1620698087065,10.0
1620698087470,10.0
1620698087470,10.0
1620698087763,8.0
1620698087763,8.0
1620698088141,10.0
1620698088141,10.0
1620698088465,8.0
1620698088465,8.0
1620698088754,10.0
1620698088754,10.0
1620698089134,8.0
1620698089134,8.0
1620698089554,10.0
1620698089554,10.0
1620698089918,10.0
1620698089918,10.0
1620698090273,10.0
1620698090273,10.0
1620698090668,15.0
1620698090668,15.0
1620698091003,8.0
1620698091003,8.0
1620698091350,16.0
1620698091350,16.0
1620698091776,8.0
1620698091776,8.0
1620698092150,10.0
1620698092150,10.0
1620698092544,10.0
1620698092544,10.0
1620698092957,8.0
1620698092957,8.0
1620698093297,8.0
1620698093297,8.0
1620698093689,16.0
1620698093689,16.0
1620698094085,8.0
1620698094085,8.0
1620698094435,8.0
1620698094435,8.0
1620698094764,10.0
1620698094764,10.0
1620698095110,10.0
1620698095110,10.0
1620698095473,10.0
1620698095473,10.0
1620698095909,10.0
1620698095909,10.0
1620698096292,10.0
1620698096292,10.0
1620698096677,10.0
1620698096677,10.0
1620698097164,8.0
1620698097164,8.0
1620698097931,0.0
1620698097931,0.0
1620698098441,15.0
1620698098441,15.0
1620698098855,10.0
1620698098855,10.0
1620698099227,10.0
1620698099227,10.0
1620698099646,8.0
1620698099646,8.0
1620698100078,8.0
1620698100078,8.0
1620698100499,10.0
1620698100499,10.0
1620698100941,10.0
1620698100941,10.0
1620698101327,8.0
1620698101327,8.0
1620698101798,10.0
1620698101798,10.0
1620698102303,10.0
1620698102303,10.0
1620698102785,8.0
1620698102785,8.0
1620698103316,8.0
1620698103316,8.0
1620698103760,10.0
1620698103760,10.0
1620698104124,8.0
1620698104124,8.0
1620698104568,10.0
1620698104568,10.0
1620698105056,10.0
1620698105056,10.0
1620698105449,10.0
1620698105449,10.0
1620698105864,10.0
1620698105864,10.0
1620698106310,10.0
1620698106310,10.0
1620698106694,15.0
1620698106694,15.0
1620698107130,10.0
1620698107130,10.0
1620698107592,15.0
1620698107592,15.0
1620698108022,10.0
1620698108022,10.0
1620698108514,8.0
1620698108514,8.0
1620698108959,8.0
1620698108959,8.0
1620698109364,10.0
1620698109364,10.0
1620698109863,8.0
1620698109863,8.0
1620698110580,0.0
1620698110580,0.0
1620698111068,10.0
1620698111068,10.0
1620698111441,10.0
1620698111441,10.0
1620698111942,10.0
1620698111942,10.0
1620698112465,10.0
1620698112465,10.0
1620698112950,10.0
1620698112950,10.0
1620698113394,10.0
1620698113394,10.0
1620698113815,10.0
1620698113815,10.0
1620698114223,10.0
1620698114223,10.0
1620698114588,8.0
1620698114588,8.0
1620698115023,10.0
1620698115023,10.0
1620698115389,10.0
1620698115389,10.0
1620698115729,10.0
1620698115729,10.0
1620698116157,8.0
1620698116157,8.0
1620698116591,10.0
1620698116591,10.0
1620698117008,10.0
1620698117008,10.0
1620698117443,10.0
1620698117443,10.0
1620698117845,10.0
1620698117845,10.0
1620698118246,10.0
1620698118246,10.0
1620698118681,10.0
1620698118681,10.0
1620698119107,10.0
1620698119107,10.0
1620698119526,10.0
1620698119526,10.0
1620698119900,10.0
1620698119900,10.0
1620698120290,10.0
1620698120290,10.0
1620698120708,10.0
1620698120708,10.0
1620698121095,8.0
1620698121095,8.0
1620698121506,10.0
1620698121506,10.0
1620698121960,15.0
1620698121960,15.0
1620698122443,10.0
1620698122443,10.0
1620698122844,10.0
1620698122844,10.0
1620698123311,15.0
1620698123311,15.0
1620698123747,8.0
1620698123747,8.0
1620698124167,10.0
1620698124167,10.0
1620698124622,10.0
1620698124622,10.0
1620698125053,10.0
1620698125053,10.0
1620698125395,10.0
1620698125395,10.0
1620698125859,10.0
1620698125859,10.0
1620698126266,10.0
1620698126266,10.0
1620698126680,8.0
1620698126680,8.0
1620698127096,10.0
1620698127096,10.0
1620698127540,10.0
1620698127540,10.0
1620698128074,8.0
1620698128074,8.0
1620698128513,8.0
1620698128513,8.0
1620698128911,8.0
1620698128911,8.0
1620698129277,10.0
1620698129277,10.0
1620698129673,10.0
1620698129673,10.0
1620698130108,10.0
1620698130108,10.0
1620698130471,8.0
1620698130471,8.0
1620698130863,10.0
1620698130863,10.0
1620698131243,10.0
1620698131243,10.0
1620698131639,10.0
1620698131639,10.0
1620698132123,15.0
1620698132123,15.0
1620698132921,0.0
1620698132921,0.0
1620698133725,0.0
1620698133725,0.0
1620698134617,0.0
1620698134617,0.0
1620698135349,0.0
1620698135349,0.0
1620698135886,10.0
1620698135886,10.0
1620698136250,10.0
1620698136250,10.0
1620698136622,10.0
1620698136622,10.0
1620698137057,10.0
1620698137057,10.0
1620698137478,15.0
1620698137478,15.0
1620698137825,8.0
1620698137825,8.0
1620698138211,10.0
1620698138211,10.0
1620698138578,8.0
1620698138578,8.0
1620698138917,10.0
1620698138917,10.0
1620698139249,10.0
1620698139249,10.0
1620698139633,10.0
1620698139633,10.0
1620698139952,10.0
1620698139952,10.0
1620698140343,10.0
1620698140343,10.0
1620698140704,10.0
1620698140704,10.0
1620698141154,10.0
1620698141154,10.0
1620698141607,10.0
1620698141607,10.0
1620698142028,10.0
1620698142028,10.0
1620698142361,10.0
1620698142361,10.0
1620698142724,8.0
1620698142724,8.0
1620698143158,10.0
1620698143158,10.0
1620698143599,10.0
1620698143599,10.0
1620698144067,10.0
1620698144067,10.0
1620698144574,10.0
1620698144574,10.0
1620698145020,10.0
1620698145020,10.0
1620698145491,10.0
1620698145491,10.0
1620698145876,8.0
1620698145876,8.0
1620698146205,10.0
1620698146205,10.0
1620698146594,8.0
1620698146594,8.0
1620698146898,8.0
1620698146898,8.0
1620698147275,10.0
1620698147275,10.0
1620698147607,10.0
1620698147607,10.0
1620698147919,15.0
1620698147919,15.0
1620698148334,10.0
1620698148334,10.0
1620698148688,10.0
1620698148688,10.0
1620698149020,8.0
1620698149020,8.0
1620698149408,10.0
1620698149408,10.0
1620698149785,10.0
1620698149785,10.0
1620698150120,8.0
1620698150120,8.0
1620698150486,8.0
1620698150486,8.0
1620698150845,10.0
1620698150845,10.0
1620698151184,10.0
1620698151184,10.0
1620698151616,10.0
1620698151616,10.0
1620698152061,8.0
1620698152061,8.0
1620698152500,10.0
1620698152500,10.0
1620698152949,10.0
1620698152949,10.0
1620698153362,10.0
1620698153362,10.0
1620698153741,10.0
1620698153741,10.0
1620698154184,10.0
1620698154184,10.0
1620698154607,8.0
1620698154607,8.0
1620698155001,10.0
1620698155001,10.0
1620698155482,10.0
1620698155482,10.0
1620698155894,10.0
1620698155894,10.0
1620698156297,10.0
1620698156297,10.0
1620698156674,10.0
1620698156674,10.0
1620698157069,8.0
1620698157069,8.0
1620698157408,10.0
1620698157408,10.0
1620698157860,10.0
1620698157860,10.0
1620698158308,8.0
1620698158308,8.0
1620698158730,8.0
1620698158730,8.0
1620698159173,10.0
1620698159173,10.0
1620698159602,10.0
1620698159602,10.0
1620698159965,10.0
1620698159965,10.0
1620698160313,10.0
1620698160313,10.0
1620698160616,10.0
1620698160616,10.0
1620698160948,10.0
1620698160948,10.0
1620698161307,8.0
1620698161307,8.0
1620698161689,10.0
1620698161689,10.0
1620698162113,10.0
1620698162113,10.0
1620698162576,8.0
1620698162576,8.0
1620698162937,8.0
1620698162937,8.0
1620698163305,8.0
1620698163305,8.0
1620698163659,10.0
1620698163659,10.0
1620698164005,8.0
1620698164005,8.0
1620698164329,10.0
1620698164329,10.0
1620698164693,10.0
1620698164693,10.0
1620698165019,10.0
1620698165019,10.0
1620698165381,10.0
1620698165381,10.0
1620698165772,10.0
1620698165772,10.0
1620698166191,10.0
1620698166191,10.0
1620698166646,10.0
1620698166646,10.0
1620698167163,10.0
1620698167163,10.0
1620698167529,1.0
1620698167529,1.0
1620698167949,10.0
1620698167949,10.0
1620698168318,10.0
1620698168318,10.0
1620698168709,0.0
1620698168709,0.0
1620698169142,10.0
1620698169142,10.0
1620698169636,8.0
1620698169636,8.0
1620698170061,8.0
1620698170061,8.0
1620698170528,10.0
1620698170528,10.0
1620698170948,10.0
1620698170948,10.0
1620698171374,10.0
1620698171374,10.0
1620698171865,10.0
1620698171865,10.0
1620698172322,8.0
1620698172322,8.0
1620698172745,10.0
1620698172745,10.0
1620698173222,10.0
1620698173222,10.0
1620698173637,15.0
1620698173637,15.0
1620698174077,10.0
1620698174077,10.0
1620698174602,8.0
1620698174602,8.0
1620698175021,10.0
1620698175021,10.0
1620698175421,8.0
1620698175421,8.0
1620698175831,10.0
1620698175831,10.0
1620698176261,8.0
1620698176261,8.0
1620698176696,10.0
1620698176696,10.0
1620698177098,10.0
1620698177098,10.0
1620698177472,10.0
1620698177472,10.0
1620698177820,0.0
1620698177820,0.0
1620698178233,1.0
1620698178233,1.0
1620698178642,8.0
1620698178642,8.0
1620698179089,10.0
1620698179089,10.0
1620698179517,10.0
1620698179517,10.0
1620698179927,15.0
1620698179927,15.0
1620698180489,8.0
1620698180489,8.0
1620698181509,0.0
1620698181509,0.0
1620698182018,8.0
1620698182018,8.0
1620698182417,10.0
1620698182417,10.0
1620698182757,15.0
1620698182757,15.0
1620698183137,8.0
1620698183137,8.0
1620698183548,8.0
1620698183548,8.0
1620698183897,8.0
1620698183897,8.0
1620698184263,8.0
1620698184263,8.0
1620698184591,8.0
1620698184591,8.0
1620698184946,10.0
1620698184946,10.0
1620698185296,10.0
1620698185296,10.0
1620698185708,10.0
1620698185708,10.0
1620698186153,10.0
1620698186153,10.0
1620698186618,10.0
1620698186618,10.0
1620698187111,8.0
1620698187111,8.0
1620698187505,10.0
1620698187505,10.0
1620698187957,10.0
1620698187957,10.0
1620698188393,8.0
1620698188393,8.0
1620698188745,8.0
1620698188745,8.0
1620698189166,10.0
1620698189166,10.0
1620698189647,10.0
1620698189647,10.0
1620698190111,10.0
1620698190111,10.0
1620698190586,8.0
1620698190586,8.0
1620698190927,10.0
1620698190927,10.0
1620698191354,10.0
1620698191354,10.0
1620698191858,10.0
1620698191858,10.0
1620698192305,10.0
1620698192305,10.0
1620698192804,10.0
1620698192804,10.0
1620698193202,8.0
1620698193202,8.0
1620698193570,8.0
1620698193570,8.0
1620698193887,10.0
1620698193887,10.0
1620698194277,15.0
1620698194277,15.0
1620698194625,8.0
1620698194625,8.0
1620698195050,15.0
1620698195050,15.0
1620698195510,8.0
1620698195510,8.0
1620698195976,8.0
1620698195976,8.0
1620698196476,10.0
1620698196476,10.0
1620698196859,8.0
1620698196859,8.0
1620698197185,0.0
1620698197185,0.0
1620698197591,8.0
1620698197591,8.0
1620698198066,10.0
1620698198066,10.0
1620698198450,0.0
1620698198450,0.0
1620698198799,10.0
1620698198799,10.0
1620698199247,10.0
1620698199247,10.0
1620698199652,10.0
1620698199652,10.0
1620698200092,10.0
1620698200092,10.0
1620698200478,10.0
1620698200478,10.0
1620698200872,10.0
1620698200872,10.0
1620698201381,10.0
1620698201381,10.0
1620698202196,0.0
1620698202196,0.0
1620698202709,10.0
1620698202709,10.0
1620698203142,0.0
1620698203142,0.0
1620698203547,10.0
1620698203547,10.0
1620698203997,10.0
1620698203997,10.0
1620698204384,0.0
1620698204384,0.0
1620698204755,10.0
1620698204755,10.0
1620698205280,1.0
1620698205280,1.0
1620698205788,0.0
1620698205788,0.0
1620698206172,0.0
1620698206172,0.0
1620698206619,10.0
1620698206619,10.0
1620698207026,0.0
1620698207026,0.0
1620698207452,0.0
1620698207452,0.0
1620698207898,0.0
1620698207898,0.0
1620698208274,0.0
1620698208274,0.0
1620698208588,8.0
1620698208588,8.0
1620698208966,0.0
1620698208966,0.0
1620698209309,1.0
1620698209309,1.0
1620698209638,10.0
1620698209638,10.0
1620698210014,10.0
1620698210014,10.0
1620698210330,0.0
1620698210330,0.0
1620698210698,1.0
1620698210698,1.0
1620698211050,10.0
1620698211050,10.0
1620698211450,10.0
1620698211450,10.0
1620698211907,10.0
1620698211907,10.0
1620698212393,8.0
1620698212393,8.0
1620698212847,8.0
1620698212847,8.0
1620698213202,10.0
1620698213202,10.0
1620698213655,0.0
1620698213655,0.0
1620698214017,8.0
1620698214017,8.0
1620698214383,10.0
1620698214383,10.0
1620698214801,8.0
1620698214801,8.0
1620698215227,0.0
1620698215227,0.0
1620698215703,10.0
1620698215703,10.0
1620698216169,10.0
1620698216169,10.0
1620698216559,10.0
1620698216559,10.0
1620698216900,0.0
1620698216900,0.0
1620698217310,10.0
1620698217310,10.0
1620698217785,0.0
1620698217785,0.0
1620698218252,0.0
1620698218252,0.0
1620698218660,0.0
1620698218660,0.0
1620698218960,8.0
1620698218960,8.0
1620698219373,10.0
1620698219373,10.0
1620698219778,10.0
1620698219778,10.0
1620698220227,10.0
1620698220227,10.0
1620698220624,0.0
1620698220624,0.0
1620698221066,10.0
1620698221066,10.0
1620698221406,10.0
1620698221406,10.0
1620698221770,0.0
1620698221770,0.0
1620698222122,8.0
1620698222122,8.0
1620698222522,10.0
1620698222522,10.0
1620698223000,1.0
1620698223000,1.0
1620698223381,10.0
1620698223381,10.0
1620698223773,10.0
1620698223773,10.0
1620698224184,10.0
1620698224184,10.0
1620698224555,10.0
1620698224555,10.0
1620698224878,8.0
1620698224878,8.0
1620698225319,0.0
1620698225319,0.0
1620698225754,8.0
1620698225754,8.0
1620698226156,8.0
1620698226156,8.0
1620698226606,8.0
1620698226606,8.0
1620698226991,10.0
1620698226991,10.0
1620698227393,10.0
1620698227393,10.0
1620698227799,10.0
1620698227799,10.0
1620698228164,10.0
1620698228164,10.0
1620698228550,0.0
1620698228550,0.0
1620698229015,10.0
1620698229015,10.0
1620698229412,0.0
1620698229412,0.0
1620698229832,10.0
1620698229832,10.0
1620698230245,8.0
1620698230245,8.0
