timestamp,value
1618983437077,57.92141193867455
1618983437915,59.60054818597537
1618983438747,59.46841481340372
1618983439561,61.46222001846018
1618983440333,63.32759937103029
1618983441112,65.36275594216899
1618983441932,66.9765672433014
1618983443593,65.79191202480969
1618983444422,68.14877764093124
1618983445229,68.04838149192899
1618983445981,70.9358795215564
1618983447407,68.3624348420543
1618983448788,66.19524983990402
1618983450115,64.41764622644651
1618983451563,62.13038568834849
1618983452362,62.024187262185706
1618983453170,61.87890339857502
1618983453972,61.86324994562477
1618983455467,59.82293010916987
1618983456231,60.05475792827902
1618983457054,60.07024915287181
1618983457820,60.285742361645724
1618983458573,60.527610098083485
1618983459343,60.6612255569383
1618983460135,60.60170830155532
1618983460896,60.656644571472945
1618983461636,60.901682911429326
1618983463067,61.62129636110327
1618983464554,59.60803544134832
1618983465320,59.729755706792396
1618983466077,59.71352139542935
1618983467528,59.63756759234938
1618983468271,61.59401934390974
1618983469028,63.44779438811661
1618983469782,65.86280021293443
1618983470517,66.08866620679969
1618983471934,63.952156965026745
1618983473350,61.92766260694714
1618983474800,62.07021869355326
1618983476259,59.916554214944846
1618983477016,60.112301802226945
1618983477788,60.09371915971553
1618983478573,60.00082801142655
1618983479321,60.06748882707165
1618983480745,58.222623419225435
1618983482106,56.575371147399906
1618983483501,54.88185035256102
1618983484855,55.075081563900994
1618983486310,55.155164807769076
1618983487090,55.12146382029229
1618983487864,55.0801930891249
1618983488613,56.914035617752056
1618983489362,56.89593420705891
1618983490101,56.94393840791769
1618983490835,57.00324262945697
1618983492259,55.194351961963726
1618983493668,55.21176772574954
1618983495131,55.09618600325471
1618983496560,55.146959984768436
1618983498034,55.10980651911352
1618983498796,55.09653509828346
1618983499549,55.14503396681344
1618983500301,55.227219508315756
1618983501832,53.30692863468295
1618983503317,53.16535915326722
1618983504742,53.015166932390485
1618983506223,52.812522060230556
1618983507644,52.656995185614825
1618983509023,52.83480291870019
1618983510339,51.61511213060515
1618983511724,50.29158431943606
1618983513102,49.000688132997034
1618983514564,47.615601156487735
1618983515302,47.617154270294506
1618983516705,46.38395696434628
1618983518086,46.462122335542496
1618983518835,47.68122810314101
1618983519592,49.05455119541446
1618983520333,50.47624760248339
1618983521730,50.64065065133583
1618983523148,49.27779895126168
1618983524574,47.95256532238311
1618983525960,46.767431254409296
1618983527311,47.097831615832426
1618983528631,47.40326120216094
1618983529982,47.54337064748364
1618983531415,47.63397671222513
1618983532182,48.9047057575021
1618983532965,50.12042894900844
1618983534386,49.90135541645738
1618983535774,49.89785078313846
1618983537192,49.81275385824685
1618983538651,49.819251603577904
1618983539424,49.74846347724846
1618983540224,51.02204164954773
1618983541048,52.26126889054336
1618983541841,52.16141244759081
1618983542607,52.13937410852535
1618983543380,52.06798412551303
1618983544150,53.52375419893854
1618983544891,55.19130317521087
1618983546276,55.29348491612161
1618983547626,55.38586199255526
1618983548963,55.422697599121044
1618983550346,55.261100872968825
1618983551109,56.799254112194994
1618983551899,58.58394691474231
1618983552649,58.629594783021375
1618983553481,58.490278184637205
1618983554946,58.36753305973548
1618983555757,60.05038227072514
1618983557165,60.11256378130865
1618983557924,62.262142401925054
1618983558695,62.269205029296884
1618983559481,62.316325875124996
1618983560256,62.47326339555617
1618983561003,62.62472431422144
1618983561768,62.628175737792475
1618983562536,62.64368569136256
1618983563307,62.640418939121794
1618983564718,60.523351472518044
1618983566112,60.49634223990731
1618983566850,62.421858886544975
1618983567611,64.34994357314322
1618983568352,66.64425568446339
1618983569825,64.11484593149098
1618983570584,64.2199129574003
1618983571356,64.14933280417267
1618983572116,64.39657298610996
1618983572849,67.0255924378152
1618983574285,64.76610880198943
1618983575636,64.93114376859067
1618983576878,63.31124456769739
1618983578102,61.83140605699419
1618983579319,60.48950527246691
1618983580620,58.92868823364984
1618983582003,57.14185035787466
1618983583377,55.5332188608582
1618983584819,53.85235998543471
1618983585571,53.89974781655492
1618983586997,53.8773388096655
1618983588383,53.881981218896605
1618983589129,53.8628578923203
1618983589952,53.71246455480896
1618983590746,53.586600277632186
1618983591511,55.334994366897526
1618983592279,55.31242671103464
1618983593068,55.26702840471949
1618983593868,55.16689710339306
1618983594640,55.06996340555043
1618983595381,56.88212033791769
1618983596154,58.48389565517775
1618983596961,59.75278182810349
1618983597817,60.869277191028985
1618983598679,61.98365676921963
1618983599531,63.45448433633986
1618983600338,65.4477638762485
1618983601146,67.53170655830225
1618983601967,69.97858596953843
1618983602825,69.54655069392967
1618983603687,71.86894840995333
1618983604515,74.38488811490045
1618983605287,74.26662634814045
1618983606150,74.0828496906516
1618983607012,73.77339738667584
1618983607851,73.44084624418318
1618983608663,73.24479380583433
1618983609466,73.18265066219017
1618983610273,73.14877815328842
1618983611099,72.90650342414504
1618983611978,72.30292902780643
1618983612878,71.75295886779571
1618983613741,71.51556500514549
1618983614579,71.59116006673732
1618983615424,71.66363240856397
1618983616269,71.69209107189717
1618983617088,71.64297582712264
1618983617878,71.72163970969
1618983618645,71.95361006851671
1618983619399,72.40147923462223
1618983620191,72.7099633493312
1618983621015,72.74653071795001
1618983621851,72.44460266882297
1618983622662,72.67320386359829
1618983623473,72.89940811148061
1618983624309,72.91202295562134
1618983625125,72.89319531087789
1618983625886,73.08261813363687
1618983627329,70.35589117139685
1618983628832,67.67035334751702
1618983629636,67.97655601877166
1618983631089,65.89710562339536
1618983631823,66.36303733667441
1618983632560,66.73545980314705
1618983633311,67.08694400856564
1618983634112,67.25331358477145
1618983634956,67.1593589169076
1618983635817,66.89380085113437
1618983636638,66.6911423158966
1618983637409,66.63188852262948
1618983638830,64.38255945139186
1618983640180,62.601515530523095
1618983640950,62.83285377030366
1618983641705,63.014348051979674
1618983642487,63.109622518733445
1618983643281,63.25022341823705
1618983644022,63.50368903513551
1618983644763,63.56854418657453
1618983645510,66.00363812053324
1618983646263,68.84262129295391
1618983647032,68.96093569875477
1618983647808,71.77117626498503
1618983648565,71.67366978148482
1618983649313,71.63020619530846
1618983650051,71.68480620819099
1618983650806,71.8830649429347
1618983651595,72.12006548501941
1618983652385,72.42649208985019
1618983653148,72.68659026296487
1618983653918,72.68578896517053
1618983654708,75.57493632811615
1618983655512,78.26626653472707
1618983656341,77.9654449351504
1618983657152,77.6859328643347
1618983657942,77.64742787718657
1618983658724,77.70826413790164
1618983659496,77.55035489950549
1618983660272,77.3713596372314
1618983661020,77.36654094388854
1618983661774,77.36536379740677
1618983662545,77.35579333007405
1618983663347,77.22621953715225
1618983664180,76.85095033564986
1618983665047,76.26563294532984
1618983665866,75.87815208118913
1618983666715,75.44561480851556
1618983667588,75.03069693388308
1618983668453,74.68241303855352
1618983669318,74.20884558308025
1618983670152,73.91926340932405
1618983670977,73.76015177872306
1618983671779,73.77009120749663
1618983672538,74.08842070220629
1618983673958,71.40247127523219
1618983675388,68.78151877274057
1618983676129,68.94413267333117
1618983676881,69.02465232714017
1618983677647,69.06562270140975
1618983678393,69.10608457767002
1618983679843,66.41291031556322
1618983681226,64.23652402036497
1618983682615,62.280593901515495
1618983683359,62.568202599594024
1618983684131,62.879672044782524
1618983684899,63.04652802244791
1618983685660,63.32878914088586
1618983686405,63.77363929374513
1618983687162,64.13902604247572
1618983687935,64.45690145683882
1618983688683,64.75570424904261
1618983690117,62.6952794686492
1618983691526,60.7668964634374
1618983692264,60.83365528700479
1618983693031,62.916688709353735
1618983693774,65.27022471341759
1618983695265,62.709678956753336
1618983696033,62.656523828589414
1618983696812,62.613509814380784
1618983697611,62.41969965721178
1618983698400,64.6661440564457
1618983699192,66.79532559631934
1618983700001,69.01882833637018
1618983700804,68.78843446293686
1618983701596,68.70865349418716
1618983702370,68.68738858333175
1618983703156,68.58683121409548
1618983703962,68.34840577058776
1618983704789,68.0803088939774
1618983705592,67.96231150015747
1618983706379,67.8143146863372
1618983707156,70.42718902669269
1618983707944,73.09313265045279
1618983708753,72.77747153961162
1618983709568,72.56400810685093
1618983710364,72.33199808464867
1618983711135,75.61133655891295
1618983711914,75.5586713712852
1618983712730,75.38776166385296
1618983713599,75.05189369374598
1618983714486,74.59934556480793
1618983715358,74.22838205076083
1618983716235,73.9201786502877
1618983717119,73.54969651862926
1618983717979,73.24774009357873
1618983718812,72.98153153690103
1618983719604,72.95706093939165
1618983720365,73.15766146657921
1618983721131,73.42695147267854
1618983721919,73.50045744847203
1618983722724,73.41337185414511
1618983723519,73.33639146085713
1618983724307,73.33465702389255
1618983725111,73.35721558994878
1618983725954,73.23419091994903
1618983726790,73.05477062263117
1618983727587,72.94258597879384
1618983728350,73.0121528728457
1618983729134,73.15448605864482
1618983729920,73.52438849919238
1618983730706,73.9834489160313
1618983731467,74.51599995131622
1618983732977,71.70911198722372
1618983733746,72.1759360617442
1618983734525,72.52448985820551
1618983735292,72.81807024103884
1618983736742,70.02252741411122
1618983738188,67.32952962636772
1618983738927,67.43414213094131
1618983739665,67.61853275221966
1618983741138,65.16879450926832
1618983741917,65.22349182768677
1618983743346,63.03023859939256
1618983744655,61.3995222912501
1618983746094,59.58428935084254
1618983747447,58.09046476486554
1618983748761,56.671589696179375
1618983750022,55.37197438880065
1618983751319,54.08993614818266
1618983752626,52.84925063946494
1618983753857,51.833197659938484
1618983755043,50.887719300626244
1618983756226,51.5988993954759
1618983757410,50.70891056976536
1618983758671,49.69837847029798
1618983759423,49.72855873417274
1618983760179,51.20083232073019
1618983760979,52.651415599122714
1618983761803,52.456383828256435
1618983762593,52.339234480250326
1618983763378,53.95710868494973
1618983764183,53.89421401149856
1618983764956,55.530132524049456
1618983765758,56.863775150018505
1618983766549,58.66373400142193
1618983767305,60.42969440653177
1618983768063,62.17044483367744
1618983768829,63.803254582748615
1618983769592,65.66973442831038
1618983770361,67.66195904827596
1618983771096,69.608160582314
1618983771831,71.48004557091171
1618983772589,73.33502003879418
1618983773354,75.26242124728397
1618983774124,77.65531175598531
1618983775537,74.46844886627063
1618983776923,71.66738592851472
1618983778373,68.99701794888409
1618983779747,66.87473626275892
1618983781132,64.72782032463269
1618983782566,62.538630633297394
1618983783936,60.74985674424415
1618983785255,59.11432261710542
1618983786586,57.614096556232674
1618983787884,56.24779403182786
1618983789200,54.806400273155035
1618983790526,53.42120290214251
1618983791829,52.17507677453844
1618983793188,50.85733170736792
1618983794541,49.62735645163078
1618983795919,48.342329437988965
1618983797410,46.9130967331245
1618983798164,46.92137701572772
1618983799618,45.689776847703136
1618983801071,44.53220918203684
1618983802465,44.56344038375362
1618983803786,44.67062339195069
1618983805139,44.831642053410334
1618983806474,44.89743629652417
1618983807837,44.93479792315852
1618983809300,44.886498317111744
1618983810655,44.91211933329752
1618983812098,44.70432392514689
1618983812852,45.687522398783706
1618983813591,46.67970197344278
1618983815012,46.49127445949538
1618983816472,46.262035261231695
1618983817209,47.28196846182383
1618983818624,47.17659481068475
1618983820004,47.12747810025363
1618983821305,47.27081366424324
1618983822605,47.629868293491235
1618983823913,46.60378237074449
1618983825201,46.90634113144736
1618983826449,47.28537052107063
1618983827693,47.56637352303434
1618983829012,47.570225843214935
1618983830386,47.52977463123629
1618983831683,47.602044999720555
1618983832970,47.74578805557156
1618983834244,48.10767459728356
1618983835535,48.23300205701701
1618983836957,48.272193382268455
1618983838429,46.91741994539283
1618983839887,45.63347881920178
1618983840646,46.81233364554556
1618983841416,48.09462135805984
1618983842833,46.83020581055921
1618983844264,46.802461669076365
1618983845004,48.00053376593546
1618983845766,49.056408165013984
1618983846543,50.12824894757831
1618983848031,49.753622136248865
1618983848827,50.791197766914195
1618983849671,51.67408979320453
1618983850546,52.50847191376543
1618983851428,53.53289683501464
1618983852267,54.839887408227085
1618983853088,56.06356936002601
1618983853921,57.27596375519725
1618983854761,58.48994462805681
1618983855627,59.72375077696861
1618983856476,61.479164096496
1618983857274,63.67528998125031
1618983858064,66.01561335271411
1618983858866,65.86197602064256
1618983859672,65.73333366930358
1618983860544,67.75489688636324
1618983861412,69.97855740370227
1618983862291,69.41416813742775
1618983863146,69.04686555999885
1618983863983,68.80763535393649
1618983864876,71.23751072866611
1618983865799,70.70600654596205
1618983866732,70.33512400697808
1618983867584,70.43122338213298
1618983868406,70.68055657404281
1618983869221,70.7784043763702
1618983870056,70.72052844264724
1618983870909,70.63936572913533
1618983871799,70.43910328203971
1618983872687,70.3385499918934
1618983873531,70.36321786240653
1618983874378,70.16170167384773
1618983875250,69.82716032141427
1618983876131,69.50199676340789
1618983877024,69.15471898835882
1618983877862,69.29288230442268
1618983878648,69.62032036138513
1618983879416,70.0771216242754
1618983880183,70.43244700750722
1618983880965,70.66345446305651
1618983881732,71.19258496004424
1618983883170,69.10739392677316
1618983884586,67.21247302189342
1618983886012,65.12002624771192
1618983886754,65.40194920699322
1618983887549,65.49845442751285
1618983888374,65.50812276156705
1618983889236,65.475964428218
1618983890097,65.57410015394615
1618983890937,65.79148277718798
1618983891696,66.05996824827639
1618983892451,66.39439064777469
1618983893214,66.7996908287644
1618983894005,67.13874529434327
1618983894815,67.44872337271943
1618983895601,67.64811682017996
1618983896350,67.7887244641993
1618983897125,67.76025315682324
1618983897935,67.59747640594586
1618983898797,67.29484158121356
1618983899688,66.83254132130715
1618983900531,69.09305348804196
1618983901353,71.56802257255451
1618983902172,74.25492607179562
1618983903009,73.82508757347216
1618983903847,73.59910091338315
1618983904637,73.7890978452661
1618983905400,74.24128653220357
1618983906194,74.54848776528848
1618983907020,74.56360253548542
1618983907879,74.15037572613292
1618983908716,73.77708941020873
1618983909540,73.50317221315478
1618983910375,73.30592302694815
1618983911187,73.29814533702842
1618983912009,73.13263139008558
1618983912793,72.97956085765571
1618983913553,73.04747300484976
1618983914342,73.14048544071589
1618983915143,73.41268469637329
1618983915989,73.61274030418987
1618983916821,73.66596915225276
1618983917620,73.77027714386553
1618983918411,73.89776859529594
1618983919213,74.05361790493042
1618983920035,74.12938283026354
1618983920826,74.12495032856197
1618983921575,74.1885625965997
1618983923003,71.38760853890976
1618983924422,68.9579397942021
1618983925192,69.31301845776795
1618983925958,69.59904050762745
1618983926714,69.87149758200945
1618983927488,70.11983479766923
1618983928256,70.3036996794678
1618983929039,70.46476858459822
1618983929810,70.51808639065001
1618983930557,70.57005727759883
1618983931300,70.76406317815557
1618983932048,70.984038115116
1618983932795,71.40442143317993
1618983934204,69.0328957280546
1618983935540,66.96254438919183
1618983936924,64.8185598871638
1618983937660,65.05249383885119
1618983938412,65.29818361130933
1618983939867,63.020460380218005
1618983941236,61.03532078409829
1618983942512,61.511459584920864
1618983943754,62.07360926535507
1618983944971,60.66988041764348
1618983946214,59.24138445140771
1618983947491,57.75595030678047
1618983948730,56.49120154243581
1618983949960,55.28872856795785
1618983951219,54.101690348704686
1618983952483,52.925536196325396
1618983953707,51.83680477935337
1618983954943,50.75411521767841
1618983956161,49.76598788347483
1618983957356,48.858082781959496
1618983958516,49.35743407481764
1618983959777,49.51107197535928
1618983961046,49.746832152820346
1618983962340,48.62171419013788
1618983963659,47.53136733563649
1618983964951,47.83956523403121
1618983966213,48.04411410557188
1618983967444,48.131051226278814
1618983968751,48.00603915972633
1618983969962,48.016788589962445
1618983971115,48.19104665772791
1618983972227,48.51224663367457
1618983973326,48.78878388142171
1618983974370,49.159547886192904
1618983975422,49.58247629678746
1618983976460,50.04884976273727
1618983977511,50.410869591701335
1618983978579,50.7702524229256
1618983979660,51.06568770906367
1618983980705,51.39220410242558
1618983981744,51.66368918780156
1618983982804,52.11373527412409
1618983983881,52.551944312456236
1618983984984,52.99472998323923
1618983986077,53.52675523709103
1618983987180,53.983034751668576
1618983988265,54.415868102465474
1618983989320,54.853815267983684
1618983990393,55.44703338964916
1618983991504,55.706530569422966
1618983992595,55.86556027407466
1618983993660,55.98864065132707
1618983994740,56.03825245830469
1618983995782,56.04350246110349
