timestamp,value
1618990793668,68.9809626339323
1618990794450,69.42400694888028
1618990795288,69.27776086887243
1618990796069,69.20290707572045
1618990796867,69.19515767673568
1618990797682,69.20203308653004
1618990798492,69.36015259233571
1618990799292,69.71874412837452
1618990800041,69.84228680409146
1618990801581,66.73917136088679
1618990802394,66.76357770879862
1618990803131,67.28435574248147
1618990804563,65.35786809605776
1618990805323,65.92259829965843
1618990806119,66.10226714801604
1618990807540,63.94583191209282
1618990808337,64.06928708983042
1618990809164,64.17856015721179
1618990809922,64.70710893328551
1618990811375,62.52148199045265
1618990812126,65.0117245936483
1618990812898,65.04692946240502
1618990814302,63.108726395955834
1618990815740,61.00273551516734
1618990817167,59.11255212187709
1618990818641,57.25456079096032
1618990819395,57.40874712202774
1618990820146,57.544324714951784
1618990821622,55.568109832221346
1618990823017,55.97894557218436
1618990824444,54.42328169939601
1618990825332,54.05256152161204
1618990826197,55.47112131820834
1618990827014,55.321440852459126
1618990827788,55.378924987077085
1618990828587,57.01487232944714
1618990829408,56.94898111628736
1618990830259,56.88607071080805
1618990831048,56.80338926889304
1618990832439,56.96917711156968
1618990834034,54.77493163175616
1618990834902,54.53547455361124
1618990835706,56.06812464037555
1618990836584,57.5717778539218
1618990837489,59.05186618906172
1618990838361,60.85422598368955
1618990839151,60.73891932302427
1618990839949,60.59685172086727
1618990840813,62.53010238209987
1618990841676,64.31274516219432
1618990842471,66.5664730303438
1618990843217,67.09428838623586
1618990843963,67.54045250977508
1618990844785,67.5240875301242
1618990845678,67.07541680384521
1618990846504,66.97621211455674
1618990847283,67.13254414552189
1618990848084,67.31998467797149
1618990848874,67.31581929045875
1618990849742,69.35187093431878
1618990850523,72.77560896355344
1618990851923,70.50149357414135
1618990853220,68.51104098244832
1618990854585,66.66293354238829
1618990855430,66.88463999258921
1618990856236,67.13196202501545
1618990857032,67.11165046507536
1618990857840,67.07121789594233
1618990858639,67.3193011112117
1618990859414,67.65097710843148
1618990860803,65.45905260785867
1618990862195,63.23088314363717
1618990862935,63.25154030678048
1618990864368,61.277554282083145
1618990865919,59.285921821729914
1618990866811,59.093197161596194
1618990867686,58.81399231928469
1618990868467,58.87238483347285
1618990869281,58.80295414281021
1618990870119,58.89112140767841
1618990870920,58.83343592413722
1618990871693,60.69974667972385
1618990873076,60.43689529423727
1618990874486,60.29870470844947
1618990875309,60.365428155884466
1618990876068,60.50914512528493
1618990876826,60.6253259874299
1618990877684,60.47313881442716
1618990878627,60.0357693113557
1618990879492,59.76647743105753
1618990880303,61.53889073277639
1618990881144,63.32854182549379
1618990882041,62.806978923077025
1618990882916,64.69982086776264
1618990883676,67.58021602691852
1618990885071,65.71617348960274
1618990885822,66.1684002328025
1618990886712,65.77170739022411
1618990887540,65.72372113688014
1618990888291,66.03515414448461
1618990889089,66.04549775271937
1618990889954,65.71470519315388
1618990890781,67.7748418092833
1618990891548,70.32936531147055
1618990892347,70.42840011148813
1618990893175,70.14499730847805
1618990894020,69.79141845881827
1618990894811,70.06380769353159
1618990896271,68.01186580352054
1618990897024,68.448260815253
1618990898434,66.18464025476673
1618990899872,64.0729440567379
1618990900751,64.13855638540753
1618990901692,63.910293807337524
1618990902521,63.675735984055144
1618990903312,65.78710044341604
1618990904129,65.54708244200685
1618990904943,65.82307809776572
1618990905730,65.9697113264387
1618990907124,63.718084009957394
1618990908531,61.72299112495401
1618990909931,60.06744071906729
1618990911511,57.88919775991962
1618990912426,57.47793709384656
1618990913312,57.23874293989919
1618990914099,57.349750464066986
1618990914903,57.46292839032117
1618990915748,57.31324669608233
1618990916609,59.00264872723905
1618990917375,58.96555546732565
1618990918114,60.97487855328567
1618990919492,61.162986668150836
1618990920989,59.295600874195024
1618990921799,59.68190143354933
1618990922542,59.937581003143386
1618990923285,60.08236090032215
1618990924077,60.15706407860281
1618990924936,60.02155073779244
1618990925798,59.79668231064148
1618990926548,61.77989419678291
1618990927303,63.92515131882382
1618990928082,66.11252616403232
1618990928907,68.98149002432797
1618990929728,69.35521382443599
1618990930477,69.9116386798725
1618990931935,67.28029661191562
1618990932748,67.24634510510488
1618990933539,67.45223791348651
1618990934327,67.72593413957675
1618990935173,67.421957398762
1618990936063,66.85523929746512
1618990936939,68.77933868665862
1618990937707,71.77705758804917
1618990939097,69.36935051673805
1618990940571,66.55844263893572
1618990941329,66.50443279754775
1618990942129,66.47611288907011
1618990943036,66.29747078463825
1618990943899,66.29424401883661
1618990944711,66.06501259694625
1618990945447,66.13742033196573
1618990946193,66.25993008583471
1618990946965,66.45100730590067
1618990947761,66.54319576692123
1618990948510,66.54339133735917
1618990949267,69.26382938933546
1618990950090,69.19469484274643
1618990950980,68.80401760419593
1618990951852,68.47489852875981
1618990952645,68.68084697220476
1618990953401,69.21561234273558
1618990954152,69.71633006266912
1618990954907,69.76685776584196
1618990956353,69.54266138026536
1618990957110,72.55786550238702
1618990957979,72.07082977008139
1618990958905,71.53050665832777
1618990959700,72.01213980652864
1618990960508,72.25034600389664
1618990961324,72.2329019905461
1618990962187,71.68505029781558
1618990962950,71.61064575794944
1618990963700,71.70747937692886
1618990964513,71.63681282088807
1618990965382,71.12461952032959
1618990966224,70.73772908192507
1618990966987,71.01919648881093
1618990967778,71.43643368844577
1618990968634,71.50533751591884
1618990969555,70.96522343311895
1618990970397,70.64676821943354
1618990971176,70.48570347287176
1618990972017,70.13357582406807
1618990972868,72.65940443992552
1618990973739,72.16298876969506
1618990974503,72.62289821767682
1618990975255,73.39180662433229
1618990976050,73.3963763352712
1618990976945,73.00378451618926
1618990977795,72.85861694308933
1618990978549,73.33979334679726
1618990979315,73.32739299975154
1618990980125,73.05874690367908
1618990981032,72.64321352267952
1618990981840,72.91276722605146
1618990982616,73.2071120709378
1618990983425,72.99949003772909
1618990984265,72.78426501236125
1618990985100,72.87588210941426
1618990985863,73.58374289840239
1618990986606,73.98633632671783
1618990987394,73.99590334013807
1618990988230,74.01781596493976
1618990989009,74.34448608011014
1618990989754,74.92703979499954
1618990990546,74.79575616359094
1618990991331,74.64796950680211
1618990992112,74.70553878070355
1618990992852,75.4484229864938
1618990994322,72.60474232395428
1618990995106,72.47740139525034
1618990995907,72.32283902822454
1618990996659,72.57745965464375
1618990997410,73.26920730899414
1618990998173,73.47001899751017
1618990998963,73.40646493183536
1618990999714,73.66869163482802
1618991001113,71.2236296736871
1618991001848,71.65020513155189
1618991002640,71.52606400831695
1618991003456,71.21673977955206
1618991004246,71.20719335067224
1618991005044,71.36587565721285
1618991005804,71.45947339727573
1618991006564,71.38607546781233
1618991007331,71.49345599545016
1618991008772,68.80320888992505
1618991010337,65.84396100588935
1618991011211,65.35558996164279
1618991012002,67.8769081683694
1618991012793,67.84380569375745
1618991013638,67.6768908965615
1618991014508,67.22843493884174
1618991015377,66.7861284988488
1618991016165,66.69630205688058
1618991016948,66.72217210027938
1618991017737,66.58253223912341
1618991018520,68.93975596015797
1618991020003,66.09891007854696
1618991020823,65.9943238282076
1618991021659,65.92280834679448
1618991022432,65.98536774470259
1618991023218,66.02935863372922
1618991024025,65.85170788050675
1618991024878,65.52480233897332
1618991025740,65.18497594945994
1618991026482,67.75892931405426
1618991027982,68.01059378349169
1618991028802,68.21796595173102
1618991029629,68.07721135772965
1618991030387,68.2062484198886
1618991031131,68.60187212222294
1618991031889,69.04086701520794
1618991032694,69.29921286489065
1618991033489,69.26735571523226
1618991034242,69.39091946958287
1618991035643,67.01689322751284
1618991036430,67.00059390443117
1618991037296,69.39117226323829
1618991038124,69.36228545956101
1618991038864,69.7445234856546
1618991040233,67.41112895945598
1618991041697,64.93995651620509
1618991042492,64.98043520321582
1618991043232,65.38099658836514
1618991044043,65.56473473983532
1618991044903,65.14275682301161
1618991045835,67.21292854123082
1618991046682,67.11472832153736
1618991047450,67.33483774324141
1618991048262,67.13417789248021
1618991049085,66.83705288030666
1618991049885,66.68453071150499
1618991051325,64.40579083199673
1618991052070,64.58180803660314
1618991052870,64.4168716375734
1618991053720,66.40203610776723
1618991055151,64.0980580638667
1618991055890,64.5391792348202
1618991056662,64.72998856221099
1618991057560,64.18473221728553
1618991058415,65.9983998687951
1618991059206,68.53616182073165
1618991059995,68.55982041440645
1618991060775,68.40561336463277
1618991061575,68.44321682662795
1618991062396,68.59951517292666
1618991063902,66.42014460993877
1618991064692,66.62738242168655
1618991065556,66.2760283913251
1618991066393,66.18282243595476
1618991067192,66.27280005231124
1618991068018,66.17549741915569
1618991068929,68.16823875880182
1618991069817,67.6172296815296
1618991070618,67.61646386517005
1618991071352,68.0391061566545
1618991072117,70.754487529669
1618991072941,70.37490412152387
1618991073777,70.11517644747092
1618991074605,70.40308759780972
1618991075353,70.84641212219897
1618991076744,68.4203096110237
1618991077501,68.54609785058285
1618991078328,68.36269188125807
1618991079113,68.42493664706173
1618991079858,68.7183641410167
1618991080643,71.68088387308545
1618991081495,71.41955896041692
1618991082356,71.42669222631174
1618991083223,71.30194681053038
1618991083980,71.47801038575489
1618991084729,71.80826188760346
1618991085501,72.40958336008468
1618991086319,72.71864344825028
1618991087107,72.77579874774699
1618991087843,72.76646518643122
1618991089289,69.85894896046985
1618991090071,70.05329596379178
1618991091520,67.63046847287352
1618991092302,67.81025650472723
1618991093126,67.53642323725714
1618991093884,70.01443814405266
1618991094663,69.9236072936382
1618991095493,69.90882432873683
1618991096244,70.05011443561823
1618991097035,69.86298355227422
1618991097893,69.56398338672956
1618991098777,69.43427441270025
1618991099647,69.40267030244117
1618991100461,69.61248931593306
1618991101851,67.14654436744291
1618991103307,64.592667870961
1618991104174,64.26508748781241
1618991105000,64.23802328896015
1618991105819,64.12894192589884
1618991106668,63.74357405013966
1618991107571,65.63831483472407
1618991108413,65.42359652482942
1618991109234,67.74632479010786
1618991110065,67.55364984207347
1618991110893,67.52285648692079
1618991111704,67.3401089080358
1618991112465,67.40792540818734
1618991113227,67.66561794356873
1618991114010,67.54204154375891
1618991114834,67.4191808356033
1618991115640,67.61698202757519
1618991116473,67.81148272180388
1618991117319,67.90306836990196
1618991118124,67.93841337535255
1618991118872,70.5043599896218
1618991120328,70.50202376059205
1618991121145,70.70917293601693
1618991121969,70.71570659487597
1618991122754,70.85997077734821
1618991123533,71.15351227967308
1618991124346,71.53281773670525
1618991125233,71.34359186804338
1618991126037,71.4222964696672
1618991127411,69.17924532707185
1618991128196,69.35356238040856
1618991129037,69.23248806042477
1618991129895,68.85519064854702
1618991130652,68.86886335384462
1618991132105,66.31731075788925
1618991132906,66.4019001567749
1618991133731,66.3334112935174
1618991134496,66.58270587455873
1618991135265,66.86828196660508
1618991136141,66.60487954007986
1618991136997,66.20466476964543
1618991137820,68.60502935466278
1618991138573,68.854412337058
1618991139323,69.1502557262894
1618991140089,69.22436464580157
1618991140925,68.99954512049881
1618991141788,68.80089331079867
1618991142536,69.35552648531491
1618991143960,66.94428461496496
1618991145421,66.63301329311952
1618991146228,66.54791560836998
1618991147016,66.74315060931205
1618991147751,67.19517914906713
1618991148522,67.15018154890957
1618991149339,69.62915511983165
1618991150151,69.5824254276449
1618991151009,69.44964111029837
1618991151820,69.26698787308203
1618991152601,69.22131386553102
1618991153392,69.56066469620643
1618991154180,69.83605984950339
1618991154988,69.89668570885375
1618991156416,67.25492306036803
1618991157868,64.70546906261681
1618991158656,64.63166682375753
1618991159441,64.80791097207664
1618991160189,65.21472955098413
1618991160956,65.14286644898097
1618991161778,67.34972004405122
1618991162616,69.79700007840523
1618991163366,70.01791466695008
1618991164115,70.17735513595606
1618991164860,70.1416475501451
1618991165619,70.19095038605332
1618991166368,70.46751201060039
1618991167725,68.28373165130792
1618991169044,66.5384212528598
1618991170410,64.55027126713597
1618991171919,62.11688762506328
1618991172784,61.88202099873559
1618991173585,61.83954082079623
1618991174957,60.09210617574095
1618991176309,60.32101335281031
1618991177540,61.000577217961904
1618991178757,59.69632479576398
1618991179948,58.51632729878829
1618991181252,56.970034473992065
1618991182716,55.16939279324983
1618991184100,53.75813971032695
1618991185473,52.49549358997218
1618991186848,51.104870260065816
1618991188139,49.95135362548805
1618991189485,48.73029164267371
1618991190226,48.765838229897575
1618991191033,48.65344495785082
1618991191784,49.87835085878457
1618991192536,51.0827869355262
1618991193368,52.26970295563383
1618991194268,53.69373042472009
1618991195172,53.59970002034556
1618991195961,53.62919008213934
1618991197359,53.56697820774793
1618991198781,53.40043513344579
1618991199572,54.46649051295855
1618991201017,53.908011907561075
1618991201844,54.80413003923982
1618991202792,55.71085730792043
1618991203758,57.006540930506326
1618991204596,58.54783511817226
1618991205442,60.09166683317072
1618991206342,61.55630339624593
1618991207245,62.82203820134854
1618991208141,64.32164251746336
1618991208906,64.2400178373116
1618991210399,61.96345777368508
1618991211155,61.94793420675112
1618991211904,61.956384357582394
1618991212640,62.2671435845566
1618991213999,60.81902548864537
1618991215364,59.42907674552113
1618991216684,57.90663462370879
1618991218059,57.971437376185726
1618991218846,59.80634406759194
1618991219663,59.72827219846029
1618991220411,61.876207262812684
1618991221155,62.14211643102286
1618991221944,62.65609526065654
1618991222780,63.08424554028564
1618991223624,63.06451941788072
1618991224399,63.301786360585496
1618991225829,61.5777513016255
1618991226569,62.08543742605357
1618991227326,62.549805282456155
1618991228752,60.46647771228308
1618991229507,62.80178547569493
1618991230321,62.60961900794635
1618991231184,62.24147743009931
1618991231980,62.04854191872814
1618991232742,64.02242662923214
1618991233545,66.00563853167152
1618991234385,67.79438865845067
1618991235219,69.92829727218454
1618991235981,70.0322247446142
1618991236759,70.19108997813382
1618991237548,70.02497907711968
1618991238386,69.63904285081819
1618991239178,69.63181770204444
1618991239918,70.01799637551841
1618991240706,70.25135525109265
1618991241588,69.80953457459745
1618991242508,71.94736762268931
1618991243342,71.54404692717118
1618991244187,71.16790626332732
1618991245067,73.55106696548827
1618991245943,73.01033157033676
1618991246773,72.93854696446176
1618991247559,73.28159693301855
1618991248364,73.23933999880477
1618991249185,72.98146051958418
1618991250037,72.75956474500762
1618991250941,72.47911302960637
1618991251834,72.22414184628875
1618991252646,72.00412007575078
1618991253386,72.17330108710435
1618991254855,69.33349880928377
1618991255627,69.60260104920103
1618991256412,69.62793500603617
1618991257150,69.63825480033901
1618991257905,69.77230563921296
1618991258741,69.96066752970926
1618991259602,70.19912977648775
1618991260378,70.4361842887631
1618991261168,70.66869784208431
1618991262003,70.85509642699597
1618991262890,70.80720866949291
1618991263652,71.09646629233602
1618991265068,68.53767278847062
1618991265830,68.7079178317431
1618991266567,69.03451604992094
1618991267992,66.83416794357066
1618991269503,64.65108992039936
1618991270339,64.8466867612137
1618991271135,64.90314719687638
1618991271897,64.82588523527795
1618991273368,64.82019849241195
1618991274169,64.72002843798066
1618991274960,64.69790579887855
1618991275749,64.51908789150386
1618991276501,64.52971843586636
1618991277305,64.64082674755531
1618991278099,64.87875944026499
1618991278894,64.80890500278305
1618991279665,64.87548691080279
1618991281127,62.74616103300267
1618991281946,62.98056136463754
1618991282787,62.71009514950463
1618991283659,64.54656655565915
1618991284452,64.44045999533553
1618991285208,64.37478484739864
1618991286044,66.47698198490396
1618991286837,69.23101819616156
1618991287592,69.55323810606316
1618991288940,67.39864591627116
1618991290246,65.40003868412283
1618991291504,66.1680536225906
1618991292968,63.830405166688216
1618991293860,63.4920735701705
1618991294794,63.01100944109698
1618991295715,62.45460331021868
1618991296516,62.465136645609434
1618991297323,62.420212663583634
1618991298148,62.32532030540246
1618991298938,62.26230069578125
1618991299681,64.67603531376213
1618991300980,63.03516195886826
1618991302232,61.712801785886164
1618991303452,60.625776230967276
1618991304628,59.47568024565848
1618991305914,57.95535814672673
1618991306725,58.02404061721547
1618991307541,57.95704320552697
1618991308397,57.678902893433396
1618991309243,59.10514223603217
1618991310031,60.65008092489769
1618991310812,62.14709513083709
1618991311562,64.5384433725447
1618991312992,62.72197699671479
1618991314267,61.62312855693838
1618991315510,60.62023594406168
1618991316753,59.29584699299674
1618991318094,57.77278128808941
1618991319310,56.70580926915993
1618991320502,55.64825627580156
1618991321721,54.447053869915074
1618991322831,54.91960684884112
1618991323593,56.17751608210154
1618991324819,56.16280023228933
1618991325983,56.19576844926957
1618991327081,56.69093322063187
1618991328162,55.97585388249673
1618991329264,55.240215760917394
1618991330399,54.54026578289621
1618991331560,53.76914540037227
1618991332788,52.732471429876604
1618991334070,51.596929260352056
1618991335322,50.50589652133046
1618991336507,51.03174710503283
1618991337729,51.14615114983372
1618991339033,51.01401622849398
1618991340288,50.98721877893247
1618991341590,51.07305336333946
1618991342972,50.71423177004018
1618991344277,50.47487816941754
1618991345553,50.352336277070705
