timestamp,value
1620699166618,10.0
1620699166618,10.0
1620699167080,10.0
1620699167080,10.0
1620699167483,10.0
1620699167483,10.0
1620699168097,10.0
1620699168097,10.0
1620699168534,10.0
1620699168534,10.0
1620699169235,0.0
1620699169235,0.0
1620699170140,0.0
1620699170140,0.0
1620699170486,10.0
1620699170486,10.0
1620699170930,0.0
1620699170930,0.0
1620699171385,10.0
1620699171385,10.0
1620699171800,10.0
1620699171800,10.0
1620699172206,8.0
1620699172206,8.0
1620699172694,10.0
1620699172694,10.0
1620699173076,10.0
1620699173076,10.0
1620699173349,0.0
1620699173349,0.0
1620699173757,0.0
1620699173757,0.0
1620699174092,10.0
1620699174092,10.0
1620699174503,10.0
1620699174503,10.0
1620699175373,0.0
1620699175373,0.0
1620699176414,0.0
1620699176414,0.0
1620699177566,0.0
1620699177566,0.0
1620699178596,0.0
1620699178596,0.0
1620699179392,0.0
1620699179392,0.0
1620699179881,10.0
1620699179881,10.0
1620699180362,10.0
1620699180362,10.0
1620699181083,0.0
1620699181083,0.0
1620699182047,0.0
1620699182047,0.0
1620699183400,0.0
1620699183400,0.0
1620699184376,0.0
1620699184376,0.0
1620699185332,0.0
1620699185332,0.0
1620699186725,0.0
1620699186725,0.0
1620699187849,0.0
1620699187849,0.0
1620699188729,0.0
1620699188729,0.0
1620699189235,10.0
1620699189235,10.0
1620699189614,10.0
1620699189614,10.0
1620699189996,10.0
1620699189996,10.0
1620699190455,10.0
1620699190455,10.0
1620699190951,8.0
1620699190951,8.0
1620699191234,8.0
1620699191234,8.0
1620699191676,8.0
1620699191676,8.0
1620699192095,8.0
1620699192095,8.0
1620699192444,8.0
1620699192444,8.0
1620699192898,16.0
1620699192898,16.0
1620699193357,10.0
1620699193357,10.0
1620699193799,10.0
1620699193799,10.0
1620699194243,8.0
1620699194243,8.0
1620699194754,10.0
1620699194754,10.0
1620699195152,10.0
1620699195152,10.0
1620699195632,10.0
1620699195632,10.0
1620699196049,10.0
1620699196049,10.0
1620699196466,8.0
1620699196466,8.0
1620699196808,10.0
1620699196808,10.0
1620699197009,8.0
1620699197009,8.0
1620699197477,8.0
1620699197477,8.0
1620699197827,10.0
1620699197827,10.0
1620699198230,10.0
1620699198230,10.0
1620699198718,8.0
1620699198718,8.0
1620699199172,10.0
1620699199172,10.0
1620699199561,8.0
1620699199561,8.0
1620699199983,10.0
1620699199983,10.0
1620699200393,10.0
1620699200393,10.0
1620699200758,10.0
1620699200758,10.0
1620699201240,10.0
1620699201240,10.0
1620699201623,10.0
1620699201623,10.0
1620699201971,10.0
1620699201971,10.0
1620699202353,10.0
1620699202353,10.0
1620699202728,10.0
1620699202728,10.0
1620699203202,10.0
1620699203202,10.0
1620699203712,10.0
1620699203712,10.0
1620699204142,8.0
1620699204142,8.0
1620699204530,10.0
1620699204530,10.0
1620699204925,10.0
1620699204925,10.0
1620699205227,10.0
1620699205227,10.0
1620699205601,10.0
1620699205601,10.0
1620699205978,8.0
1620699205978,8.0
1620699206338,10.0
1620699206338,10.0
1620699206755,10.0
1620699206755,10.0
1620699207145,10.0
1620699207145,10.0
1620699207501,10.0
1620699207501,10.0
1620699207813,10.0
1620699207813,10.0
1620699208262,10.0
1620699208262,10.0
1620699208803,10.0
1620699208803,10.0
1620699209297,15.0
1620699209297,15.0
1620699209765,15.0
1620699209765,15.0
1620699210323,10.0
1620699210323,10.0
1620699210815,10.0
1620699210815,10.0
1620699211219,8.0
1620699211219,8.0
1620699211597,8.0
1620699211597,8.0
1620699211985,10.0
1620699211985,10.0
1620699212363,8.0
1620699212363,8.0
1620699212765,0.0
1620699212765,0.0
1620699213270,10.0
1620699213270,10.0
1620699213647,8.0
1620699213647,8.0
1620699213963,10.0
1620699213963,10.0
1620699214322,10.0
1620699214322,10.0
1620699214541,10.0
1620699214541,10.0
1620699214844,10.0
1620699214844,10.0
1620699215254,10.0
1620699215254,10.0
1620699215779,10.0
1620699215779,10.0
1620699216325,10.0
1620699216325,10.0
1620699216794,8.0
1620699216794,8.0
1620699217159,10.0
1620699217159,10.0
1620699217597,8.0
1620699217597,8.0
1620699218070,10.0
1620699218070,10.0
1620699218440,8.0
1620699218440,8.0
1620699218831,10.0
1620699218831,10.0
1620699219334,10.0
1620699219334,10.0
1620699219717,8.0
1620699219717,8.0
1620699219999,10.0
1620699219999,10.0
1620699220342,10.0
1620699220342,10.0
1620699220679,8.0
1620699220679,8.0
1620699221038,8.0
1620699221038,8.0
1620699221452,10.0
1620699221452,10.0
1620699221807,10.0
1620699221807,10.0
1620699222185,10.0
1620699222185,10.0
1620699222540,15.0
1620699222540,15.0
1620699222928,15.0
1620699222928,15.0
1620699223342,8.0
1620699223342,8.0
1620699223750,10.0
1620699223750,10.0
1620699224168,8.0
1620699224168,8.0
1620699224610,10.0
1620699224610,10.0
1620699225034,10.0
1620699225034,10.0
1620699225373,15.0
1620699225373,15.0
1620699225763,10.0
1620699225763,10.0
1620699226199,15.0
1620699226199,15.0
1620699226522,10.0
1620699226522,10.0
1620699227082,8.0
1620699227082,8.0
1620699227598,10.0
1620699227598,10.0
1620699228096,8.0
1620699228096,8.0
1620699228491,10.0
1620699228491,10.0
1620699228896,8.0
1620699228896,8.0
1620699229248,10.0
1620699229248,10.0
1620699229566,15.0
1620699229566,15.0
1620699229908,10.0
1620699229908,10.0
1620699230309,10.0
1620699230309,10.0
1620699230698,10.0
1620699230698,10.0
1620699231120,8.0
1620699231120,8.0
1620699231574,8.0
1620699231574,8.0
1620699232019,10.0
1620699232019,10.0
1620699232459,15.0
1620699232459,15.0
1620699232900,10.0
1620699232900,10.0
1620699233359,10.0
1620699233359,10.0
1620699233755,8.0
1620699233755,8.0
1620699234209,1.0
1620699234209,1.0
1620699234689,10.0
1620699234689,10.0
1620699235053,1.0
1620699235053,1.0
1620699235452,10.0
1620699235452,10.0
1620699235792,10.0
1620699235792,10.0
1620699236300,10.0
1620699236300,10.0
1620699236777,10.0
1620699236777,10.0
1620699237258,10.0
1620699237258,10.0
1620699237732,15.0
1620699237732,15.0
1620699238073,10.0
1620699238073,10.0
1620699238489,10.0
1620699238489,10.0
1620699238957,8.0
1620699238957,8.0
1620699239431,10.0
1620699239431,10.0
1620699240009,8.0
1620699240009,8.0
1620699240518,10.0
1620699240518,10.0
1620699240923,10.0
1620699240923,10.0
1620699241409,8.0
1620699241409,8.0
1620699242094,0.0
1620699242094,0.0
1620699242595,15.0
1620699242595,15.0
1620699243004,8.0
1620699243004,8.0
1620699243454,10.0
1620699243454,10.0
1620699243875,10.0
1620699243875,10.0
1620699244283,10.0
1620699244283,10.0
1620699244624,10.0
1620699244624,10.0
1620699245005,10.0
1620699245005,10.0
1620699245341,10.0
1620699245341,10.0
1620699245711,10.0
1620699245711,10.0
1620699246091,10.0
1620699246091,10.0
1620699246538,10.0
1620699246538,10.0
1620699246888,10.0
1620699246888,10.0
1620699247314,15.0
1620699247314,15.0
1620699247675,10.0
1620699247675,10.0
1620699248102,10.0
1620699248102,10.0
1620699248465,0.0
1620699248465,0.0
1620699248913,15.0
1620699248913,15.0
1620699249426,8.0
1620699249426,8.0
1620699249886,8.0
1620699249886,8.0
1620699250264,10.0
1620699250264,10.0
1620699250697,10.0
1620699250697,10.0
1620699251129,10.0
1620699251129,10.0
1620699251497,10.0
1620699251497,10.0
1620699251917,10.0
1620699251917,10.0
1620699252684,0.0
1620699252684,0.0
1620699253434,0.0
1620699253434,0.0
1620699253911,10.0
1620699253911,10.0
1620699254302,10.0
1620699254302,10.0
1620699254637,10.0
1620699254637,10.0
1620699255042,10.0
1620699255042,10.0
1620699255375,8.0
1620699255375,8.0
1620699255731,10.0
1620699255731,10.0
1620699256108,10.0
1620699256108,10.0
1620699256483,10.0
1620699256483,10.0
1620699256828,10.0
1620699256828,10.0
1620699257233,10.0
1620699257233,10.0
1620699257667,10.0
1620699257667,10.0
1620699258070,10.0
1620699258070,10.0
1620699258460,15.0
1620699258460,15.0
1620699258799,10.0
1620699258799,10.0
1620699259214,10.0
1620699259214,10.0
1620699259587,8.0
1620699259587,8.0
1620699260013,10.0
1620699260013,10.0
1620699260377,10.0
1620699260377,10.0
1620699260803,10.0
1620699260803,10.0
1620699261259,10.0
1620699261259,10.0
1620699261657,10.0
1620699261657,10.0
1620699262015,8.0
1620699262015,8.0
1620699262421,10.0
1620699262421,10.0
1620699262855,10.0
1620699262855,10.0
1620699263244,10.0
1620699263244,10.0
1620699263538,8.0
1620699263538,8.0
1620699263876,8.0
1620699263876,8.0
1620699264244,10.0
1620699264244,10.0
1620699264594,10.0
1620699264594,10.0
1620699264970,10.0
1620699264970,10.0
1620699265274,10.0
1620699265274,10.0
1620699265690,10.0
1620699265690,10.0
1620699266074,10.0
1620699266074,10.0
1620699266500,8.0
1620699266500,8.0
1620699266837,10.0
1620699266837,10.0
1620699267193,10.0
1620699267193,10.0
1620699267535,10.0
1620699267535,10.0
1620699267892,10.0
1620699267892,10.0
1620699268326,10.0
1620699268326,10.0
1620699268701,8.0
1620699268701,8.0
1620699269188,10.0
1620699269188,10.0
1620699269648,8.0
1620699269648,8.0
1620699270040,10.0
1620699270040,10.0
1620699270486,10.0
1620699270486,10.0
1620699271006,10.0
1620699271006,10.0
1620699271367,10.0
1620699271367,10.0
1620699271722,8.0
1620699271722,8.0
1620699272137,8.0
1620699272137,8.0
1620699272488,10.0
1620699272488,10.0
1620699272873,10.0
1620699272873,10.0
1620699273190,10.0
1620699273190,10.0
1620699273493,8.0
1620699273493,8.0
1620699273887,10.0
1620699273887,10.0
1620699274327,10.0
1620699274327,10.0
1620699274833,8.0
1620699274833,8.0
1620699275277,10.0
1620699275277,10.0
1620699275664,10.0
1620699275664,10.0
1620699275983,8.0
1620699275983,8.0
1620699276331,10.0
1620699276331,10.0
1620699276863,10.0
1620699276863,10.0
1620699277259,10.0
1620699277259,10.0
1620699277758,10.0
1620699277758,10.0
1620699278101,8.0
1620699278101,8.0
1620699278455,10.0
1620699278455,10.0
1620699278993,10.0
1620699278993,10.0
1620699279464,10.0
1620699279464,10.0
1620699279877,8.0
1620699279877,8.0
1620699280298,10.0
1620699280298,10.0
1620699280663,10.0
1620699280663,10.0
1620699281090,0.0
1620699281090,0.0
1620699281489,8.0
1620699281489,8.0
1620699281893,10.0
1620699281893,10.0
1620699282325,15.0
1620699282325,15.0
1620699282685,10.0
1620699282685,10.0
1620699283037,10.0
1620699283037,10.0
1620699283381,10.0
1620699283381,10.0
1620699283751,8.0
1620699283751,8.0
1620699284182,10.0
1620699284182,10.0
1620699284716,10.0
1620699284716,10.0
1620699285103,10.0
1620699285103,10.0
1620699285483,8.0
1620699285483,8.0
1620699285908,8.0
1620699285908,8.0
1620699286291,10.0
1620699286291,10.0
1620699286701,8.0
1620699286701,8.0
1620699287113,10.0
1620699287113,10.0
1620699287498,10.0
1620699287498,10.0
1620699287929,10.0
1620699287929,10.0
1620699288516,8.0
1620699288516,8.0
1620699289074,10.0
1620699289074,10.0
1620699289577,10.0
1620699289577,10.0
1620699290058,8.0
1620699290058,8.0
1620699290444,10.0
1620699290444,10.0
1620699290902,10.0
1620699290902,10.0
1620699291388,0.0
1620699291388,0.0
1620699291846,10.0
1620699291846,10.0
1620699292242,10.0
1620699292242,10.0
1620699292552,10.0
1620699292552,10.0
1620699293008,10.0
1620699293008,10.0
1620699293403,15.0
1620699293403,15.0
1620699293773,8.0
1620699293773,8.0
1620699294184,8.0
1620699294184,8.0
1620699294548,10.0
1620699294548,10.0
1620699294900,10.0
1620699294900,10.0
1620699295284,10.0
1620699295284,10.0
1620699295699,10.0
1620699295699,10.0
1620699296031,8.0
1620699296031,8.0
1620699296429,8.0
1620699296429,8.0
1620699296812,8.0
1620699296812,8.0
1620699297134,8.0
1620699297134,8.0
1620699297601,10.0
1620699297601,10.0
1620699298066,10.0
1620699298066,10.0
1620699298509,10.0
1620699298509,10.0
1620699298936,0.0
1620699298936,0.0
1620699299238,10.0
1620699299238,10.0
1620699299580,8.0
1620699299580,8.0
1620699299916,10.0
1620699299916,10.0
1620699300235,10.0
1620699300235,10.0
1620699300624,10.0
1620699300624,10.0
1620699301084,8.0
1620699301084,8.0
1620699301433,10.0
1620699301433,10.0
1620699301836,8.0
1620699301836,8.0
1620699302190,10.0
1620699302190,10.0
1620699302529,10.0
1620699302529,10.0
1620699302928,10.0
1620699302928,10.0
1620699303297,10.0
1620699303297,10.0
1620699303699,8.0
1620699303699,8.0
1620699304126,10.0
1620699304126,10.0
1620699304582,10.0
1620699304582,10.0
1620699304936,10.0
1620699304936,10.0
1620699305293,10.0
1620699305293,10.0
1620699305652,0.0
1620699305652,0.0
1620699306076,10.0
1620699306076,10.0
1620699306493,8.0
1620699306493,8.0
1620699306955,10.0
1620699306955,10.0
1620699307416,8.0
1620699307416,8.0
1620699307833,10.0
1620699307833,10.0
1620699308243,10.0
1620699308243,10.0
1620699308686,8.0
1620699308686,8.0
1620699309099,10.0
1620699309099,10.0
1620699309500,10.0
1620699309500,10.0
1620699309867,0.0
1620699309867,0.0
1620699310247,10.0
1620699310247,10.0
1620699310707,8.0
1620699310707,8.0
1620699311182,10.0
1620699311182,10.0
1620699311619,10.0
1620699311619,10.0
1620699312069,10.0
1620699312069,10.0
1620699312514,10.0
1620699312514,10.0
1620699312934,10.0
1620699312934,10.0
1620699313412,10.0
1620699313412,10.0
1620699313901,10.0
1620699313901,10.0
1620699314312,10.0
1620699314312,10.0
1620699314696,10.0
1620699314696,10.0
1620699315107,10.0
1620699315107,10.0
1620699315471,8.0
1620699315471,8.0
1620699315903,10.0
1620699315903,10.0
1620699316212,8.0
1620699316212,8.0
1620699316637,10.0
1620699316637,10.0
1620699317002,10.0
1620699317002,10.0
1620699317378,8.0
1620699317378,8.0
1620699317738,10.0
1620699317738,10.0
1620699318118,8.0
1620699318118,8.0
1620699318516,10.0
1620699318516,10.0
1620699318993,10.0
1620699318993,10.0
1620699319365,10.0
1620699319365,10.0
1620699319673,8.0
1620699319673,8.0
1620699320008,8.0
1620699320008,8.0
1620699320462,10.0
1620699320462,10.0
1620699320927,8.0
1620699320927,8.0
1620699321282,10.0
1620699321282,10.0
1620699321695,10.0
1620699321695,10.0
1620699322134,8.0
1620699322134,8.0
1620699322521,10.0
1620699322521,10.0
1620699322907,8.0
1620699322907,8.0
1620699323397,8.0
1620699323397,8.0
1620699323760,10.0
1620699323760,10.0
1620699324197,10.0
1620699324197,10.0
1620699324516,10.0
1620699324516,10.0
1620699324889,8.0
1620699324889,8.0
1620699325279,8.0
1620699325279,8.0
1620699325616,10.0
1620699325616,10.0
1620699325934,8.0
1620699325934,8.0
1620699326360,8.0
1620699326360,8.0
1620699326817,15.0
1620699326817,15.0
1620699327132,10.0
1620699327132,10.0
1620699327531,8.0
1620699327531,8.0
1620699327926,8.0
1620699327926,8.0
1620699328324,8.0
1620699328324,8.0
1620699328702,10.0
1620699328702,10.0
1620699329025,8.0
1620699329025,8.0
1620699329417,8.0
1620699329417,8.0
1620699329823,8.0
1620699329823,8.0
1620699330273,8.0
1620699330273,8.0
1620699330823,10.0
1620699330823,10.0
1620699331263,10.0
1620699331263,10.0
1620699331631,10.0
1620699331631,10.0
1620699332059,8.0
1620699332059,8.0
1620699332520,8.0
1620699332520,8.0
1620699332933,10.0
1620699332933,10.0
1620699333310,8.0
1620699333310,8.0
1620699333648,10.0
1620699333648,10.0
1620699333988,10.0
1620699333988,10.0
1620699334378,10.0
1620699334378,10.0
1620699334705,10.0
1620699334705,10.0
1620699335041,10.0
1620699335041,10.0
1620699335409,10.0
1620699335409,10.0
1620699335801,10.0
1620699335801,10.0
1620699336204,10.0
1620699336204,10.0
1620699336606,10.0
1620699336606,10.0
1620699337062,10.0
1620699337062,10.0
1620699337595,8.0
1620699337595,8.0
1620699338067,10.0
1620699338067,10.0
1620699338406,8.0
1620699338406,8.0
1620699338764,15.0
1620699338764,15.0
1620699339107,10.0
1620699339107,10.0
1620699339443,10.0
1620699339443,10.0
1620699339817,10.0
1620699339817,10.0
1620699340157,15.0
1620699340157,15.0
1620699340564,8.0
1620699340564,8.0
1620699340980,8.0
1620699340980,8.0
1620699341332,8.0
1620699341332,8.0
1620699341751,10.0
1620699341751,10.0
1620699342139,10.0
1620699342139,10.0
1620699342590,10.0
1620699342590,10.0
1620699343062,8.0
1620699343062,8.0
1620699343504,10.0
1620699343504,10.0
1620699343898,8.0
1620699343898,8.0
1620699344313,8.0
1620699344313,8.0
1620699344676,8.0
1620699344676,8.0
1620699345078,10.0
1620699345078,10.0
1620699345485,10.0
1620699345485,10.0
1620699345907,10.0
1620699345907,10.0
1620699346387,10.0
1620699346387,10.0
1620699346850,10.0
1620699346850,10.0
1620699347266,10.0
1620699347266,10.0
1620699347706,10.0
1620699347706,10.0
1620699348127,10.0
1620699348127,10.0
1620699348495,10.0
1620699348495,10.0
1620699348951,10.0
1620699348951,10.0
1620699349354,8.0
1620699349354,8.0
1620699349784,10.0
1620699349784,10.0
1620699350197,10.0
1620699350197,10.0
1620699350550,10.0
1620699350550,10.0
1620699350861,8.0
1620699350861,8.0
1620699351199,15.0
1620699351199,15.0
1620699351515,10.0
1620699351515,10.0
1620699351834,10.0
1620699351834,10.0
1620699352202,10.0
1620699352202,10.0
1620699352580,10.0
1620699352580,10.0
1620699353051,10.0
1620699353051,10.0
1620699353457,10.0
1620699353457,10.0
1620699353928,8.0
1620699353928,8.0
1620699354331,10.0
1620699354331,10.0
1620699354667,10.0
1620699354667,10.0
1620699355019,8.0
1620699355019,8.0
1620699355471,10.0
1620699355471,10.0
1620699355885,10.0
1620699355885,10.0
1620699356254,10.0
1620699356254,10.0
1620699356732,8.0
1620699356732,8.0
1620699357256,10.0
1620699357256,10.0
1620699357768,15.0
1620699357768,15.0
1620699358259,10.0
1620699358259,10.0
1620699358599,15.0
1620699358599,15.0
1620699358986,10.0
1620699358986,10.0
1620699359406,10.0
1620699359406,10.0
1620699359795,10.0
1620699359795,10.0
1620699360217,8.0
1620699360217,8.0
1620699360610,8.0
1620699360610,8.0
1620699360962,10.0
1620699360962,10.0
1620699361330,10.0
1620699361330,10.0
1620699361694,8.0
1620699361694,8.0
1620699362042,10.0
1620699362042,10.0
1620699362398,8.0
1620699362398,8.0
1620699362803,10.0
1620699362803,10.0
1620699363192,10.0
1620699363192,10.0
1620699363663,10.0
1620699363663,10.0
1620699364015,8.0
1620699364015,8.0
1620699364408,10.0
1620699364408,10.0
1620699364813,10.0
1620699364813,10.0
1620699365188,8.0
1620699365188,8.0
1620699365564,10.0
1620699365564,10.0
1620699365967,10.0
1620699365967,10.0
1620699366335,10.0
1620699366335,10.0
1620699366811,15.0
1620699366811,15.0
1620699367192,10.0
1620699367192,10.0
1620699367554,10.0
1620699367554,10.0
1620699367918,10.0
1620699367918,10.0
1620699368270,15.0
1620699368270,15.0
1620699368587,10.0
1620699368587,10.0
1620699368955,8.0
1620699368955,8.0
1620699369253,8.0
1620699369253,8.0
1620699369640,10.0
1620699369640,10.0
1620699370121,10.0
1620699370121,10.0
1620699370527,10.0
1620699370527,10.0
1620699370882,8.0
1620699370882,8.0
1620699371230,10.0
1620699371230,10.0
1620699371570,10.0
1620699371570,10.0
1620699371963,10.0
1620699371963,10.0
1620699372370,10.0
1620699372370,10.0
1620699372779,8.0
1620699372779,8.0
1620699373151,10.0
1620699373151,10.0
1620699373613,15.0
1620699373613,15.0
1620699374077,8.0
1620699374077,8.0
1620699374534,10.0
1620699374534,10.0
1620699374882,15.0
1620699374882,15.0
1620699375284,8.0
1620699375284,8.0
1620699375708,8.0
1620699375708,8.0
1620699376173,10.0
1620699376173,10.0
1620699376640,10.0
1620699376640,10.0
1620699377054,10.0
1620699377054,10.0
1620699377480,10.0
1620699377480,10.0
1620699377955,10.0
1620699377955,10.0
1620699378358,8.0
1620699378358,8.0
1620699378719,10.0
1620699378719,10.0
1620699379151,15.0
1620699379151,15.0
1620699379573,8.0
1620699379573,8.0
1620699379878,10.0
1620699379878,10.0
1620699380255,10.0
1620699380255,10.0
1620699380649,8.0
1620699380649,8.0
1620699381091,10.0
1620699381091,10.0
1620699381508,10.0
1620699381508,10.0
1620699381908,8.0
1620699381908,8.0
1620699382397,10.0
1620699382397,10.0
1620699382858,8.0
1620699382858,8.0
1620699383222,10.0
1620699383222,10.0
1620699383676,10.0
1620699383676,10.0
1620699384123,10.0
1620699384123,10.0
1620699384592,10.0
1620699384592,10.0
1620699384993,10.0
1620699384993,10.0
1620699385330,10.0
1620699385330,10.0
1620699385773,10.0
1620699385773,10.0
1620699386234,10.0
1620699386234,10.0
1620699386646,15.0
1620699386646,15.0
1620699387081,10.0
1620699387081,10.0
1620699387501,8.0
1620699387501,8.0
1620699387884,8.0
1620699387884,8.0
1620699388333,8.0
1620699388333,8.0
1620699388786,10.0
1620699388786,10.0
1620699389174,10.0
1620699389174,10.0
1620699389647,15.0
1620699389647,15.0
1620699390151,10.0
1620699390151,10.0
1620699390628,10.0
1620699390628,10.0
1620699391110,10.0
1620699391110,10.0
1620699391550,10.0
1620699391550,10.0
1620699392061,10.0
1620699392061,10.0
1620699392498,10.0
1620699392498,10.0
1620699392887,8.0
1620699392887,8.0
1620699393338,8.0
1620699393338,8.0
1620699393803,10.0
1620699393803,10.0
1620699394238,10.0
1620699394238,10.0
1620699394653,10.0
1620699394653,10.0
1620699395161,15.0
1620699395161,15.0
1620699395687,10.0
1620699395687,10.0
1620699396130,8.0
1620699396130,8.0
1620699396526,8.0
1620699396526,8.0
1620699396922,8.0
1620699396922,8.0
1620699397329,10.0
1620699397329,10.0
1620699397764,10.0
1620699397764,10.0
1620699398255,10.0
1620699398255,10.0
1620699398665,0.0
1620699398665,0.0
1620699399059,10.0
1620699399059,10.0
1620699399403,10.0
1620699399403,10.0
1620699399746,8.0
1620699399746,8.0
1620699400177,8.0
1620699400177,8.0
1620699400541,0.0
1620699400541,0.0
1620699400996,10.0
1620699400996,10.0
1620699401416,15.0
1620699401416,15.0
1620699401835,10.0
1620699401835,10.0
1620699402204,15.0
1620699402204,15.0
1620699402738,10.0
1620699402738,10.0
1620699403516,0.0
1620699403516,0.0
1620699404361,0.0
1620699404361,0.0
1620699405199,0.0
1620699405199,0.0
1620699406089,0.0
1620699406089,0.0
1620699406989,0.0
1620699406989,0.0
1620699407825,0.0
1620699407825,0.0
1620699409080,0.0
1620699409080,0.0
1620699409925,0.0
1620699409925,0.0
1620699410401,10.0
1620699410401,10.0
1620699410706,10.0
1620699410706,10.0
1620699411053,10.0
1620699411053,10.0
1620699411392,10.0
1620699411392,10.0
1620699411777,10.0
1620699411777,10.0
1620699412216,8.0
1620699412216,8.0
1620699412654,8.0
1620699412654,8.0
1620699412999,10.0
1620699412999,10.0
1620699413442,10.0
1620699413442,10.0
1620699413827,10.0
1620699413827,10.0
1620699414231,8.0
1620699414231,8.0
1620699414683,10.0
1620699414683,10.0
1620699415149,10.0
1620699415149,10.0
1620699415582,8.0
1620699415582,8.0
1620699416112,10.0
1620699416112,10.0
1620699416574,8.0
1620699416574,8.0
1620699417101,8.0
1620699417101,8.0
1620699417492,10.0
1620699417492,10.0
1620699417892,10.0
1620699417892,10.0
1620699418292,8.0
1620699418292,8.0
1620699418724,8.0
1620699418724,8.0
1620699419171,8.0
1620699419171,8.0
1620699419635,8.0
1620699419635,8.0
1620699420118,10.0
1620699420118,10.0
1620699420683,8.0
1620699420683,8.0
1620699421094,8.0
1620699421094,8.0
1620699421478,10.0
1620699421478,10.0
1620699421875,8.0
1620699421875,8.0
1620699422239,10.0
1620699422239,10.0
1620699422567,8.0
1620699422567,8.0
1620699422882,10.0
1620699422882,10.0
1620699423244,8.0
1620699423244,8.0
1620699423570,10.0
1620699423570,10.0
1620699423982,8.0
1620699423982,8.0
1620699424369,10.0
1620699424369,10.0
1620699424737,10.0
1620699424737,10.0
1620699425105,10.0
1620699425105,10.0
1620699425459,10.0
1620699425459,10.0
1620699425842,10.0
1620699425842,10.0
1620699426219,8.0
1620699426219,8.0
1620699426619,8.0
1620699426619,8.0
1620699427139,8.0
1620699427139,8.0
1620699427634,8.0
1620699427634,8.0
1620699428134,10.0
1620699428134,10.0
1620699428534,10.0
1620699428534,10.0
1620699428822,10.0
1620699428822,10.0
1620699429309,10.0
1620699429309,10.0
1620699429772,8.0
1620699429772,8.0
1620699430147,10.0
1620699430147,10.0
1620699430469,8.0
1620699430469,8.0
1620699430885,8.0
1620699430885,8.0
1620699431377,10.0
1620699431377,10.0
1620699432018,8.0
1620699432018,8.0
1620699432968,0.0
1620699432968,0.0
1620699433442,10.0
1620699433442,10.0
1620699433770,8.0
1620699433770,8.0
1620699434150,10.0
1620699434150,10.0
1620699434496,10.0
1620699434496,10.0
1620699434834,8.0
1620699434834,8.0
1620699435211,10.0
1620699435211,10.0
1620699435619,15.0
1620699435619,15.0
1620699436023,10.0
1620699436023,10.0
1620699436395,10.0
1620699436395,10.0
1620699436765,8.0
1620699436765,8.0
1620699437141,10.0
1620699437141,10.0
1620699437552,10.0
1620699437552,10.0
1620699437919,8.0
1620699437919,8.0
1620699438272,10.0
1620699438272,10.0
1620699438629,10.0
1620699438629,10.0
1620699439047,10.0
1620699439047,10.0
1620699439489,15.0
1620699439489,15.0
1620699440011,10.0
1620699440011,10.0
1620699440453,8.0
1620699440453,8.0
1620699440914,10.0
1620699440914,10.0
1620699441373,8.0
1620699441373,8.0
1620699441800,15.0
1620699441800,15.0
1620699442222,15.0
1620699442222,15.0
1620699442612,10.0
1620699442612,10.0
1620699442987,10.0
1620699442987,10.0
1620699443409,10.0
1620699443409,10.0
1620699443813,10.0
1620699443813,10.0
1620699444233,10.0
1620699444233,10.0
1620699444730,10.0
1620699444730,10.0
1620699445243,8.0
1620699445243,8.0
1620699445692,8.0
1620699445692,8.0
1620699446102,10.0
1620699446102,10.0
1620699446540,15.0
1620699446540,15.0
1620699447036,10.0
1620699447036,10.0
1620699447472,10.0
1620699447472,10.0
1620699447955,10.0
1620699447955,10.0
1620699448352,10.0
1620699448352,10.0
1620699448689,8.0
1620699448689,8.0
1620699449075,10.0
1620699449075,10.0
1620699449486,10.0
1620699449486,10.0
1620699449914,8.0
1620699449914,8.0
1620699450327,10.0
1620699450327,10.0
1620699450753,10.0
1620699450753,10.0
1620699451136,8.0
1620699451136,8.0
1620699451563,10.0
1620699451563,10.0
1620699451984,10.0
1620699451984,10.0
1620699452351,10.0
1620699452351,10.0
1620699452731,10.0
1620699452731,10.0
1620699453092,10.0
1620699453092,10.0
1620699453481,10.0
1620699453481,10.0
1620699453940,10.0
1620699453940,10.0
1620699454446,8.0
1620699454446,8.0
1620699454918,10.0
1620699454918,10.0
1620699455275,8.0
1620699455275,8.0
1620699455645,10.0
1620699455645,10.0
1620699456026,10.0
1620699456026,10.0
1620699456410,10.0
1620699456410,10.0
1620699456817,10.0
1620699456817,10.0
1620699457248,10.0
1620699457248,10.0
1620699457692,10.0
1620699457692,10.0
1620699458066,8.0
1620699458066,8.0
1620699458454,8.0
1620699458454,8.0
1620699458773,8.0
1620699458773,8.0
1620699459173,8.0
1620699459173,8.0
1620699459563,10.0
1620699459563,10.0
1620699459947,10.0
1620699459947,10.0
1620699460365,8.0
1620699460365,8.0
1620699460742,8.0
1620699460742,8.0
1620699461115,10.0
1620699461115,10.0
1620699461522,10.0
1620699461522,10.0
1620699461857,8.0
1620699461857,8.0
1620699462256,10.0
1620699462256,10.0
1620699462637,10.0
1620699462637,10.0
1620699462967,10.0
1620699462967,10.0
1620699463332,10.0
1620699463332,10.0
1620699463761,8.0
1620699463761,8.0
1620699464179,10.0
1620699464179,10.0
1620699464511,15.0
1620699464511,15.0
1620699464895,10.0
1620699464895,10.0
1620699465314,10.0
1620699465314,10.0
1620699465872,10.0
1620699465872,10.0
1620699466574,0.0
1620699466574,0.0
1620699467348,0.0
1620699467348,0.0
1620699468391,0.0
1620699468391,0.0
1620699469327,0.0
1620699469327,0.0
1620699469825,10.0
1620699469825,10.0
1620699470219,8.0
1620699470219,8.0
1620699470632,10.0
1620699470632,10.0
1620699471008,8.0
1620699471008,8.0
1620699471359,10.0
1620699471359,10.0
1620699471812,10.0
1620699471812,10.0
1620699472245,8.0
1620699472245,8.0
1620699472629,10.0
1620699472629,10.0
1620699473077,10.0
1620699473077,10.0
1620699473468,10.0
1620699473468,10.0
1620699473888,8.0
1620699473888,8.0
1620699474299,10.0
1620699474299,10.0
1620699474802,10.0
1620699474802,10.0
1620699475287,8.0
1620699475287,8.0
1620699475751,10.0
1620699475751,10.0
1620699476198,10.0
1620699476198,10.0
1620699476603,10.0
1620699476603,10.0
1620699477012,8.0
1620699477012,8.0
1620699477431,10.0
1620699477431,10.0
1620699477803,10.0
1620699477803,10.0
1620699478248,10.0
1620699478248,10.0
1620699478741,8.0
1620699478741,8.0
1620699479174,8.0
1620699479174,8.0
1620699479556,10.0
1620699479556,10.0
1620699479953,10.0
1620699479953,10.0
1620699480349,8.0
1620699480349,8.0
1620699480709,10.0
1620699480709,10.0
1620699481106,10.0
1620699481106,10.0
1620699481427,10.0
1620699481427,10.0
1620699481796,10.0
1620699481796,10.0
1620699482188,10.0
1620699482188,10.0
1620699482587,8.0
1620699482587,8.0
1620699483044,10.0
1620699483044,10.0
1620699483408,10.0
1620699483408,10.0
1620699483759,10.0
1620699483759,10.0
1620699484163,10.0
1620699484163,10.0
1620699484513,10.0
1620699484513,10.0
1620699484860,10.0
1620699484860,10.0
1620699485297,10.0
1620699485297,10.0
1620699485699,10.0
1620699485699,10.0
1620699486100,8.0
1620699486100,8.0
1620699486464,10.0
1620699486464,10.0
1620699486758,10.0
1620699486758,10.0
1620699487158,10.0
1620699487158,10.0
1620699487494,10.0
1620699487494,10.0
1620699487878,10.0
1620699487878,10.0
1620699488342,10.0
1620699488342,10.0
1620699488860,10.0
1620699488860,10.0
1620699489315,10.0
1620699489315,10.0
1620699489831,10.0
1620699489831,10.0
1620699490627,0.0
1620699490627,0.0
1620699491484,0.0
1620699491484,0.0
1620699492339,0.0
1620699492339,0.0
1620699492828,1.0
1620699492828,1.0
1620699493265,1.0
1620699493265,1.0
1620699493705,8.0
1620699493705,8.0
1620699494158,10.0
1620699494158,10.0
1620699494581,8.0
1620699494581,8.0
1620699494977,10.0
1620699494977,10.0
1620699495431,10.0
1620699495431,10.0
1620699495830,8.0
1620699495830,8.0
1620699496231,8.0
1620699496231,8.0
1620699496694,10.0
1620699496694,10.0
1620699497127,10.0
1620699497127,10.0
1620699497524,8.0
1620699497524,8.0
1620699497883,8.0
1620699497883,8.0
1620699498259,10.0
1620699498259,10.0
1620699498730,8.0
1620699498730,8.0
1620699499160,10.0
1620699499160,10.0
1620699499536,10.0
1620699499536,10.0
1620699499948,10.0
1620699499948,10.0
1620699500343,8.0
1620699500343,8.0
1620699500779,10.0
1620699500779,10.0
1620699501222,1.0
1620699501222,1.0
1620699501664,0.0
1620699501664,0.0
1620699502123,10.0
1620699502123,10.0
1620699502609,10.0
1620699502609,10.0
1620699503064,10.0
1620699503064,10.0
1620699503461,8.0
1620699503461,8.0
1620699503899,10.0
1620699503899,10.0
1620699504343,8.0
1620699504343,8.0
1620699504843,8.0
1620699504843,8.0
1620699505227,0.0
1620699505227,0.0
1620699505572,1.0
1620699505572,1.0
1620699506021,0.0
1620699506021,0.0
1620699506367,8.0
1620699506367,8.0
1620699506824,10.0
1620699506824,10.0
1620699507152,0.0
1620699507152,0.0
1620699507575,10.0
1620699507575,10.0
1620699508004,10.0
1620699508004,10.0
1620699508403,10.0
1620699508403,10.0
1620699508795,10.0
1620699508795,10.0
1620699509160,10.0
1620699509160,10.0
1620699509520,8.0
1620699509520,8.0
1620699509918,8.0
1620699509918,8.0
1620699510371,8.0
1620699510371,8.0
1620699510795,10.0
1620699510795,10.0
1620699511273,10.0
1620699511273,10.0
1620699511689,10.0
1620699511689,10.0
1620699512055,8.0
1620699512055,8.0
1620699512457,10.0
1620699512457,10.0
1620699512798,10.0
1620699512798,10.0
1620699513205,10.0
1620699513205,10.0
1620699513669,10.0
1620699513669,10.0
1620699514079,10.0
1620699514079,10.0
1620699514505,10.0
1620699514505,10.0
1620699514904,8.0
1620699514904,8.0
1620699515367,10.0
1620699515367,10.0
1620699515787,8.0
1620699515787,8.0
1620699516149,8.0
1620699516149,8.0
1620699516502,0.0
1620699516502,0.0
1620699516858,10.0
1620699516858,10.0
1620699517165,0.0
1620699517165,0.0
1620699517522,8.0
1620699517522,8.0
1620699517886,10.0
1620699517886,10.0
1620699518223,10.0
1620699518223,10.0
1620699518598,8.0
1620699518598,8.0
1620699518949,16.0
1620699518949,16.0
1620699519295,10.0
1620699519295,10.0
1620699519709,8.0
1620699519709,8.0
1620699520078,10.0
1620699520078,10.0
1620699520457,10.0
1620699520457,10.0
1620699520808,8.0
1620699520808,8.0
1620699521177,10.0
1620699521177,10.0
1620699521582,8.0
1620699521582,8.0
1620699522066,10.0
1620699522066,10.0
1620699522525,10.0
1620699522525,10.0
1620699523004,10.0
1620699523004,10.0
1620699523457,10.0
1620699523457,10.0
1620699523912,8.0
1620699523912,8.0
1620699524307,10.0
1620699524307,10.0
1620699524708,16.0
1620699524708,16.0
1620699525122,8.0
1620699525122,8.0
1620699525550,10.0
1620699525550,10.0
1620699526048,8.0
1620699526048,8.0
1620699526469,8.0
1620699526469,8.0
1620699526829,10.0
1620699526829,10.0
1620699527233,0.0
1620699527233,0.0
1620699527649,10.0
1620699527649,10.0
1620699528076,15.0
1620699528076,15.0
1620699528530,10.0
1620699528530,10.0
1620699528989,15.0
1620699528989,15.0
1620699529405,10.0
1620699529405,10.0
1620699529787,10.0
1620699529787,10.0
1620699530241,10.0
1620699530241,10.0
1620699530627,10.0
1620699530627,10.0
1620699531057,10.0
1620699531057,10.0
1620699531496,8.0
1620699531496,8.0
1620699531885,10.0
1620699531885,10.0
1620699532318,10.0
1620699532318,10.0
1620699532703,15.0
1620699532703,15.0
1620699533064,16.0
1620699533064,16.0
1620699533438,10.0
1620699533438,10.0
1620699533826,10.0
1620699533826,10.0
1620699534263,8.0
1620699534263,8.0
1620699534620,10.0
1620699534620,10.0
1620699535084,10.0
1620699535084,10.0
1620699535545,10.0
1620699535545,10.0
1620699535960,10.0
1620699535960,10.0
1620699536528,15.0
1620699536528,15.0
1620699537230,0.0
1620699537230,0.0
1620699538004,0.0
1620699538004,0.0
1620699539013,0.0
1620699539013,0.0
1620699539841,0.0
1620699539841,0.0
1620699540723,0.0
1620699540723,0.0
1620699541270,8.0
1620699541270,8.0
1620699541659,10.0
1620699541659,10.0
1620699542082,10.0
1620699542082,10.0
1620699542584,10.0
1620699542584,10.0
1620699542996,8.0
1620699542996,8.0
1620699543384,8.0
1620699543384,8.0
1620699543840,15.0
1620699543840,15.0
1620699544281,10.0
1620699544281,10.0
1620699544763,10.0
1620699544763,10.0
1620699545144,8.0
1620699545144,8.0
1620699545516,8.0
1620699545516,8.0
1620699545907,10.0
1620699545907,10.0
1620699546289,10.0
1620699546289,10.0
1620699546661,10.0
1620699546661,10.0
1620699547395,10.0
1620699547395,10.0
1620699547752,10.0
1620699547752,10.0
1620699548140,8.0
1620699548140,8.0
1620699548542,8.0
1620699548542,8.0
1620699548911,10.0
1620699548911,10.0
1620699549227,10.0
1620699549227,10.0
1620699549643,10.0
1620699549643,10.0
1620699550090,10.0
1620699550090,10.0
1620699550539,10.0
1620699550539,10.0
1620699550965,10.0
1620699550965,10.0
1620699551382,10.0
1620699551382,10.0
1620699551802,10.0
1620699551802,10.0
1620699552228,8.0
1620699552228,8.0
1620699552621,10.0
1620699552621,10.0
1620699553012,10.0
1620699553012,10.0
1620699553433,10.0
1620699553433,10.0
1620699553841,10.0
1620699553841,10.0
1620699554340,8.0
1620699554340,8.0
1620699554829,8.0
1620699554829,8.0
1620699555221,10.0
1620699555221,10.0
1620699555662,8.0
1620699555662,8.0
1620699556074,10.0
1620699556074,10.0
1620699556527,10.0
1620699556527,10.0
1620699557000,10.0
1620699557000,10.0
1620699557481,10.0
1620699557481,10.0
1620699557832,10.0
1620699557832,10.0
1620699558281,10.0
1620699558281,10.0
1620699558714,10.0
1620699558714,10.0
1620699559095,10.0
1620699559095,10.0
1620699559519,10.0
1620699559519,10.0
1620699559955,10.0
1620699559955,10.0
1620699560395,8.0
1620699560395,8.0
1620699560812,10.0
1620699560812,10.0
1620699561226,8.0
1620699561226,8.0
1620699561603,15.0
1620699561603,15.0
1620699562006,15.0
1620699562006,15.0
1620699562403,10.0
1620699562403,10.0
1620699562766,8.0
1620699562766,8.0
1620699563204,10.0
1620699563204,10.0
1620699563603,10.0
1620699563603,10.0
1620699563956,10.0
1620699563956,10.0
1620699564375,10.0
1620699564375,10.0
1620699564765,10.0
1620699564765,10.0
1620699565177,8.0
1620699565177,8.0
1620699565623,8.0
1620699565623,8.0
1620699566067,10.0
1620699566067,10.0
1620699566425,10.0
1620699566425,10.0
1620699566885,10.0
1620699566885,10.0
1620699567284,10.0
1620699567284,10.0
1620699567622,10.0
1620699567622,10.0
1620699567980,10.0
1620699567980,10.0
1620699568302,10.0
1620699568302,10.0
1620699568746,10.0
1620699568746,10.0
1620699569213,10.0
1620699569213,10.0
1620699569925,0.0
1620699569925,0.0
1620699570684,0.0
1620699570684,0.0
1620699571491,0.0
1620699571491,0.0
1620699572442,0.0
1620699572442,0.0
1620699573276,0.0
1620699573276,0.0
1620699574165,0.0
1620699574165,0.0
1620699574691,10.0
1620699574691,10.0
1620699575016,10.0
1620699575016,10.0
1620699575470,10.0
1620699575470,10.0
1620699575905,10.0
1620699575905,10.0
1620699576288,10.0
1620699576288,10.0
1620699576732,10.0
1620699576732,10.0
1620699577099,10.0
1620699577099,10.0
1620699577455,10.0
1620699577455,10.0
1620699577859,10.0
1620699577859,10.0
1620699578258,10.0
1620699578258,10.0
1620699578621,10.0
1620699578621,10.0
1620699579036,10.0
1620699579036,10.0
1620699579489,8.0
1620699579489,8.0
1620699579884,10.0
1620699579884,10.0
1620699580328,8.0
1620699580328,8.0
1620699580776,10.0
1620699580776,10.0
1620699581200,10.0
1620699581200,10.0
1620699581687,10.0
1620699581687,10.0
1620699582224,8.0
1620699582224,8.0
1620699582661,8.0
1620699582661,8.0
1620699583117,8.0
1620699583117,8.0
1620699583574,8.0
1620699583574,8.0
1620699583992,10.0
1620699583992,10.0
1620699584451,10.0
1620699584451,10.0
1620699584893,10.0
1620699584893,10.0
1620699585475,10.0
1620699585475,10.0
1620699585909,8.0
1620699585909,8.0
1620699586323,10.0
1620699586323,10.0
1620699586794,10.0
1620699586794,10.0
1620699587187,10.0
1620699587187,10.0
1620699587510,8.0
1620699587510,8.0
1620699587903,8.0
1620699587903,8.0
1620699588310,8.0
1620699588310,8.0
1620699588733,10.0
1620699588733,10.0
1620699589259,10.0
1620699589259,10.0
1620699590132,0.0
1620699590132,0.0
1620699591089,0.0
1620699591089,0.0
1620699592156,0.0
1620699592156,0.0
1620699593093,0.0
1620699593093,0.0
1620699593817,0.0
1620699593817,0.0
1620699594605,0.0
1620699594605,0.0
1620699595350,0.0
1620699595350,0.0
1620699596077,0.0
1620699596077,0.0
1620699596604,8.0
1620699596604,8.0
1620699597019,10.0
1620699597019,10.0
1620699597429,8.0
1620699597429,8.0
1620699597924,10.0
1620699597924,10.0
1620699598289,10.0
1620699598289,10.0
1620699598673,10.0
1620699598673,10.0
1620699599094,10.0
1620699599094,10.0
1620699599452,10.0
1620699599452,10.0
1620699599819,10.0
1620699599819,10.0
1620699600196,10.0
1620699600196,10.0
1620699600560,10.0
1620699600560,10.0
1620699600918,10.0
1620699600918,10.0
1620699601311,10.0
1620699601311,10.0
1620699601672,10.0
1620699601672,10.0
1620699601884,10.0
1620699601884,10.0
1620699602245,10.0
1620699602245,10.0
1620699602601,10.0
1620699602601,10.0
1620699603031,10.0
1620699603031,10.0
1620699603489,10.0
1620699603489,10.0
1620699603912,10.0
1620699603912,10.0
1620699604300,10.0
1620699604300,10.0
1620699604666,8.0
1620699604666,8.0
1620699605020,10.0
1620699605020,10.0
1620699605403,10.0
1620699605403,10.0
1620699605776,10.0
1620699605776,10.0
1620699606125,10.0
1620699606125,10.0
1620699606483,15.0
1620699606483,15.0
1620699606865,10.0
1620699606865,10.0
1620699607177,10.0
1620699607177,10.0
1620699607554,8.0
1620699607554,8.0
1620699607927,8.0
1620699607927,8.0
1620699608250,8.0
1620699608250,8.0
1620699608667,8.0
1620699608667,8.0
1620699609069,10.0
1620699609069,10.0
1620699609373,10.0
1620699609373,10.0
1620699609757,8.0
1620699609757,8.0
1620699610183,8.0
1620699610183,8.0
1620699610517,8.0
1620699610517,8.0
1620699610858,10.0
1620699610858,10.0
1620699611266,10.0
1620699611266,10.0
1620699611547,15.0
1620699611547,15.0
1620699611902,8.0
1620699611902,8.0
1620699612336,10.0
1620699612336,10.0
1620699612743,8.0
1620699612743,8.0
1620699613127,10.0
1620699613127,10.0
1620699613546,10.0
1620699613546,10.0
1620699613950,10.0
1620699613950,10.0
1620699614392,10.0
1620699614392,10.0
1620699614749,10.0
1620699614749,10.0
1620699615156,10.0
1620699615156,10.0
1620699615566,10.0
1620699615566,10.0
1620699615969,10.0
1620699615969,10.0
1620699616364,10.0
1620699616364,10.0
1620699616776,8.0
1620699616776,8.0
1620699617156,8.0
1620699617156,8.0
1620699617482,8.0
1620699617482,8.0
1620699617860,10.0
1620699617860,10.0
1620699618232,8.0
1620699618232,8.0
1620699618617,10.0
1620699618617,10.0
1620699618960,10.0
1620699618960,10.0
1620699619346,10.0
1620699619346,10.0
1620699619815,10.0
1620699619815,10.0
1620699620247,16.0
1620699620247,16.0
1620699620670,8.0
1620699620670,8.0
1620699621130,10.0
1620699621130,10.0
1620699621591,10.0
1620699621591,10.0
1620699622037,10.0
1620699622037,10.0
1620699622483,10.0
1620699622483,10.0
1620699622916,8.0
1620699622916,8.0
1620699623360,10.0
1620699623360,10.0
1620699623744,8.0
1620699623744,8.0
1620699624148,10.0
1620699624148,10.0
1620699624543,8.0
1620699624543,8.0
1620699624970,8.0
1620699624970,8.0
1620699625313,10.0
1620699625313,10.0
1620699625693,10.0
1620699625693,10.0
1620699626177,10.0
1620699626177,10.0
1620699626643,8.0
1620699626643,8.0
1620699627032,8.0
1620699627032,8.0
1620699627520,10.0
1620699627520,10.0
1620699627908,8.0
1620699627908,8.0
1620699628328,10.0
1620699628328,10.0
1620699628814,10.0
1620699628814,10.0
1620699629214,10.0
1620699629214,10.0
1620699629623,10.0
1620699629623,10.0
1620699630049,15.0
1620699630049,15.0
1620699630499,10.0
1620699630499,10.0
1620699630905,10.0
1620699630905,10.0
1620699631350,10.0
1620699631350,10.0
1620699631864,10.0
1620699631864,10.0
1620699632303,10.0
1620699632303,10.0
1620699632763,10.0
1620699632763,10.0
1620699633158,10.0
1620699633158,10.0
1620699633509,10.0
1620699633509,10.0
1620699633905,10.0
1620699633905,10.0
1620699634295,10.0
1620699634295,10.0
1620699634710,8.0
1620699634710,8.0
1620699635156,10.0
1620699635156,10.0
1620699635656,10.0
1620699635656,10.0
1620699636085,8.0
1620699636085,8.0
1620699636579,10.0
1620699636579,10.0
1620699637068,10.0
1620699637068,10.0
1620699637503,10.0
1620699637503,10.0
1620699637953,8.0
1620699637953,8.0
1620699638354,8.0
1620699638354,8.0
1620699638800,10.0
1620699638800,10.0
1620699639253,8.0
1620699639253,8.0
1620699639630,8.0
1620699639630,8.0
1620699640071,10.0
1620699640071,10.0
1620699640546,8.0
1620699640546,8.0
1620699641007,10.0
1620699641007,10.0
1620699641618,10.0
1620699641618,10.0
1620699642764,0.0
1620699642764,0.0
1620699643552,0.0
1620699643552,0.0
1620699644308,0.0
1620699644308,0.0
1620699644760,10.0
1620699644760,10.0
1620699645176,8.0
1620699645176,8.0
1620699645639,8.0
1620699645639,8.0
1620699646037,10.0
1620699646037,10.0
1620699646389,8.0
1620699646389,8.0
1620699646806,15.0
1620699646806,15.0
1620699647112,10.0
1620699647112,10.0
1620699647515,10.0
1620699647515,10.0
1620699647858,10.0
1620699647858,10.0
1620699648204,10.0
1620699648204,10.0
1620699648502,10.0
1620699648502,10.0
1620699648871,0.0
1620699648871,0.0
1620699649223,10.0
1620699649223,10.0
1620699649571,15.0
1620699649571,15.0
1620699649924,8.0
1620699649924,8.0
1620699650272,10.0
1620699650272,10.0
1620699650615,8.0
1620699650615,8.0
1620699650931,8.0
1620699650931,8.0
1620699651374,10.0
1620699651374,10.0
1620699652236,0.0
1620699652236,0.0
1620699653686,0.0
1620699653686,0.0
1620699655240,0.0
1620699655240,0.0
1620699656208,0.0
1620699656208,0.0
1620699656642,8.0
1620699656642,8.0
1620699657014,15.0
1620699657014,15.0
1620699657407,8.0
1620699657407,8.0
1620699657783,8.0
1620699657783,8.0
1620699658187,10.0
1620699658187,10.0
1620699658612,10.0
1620699658612,10.0
1620699658963,8.0
1620699658963,8.0
1620699659324,8.0
1620699659324,8.0
1620699659675,10.0
1620699659675,10.0
1620699660061,10.0
1620699660061,10.0
1620699660501,10.0
1620699660501,10.0
1620699660870,10.0
1620699660870,10.0
1620699661261,10.0
1620699661261,10.0
1620699661670,15.0
1620699661670,15.0
1620699662145,10.0
1620699662145,10.0
1620699662581,10.0
1620699662581,10.0
1620699662920,8.0
1620699662920,8.0
1620699663271,8.0
1620699663271,8.0
1620699663675,10.0
1620699663675,10.0
1620699664052,0.0
1620699664052,0.0
1620699664413,16.0
1620699664413,16.0
1620699664795,8.0
1620699664795,8.0
1620699665186,10.0
1620699665186,10.0
1620699665635,8.0
1620699665635,8.0
1620699666159,10.0
1620699666159,10.0
1620699666594,10.0
1620699666594,10.0
1620699666956,15.0
1620699666956,15.0
1620699667417,8.0
1620699667417,8.0
1620699667952,10.0
1620699667952,10.0
1620699668406,10.0
1620699668406,10.0
1620699668844,10.0
1620699668844,10.0
1620699669314,10.0
1620699669314,10.0
1620699669785,15.0
1620699669785,15.0
1620699670269,8.0
1620699670269,8.0
1620699670673,10.0
1620699670673,10.0
1620699671003,8.0
1620699671003,8.0
1620699671374,10.0
1620699671374,10.0
1620699671752,8.0
1620699671752,8.0
1620699672096,8.0
1620699672096,8.0
1620699672496,8.0
1620699672496,8.0
1620699672959,10.0
1620699672959,10.0
1620699673414,8.0
1620699673414,8.0
1620699673862,10.0
1620699673862,10.0
1620699674289,10.0
1620699674289,10.0
1620699674640,10.0
1620699674640,10.0
1620699675057,8.0
1620699675057,8.0
1620699675477,10.0
1620699675477,10.0
1620699675873,10.0
1620699675873,10.0
1620699676398,10.0
1620699676398,10.0
1620699676775,0.0
1620699676775,0.0
1620699677199,10.0
1620699677199,10.0
1620699677637,10.0
1620699677637,10.0
1620699678049,8.0
1620699678049,8.0
1620699678460,10.0
1620699678460,10.0
1620699678872,8.0
1620699678872,8.0
1620699679270,10.0
1620699679270,10.0
1620699679664,10.0
1620699679664,10.0
1620699679981,8.0
1620699679981,8.0
1620699680394,8.0
1620699680394,8.0
1620699680812,8.0
1620699680812,8.0
1620699681244,10.0
1620699681244,10.0
1620699681569,10.0
1620699681569,10.0
1620699682000,10.0
1620699682000,10.0
1620699682395,10.0
1620699682395,10.0
1620699682856,10.0
1620699682856,10.0
1620699683409,15.0
1620699683409,15.0
1620699683885,10.0
1620699683885,10.0
1620699684271,10.0
1620699684271,10.0
1620699684702,15.0
1620699684702,15.0
1620699685082,8.0
1620699685082,8.0
1620699685462,0.0
1620699685462,0.0
1620699685836,10.0
1620699685836,10.0
1620699686243,8.0
1620699686243,8.0
1620699686612,10.0
1620699686612,10.0
1620699686987,10.0
1620699686987,10.0
1620699687361,10.0
1620699687361,10.0
1620699687725,10.0
1620699687725,10.0
1620699688155,8.0
1620699688155,8.0
1620699688539,10.0
1620699688539,10.0
1620699688896,10.0
1620699688896,10.0
1620699689372,10.0
1620699689372,10.0
1620699689852,10.0
1620699689852,10.0
1620699690215,10.0
1620699690215,10.0
1620699690611,10.0
1620699690611,10.0
1620699690943,8.0
1620699690943,8.0
1620699691256,10.0
1620699691256,10.0
1620699691679,15.0
1620699691679,15.0
1620699692085,10.0
1620699692085,10.0
1620699692602,10.0
1620699692602,10.0
1620699693100,10.0
1620699693100,10.0
1620699693577,10.0
1620699693577,10.0
1620699694020,8.0
1620699694020,8.0
1620699694466,10.0
1620699694466,10.0
1620699694789,8.0
1620699694789,8.0
1620699695132,8.0
1620699695132,8.0
1620699695528,10.0
1620699695528,10.0
1620699695829,10.0
1620699695829,10.0
1620699696155,10.0
1620699696155,10.0
1620699696506,8.0
1620699696506,8.0
1620699696831,0.0
1620699696831,0.0
1620699697190,8.0
1620699697190,8.0
1620699697609,8.0
1620699697609,8.0
1620699697965,10.0
1620699697965,10.0
1620699698370,15.0
1620699698370,15.0
1620699698833,8.0
1620699698833,8.0
1620699699277,10.0
1620699699277,10.0
1620699699702,10.0
1620699699702,10.0
1620699700259,10.0
1620699700259,10.0
1620699700999,0.0
1620699700999,0.0
1620699701879,0.0
1620699701879,0.0
1620699702597,0.0
1620699702597,0.0
1620699703061,8.0
1620699703061,8.0
1620699703342,8.0
1620699703342,8.0
1620699703730,8.0
1620699703730,8.0
1620699704115,0.0
1620699704115,0.0
1620699704458,10.0
1620699704458,10.0
1620699704833,8.0
1620699704833,8.0
1620699705230,10.0
1620699705230,10.0
1620699705668,0.0
1620699705668,0.0
1620699706082,10.0
1620699706082,10.0
1620699706504,10.0
1620699706504,10.0
1620699706938,10.0
1620699706938,10.0
1620699707339,10.0
1620699707339,10.0
1620699707708,10.0
1620699707708,10.0
1620699708122,10.0
1620699708122,10.0
1620699708547,10.0
1620699708547,10.0
1620699708891,8.0
1620699708891,8.0
1620699709277,10.0
1620699709277,10.0
1620699709699,0.0
1620699709699,0.0
1620699710072,10.0
1620699710072,10.0
1620699710413,10.0
1620699710413,10.0
1620699710730,8.0
1620699710730,8.0
1620699711075,0.0
1620699711075,0.0
1620699711473,10.0
1620699711473,10.0
1620699711803,10.0
1620699711803,10.0
1620699712184,10.0
1620699712184,10.0
1620699712577,10.0
1620699712577,10.0
1620699712997,10.0
1620699712997,10.0
1620699713341,8.0
1620699713341,8.0
1620699713671,10.0
1620699713671,10.0
1620699714086,10.0
1620699714086,10.0
1620699714483,10.0
1620699714483,10.0
1620699714889,10.0
1620699714889,10.0
1620699715280,10.0
1620699715280,10.0
