timestamp,value
1620798993709,48.618351531587464
1620798994989,48.55416421350124
1620798996223,48.530745824950486
1620798997435,48.54465942806462
1620798998732,48.38919428967184
1620799000045,48.1361038709731
1620799001337,48.034304178672244
1620799002609,47.7913011229522
1620799003822,47.60819408432483
1620799005023,47.630737941038305
1620799006240,47.86097917102152
1620799007429,48.05668189516171
1620799008647,48.14074621125307
1620799009848,48.32297919542722
1620799011034,48.43035992717043
1620799012185,48.459655337970354
1620799013298,48.58047448711366
1620799014407,48.917127659639526
1620799015492,49.28926522520757
1620799016601,49.661762015870245
1620799017724,49.97029266101303
1620799018863,50.26352116992701
1620799020001,50.46622804224932
1620799021147,50.60798749240459
1620799022289,50.93956110219455
1620799023403,51.37469038721746
1620799024510,51.77458467614673
1620799025587,52.221877702890154
1620799026656,52.553173300745684
1620799027685,52.95269290257847
1620799028707,53.41086929884034
1620799029758,53.74081770953412
1620799030880,53.97317452266462
1620799031988,54.200049945346024
1620799033123,54.326196485810385
1620799034246,54.39613961476383
1620799035349,54.41984118385649
1620799036503,54.30685736760995
1620799037626,54.21402449949841
1620799038756,54.16341780193566
1620799039869,54.18732558454577
1620799041062,54.05695413659354
1620799042271,53.884819312750324
1620799043512,53.6547443291071
1620799044729,53.477001079299576
1620799045967,53.225956471546674
1620799047129,53.051800396845145
1620799048297,52.84296005829636
1620799049496,52.53880417566157
1620799050735,52.06154837726107
1620799051996,51.5266597864263
1620799053216,51.15610669629174
1620799054452,50.90758682129846
1620799055659,50.69658373466017
1620799056915,50.43667230268459
1620799058187,50.120269852544915
1620799059462,49.76643987685296
1620799060749,49.4934796052631
1620799061979,49.27583817584788
1620799063210,49.07173654038942
1620799064407,48.901983391093374
1620799065599,48.90511832409985
1620799066736,49.049765033231814
1620799067864,49.27519068882857
1620799069050,49.3385347113038
1620799070246,49.388045080419765
1620799071448,49.345432833464095
1620799072613,49.34853558837497
1620799073843,49.28863155659455
1620799075049,49.35471791002511
1620799076320,49.333999232691866
1620799077654,49.10799822785602
1620799079022,48.83956779912872
1620799080356,48.58897613309491
1620799081740,48.34016782739466
1620799083111,48.14813447645564
1620799084431,48.05996922960469
1620799085726,48.043508201026846
1620799087075,47.81738159430084
1620799088399,47.63965933356008
1620799089776,47.303098585530904
1620799091109,47.04167084488172
1620799092409,46.74173311101407
1620799093673,46.49785517018565
1620799094985,46.270469091557985
1620799096317,46.028990746101584
1620799097677,45.7862232840726
1620799098971,45.52854658841319
1620799100257,45.4304036692017
1620799101532,45.31141972383445
1620799102782,45.34751158553341
1620799104044,45.468058423727
1620799105303,45.66595808321708
1620799106552,45.808357757777074
1620799107762,46.11282702064101
1620799108977,46.390971822046396
1620799110104,46.740853749738235
1620799111244,47.02716594781725
1620799112429,47.3304165964106
1620799113642,47.538183659494116
1620799114838,47.88074247709745
1620799116029,48.15401000712558
1620799117193,48.41763307253582
1620799118399,48.53129734834697
1620799119614,48.723178651452045
1620799120898,48.81764279374094
1620799122169,48.9555077251179
1620799123405,49.11106516498129
1620799124600,49.294916326192805
1620799125784,49.479153566717144
1620799127012,49.52683301904429
1620799128211,49.65464162279647
1620799129432,49.7263517424984
1620799130622,49.85395077395978
1620799131817,49.884453057087676
1620799133034,49.884672871904236
1620799134255,49.68751727417593
1620799135479,49.525984736504185
1620799136752,49.33516953352647
1620799138028,49.20687538145578
1620799139278,49.10114020621907
1620799140553,48.93069509355207
1620799141806,48.7554560402525
1620799143099,48.58334016536552
1620799144369,48.47419003869935
1620799145632,48.51537690828159
1620799146865,48.59034745459261
1620799148104,48.585291458912224
1620799149347,48.4904870958328
1620799150567,48.421190759396794
1620799151827,48.35536551538725
1620799153101,48.2123309625455
1620799154402,48.05752293264946
1620799155655,47.93751249371416
1620799156944,47.75886168663522
1620799158182,47.71713663141992
1620799159467,47.59593148391144
1620799160769,47.43862084860187
1620799162043,47.446382326032804
1620799163354,47.38368982320753
1620799164617,47.358068952638
1620799165875,47.39081757888132
1620799167133,47.3797142568916
1620799168409,47.410761982210765
1620799169692,47.387486410157464
1620799170980,47.34165557556882
1620799172236,47.29722379485492
1620799173490,47.27076524947994
1620799174767,47.21032052227518
1620799175982,47.21663262544193
1620799177193,47.3092061113086
1620799178388,47.460705897317034
1620799179651,47.52763613221994
1620799180912,47.51078900731788
1620799182151,47.604817179055175
1620799183296,47.78142102264664
1620799184421,48.08986842251328
1620799185613,48.30262172139917
1620799186844,48.38611929654165
1620799188137,48.42069253453393
1620799189393,48.43357347506291
1620799190659,48.41680282547547
1620799191894,48.463260305257975
1620799193151,48.49969036989344
1620799194391,48.58519507077281
1620799195639,48.662733879688766
1620799197016,48.427754608011824
1620799198377,48.215755864341745
1620799199659,48.203765027373116
1620799200994,47.998790430481144
1620799202227,47.9466258161415
1620799203491,47.797223148625314
1620799204741,47.828126756811834
1620799206053,47.74360538064068
1620799207350,47.62207502238835
1620799208680,47.2763969239612
1620799209955,46.9957754714166
1620799211236,46.832353288286846
1620799212434,46.89267267601475
1620799213684,46.972032108358846
1620799214941,46.97015309021139
1620799216246,46.90010071405794
1620799217531,46.8067334762577
1620799218852,46.6920819450707
1620799220112,46.65426518540927
1620799221344,46.68364810301774
1620799222481,47.12183928790418
1620799223607,47.56402246242672
1620799224805,47.722799257146946
1620799226028,47.91187855648372
1620799227301,47.84744321206262
1620799228539,47.90757670302456
1620799229792,47.90200017196817
1620799230996,48.09604202439766
1620799232233,48.2253648459836
1620799233480,48.38419567342884
1620799234736,48.422982499813095
1620799236016,48.42562443531176
1620799237315,48.243349101538
1620799238602,48.15751746071189
1620799239879,48.120109718662135
1620799241156,48.17214025286522
1620799242407,48.23996100281554
1620799243671,48.35090183497716
1620799244946,48.32147893362717
1620799246274,48.13619655453137
1620799247552,47.8627831442594
1620799248819,47.595852195999214
1620799250067,47.50123513107433
1620799251343,47.40384170213926
1620799252634,47.367210072510964
1620799253887,47.338977454417446
1620799255194,47.240956870305546
1620799256466,47.11553400333984
1620799257740,47.04492406047565
1620799259025,46.975696810083974
1620799260365,46.82313606069771
1620799261720,46.685584184106816
1620799263060,46.59934847120932
1620799264365,46.57803410187477
1620799265601,46.65157902765822
1620799266871,46.665297817930714
1620799268267,46.40381278474536
1620799269739,46.03313488065276
1620799270567,46.85130897676935
1620799271328,47.89513838402205
1620799272759,47.60860962031138
1620799274034,47.59098593412718
1620799275329,47.50297635836243
1620799276595,47.520890579506236
1620799277872,47.548700072032325
1620799279213,47.384649671661876
1620799280573,47.282972633206384
1620799281937,47.11213599200722
1620799283256,47.02972780447671
1620799284536,47.0383332625145
1620799285829,47.1250184720255
1620799287128,47.229405027570124
1620799288505,47.1592894604176
1620799289828,47.1265027316288
1620799291139,46.98852317068695
1620799292442,46.928417738003255
1620799293692,47.19731154673973
1620799294978,47.54537304476092
1620799296247,46.73354704584391
1620799297507,45.837253532610234
1620799298779,46.11684979795833
1620799300091,46.05221423075587
1620799301424,45.986083614733
1620799302734,45.90801579205134
1620799304070,45.80448827492885
1620799305358,45.89699948365875
1620799306662,45.99496362814105
1620799307935,46.160004963739276
1620799309166,46.315349559118395
1620799310409,46.380333810857465
1620799311638,46.49521761815379
1620799312845,46.662350917677365
1620799314005,47.05957648263548
1620799315139,47.411290216478825
1620799316263,47.763172993555614
1620799317409,48.06489722423217
1620799318562,48.251372279079945
1620799319736,48.469034850245805
1620799320925,48.60477364493645
1620799322076,48.8441321061191
1620799323234,49.08145087222845
1620799324449,49.26657870666446
1620799325632,49.56872114558271
1620799326863,49.732666197245535
1620799328067,50.00579442142862
1620799329315,50.095314685408205
1620799330526,50.28629664892122
1620799331759,50.36523821477548
1620799332987,50.37518175995278
1620799334237,50.3612137069291
1620799335500,50.28948935004822
1620799336769,50.158358296869594
1620799338059,49.88633813575247
1620799339319,49.62766841769624
1620799340625,49.256720196954646
1620799341879,49.03882272825203
1620799343138,48.827213065966845
1620799344335,48.78330176850456
1620799345566,48.699549549458126
1620799346808,48.52053803615956
1620799348095,48.257139131002305
1620799349349,48.19247496190086
1620799350599,48.06401550096547
1620799351824,48.07560754647616
1620799353060,48.013954775816046
1620799354323,47.979840790093604
1620799355630,47.800149487000766
1620799356984,47.572375720439034
1620799358318,47.3715294976
1620799359636,47.24739808578744
1620799360919,47.20845024965006
1620799362202,47.18196846711091
1620799363464,47.235376399820446
1620799364760,47.167223056470625
1620799366040,47.217608012639275
1620799367361,47.092140757309956
1620799368695,46.95382924324405
1620799370007,46.74277272986128
1620799371296,46.63945073340726
1620799372591,46.542540813154034
1620799373899,46.50551008909918
1620799375247,46.334813897957574
1620799376579,46.19047697864704
1620799377900,46.01909869294264
1620799379181,45.93933771706915
1620799380469,45.8962902946481
1620799381787,45.87557199192345
1620799383098,45.952878310229956
1620799384384,46.03864330256673
1620799385696,46.04614952312883
1620799386984,46.0396359830141
1620799388252,46.06563047149328
1620799389517,46.060444430319244
1620799390784,46.11113305659475
1620799392032,46.167591666426496
1620799393268,46.31916817258645
1620799394502,46.500193905808516
1620799395738,46.66192814786326
1620799396964,46.750732535280214
1620799398241,46.783673153041036
1620799399555,46.77161828045311
1620799400878,46.81820731991746
1620799402189,46.85541590038537
1620799403483,46.904991711301555
1620799404779,46.87975390004386
1620799406057,46.89729453415937
1620799407317,47.005405112362716
1620799408582,47.08793864818296
1620799409862,47.099038720394454
1620799411157,47.131589158179054
1620799412406,47.20221645874423
1620799413685,47.183319029579096
1620799414999,47.09183582969769
1620799416308,47.015016596300946
1620799417614,46.909056708124126
1620799418901,46.81541641025474
1620799420274,46.56128605997001
1620799421607,46.36261701827943
1620799422983,46.1189199410139
1620799424277,46.08954060864923
1620799425576,46.11733186946672
1620799426807,46.28131736221633
1620799428060,46.38476915904532
1620799429274,46.52920259997439
1620799430517,46.62306425893771
1620799431776,46.658054626628235
1620799433103,46.537457999944166
1620799434428,46.44547550819773
1620799435770,46.31753231304047
1620799437078,46.29501746788175
1620799438346,46.26135754878954
1620799439570,46.35777758341848
1620799440846,46.42770892333598
1620799442151,46.434519607614284
1620799443549,46.268583342731596
1620799444906,46.15613798362059
1620799446297,46.113130033608414
1620799447647,46.081636229873894
1620799448969,46.17902615591581
1620799450272,46.171300681323
1620799451556,46.189042204005666
1620799452815,46.139601439201826
1620799454113,46.05915208018095
1620799455436,45.86795296715387
1620799456757,45.746281970932785
1620799458070,45.638274082176224
1620799459359,45.70353276120639
1620799460664,45.72259590495478
1620799461915,45.897329509779844
1620799463202,45.93480251460888
1620799464450,45.9697285506683
1620799465698,45.92786515915593
1620799466929,46.00554021718065
1620799468187,46.08908567050767
1620799469410,46.402671556477046
1620799470661,46.58118914943989
1620799471916,46.84098356541151
1620799473184,46.99144884857443
1620799474462,47.07135189275673
1620799475701,47.18111327453987
1620799476960,47.235106800347715
1620799478206,47.2801167251522
1620799479437,47.387080339029275
1620799480660,47.573330026458294
1620799481874,47.76097922425262
1620799483119,47.90519753029547
1620799484311,48.090976585866066
1620799485514,48.29107930964683
1620799486667,48.48042158574598
1620799487833,48.718799110833245
1620799488968,48.94367317372805
1620799490133,49.11042803052984
1620799491229,49.38295585139059
1620799492328,49.70872962755027
1620799493465,49.88446964681769
1620799494596,50.136628579959066
1620799495777,50.288616848891046
1620799496933,50.52832202979674
1620799498082,50.80570222879546
1620799499217,51.02831842044904
1620799500344,51.31822185611439
1620799501516,51.45657483168874
1620799502735,51.50577564307333
1620799503990,51.43530871922365
1620799505210,51.421991617444
1620799506406,51.53097230442125
1620799507601,51.52631021423658
1620799508769,51.60030831184219
1620799509928,51.58906796696346
1620799511071,51.6389914663983
1620799512279,51.47820303492307
1620799513492,51.37291108111136
1620799514725,51.07363375156835
1620799515912,50.88557868776281
1620799517072,50.83294008406051
1620799518220,50.7953557975511
1620799519069,51.520770791947555
1620799519883,52.30850282123731
1620799520907,52.57470372511483
1620799521971,52.738508586620284
1620799523071,52.80173950050589
1620799524141,53.03874904928044
1620799525747,52.14545296212881
1620799526756,52.711330265299466
1620799527827,53.056414222037255
1620799528932,53.27136098338949
1620799530026,53.51166273311343
1620799531110,53.714181201835906
1620799532217,53.837774134655454
1620799533382,53.78515010830331
1620799534529,53.93257942179066
1620799535591,54.30155663557326
1620799536662,54.70124368747638
1620799537761,54.91878244327079
1620799538803,55.22148601755184
1620799539847,55.48570778331779
1620799540904,54.95968569654947
1620799541955,54.34516789939633
1620799543029,54.241573526351424
1620799544104,54.21683889172655
1620799545172,54.2962987027621
1620799546190,54.42329897711409
1620799547367,55.502776526395934
