timestamp,value
1634549239081,50.0361698963138
1634549240327,50.0860311060966
1634549241573,50.1099516735451
1634549242787,50.1860144626057
1634549244056,50.0994202119348
1634549245327,50.0675202233145
1634549246729,49.7241490675292
1634549248134,49.4648745597575
1634549249494,49.0052345758066
1634549250808,48.6714202961283
1634549252176,48.2011898383377
1634549253499,47.9164165196797
1634549254893,47.4317393040934
1634549256290,46.8877549345845
1634549257737,46.329880097112
1634549259124,45.8244739350393
1634549260592,45.2685602606021
1634549261345,46.0055843111756
1634549262732,45.7882393899205
1634549264139,45.5309995913593
1634549265434,45.5366632372499
1634549266796,45.3370006936939
1634549268119,45.2046527642268
1634549269537,44.8568902594497
1634549270849,44.7880266675375
1634549272175,44.695742115997
1634549273465,44.8831422508357
1634549274836,44.9401071956377
1634549276151,45.0157425678728
1634549277552,44.869956210288
1634549278913,44.8810842013273
1634549280287,44.7957961235808
1634549281586,44.9596082879141
1634549282920,45.0618738957729
1634549284204,45.339347446641
1634549285552,45.4071070674232
1634549286865,45.6744575872696
1634549288263,44.5800271670686
1634549289599,44.664205569686
1634549290934,44.7838162036356
1634549292245,44.7571610711761
1634549293554,44.845715602897
1634549294892,44.8280697832585
1634549296184,45.0318735601059
1634549297558,44.9285832089529
1634549298854,44.9786357102706
1634549300210,44.8683959469929
1634549301534,44.9479699155746
1634549302892,44.8759147300777
1634549304194,45.0420591487817
1634549305517,45.1063466697138
1634549306872,45.1393445925153
1634549308169,45.1374429495634
1634549309546,45.069073425295
1634549310868,45.0035805973813
1634549312287,44.8848126663147
1634549313637,44.8264337295902
1634549314977,44.9214268093321
1634549316256,45.0170260019468
1634549317585,45.0270798486595
1634549318917,44.9925824103823
1634549320217,45.014423746729
1634549321514,45.0681289271476
1634549322790,45.102576225327
1634549324129,45.1624113701791
1634549325440,45.1363886255097
1634549326760,45.1966540314399
1634549328067,45.225819299636
1634549329425,45.225875547511
1634549330756,45.1798995831552
1634549332130,45.102386363504
1634549333472,45.1133704638929
1634549334780,45.0943831075238
1634549336137,45.1380185192263
1634549337529,45.0106619005376
1634549338932,45.037171992869
1634549340300,45.0027687953502
1634549341593,45.0842365146098
1634549342891,45.0535906829474
1634549344219,45.0541235185829
1634549345446,45.2329059288617
1634549346740,45.2355948944393
1634549348034,45.2484763518264
1634549349373,45.1423671762024
1634549350672,45.214441356926
1634549351954,45.2593883435049
1634549353284,45.2432747851425
1634549354550,45.3123316717679
1634549355885,45.3517241629527
1634549357205,45.3672324351213
1634549358510,45.4765430096301
1634549359757,45.6535777605596
1634549361013,45.7450629926672
1634549362299,45.8581107253255
1634549363622,45.9888681645164
1634549364922,46.1706398361896
1634549366164,46.3981897282295
1634549367417,46.4693552028446
1634549368685,46.5217779491502
1634549370018,46.5134415706287
1634549371287,46.4375402313565
1634549372599,46.4043762420422
1634549373849,46.4837700754687
1634549375153,46.5471679326009
1634549376435,46.5733122733991
1634549377759,46.503262727042
1634549379017,46.6317679696489
1634549380341,46.5276204239504
1634549381634,46.603592329173
1634549382965,46.5836863697414
1634549384244,46.6318477022507
1634549385564,46.4973957389864
1634549386823,46.4928505619049
1634549388081,46.5440174918624
1634549389303,46.7264445859997
1634549390495,46.9243934230301
1634549391717,46.9594462917769
1634549393051,46.8121747699776
1634549394384,46.6947473312201
1634549395682,46.759462118114
1634549396953,46.7537397926846
1634549398172,46.9257586399413
1634549399458,46.858716595983
1634549400740,46.8997872703816
1634549402116,46.7263081263591
1634549403442,46.7235427160645
1634549404794,46.5538565854911
1634549406116,46.5564177071282
1634549407427,46.5234102311027
1634549408740,46.5570499032214
1634549410131,46.3546222859271
1634549411505,46.2589803618678
1634549412865,46.0790368375404
1634549414197,45.9476173422695
1634549415516,45.7792975487246
1634549416871,45.4956518099478
1634549418245,45.2336731977934
1634549419656,45.1041968966583
1634549421040,45.0186388419466
1634549422374,44.9573596302917
1634549423668,44.9181949832964
1634549424992,44.7419519109026
1634549426400,44.5403910453325
1634549427831,44.2943489417268
1634549429220,44.2747900083606
1634549430617,44.1576129454225
1634549431915,44.2504194663201
1634549433214,44.2836358016368
1634549434504,44.3206224742785
1634549435838,44.2836782908863
1634549437159,44.3986842005951
1634549438525,44.4117820460708
1634549439881,44.4186520138417
1634549441273,44.3202034238244
1634549442557,44.377849728243
1634549443844,44.4889779113337
1634549445158,44.5880775047798
1634549446478,44.7391144794527
1634549447771,44.8917172499678
1634549449144,44.8249752808938
1634549450482,44.7538460149945
1634549451801,44.763482070696
1634549453096,44.9511605640472
1634549454384,45.1932514273441
1634549455687,45.3389551622669
1634549457037,45.4209717862334
1634549458422,45.2650221783521
1634549459802,45.1338981715318
1634549461123,45.0791471491178
1634549462470,45.058675971083
1634549463740,45.1449146115918
1634549465045,45.2489592079502
1634549466299,45.4240786302914
1634549467624,45.5398982638672
1634549468937,45.4886171179883
1634549470321,45.3236716358911
1634549471660,45.280956448512
1634549473010,45.229470588293
1634549474288,45.2531261896623
1634549475617,45.3284208405423
1634549476857,45.4974474794527
1634549478132,45.5716975149715
1634549479402,45.6161475688455
1634549480773,45.4719660403232
1634549482092,45.4449658623097
1634549483435,45.4571557972799
1634549484698,45.6701205329627
1634549485967,45.862311785372
1634549487199,46.019497540718
1634549488497,46.1071573369858
1634549489806,46.0366545377985
1634549491032,46.1768404443551
1634549492320,46.1156588409675
1634549493630,46.1422910593428
1634549494873,46.2678305133798
1634549496136,46.4849261005887
1634549497340,46.7290028969256
1634549498591,46.9086661297969
1634549499864,46.9187939289427
1634549501137,47.0241068299929
1634549502385,47.0076773330351
1634549503658,47.0100805282679
1634549504881,47.098820586659
1634549506181,47.230195050866
1634549507434,47.3534473941083
1634549508685,47.5239488029252
1634549509936,47.5477882017058
1634549511200,47.5574927483741
1634549512439,47.5425512767216
1634549513619,47.7656958872781
1634549514824,47.9663563976227
1634549515987,48.0871319596256
1634549517193,48.2452828777731
1634549518423,48.4018242002183
1634549519722,48.2917225693659
1634549520991,48.278241020911
1634549522293,48.0893326679372
1634549523584,48.0131075783689
1634549524880,47.970634296509
1634549526089,48.0926533823003
1634549527387,48.0133630792122
1634549528639,48.0382268994376
1634549529983,47.8038912287787
1634549531338,47.7009740419646
1634549532683,47.5264671925391
1634549534020,47.3661911022137
1634549535324,47.2648593923605
1634549536618,47.2093435788624
1634549537907,47.1198409516889
1634549539247,46.8246178086898
1634549540232,46.8246178086898
1634549541249,45.4117208256942
1634549542517,45.2319460268296
1634549543797,45.1065687793983
1634549545063,45.0443889931333
1634549546440,44.912127737876
1634549547738,44.8661446615363
1634549549057,44.836632126269
1634549550321,44.8829710192901
1634549551590,44.926685826151
1634549552843,44.8523499884187
1634549554091,44.921943070197
1634549555340,44.9413408765875
1634549556624,45.0434742722374
1634549557890,45.1941518164961
1634549559174,45.2987229950247
1634549560454,45.3970253599132
1634549561717,45.4664011630913
1634549562960,45.5545221006056
1634549564153,45.7207702258115
1634549565343,45.9831408178892
1634549566575,47.3817683720931
1634549567885,47.3022128921235
1634549569276,47.096755810621
1634549570607,46.9789795296534
1634549571929,47.0803660278751
1634549573215,47.0999464002612
1634549574501,47.1624329212647
1634549575750,47.1898150536768
1634549577075,47.086830037301
1634549578326,47.0892302456952
1634549579587,47.0649973496523
1634549580744,47.2369085269864
1634549581966,47.3530288259983
1634549583151,47.5048549961806
1634549584372,47.6220428943645
1634549585596,47.7283664119418
1634549586859,47.730766022711
1634549588083,47.7650418485453
1634549589327,47.6664208535823
1634549590501,47.6983783505329
1634549591733,47.6978057816895
1634549592969,47.8404005963787
1634549594206,48.1344781049295
1634549595433,48.3352319009632
1634549596676,48.4900716982281
1634549597901,48.6099931937908
1634549599120,48.7420628120278
1634549600342,48.7970113457117
1634549601547,49.0332161630152
1634549602797,49.0386704243364
1634549604057,49.0400572264774
1634549605373,48.7236930123118
1634549606627,48.6580297852831
1634549607864,48.5574413692163
1634549609101,48.5263301643348
1634549610371,48.4356241917052
1634549611633,48.436591940038
1634549612907,48.3420217374736
1634549614157,48.3303923618327
1634549615401,48.1944530513935
1634549616640,48.1805324551094
1634549617892,48.1478427659971
1634549619147,48.1134380150771
1634549620393,48.0783234351416
1634549621631,48.086114537358
1634549622887,48.0274313476885
1634549624107,48.0242733887417
1634549625375,47.9356588412769
1634549626606,47.8882078520618
1634549627890,47.8213718732145
1634549629119,47.8824333038605
1634549630385,47.9754135600589
1634549631602,48.0501028031949
1634549632874,47.9809381328985
1634549634124,47.955374646569
1634549635429,47.8879364820797
1634549636674,47.9209878751914
1634549637966,47.8863006831099
1634549639223,47.8732603306007
1634549640504,47.8028743310635
1634549641761,47.767351978231
1634549642989,47.8140568705175
1634549644258,47.788855455717
1634549645445,47.9004551900422
1634549646718,47.8350399081759
1634549648024,47.7378371648847
1634549649375,47.4918918478228
1634549650667,47.4467124983459
1634549651941,47.3664640697739
1634549653246,47.3268437976339
1634549654572,47.1443859679448
1634549655857,47.1105361182935
1634549657227,46.8282211679716
1634549658630,46.5909842718156
1634549659903,46.5500641867197
1634549661164,46.6305538932625
1634549662437,46.5794153996128
1634549663636,46.7470919218455
1634549664845,46.8426346671098
1634549665991,47.0824090467907
1634549667237,47.10271956972
1634549668557,46.9327529524808
1634549669949,46.7080333769379
1634549671267,46.4697690917174
1634549672500,46.5427682661166
1634549673687,46.7597791551217
1634549674826,47.1496763331884
1634549675923,47.5122882614872
1634549677082,47.7299667584647
1634549678272,47.9495819735464
1634549679567,48.0095212482539
1634549680793,48.1242568311381
1634549682076,48.2921229148819
1634549683261,48.7186290090611
1634549684496,48.7939001769511
1634549685671,48.9645946808782
1634549686965,48.9238346403743
1634549688276,48.7009883906178
1634549689611,48.4447108185841
1634549690909,48.1566497290368
1634549692192,48.0884577562734
1634549693470,48.1697076604527
1634549694707,48.4704601022073
1634549695982,48.5548950516292
1634549697185,48.6144240940864
1634549698426,48.5082912190413
1634549699617,48.4056607354539
1634549700820,48.1991279492446
1634549701966,48.2240721869352
1634549703164,48.2080330893512
1634549704307,48.511201337454
1634549705460,48.6476816116263
1634549706631,48.8698580611627
1634549707807,48.8865378085428
1634549710272,46.5559354433673
