timestamp,value
1618992026018,0.0
1618992026018,0.0
1618992026399,1.0
1618992026399,1.0
1618992026745,0.0
1618992026745,0.0
1618992027108,0.0
1618992027108,0.0
1618992027519,0.0
1618992027519,0.0
1618992027916,1.0
1618992027916,1.0
1618992028642,1.0
1618992028642,1.0
1618992029032,0.0
1618992029032,0.0
1618992029475,1.0
1618992029475,1.0
1618992030054,1.0
1618992030054,1.0
1618992030534,0.0
1618992030534,0.0
1618992030981,0.0
1618992030981,0.0
1618992031465,1.0
1618992031465,1.0
1618992031854,0.0
1618992031854,0.0
1618992032312,0.0
1618992032312,0.0
1618992033250,0.0
1618992033250,0.0
1618992034051,0.0
1618992034051,0.0
1618992034818,0.0
1618992034818,0.0
1618992035700,0.0
1618992035700,0.0
1618992036574,0.0
1618992036574,0.0
1618992037412,0.0
1618992037412,0.0
1618992038246,0.0
1618992038246,0.0
1618992039267,0.0
1618992039267,0.0
1618992040270,0.0
1618992040270,0.0
1618992041173,0.0
1618992041173,0.0
1618992041803,1.0
1618992041803,1.0
1618992042931,0.0
1618992042931,0.0
1618992044607,0.0
1618992044607,0.0
1618992045614,0.0
1618992045614,0.0
1618992046604,0.0
1618992046604,0.0
1618992047400,0.0
1618992047400,0.0
1618992048329,0.0
1618992048329,0.0
1618992049388,0.0
1618992049388,0.0
1618992050407,0.0
1618992050407,0.0
1618992051472,0.0
1618992051472,0.0
1618992052405,0.0
1618992052405,0.0
1618992052771,0.0
1618992052771,0.0
1618992053074,0.0
1618992053074,0.0
1618992053494,0.0
1618992053494,0.0
1618992053901,1.0
1618992053901,1.0
1618992054343,1.0
1618992054343,1.0
1618992054767,0.0
1618992054767,0.0
1618992054970,2.0
1618992054970,2.0
1618992055164,10.0
1618992055164,10.0
1618992055419,10.0
1618992055419,10.0
1618992055808,1.0
1618992055808,1.0
1618992056295,1.0
1618992056295,1.0
1618992056831,0.0
1618992056831,0.0
1618992057351,0.0
1618992057351,0.0
1618992057823,1.0
1618992057823,1.0
1618992058202,1.0
1618992058202,1.0
1618992058629,1.0
1618992058629,1.0
1618992058951,0.0
1618992058951,0.0
1618992059357,1.0
1618992059357,1.0
1618992059748,0.0
1618992059748,0.0
1618992060198,0.0
1618992060198,0.0
1618992060615,0.0
1618992060615,0.0
1618992061040,0.0
1618992061040,0.0
1618992061235,0.0
1618992061235,0.0
1618992061565,0.0
1618992061565,0.0
1618992061854,1.0
1618992061854,1.0
1618992062222,1.0
1618992062222,1.0
1618992062651,0.0
1618992062651,0.0
1618992062938,0.0
1618992062938,0.0
1618992063355,0.0
1618992063355,0.0
1618992063742,0.0
1618992063742,0.0
1618992064145,0.0
1618992064145,0.0
1618992064637,0.0
1618992064637,0.0
1618992065093,1.0
1618992065093,1.0
1618992065552,1.0
1618992065552,1.0
1618992066035,0.0
1618992066035,0.0
1618992066538,1.0
1618992066538,1.0
1618992066965,1.0
1618992066965,1.0
1618992067475,1.0
1618992067475,1.0
1618992067969,0.0
1618992067969,0.0
1618992068456,0.0
1618992068456,0.0
1618992068911,1.0
1618992068911,1.0
1618992069370,1.0
1618992069370,1.0
1618992069813,1.0
1618992069813,1.0
1618992070274,0.0
1618992070274,0.0
1618992070726,0.0
1618992070726,0.0
1618992071147,0.0
1618992071147,0.0
1618992071585,8.0
1618992071585,8.0
1618992072029,1.0
1618992072029,1.0
1618992072432,1.0
1618992072432,1.0
1618992072824,0.0
1618992072824,0.0
1618992073215,0.0
1618992073215,0.0
1618992073766,0.0
1618992073766,0.0
1618992074622,0.0
1618992074622,0.0
1618992075513,0.0
1618992075513,0.0
1618992076049,1.0
1618992076049,1.0
1618992076509,0.0
1618992076509,0.0
1618992076960,1.0
1618992076960,1.0
1618992077419,0.0
1618992077419,0.0
1618992077885,0.0
1618992077885,0.0
1618992078338,0.0
1618992078338,0.0
1618992078728,1.0
1618992078728,1.0
1618992079225,0.0
1618992079225,0.0
1618992079601,1.0
1618992079601,1.0
1618992080057,0.0
1618992080057,0.0
1618992080569,1.0
1618992080569,1.0
1618992080901,0.0
1618992080901,0.0
1618992081263,0.0
1618992081263,0.0
1618992081700,0.0
1618992081700,0.0
1618992082123,1.0
1618992082123,1.0
1618992082542,0.0
1618992082542,0.0
1618992082992,0.0
1618992082992,0.0
1618992083340,1.0
1618992083340,1.0
1618992083772,0.0
1618992083772,0.0
1618992084177,0.0
1618992084177,0.0
1618992084599,0.0
1618992084599,0.0
1618992084989,0.0
1618992084989,0.0
1618992085408,0.0
1618992085408,0.0
1618992085778,0.0
1618992085778,0.0
1618992086263,1.0
1618992086263,1.0
1618992086660,1.0
1618992086660,1.0
1618992087025,0.0
1618992087025,0.0
1618992087531,0.0
1618992087531,0.0
1618992087963,1.0
1618992087963,1.0
1618992088370,1.0
1618992088370,1.0
1618992088747,0.0
1618992088747,0.0
1618992089173,0.0
1618992089173,0.0
1618992089699,1.0
1618992089699,1.0
1618992090236,1.0
1618992090236,1.0
1618992090758,0.0
1618992090758,0.0
1618992091133,1.0
1618992091133,1.0
1618992091542,1.0
1618992091542,1.0
1618992091923,1.0
1618992091923,1.0
1618992092356,1.0
1618992092356,1.0
1618992092699,1.0
1618992092699,1.0
1618992093124,0.0
1618992093124,0.0
1618992093534,1.0
1618992093534,1.0
1618992094013,1.0
1618992094013,1.0
1618992094363,1.0
1618992094363,1.0
1618992094808,0.0
1618992094808,0.0
1618992095251,1.0
1618992095251,1.0
1618992095637,1.0
1618992095637,1.0
1618992096055,0.0
1618992096055,0.0
1618992096549,0.0
1618992096549,0.0
1618992097045,0.0
1618992097045,0.0
1618992097432,0.0
1618992097432,0.0
1618992097839,0.0
1618992097839,0.0
1618992098252,0.0
1618992098252,0.0
1618992098762,0.0
1618992098762,0.0
1618992099259,0.0
1618992099259,0.0
1618992099628,0.0
1618992099628,0.0
1618992100007,0.0
1618992100007,0.0
1618992100341,0.0
1618992100341,0.0
1618992100712,0.0
1618992100712,0.0
1618992101108,0.0
1618992101108,0.0
1618992101509,1.0
1618992101509,1.0
1618992101902,0.0
1618992101902,0.0
1618992102251,1.0
1618992102251,1.0
1618992102645,0.0
1618992102645,0.0
1618992103015,1.0
1618992103015,1.0
1618992103418,1.0
1618992103418,1.0
1618992103860,0.0
1618992103860,0.0
1618992104295,0.0
1618992104295,0.0
1618992104717,0.0
1618992104717,0.0
1618992105187,0.0
1618992105187,0.0
1618992105606,0.0
1618992105606,0.0
1618992106071,0.0
1618992106071,0.0
1618992106472,0.0
1618992106472,0.0
1618992106873,1.0
1618992106873,1.0
1618992107304,0.0
1618992107304,0.0
1618992107743,0.0
1618992107743,0.0
1618992108287,0.0
1618992108287,0.0
1618992108670,1.0
1618992108670,1.0
1618992109056,0.0
1618992109056,0.0
1618992109556,0.0
1618992109556,0.0
1618992110016,0.0
1618992110016,0.0
1618992110420,0.0
1618992110420,0.0
1618992110896,0.0
1618992110896,0.0
1618992111300,0.0
1618992111300,0.0
1618992111652,1.0
1618992111652,1.0
1618992112136,1.0
1618992112136,1.0
1618992112618,1.0
1618992112618,1.0
1618992113073,0.0
1618992113073,0.0
1618992113527,0.0
1618992113527,0.0
1618992113877,1.0
1618992113877,1.0
1618992114217,0.0
1618992114217,0.0
1618992114601,0.0
1618992114601,0.0
1618992114949,0.0
1618992114949,0.0
1618992115457,1.0
1618992115457,1.0
1618992116448,0.0
1618992116448,0.0
1618992117274,0.0
1618992117274,0.0
1618992118245,0.0
1618992118245,0.0
1618992119013,0.0
1618992119013,0.0
1618992119819,0.0
1618992119819,0.0
1618992120612,0.0
1618992120612,0.0
1618992121549,0.0
1618992121549,0.0
1618992122775,0.0
1618992122775,0.0
1618992123665,0.0
1618992123665,0.0
1618992124499,0.0
1618992124499,0.0
1618992125509,0.0
1618992125509,0.0
1618992126614,0.0
1618992126614,0.0
1618992127332,0.0
1618992127332,0.0
1618992128182,0.0
1618992128182,0.0
1618992129200,0.0
1618992129200,0.0
1618992130079,0.0
1618992130079,0.0
1618992130796,0.0
1618992130796,0.0
1618992131497,0.0
1618992131497,0.0
1618992132209,0.0
1618992132209,0.0
1618992132956,0.0
1618992132956,0.0
1618992133525,0.0
1618992133525,0.0
1618992133847,0.0
1618992133847,0.0
1618992134257,1.0
1618992134257,1.0
1618992134741,1.0
1618992134741,1.0
1618992135300,0.0
1618992135300,0.0
1618992135745,0.0
1618992135745,0.0
1618992136250,1.0
1618992136250,1.0
1618992136688,0.0
1618992136688,0.0
1618992137113,1.0
1618992137113,1.0
1618992137534,0.0
1618992137534,0.0
1618992137883,8.0
1618992137883,8.0
1618992138340,1.0
1618992138340,1.0
1618992138733,0.0
1618992138733,0.0
1618992139120,0.0
1618992139120,0.0
1618992139568,0.0
1618992139568,0.0
1618992139950,1.0
1618992139950,1.0
1618992140364,1.0
1618992140364,1.0
1618992140784,0.0
1618992140784,0.0
1618992141284,0.0
1618992141284,0.0
1618992141744,1.0
1618992141744,1.0
1618992142214,1.0
1618992142214,1.0
1618992142718,1.0
1618992142718,1.0
1618992143195,0.0
1618992143195,0.0
1618992143671,1.0
1618992143671,1.0
1618992144121,1.0
1618992144121,1.0
1618992144546,1.0
1618992144546,1.0
1618992144943,1.0
1618992144943,1.0
1618992145349,0.0
1618992145349,0.0
1618992145764,0.0
1618992145764,0.0
1618992146169,1.0
1618992146169,1.0
1618992146559,0.0
1618992146559,0.0
1618992147049,1.0
1618992147049,1.0
1618992147510,31.0
1618992147510,31.0
1618992147971,0.0
1618992147971,0.0
1618992148410,0.0
1618992148410,0.0
1618992148861,0.0
1618992148861,0.0
1618992149269,1.0
1618992149269,1.0
1618992149666,1.0
1618992149666,1.0
1618992150149,1.0
1618992150149,1.0
1618992150558,0.0
1618992150558,0.0
1618992150994,0.0
1618992150994,0.0
1618992151378,0.0
1618992151378,0.0
1618992151714,1.0
1618992151714,1.0
1618992152120,0.0
1618992152120,0.0
1618992152559,0.0
1618992152559,0.0
1618992152962,1.0
1618992152962,1.0
1618992153360,0.0
1618992153360,0.0
1618992153774,1.0
1618992153774,1.0
1618992154213,0.0
1618992154213,0.0
1618992154580,1.0
1618992154580,1.0
1618992155029,0.0
1618992155029,0.0
1618992155429,0.0
1618992155429,0.0
1618992155905,0.0
1618992155905,0.0
1618992156355,1.0
1618992156355,1.0
1618992156753,0.0
1618992156753,0.0
1618992157169,8.0
1618992157169,8.0
1618992157610,0.0
1618992157610,0.0
1618992158010,8.0
1618992158010,8.0
1618992158444,0.0
1618992158444,0.0
1618992158855,0.0
1618992158855,0.0
1618992159246,1.0
1618992159246,1.0
1618992159698,0.0
1618992159698,0.0
1618992160175,1.0
1618992160175,1.0
1618992160552,0.0
1618992160552,0.0
1618992161019,0.0
1618992161019,0.0
1618992161487,1.0
1618992161487,1.0
1618992161925,0.0
1618992161925,0.0
1618992162347,1.0
1618992162347,1.0
1618992162740,0.0
1618992162740,0.0
1618992163212,0.0
1618992163212,0.0
1618992163661,8.0
1618992163661,8.0
1618992164112,1.0
1618992164112,1.0
1618992164623,1.0
1618992164623,1.0
1618992165103,0.0
1618992165103,0.0
1618992165521,1.0
1618992165521,1.0
1618992165925,1.0
1618992165925,1.0
1618992166365,1.0
1618992166365,1.0
1618992166781,1.0
1618992166781,1.0
1618992167209,1.0
1618992167209,1.0
1618992167601,0.0
1618992167601,0.0
1618992167991,1.0
1618992167991,1.0
1618992168384,1.0
1618992168384,1.0
1618992168779,1.0
1618992168779,1.0
1618992169162,1.0
1618992169162,1.0
1618992169555,1.0
1618992169555,1.0
1618992169996,1.0
1618992169996,1.0
1618992170423,1.0
1618992170423,1.0
1618992170874,0.0
1618992170874,0.0
1618992171345,0.0
1618992171345,0.0
1618992171796,0.0
1618992171796,0.0
1618992172205,31.0
1618992172205,31.0
1618992172689,0.0
1618992172689,0.0
1618992173115,1.0
1618992173115,1.0
1618992173540,0.0
1618992173540,0.0
1618992173968,1.0
1618992173968,1.0
1618992174410,1.0
1618992174410,1.0
1618992174892,1.0
1618992174892,1.0
1618992175416,1.0
1618992175416,1.0
1618992175867,0.0
1618992175867,0.0
1618992176271,1.0
1618992176271,1.0
1618992176711,0.0
1618992176711,0.0
1618992177148,1.0
1618992177148,1.0
1618992177656,1.0
1618992177656,1.0
1618992178046,1.0
1618992178046,1.0
1618992178481,1.0
1618992178481,1.0
1618992178908,1.0
1618992178908,1.0
1618992179344,0.0
1618992179344,0.0
1618992179807,1.0
1618992179807,1.0
1618992180288,1.0
1618992180288,1.0
1618992180748,0.0
1618992180748,0.0
1618992181177,1.0
1618992181177,1.0
1618992181568,1.0
1618992181568,1.0
1618992182009,0.0
1618992182009,0.0
1618992182466,1.0
1618992182466,1.0
1618992182950,0.0
1618992182950,0.0
1618992183391,1.0
1618992183391,1.0
1618992183812,0.0
1618992183812,0.0
1618992184250,1.0
1618992184250,1.0
1618992184710,1.0
1618992184710,1.0
1618992185065,1.0
1618992185065,1.0
1618992185548,0.0
1618992185548,0.0
1618992185976,0.0
1618992185976,0.0
1618992186394,0.0
1618992186394,0.0
1618992186850,0.0
1618992186850,0.0
1618992187242,1.0
1618992187242,1.0
1618992187673,1.0
1618992187673,1.0
1618992188077,1.0
1618992188077,1.0
1618992188455,1.0
1618992188455,1.0
1618992188864,0.0
1618992188864,0.0
1618992189307,0.0
1618992189307,0.0
1618992189711,0.0
1618992189711,0.0
1618992190142,1.0
1618992190142,1.0
1618992190552,0.0
1618992190552,0.0
1618992191029,0.0
1618992191029,0.0
1618992191482,0.0
1618992191482,0.0
1618992191944,1.0
1618992191944,1.0
1618992192463,0.0
1618992192463,0.0
1618992192931,0.0
1618992192931,0.0
1618992193340,0.0
1618992193340,0.0
1618992193695,1.0
1618992193695,1.0
1618992194101,1.0
1618992194101,1.0
1618992194503,1.0
1618992194503,1.0
1618992194908,0.0
1618992194908,0.0
1618992195301,0.0
1618992195301,0.0
1618992195755,1.0
1618992195755,1.0
1618992196128,1.0
1618992196128,1.0
1618992196557,0.0
1618992196557,0.0
1618992196865,1.0
1618992196865,1.0
1618992197202,1.0
1618992197202,1.0
1618992197606,0.0
1618992197606,0.0
1618992198014,1.0
1618992198014,1.0
1618992198349,0.0
1618992198349,0.0
1618992198862,8.0
1618992198862,8.0
1618992199562,0.0
1618992199562,0.0
1618992200431,0.0
1618992200431,0.0
1618992200917,0.0
1618992200917,0.0
1618992201280,31.0
1618992201280,31.0
1618992201649,0.0
1618992201649,0.0
1618992201929,1.0
1618992201929,1.0
1618992202345,0.0
1618992202345,0.0
1618992202731,0.0
1618992202731,0.0
1618992203163,1.0
1618992203163,1.0
1618992203536,1.0
1618992203536,1.0
1618992203903,0.0
1618992203903,0.0
1618992204322,0.0
1618992204322,0.0
1618992204750,8.0
1618992204750,8.0
1618992205052,1.0
1618992205052,1.0
1618992205430,0.0
1618992205430,0.0
1618992205745,0.0
1618992205745,0.0
1618992206144,1.0
1618992206144,1.0
1618992206565,1.0
1618992206565,1.0
1618992206954,1.0
1618992206954,1.0
1618992207373,0.0
1618992207373,0.0
1618992207770,0.0
1618992207770,0.0
1618992208141,1.0
1618992208141,1.0
1618992208558,0.0
1618992208558,0.0
1618992208905,1.0
1618992208905,1.0
1618992209351,0.0
1618992209351,0.0
1618992209778,1.0
1618992209778,1.0
1618992210172,1.0
1618992210172,1.0
1618992210579,0.0
1618992210579,0.0
1618992210984,1.0
1618992210984,1.0
1618992211331,0.0
1618992211331,0.0
1618992211746,1.0
1618992211746,1.0
1618992212128,1.0
1618992212128,1.0
1618992212521,1.0
1618992212521,1.0
1618992212956,1.0
1618992212956,1.0
1618992213390,1.0
1618992213390,1.0
1618992213833,0.0
1618992213833,0.0
1618992214216,0.0
1618992214216,0.0
1618992214600,1.0
1618992214600,1.0
1618992215052,0.0
1618992215052,0.0
1618992215427,0.0
1618992215427,0.0
1618992215878,1.0
1618992215878,1.0
1618992216255,1.0
1618992216255,1.0
1618992216710,1.0
1618992216710,1.0
1618992217155,0.0
1618992217155,0.0
1618992217603,1.0
1618992217603,1.0
1618992217973,0.0
1618992217973,0.0
1618992218515,0.0
1618992218515,0.0
1618992219213,0.0
1618992219213,0.0
1618992220057,0.0
1618992220057,0.0
1618992220619,0.0
1618992220619,0.0
1618992221095,0.0
1618992221095,0.0
1618992221490,0.0
1618992221490,0.0
1618992221953,0.0
1618992221953,0.0
1618992222357,0.0
1618992222357,0.0
1618992222759,2.0
1618992222759,2.0
1618992223234,0.0
1618992223234,0.0
1618992223699,1.0
1618992223699,1.0
1618992224037,0.0
1618992224037,0.0
1618992224486,1.0
1618992224486,1.0
1618992224877,1.0
1618992224877,1.0
1618992225347,8.0
1618992225347,8.0
1618992225817,1.0
1618992225817,1.0
1618992226249,1.0
1618992226249,1.0
1618992226726,0.0
1618992226726,0.0
1618992227128,0.0
1618992227128,0.0
1618992227553,1.0
1618992227553,1.0
1618992227962,1.0
1618992227962,1.0
1618992228335,0.0
1618992228335,0.0
1618992228776,1.0
1618992228776,1.0
1618992229137,0.0
1618992229137,0.0
1618992229505,0.0
1618992229505,0.0
1618992229957,1.0
1618992229957,1.0
1618992230387,1.0
1618992230387,1.0
1618992230818,1.0
1618992230818,1.0
1618992231291,0.0
1618992231291,0.0
1618992231703,0.0
1618992231703,0.0
1618992232086,0.0
1618992232086,0.0
1618992232523,1.0
1618992232523,1.0
1618992232926,1.0
1618992232926,1.0
1618992233386,1.0
1618992233386,1.0
1618992233875,1.0
1618992233875,1.0
1618992234265,0.0
1618992234265,0.0
1618992234681,1.0
1618992234681,1.0
1618992235032,0.0
1618992235032,0.0
1618992235480,0.0
1618992235480,0.0
1618992235845,0.0
1618992235845,0.0
1618992236264,10.0
1618992236264,10.0
1618992236638,0.0
1618992236638,0.0
1618992237099,1.0
1618992237099,1.0
1618992237471,0.0
1618992237471,0.0
1618992237900,0.0
1618992237900,0.0
1618992238296,1.0
1618992238296,1.0
1618992238792,1.0
1618992238792,1.0
1618992239248,1.0
1618992239248,1.0
1618992239604,0.0
1618992239604,0.0
1618992239999,1.0
1618992239999,1.0
1618992240330,0.0
1618992240330,0.0
1618992240687,0.0
1618992240687,0.0
1618992241090,1.0
1618992241090,1.0
1618992241476,1.0
1618992241476,1.0
1618992241865,0.0
1618992241865,0.0
1618992242242,1.0
1618992242242,1.0
1618992242650,1.0
1618992242650,1.0
1618992243110,0.0
1618992243110,0.0
1618992243592,1.0
1618992243592,1.0
1618992244061,1.0
1618992244061,1.0
1618992244559,0.0
1618992244559,0.0
1618992244947,0.0
1618992244947,0.0
1618992245371,0.0
1618992245371,0.0
1618992245763,1.0
1618992245763,1.0
1618992246125,0.0
1618992246125,0.0
1618992246552,1.0
1618992246552,1.0
1618992247006,0.0
1618992247006,0.0
1618992247506,1.0
1618992247506,1.0
1618992247989,1.0
1618992247989,1.0
1618992248414,1.0
1618992248414,1.0
1618992248871,0.0
1618992248871,0.0
1618992249277,0.0
1618992249277,0.0
1618992249671,0.0
1618992249671,0.0
1618992250114,0.0
1618992250114,0.0
1618992250525,0.0
1618992250525,0.0
1618992250997,0.0
1618992250997,0.0
1618992251376,1.0
1618992251376,1.0
1618992251722,1.0
1618992251722,1.0
1618992252163,1.0
1618992252163,1.0
1618992252617,1.0
1618992252617,1.0
1618992253044,1.0
1618992253044,1.0
1618992253431,1.0
1618992253431,1.0
1618992253817,0.0
1618992253817,0.0
1618992254263,0.0
1618992254263,0.0
1618992254668,0.0
1618992254668,0.0
1618992255090,1.0
1618992255090,1.0
1618992255517,0.0
1618992255517,0.0
1618992255916,0.0
1618992255916,0.0
1618992256288,1.0
1618992256288,1.0
1618992256687,0.0
1618992256687,0.0
1618992257059,0.0
1618992257059,0.0
1618992257452,0.0
1618992257452,0.0
1618992257872,1.0
1618992257872,1.0
1618992258269,1.0
1618992258269,1.0
1618992258655,1.0
1618992258655,1.0
1618992259042,0.0
1618992259042,0.0
1618992259466,1.0
1618992259466,1.0
1618992259953,1.0
1618992259953,1.0
1618992260411,0.0
1618992260411,0.0
1618992260828,2.0
1618992260828,2.0
1618992261293,0.0
1618992261293,0.0
1618992261690,1.0
1618992261690,1.0
1618992262122,1.0
1618992262122,1.0
1618992262550,31.0
1618992262550,31.0
1618992262949,0.0
1618992262949,0.0
1618992263379,0.0
1618992263379,0.0
1618992263824,1.0
1618992263824,1.0
1618992264278,0.0
1618992264278,0.0
1618992264755,0.0
1618992264755,0.0
1618992265173,1.0
1618992265173,1.0
1618992265609,0.0
1618992265609,0.0
1618992266029,1.0
1618992266029,1.0
1618992266409,0.0
1618992266409,0.0
1618992266881,8.0
1618992266881,8.0
1618992267654,0.0
1618992267654,0.0
1618992268569,0.0
1618992268569,0.0
1618992269389,0.0
1618992269389,0.0
1618992270269,0.0
1618992270269,0.0
1618992271203,0.0
1618992271203,0.0
1618992272100,0.0
1618992272100,0.0
1618992272978,0.0
1618992272978,0.0
1618992273763,0.0
1618992273763,0.0
1618992274760,0.0
1618992274760,0.0
1618992275585,0.0
1618992275585,0.0
1618992276427,0.0
1618992276427,0.0
1618992277377,0.0
1618992277377,0.0
1618992278261,0.0
1618992278261,0.0
1618992279065,0.0
1618992279065,0.0
1618992279616,0.0
1618992279616,0.0
1618992280092,0.0
1618992280092,0.0
1618992280552,1.0
1618992280552,1.0
1618992281065,10.0
1618992281065,10.0
1618992281784,0.0
1618992281784,0.0
1618992282600,0.0
1618992282600,0.0
1618992283410,0.0
1618992283410,0.0
1618992284368,0.0
1618992284368,0.0
1618992285191,0.0
1618992285191,0.0
1618992286182,0.0
1618992286182,0.0
1618992287101,0.0
1618992287101,0.0
1618992287885,0.0
1618992287885,0.0
1618992288584,0.0
1618992288584,0.0
1618992289089,1.0
1618992289089,1.0
1618992289459,0.0
1618992289459,0.0
1618992289855,0.0
1618992289855,0.0
1618992290224,1.0
1618992290224,1.0
1618992290628,1.0
1618992290628,1.0
1618992291017,0.0
1618992291017,0.0
1618992291406,1.0
1618992291406,1.0
1618992291803,0.0
1618992291803,0.0
1618992292219,1.0
1618992292219,1.0
1618992292626,0.0
1618992292626,0.0
1618992293067,1.0
1618992293067,1.0
1618992293491,0.0
1618992293491,0.0
1618992293874,1.0
1618992293874,1.0
1618992294274,1.0
1618992294274,1.0
1618992294706,0.0
1618992294706,0.0
1618992295175,1.0
1618992295175,1.0
1618992295646,1.0
1618992295646,1.0
1618992296118,1.0
1618992296118,1.0
1618992296605,1.0
1618992296605,1.0
1618992297114,1.0
1618992297114,1.0
1618992297537,0.0
1618992297537,0.0
1618992298001,0.0
1618992298001,0.0
1618992298403,8.0
1618992298403,8.0
1618992298874,1.0
1618992298874,1.0
1618992299300,1.0
1618992299300,1.0
1618992299729,0.0
1618992299729,0.0
1618992300198,0.0
1618992300198,0.0
1618992300638,1.0
1618992300638,1.0
1618992301104,0.0
1618992301104,0.0
1618992301508,1.0
1618992301508,1.0
1618992301846,0.0
1618992301846,0.0
1618992302257,0.0
1618992302257,0.0
1618992302674,15.0
1618992302674,15.0
1618992303125,1.0
1618992303125,1.0
1618992303552,0.0
1618992303552,0.0
1618992303924,1.0
1618992303924,1.0
1618992304316,1.0
1618992304316,1.0
1618992305069,0.0
1618992305069,0.0
1618992305850,0.0
1618992305850,0.0
1618992306305,0.0
1618992306305,0.0
1618992306689,0.0
1618992306689,0.0
1618992307061,0.0
1618992307061,0.0
1618992307523,0.0
1618992307523,0.0
1618992307995,1.0
1618992307995,1.0
1618992308418,1.0
1618992308418,1.0
1618992308890,0.0
1618992308890,0.0
1618992309230,1.0
1618992309230,1.0
1618992309762,8.0
1618992309762,8.0
1618992310738,0.0
1618992310738,0.0
1618992311528,0.0
1618992311528,0.0
1618992312280,0.0
1618992312280,0.0
1618992313107,0.0
1618992313107,0.0
1618992313818,0.0
1618992313818,0.0
1618992314339,0.0
1618992314339,0.0
1618992314770,1.0
1618992314770,1.0
1618992315189,0.0
1618992315189,0.0
1618992315652,0.0
1618992315652,0.0
1618992316033,1.0
1618992316033,1.0
1618992316465,8.0
1618992316465,8.0
1618992316927,0.0
1618992316927,0.0
1618992317326,0.0
1618992317326,0.0
1618992317751,1.0
1618992317751,1.0
1618992318145,8.0
1618992318145,8.0
1618992318574,1.0
1618992318574,1.0
1618992319011,31.0
1618992319011,31.0
1618992319457,0.0
1618992319457,0.0
1618992319917,8.0
1618992319917,8.0
1618992320351,31.0
1618992320351,31.0
1618992320717,0.0
1618992320717,0.0
1618992321135,0.0
1618992321135,0.0
1618992321531,1.0
1618992321531,1.0
1618992321914,0.0
1618992321914,0.0
1618992322276,1.0
1618992322276,1.0
1618992322678,0.0
1618992322678,0.0
1618992323049,0.0
1618992323049,0.0
1618992323469,31.0
1618992323469,31.0
1618992323757,1.0
1618992323757,1.0
1618992324167,10.0
1618992324167,10.0
1618992324504,15.0
1618992324504,15.0
1618992324886,1.0
1618992324886,1.0
1618992325296,8.0
1618992325296,8.0
1618992325762,1.0
1618992325762,1.0
1618992326191,1.0
1618992326191,1.0
1618992326602,0.0
1618992326602,0.0
1618992326948,0.0
1618992326948,0.0
1618992327400,1.0
1618992327400,1.0
1618992327793,0.0
1618992327793,0.0
1618992328217,1.0
1618992328217,1.0
1618992328633,1.0
1618992328633,1.0
1618992329000,0.0
1618992329000,0.0
1618992329443,1.0
1618992329443,1.0
1618992329864,0.0
1618992329864,0.0
1618992330235,10.0
1618992330235,10.0
1618992330693,1.0
1618992330693,1.0
1618992331091,1.0
1618992331091,1.0
1618992331496,0.0
1618992331496,0.0
1618992331853,0.0
1618992331853,0.0
1618992332204,1.0
1618992332204,1.0
1618992332566,1.0
1618992332566,1.0
1618992332938,8.0
1618992332938,8.0
1618992333337,0.0
1618992333337,0.0
1618992333780,0.0
1618992333780,0.0
1618992334231,0.0
1618992334231,0.0
1618992334613,1.0
1618992334613,1.0
1618992334999,1.0
1618992334999,1.0
1618992335406,1.0
1618992335406,1.0
1618992335786,0.0
1618992335786,0.0
1618992336183,0.0
1618992336183,0.0
1618992336480,0.0
1618992336480,0.0
1618992336874,1.0
1618992336874,1.0
1618992337246,0.0
1618992337246,0.0
1618992337646,1.0
1618992337646,1.0
1618992338053,1.0
1618992338053,1.0
1618992338436,1.0
1618992338436,1.0
1618992338851,0.0
1618992338851,0.0
1618992339304,1.0
1618992339304,1.0
1618992339708,1.0
1618992339708,1.0
1618992340172,0.0
1618992340172,0.0
1618992340628,1.0
1618992340628,1.0
1618992341083,8.0
1618992341083,8.0
1618992341508,0.0
1618992341508,0.0
1618992341883,0.0
1618992341883,0.0
1618992342346,8.0
1618992342346,8.0
1618992343114,0.0
1618992343114,0.0
1618992344124,0.0
1618992344124,0.0
1618992345554,0.0
1618992345554,0.0
1618992346331,0.0
1618992346331,0.0
1618992347077,0.0
1618992347077,0.0
1618992347930,0.0
1618992347930,0.0
1618992348392,0.0
1618992348392,0.0
1618992348835,1.0
1618992348835,1.0
1618992349252,1.0
1618992349252,1.0
1618992349636,1.0
1618992349636,1.0
1618992350032,1.0
1618992350032,1.0
1618992350438,1.0
1618992350438,1.0
1618992350894,1.0
1618992350894,1.0
1618992351330,1.0
1618992351330,1.0
1618992351797,1.0
1618992351797,1.0
1618992352252,8.0
1618992352252,8.0
1618992352755,0.0
1618992352755,0.0
1618992353253,1.0
1618992353253,1.0
1618992353760,0.0
1618992353760,0.0
1618992354114,1.0
1618992354114,1.0
1618992354549,0.0
1618992354549,0.0
1618992354919,0.0
1618992354919,0.0
1618992355392,8.0
1618992355392,8.0
1618992356069,0.0
1618992356069,0.0
1618992356873,0.0
1618992356873,0.0
1618992357695,0.0
1618992357695,0.0
1618992358612,0.0
1618992358612,0.0
1618992359566,0.0
1618992359566,0.0
1618992360496,0.0
1618992360496,0.0
1618992361784,0.0
1618992361784,0.0
1618992363158,0.0
1618992363158,0.0
1618992364039,0.0
1618992364039,0.0
1618992365025,0.0
1618992365025,0.0
1618992365759,0.0
1618992365759,0.0
1618992366245,1.0
1618992366245,1.0
1618992366665,8.0
1618992366665,8.0
1618992367044,0.0
1618992367044,0.0
1618992367415,1.0
1618992367415,1.0
1618992367808,1.0
1618992367808,1.0
1618992368204,0.0
1618992368204,0.0
1618992368594,0.0
1618992368594,0.0
1618992369004,0.0
1618992369004,0.0
1618992369380,1.0
1618992369380,1.0
1618992369819,0.0
1618992369819,0.0
1618992370246,0.0
1618992370246,0.0
1618992370647,0.0
1618992370647,0.0
1618992371073,0.0
1618992371073,0.0
1618992371470,0.0
1618992371470,0.0
1618992372177,0.0
1618992372177,0.0
1618992372545,1.0
1618992372545,1.0
1618992372960,1.0
1618992372960,1.0
1618992373449,0.0
1618992373449,0.0
1618992373896,1.0
1618992373896,1.0
1618992374250,0.0
1618992374250,0.0
1618992374660,0.0
1618992374660,0.0
1618992375129,1.0
1618992375129,1.0
1618992375474,1.0
1618992375474,1.0
1618992375947,1.0
1618992375947,1.0
1618992376471,1.0
1618992376471,1.0
1618992376957,1.0
1618992376957,1.0
1618992377346,1.0
1618992377346,1.0
1618992377768,0.0
1618992377768,0.0
1618992378215,0.0
1618992378215,0.0
1618992378649,0.0
1618992378649,0.0
1618992379119,8.0
1618992379119,8.0
1618992379536,0.0
1618992379536,0.0
1618992379898,0.0
1618992379898,0.0
1618992380349,8.0
1618992380349,8.0
1618992380696,0.0
1618992380696,0.0
1618992381066,0.0
1618992381066,0.0
1618992381463,0.0
1618992381463,0.0
1618992381840,0.0
1618992381840,0.0
1618992382214,0.0
1618992382214,0.0
1618992382595,1.0
1618992382595,1.0
1618992382996,1.0
1618992382996,1.0
1618992383372,1.0
1618992383372,1.0
1618992383739,0.0
1618992383739,0.0
1618992384038,1.0
1618992384038,1.0
1618992384375,0.0
1618992384375,0.0
1618992384739,1.0
1618992384739,1.0
1618992385017,0.0
1618992385017,0.0
1618992385430,0.0
1618992385430,0.0
1618992385872,1.0
1618992385872,1.0
1618992386262,1.0
1618992386262,1.0
1618992386735,0.0
1618992386735,0.0
1618992387177,1.0
1618992387177,1.0
1618992387581,1.0
1618992387581,1.0
1618992388027,1.0
1618992388027,1.0
1618992388433,1.0
1618992388433,1.0
1618992388813,1.0
1618992388813,1.0
1618992389237,0.0
1618992389237,0.0
1618992389632,0.0
1618992389632,0.0
1618992390049,0.0
1618992390049,0.0
1618992390491,1.0
1618992390491,1.0
1618992390960,1.0
1618992390960,1.0
1618992391449,1.0
1618992391449,1.0
1618992391908,0.0
1618992391908,0.0
1618992392321,1.0
1618992392321,1.0
1618992392752,0.0
1618992392752,0.0
1618992393171,0.0
1618992393171,0.0
1618992393592,1.0
1618992393592,1.0
1618992394001,0.0
1618992394001,0.0
1618992394383,1.0
1618992394383,1.0
1618992394728,0.0
1618992394728,0.0
1618992395126,1.0
1618992395126,1.0
1618992395504,1.0
1618992395504,1.0
1618992395961,1.0
1618992395961,1.0
1618992396448,31.0
1618992396448,31.0
1618992396930,0.0
1618992396930,0.0
1618992397361,10.0
1618992397361,10.0
1618992397826,0.0
1618992397826,0.0
1618992398294,1.0
1618992398294,1.0
1618992398692,0.0
1618992398692,0.0
1618992399057,0.0
1618992399057,0.0
1618992399472,0.0
1618992399472,0.0
1618992399869,0.0
1618992399869,0.0
1618992400250,0.0
1618992400250,0.0
1618992400719,0.0
1618992400719,0.0
1618992401205,1.0
1618992401205,1.0
1618992401658,1.0
1618992401658,1.0
1618992402069,0.0
1618992402069,0.0
1618992402479,1.0
1618992402479,1.0
1618992403016,1.0
1618992403016,1.0
1618992403949,0.0
1618992403949,0.0
1618992404808,0.0
1618992404808,0.0
1618992405608,0.0
1618992405608,0.0
1618992406595,0.0
1618992406595,0.0
1618992407476,0.0
1618992407476,0.0
1618992408201,0.0
1618992408201,0.0
1618992409035,0.0
1618992409035,0.0
1618992410149,0.0
1618992410149,0.0
1618992410952,0.0
1618992410952,0.0
1618992411484,0.0
1618992411484,0.0
1618992411835,0.0
1618992411835,0.0
1618992412240,0.0
1618992412240,0.0
1618992412671,0.0
1618992412671,0.0
1618992413132,0.0
1618992413132,0.0
1618992413516,0.0
1618992413516,0.0
1618992413962,0.0
1618992413962,0.0
1618992414362,1.0
1618992414362,1.0
1618992414774,1.0
1618992414774,1.0
1618992415167,0.0
1618992415167,0.0
1618992415553,0.0
1618992415553,0.0
1618992415992,0.0
1618992415992,0.0
1618992416435,0.0
1618992416435,0.0
1618992416858,1.0
1618992416858,1.0
1618992417296,0.0
1618992417296,0.0
1618992417746,1.0
1618992417746,1.0
1618992418212,0.0
1618992418212,0.0
1618992418655,1.0
1618992418655,1.0
1618992419033,0.0
1618992419033,0.0
1618992419438,0.0
1618992419438,0.0
1618992419836,0.0
1618992419836,0.0
1618992420209,1.0
1618992420209,1.0
1618992420711,0.0
1618992420711,0.0
1618992421463,0.0
1618992421463,0.0
1618992421990,0.0
1618992421990,0.0
1618992422384,1.0
1618992422384,1.0
1618992422759,0.0
1618992422759,0.0
1618992423225,1.0
1618992423225,1.0
1618992423653,1.0
1618992423653,1.0
1618992424153,1.0
1618992424153,1.0
1618992424563,0.0
1618992424563,0.0
1618992424979,0.0
1618992424979,0.0
1618992425445,0.0
1618992425445,0.0
1618992425912,1.0
1618992425912,1.0
1618992426308,1.0
1618992426308,1.0
1618992426729,1.0
1618992426729,1.0
1618992427137,0.0
1618992427137,0.0
1618992427494,1.0
1618992427494,1.0
1618992427920,1.0
1618992427920,1.0
1618992428343,0.0
1618992428343,0.0
1618992428798,0.0
1618992428798,0.0
1618992429311,1.0
1618992429311,1.0
1618992429743,1.0
1618992429743,1.0
1618992430210,0.0
1618992430210,0.0
1618992430613,0.0
1618992430613,0.0
1618992431092,1.0
1618992431092,1.0
1618992431513,0.0
1618992431513,0.0
1618992431912,0.0
1618992431912,0.0
1618992432328,0.0
1618992432328,0.0
1618992432722,0.0
1618992432722,0.0
1618992433052,1.0
1618992433052,1.0
1618992433484,0.0
1618992433484,0.0
1618992433923,0.0
1618992433923,0.0
1618992434306,0.0
1618992434306,0.0
1618992434705,0.0
1618992434705,0.0
1618992435069,0.0
1618992435069,0.0
1618992435466,0.0
1618992435466,0.0
1618992435873,0.0
1618992435873,0.0
1618992436267,0.0
1618992436267,0.0
1618992436673,0.0
1618992436673,0.0
1618992437058,1.0
1618992437058,1.0
1618992437453,1.0
1618992437453,1.0
1618992437824,1.0
1618992437824,1.0
1618992438202,0.0
1618992438202,0.0
1618992438644,0.0
1618992438644,0.0
1618992439023,1.0
1618992439023,1.0
1618992439428,0.0
1618992439428,0.0
1618992439934,0.0
1618992439934,0.0
1618992440426,0.0
1618992440426,0.0
1618992440836,0.0
1618992440836,0.0
1618992441298,0.0
1618992441298,0.0
1618992441730,0.0
1618992441730,0.0
1618992442108,0.0
1618992442108,0.0
1618992442507,0.0
1618992442507,0.0
1618992442915,0.0
1618992442915,0.0
1618992443327,1.0
1618992443327,1.0
1618992443805,0.0
1618992443805,0.0
1618992444224,0.0
1618992444224,0.0
1618992444746,1.0
1618992444746,1.0
1618992445236,1.0
1618992445236,1.0
1618992445646,0.0
1618992445646,0.0
1618992446127,1.0
1618992446127,1.0
1618992446543,0.0
1618992446543,0.0
1618992446938,0.0
1618992446938,0.0
1618992447396,1.0
1618992447396,1.0
1618992447736,0.0
1618992447736,0.0
1618992448090,8.0
1618992448090,8.0
1618992448475,1.0
1618992448475,1.0
1618992448871,0.0
1618992448871,0.0
1618992449298,0.0
1618992449298,0.0
1618992449737,1.0
1618992449737,1.0
1618992450195,0.0
1618992450195,0.0
1618992450723,1.0
1618992450723,1.0
1618992451172,1.0
1618992451172,1.0
1618992451583,1.0
1618992451583,1.0
1618992452036,0.0
1618992452036,0.0
1618992452455,0.0
1618992452455,0.0
1618992452925,0.0
1618992452925,0.0
1618992453384,1.0
1618992453384,1.0
1618992453774,1.0
1618992453774,1.0
1618992454208,0.0
1618992454208,0.0
1618992454613,0.0
1618992454613,0.0
1618992455007,1.0
1618992455007,1.0
1618992455438,0.0
1618992455438,0.0
1618992455859,1.0
1618992455859,1.0
1618992456250,1.0
1618992456250,1.0
1618992456665,1.0
1618992456665,1.0
1618992457055,1.0
1618992457055,1.0
1618992457456,1.0
1618992457456,1.0
1618992457955,0.0
1618992457955,0.0
1618992458370,1.0
1618992458370,1.0
1618992458820,0.0
1618992458820,0.0
1618992459269,1.0
1618992459269,1.0
1618992459703,1.0
1618992459703,1.0
1618992460174,0.0
1618992460174,0.0
1618992460636,0.0
1618992460636,0.0
1618992461150,1.0
1618992461150,1.0
1618992461602,1.0
1618992461602,1.0
1618992462041,0.0
1618992462041,0.0
1618992462531,1.0
1618992462531,1.0
1618992462959,0.0
1618992462959,0.0
1618992463409,0.0
1618992463409,0.0
1618992463901,1.0
1618992463901,1.0
1618992464341,1.0
1618992464341,1.0
1618992464768,0.0
1618992464768,0.0
1618992465162,0.0
1618992465162,0.0
1618992465556,0.0
1618992465556,0.0
1618992465973,0.0
1618992465973,0.0
1618992466393,0.0
1618992466393,0.0
1618992466753,0.0
1618992466753,0.0
1618992467170,0.0
1618992467170,0.0
1618992467605,1.0
1618992467605,1.0
1618992468013,0.0
1618992468013,0.0
1618992468341,0.0
1618992468341,0.0
1618992468664,1.0
1618992468664,1.0
1618992468993,0.0
1618992468993,0.0
1618992469408,1.0
1618992469408,1.0
1618992469896,0.0
1618992469896,0.0
1618992470285,0.0
1618992470285,0.0
1618992470732,0.0
1618992470732,0.0
1618992471132,1.0
1618992471132,1.0
1618992471565,1.0
1618992471565,1.0
1618992471963,1.0
1618992471963,1.0
1618992472345,1.0
1618992472345,1.0
1618992472774,0.0
1618992472774,0.0
1618992473208,0.0
1618992473208,0.0
1618992473646,1.0
1618992473646,1.0
1618992474027,1.0
1618992474027,1.0
1618992474432,0.0
1618992474432,0.0
1618992474869,1.0
1618992474869,1.0
1618992475257,1.0
1618992475257,1.0
1618992475663,0.0
1618992475663,0.0
1618992476123,1.0
1618992476123,1.0
1618992476561,0.0
1618992476561,0.0
1618992476971,1.0
1618992476971,1.0
1618992477372,1.0
1618992477372,1.0
1618992477790,0.0
1618992477790,0.0
1618992478161,0.0
1618992478161,0.0
1618992478608,0.0
1618992478608,0.0
1618992479017,0.0
1618992479017,0.0
1618992479396,0.0
1618992479396,0.0
1618992479790,1.0
1618992479790,1.0
1618992480135,0.0
1618992480135,0.0
1618992480536,0.0
1618992480536,0.0
1618992480976,0.0
1618992480976,0.0
1618992481432,1.0
1618992481432,1.0
1618992481818,0.0
1618992481818,0.0
1618992482252,1.0
1618992482252,1.0
1618992482679,0.0
1618992482679,0.0
1618992483147,1.0
1618992483147,1.0
1618992483492,0.0
1618992483492,0.0
1618992483925,0.0
1618992483925,0.0
1618992484291,1.0
1618992484291,1.0
1618992484726,0.0
1618992484726,0.0
1618992485183,1.0
1618992485183,1.0
1618992485618,0.0
1618992485618,0.0
1618992486045,0.0
1618992486045,0.0
1618992486568,1.0
1618992486568,1.0
1618992487055,1.0
1618992487055,1.0
1618992487486,1.0
1618992487486,1.0
1618992487990,0.0
1618992487990,0.0
1618992488417,1.0
1618992488417,1.0
1618992488819,1.0
1618992488819,1.0
1618992489217,0.0
1618992489217,0.0
1618992489583,0.0
1618992489583,0.0
1618992490023,1.0
1618992490023,1.0
1618992490454,1.0
1618992490454,1.0
1618992490849,8.0
1618992490849,8.0
1618992491294,1.0
1618992491294,1.0
1618992491754,0.0
1618992491754,0.0
1618992492218,0.0
1618992492218,0.0
1618992492728,0.0
1618992492728,0.0
1618992493145,8.0
1618992493145,8.0
1618992493580,0.0
1618992493580,0.0
1618992494024,0.0
1618992494024,0.0
1618992494319,1.0
1618992494319,1.0
1618992494727,0.0
1618992494727,0.0
1618992495174,1.0
1618992495174,1.0
1618992495610,1.0
1618992495610,1.0
1618992496074,0.0
1618992496074,0.0
1618992496579,1.0
1618992496579,1.0
1618992496984,0.0
1618992496984,0.0
1618992497427,15.0
1618992497427,15.0
1618992497832,1.0
1618992497832,1.0
1618992498275,1.0
1618992498275,1.0
1618992498762,1.0
1618992498762,1.0
1618992499137,1.0
1618992499137,1.0
1618992499571,1.0
1618992499571,1.0
1618992500012,1.0
1618992500012,1.0
1618992500449,0.0
1618992500449,0.0
1618992500978,0.0
1618992500978,0.0
1618992501459,0.0
1618992501459,0.0
1618992501901,1.0
1618992501901,1.0
1618992502349,0.0
1618992502349,0.0
1618992502761,1.0
1618992502761,1.0
1618992503229,1.0
1618992503229,1.0
1618992503652,1.0
1618992503652,1.0
1618992504053,0.0
1618992504053,0.0
1618992504501,0.0
1618992504501,0.0
1618992504890,1.0
1618992504890,1.0
1618992505338,1.0
1618992505338,1.0
1618992505817,1.0
1618992505817,1.0
1618992506229,1.0
1618992506229,1.0
1618992506709,0.0
1618992506709,0.0
1618992507167,10.0
1618992507167,10.0
1618992507617,1.0
1618992507617,1.0
1618992508101,0.0
1618992508101,0.0
1618992508635,0.0
1618992508635,0.0
1618992509060,0.0
1618992509060,0.0
1618992509492,0.0
1618992509492,0.0
1618992509813,0.0
1618992509813,0.0
1618992510227,0.0
1618992510227,0.0
1618992510558,0.0
1618992510558,0.0
1618992510901,10.0
1618992510901,10.0
1618992511296,2.0
1618992511296,2.0
1618992511687,0.0
1618992511687,0.0
1618992512043,1.0
1618992512043,1.0
1618992512548,1.0
1618992512548,1.0
1618992513019,1.0
1618992513019,1.0
1618992513389,0.0
1618992513389,0.0
1618992513819,0.0
1618992513819,0.0
1618992514258,1.0
1618992514258,1.0
1618992514705,1.0
1618992514705,1.0
1618992515204,1.0
1618992515204,1.0
1618992515665,0.0
1618992515665,0.0
1618992516113,1.0
1618992516113,1.0
1618992516569,1.0
1618992516569,1.0
1618992517076,0.0
1618992517076,0.0
1618992517532,1.0
1618992517532,1.0
1618992517967,10.0
1618992517967,10.0
1618992518463,1.0
1618992518463,1.0
1618992518938,1.0
1618992518938,1.0
1618992519373,0.0
1618992519373,0.0
1618992519842,0.0
1618992519842,0.0
1618992520252,0.0
1618992520252,0.0
1618992520626,1.0
1618992520626,1.0
1618992521020,1.0
1618992521020,1.0
1618992521394,1.0
1618992521394,1.0
1618992521808,0.0
1618992521808,0.0
1618992522269,0.0
1618992522269,0.0
1618992522718,0.0
1618992522718,0.0
1618992523205,1.0
1618992523205,1.0
1618992523700,0.0
1618992523700,0.0
1618992524136,1.0
1618992524136,1.0
1618992524555,0.0
1618992524555,0.0
1618992524936,0.0
1618992524936,0.0
1618992525346,0.0
1618992525346,0.0
1618992525745,0.0
1618992525745,0.0
1618992526074,0.0
1618992526074,0.0
1618992526462,0.0
1618992526462,0.0
1618992526913,1.0
1618992526913,1.0
1618992527340,1.0
1618992527340,1.0
1618992527765,0.0
1618992527765,0.0
1618992528187,2.0
1618992528187,2.0
1618992528609,1.0
1618992528609,1.0
1618992529034,1.0
1618992529034,1.0
1618992529458,0.0
1618992529458,0.0
1618992529859,2.0
1618992529859,2.0
1618992530301,0.0
1618992530301,0.0
1618992530664,0.0
1618992530664,0.0
1618992531163,0.0
1618992531163,0.0
1618992531658,1.0
1618992531658,1.0
1618992532054,0.0
1618992532054,0.0
1618992532512,0.0
1618992532512,0.0
1618992532928,1.0
1618992532928,1.0
1618992533361,1.0
1618992533361,1.0
1618992533797,0.0
1618992533797,0.0
1618992534118,0.0
1618992534118,0.0
1618992534519,0.0
1618992534519,0.0
1618992534888,0.0
1618992534888,0.0
1618992535349,0.0
1618992535349,0.0
1618992535767,1.0
1618992535767,1.0
1618992536230,0.0
1618992536230,0.0
1618992536617,0.0
1618992536617,0.0
1618992537021,0.0
1618992537021,0.0
1618992537370,1.0
1618992537370,1.0
1618992537747,1.0
1618992537747,1.0
1618992538228,0.0
1618992538228,0.0
1618992538654,0.0
1618992538654,0.0
1618992539063,0.0
1618992539063,0.0
1618992539461,1.0
1618992539461,1.0
1618992539831,1.0
1618992539831,1.0
1618992540194,1.0
1618992540194,1.0
1618992540635,0.0
1618992540635,0.0
1618992540979,1.0
1618992540979,1.0
1618992541484,0.0
1618992541484,0.0
1618992541892,0.0
1618992541892,0.0
1618992542318,0.0
1618992542318,0.0
1618992542729,1.0
1618992542729,1.0
1618992543054,1.0
1618992543054,1.0
1618992543447,0.0
1618992543447,0.0
1618992543865,1.0
1618992543865,1.0
1618992544279,0.0
1618992544279,0.0
1618992544742,1.0
1618992544742,1.0
1618992545202,1.0
1618992545202,1.0
1618992545592,0.0
1618992545592,0.0
1618992546015,0.0
1618992546015,0.0
1618992546443,8.0
1618992546443,8.0
1618992546834,1.0
1618992546834,1.0
1618992547317,8.0
1618992547317,8.0
1618992547841,10.0
1618992547841,10.0
1618992548250,1.0
1618992548250,1.0
1618992548711,1.0
1618992548711,1.0
1618992549170,1.0
1618992549170,1.0
1618992549608,1.0
1618992549608,1.0
1618992550057,0.0
1618992550057,0.0
1618992550535,1.0
1618992550535,1.0
1618992550953,0.0
1618992550953,0.0
1618992551360,1.0
1618992551360,1.0
1618992551722,1.0
1618992551722,1.0
1618992552119,1.0
1618992552119,1.0
1618992552524,1.0
1618992552524,1.0
1618992552863,1.0
1618992552863,1.0
1618992553227,0.0
1618992553227,0.0
1618992553641,0.0
1618992553641,0.0
1618992554059,1.0
1618992554059,1.0
1618992554465,1.0
1618992554465,1.0
1618992554821,0.0
1618992554821,0.0
1618992555253,1.0
1618992555253,1.0
1618992555733,1.0
1618992555733,1.0
1618992556200,1.0
1618992556200,1.0
1618992556646,0.0
1618992556646,0.0
1618992557103,0.0
1618992557103,0.0
1618992557578,1.0
1618992557578,1.0
1618992558027,1.0
1618992558027,1.0
1618992558445,0.0
1618992558445,0.0
1618992558876,8.0
1618992558876,8.0
1618992559305,1.0
1618992559305,1.0
1618992559650,1.0
1618992559650,1.0
1618992560070,0.0
1618992560070,0.0
1618992560452,1.0
1618992560452,1.0
1618992560876,0.0
1618992560876,0.0
1618992561357,0.0
1618992561357,0.0
