id,bored,fun,angry,anxious,class
1070415,14,25,9,13,experiment
1070417,13,24,6,8,experiment
1070416,9,22,7,11,experiment
1070931,19,27,10,6,experiment
1099705,28,13,16,20,experiment
1070430,11,26,5,7,experiment
1070426,23,18,9,13,experiment
1070438,15,20,12,20,experiment
1070428,21,20,12,9,experiment
1070320,16,19,11,26,experiment
1070408,12,21,9,24,experiment
1070335,12,19,6,12,experiment
1070436,13,24,10,10,experiment
1080425,11,18,5,7,experiment
1070411,19,18,14,20,experiment
1080402,12,24,10,12,control
1070318,15,18,11,20,control
1080323,6,23,5,6,control
1070401,14,19,9,16,control
