timestamp,value
1620882235372,10.0
1620882235372,10.0
1620882235759,10.0
1620882235759,10.0
1620882236174,10.0
1620882236174,10.0
1620882236589,10.0
1620882236589,10.0
1620882237019,8.0
1620882237019,8.0
1620882237786,0.0
1620882237786,0.0
1620882238255,0.0
1620882238255,0.0
1620882238795,8.0
1620882238795,8.0
1620882239216,10.0
1620882239216,10.0
1620882239716,10.0
1620882239716,10.0
1620882240112,10.0
1620882240112,10.0
1620882240584,15.0
1620882240584,15.0
1620882241104,10.0
1620882241104,10.0
1620882241870,0.0
1620882241870,0.0
1620882242868,0.0
1620882242868,0.0
1620882243960,0.0
1620882243960,0.0
1620882244477,10.0
1620882244477,10.0
1620882244991,10.0
1620882244991,10.0
1620882245455,10.0
1620882245455,10.0
1620882245846,10.0
1620882245846,10.0
1620882246237,10.0
1620882246237,10.0
1620882246591,8.0
1620882246591,8.0
1620882247093,10.0
1620882247093,10.0
1620882247517,15.0
1620882247517,15.0
1620882247914,10.0
1620882247914,10.0
1620882248387,8.0
1620882248387,8.0
1620882248898,10.0
1620882248898,10.0
1620882249406,10.0
1620882249406,10.0
1620882249812,8.0
1620882249812,8.0
1620882250336,8.0
1620882250336,8.0
1620882251153,0.0
1620882251153,0.0
1620882252152,0.0
1620882252152,0.0
1620882252986,0.0
1620882252986,0.0
1620882253771,0.0
1620882253771,0.0
1620882254784,0.0
1620882254784,0.0
1620882255671,0.0
1620882255671,0.0
1620882256575,0.0
1620882256575,0.0
1620882256988,10.0
1620882256988,10.0
1620882257419,10.0
1620882257419,10.0
1620882257912,10.0
1620882257912,10.0
1620882258327,10.0
1620882258327,10.0
1620882258769,10.0
1620882258769,10.0
1620882259150,15.0
1620882259150,15.0
1620882259537,10.0
1620882259537,10.0
1620882259917,10.0
1620882259917,10.0
1620882260323,8.0
1620882260323,8.0
1620882260763,10.0
1620882260763,10.0
1620882261201,10.0
1620882261201,10.0
1620882261570,10.0
1620882261570,10.0
1620882261998,10.0
1620882261998,10.0
1620882262440,10.0
1620882262440,10.0
1620882262846,8.0
1620882262846,8.0
1620882263350,10.0
1620882263350,10.0
1620882263716,10.0
1620882263716,10.0
1620882264132,8.0
1620882264132,8.0
1620882264561,15.0
1620882264561,15.0
1620882265000,10.0
1620882265000,10.0
1620882265410,8.0
1620882265410,8.0
1620882265954,8.0
1620882265954,8.0
1620882266269,10.0
1620882266269,10.0
1620882266647,8.0
1620882266647,8.0
1620882267070,8.0
1620882267070,8.0
1620882267478,10.0
1620882267478,10.0
1620882267866,10.0
1620882267866,10.0
1620882268226,10.0
1620882268226,10.0
1620882268618,10.0
1620882268618,10.0
1620882269020,10.0
1620882269020,10.0
1620882269459,8.0
1620882269459,8.0
1620882269941,10.0
1620882269941,10.0
1620882270392,10.0
1620882270392,10.0
1620882270740,10.0
1620882270740,10.0
1620882271155,15.0
1620882271155,15.0
1620882271615,8.0
1620882271615,8.0
1620882272053,10.0
1620882272053,10.0
1620882272540,10.0
1620882272540,10.0
1620882272990,10.0
1620882272990,10.0
1620882273386,8.0
1620882273386,8.0
1620882273721,8.0
1620882273721,8.0
1620882274102,8.0
1620882274102,8.0
1620882274496,10.0
1620882274496,10.0
1620882274993,10.0
1620882274993,10.0
1620882275447,8.0
1620882275447,8.0
1620882275799,8.0
1620882275799,8.0
1620882276185,8.0
1620882276185,8.0
1620882276559,10.0
1620882276559,10.0
1620882276946,10.0
1620882276946,10.0
1620882277367,10.0
1620882277367,10.0
1620882277723,10.0
1620882277723,10.0
1620882278109,10.0
1620882278109,10.0
1620882278473,10.0
1620882278473,10.0
1620882278855,15.0
1620882278855,15.0
1620882279303,8.0
1620882279303,8.0
1620882279717,10.0
1620882279717,10.0
1620882280155,15.0
1620882280155,15.0
1620882280563,10.0
1620882280563,10.0
1620882281004,15.0
1620882281004,15.0
1620882281397,10.0
1620882281397,10.0
1620882281879,10.0
1620882281879,10.0
1620882282315,10.0
1620882282315,10.0
1620882282667,10.0
1620882282667,10.0
1620882283047,10.0
1620882283047,10.0
1620882283444,10.0
1620882283444,10.0
1620882283866,10.0
1620882283866,10.0
1620882284327,10.0
1620882284327,10.0
1620882284709,8.0
1620882284709,8.0
1620882285123,10.0
1620882285123,10.0
1620882285608,8.0
1620882285608,8.0
1620882286137,10.0
1620882286137,10.0
1620882286579,8.0
1620882286579,8.0
1620882287024,10.0
1620882287024,10.0
1620882287441,10.0
1620882287441,10.0
1620882288188,0.0
1620882288188,0.0
1620882289081,0.0
1620882289081,0.0
1620882289553,10.0
1620882289553,10.0
1620882289977,10.0
1620882289977,10.0
1620882290505,8.0
1620882290505,8.0
1620882290932,15.0
1620882290932,15.0
1620882291228,10.0
1620882291228,10.0
1620882291634,15.0
1620882291634,15.0
1620882292018,8.0
1620882292018,8.0
1620882292356,10.0
1620882292356,10.0
1620882292798,8.0
1620882292798,8.0
1620882293129,10.0
1620882293129,10.0
1620882293512,10.0
1620882293512,10.0
1620882293939,8.0
1620882293939,8.0
1620882294290,10.0
1620882294290,10.0
1620882294728,10.0
1620882294728,10.0
1620882295190,10.0
1620882295190,10.0
1620882295635,10.0
1620882295635,10.0
1620882296033,10.0
1620882296033,10.0
1620882296422,10.0
1620882296422,10.0
1620882296757,10.0
1620882296757,10.0
1620882297088,8.0
1620882297088,8.0
1620882297458,10.0
1620882297458,10.0
1620882297864,15.0
1620882297864,15.0
1620882298214,10.0
1620882298214,10.0
1620882298550,10.0
1620882298550,10.0
1620882298914,10.0
1620882298914,10.0
1620882299305,15.0
1620882299305,15.0
1620882299800,10.0
1620882299800,10.0
1620882300215,16.0
1620882300215,16.0
1620882300606,8.0
1620882300606,8.0
1620882301072,10.0
1620882301072,10.0
1620882301413,10.0
1620882301413,10.0
1620882301720,8.0
1620882301720,8.0
1620882302181,10.0
1620882302181,10.0
1620882302538,10.0
1620882302538,10.0
1620882302853,10.0
1620882302853,10.0
1620882303247,8.0
1620882303247,8.0
1620882303621,10.0
1620882303621,10.0
1620882304104,10.0
1620882304104,10.0
1620882304605,10.0
1620882304605,10.0
1620882305071,10.0
1620882305071,10.0
1620882305532,15.0
1620882305532,15.0
1620882306067,10.0
1620882306067,10.0
1620882306519,8.0
1620882306519,8.0
1620882306931,8.0
1620882306931,8.0
1620882307330,10.0
1620882307330,10.0
1620882307759,8.0
1620882307759,8.0
1620882308171,8.0
1620882308171,8.0
1620882308674,10.0
1620882308674,10.0
1620882309117,10.0
1620882309117,10.0
1620882309493,10.0
1620882309493,10.0
1620882309927,8.0
1620882309927,8.0
1620882310406,8.0
1620882310406,8.0
1620882310797,10.0
1620882310797,10.0
1620882311242,10.0
1620882311242,10.0
1620882311705,10.0
1620882311705,10.0
1620882312218,10.0
1620882312218,10.0
1620882312756,15.0
1620882312756,15.0
1620882313249,10.0
1620882313249,10.0
1620882314045,0.0
1620882314045,0.0
1620882314843,0.0
1620882314843,0.0
1620882315765,0.0
1620882315765,0.0
1620882316228,10.0
1620882316228,10.0
1620882316634,16.0
1620882316634,16.0
1620882317127,10.0
1620882317127,10.0
1620882317617,10.0
1620882317617,10.0
1620882318017,8.0
1620882318017,8.0
1620882318371,10.0
1620882318371,10.0
1620882318661,8.0
1620882318661,8.0
1620882319059,10.0
1620882319059,10.0
1620882319467,10.0
1620882319467,10.0
1620882319858,8.0
1620882319858,8.0
1620882320223,10.0
1620882320223,10.0
1620882320612,10.0
1620882320612,10.0
1620882320983,10.0
1620882320983,10.0
1620882321371,10.0
1620882321371,10.0
1620882321740,8.0
1620882321740,8.0
1620882322105,8.0
1620882322105,8.0
1620882322514,8.0
1620882322514,8.0
1620882322846,8.0
1620882322846,8.0
1620882323199,10.0
1620882323199,10.0
1620882323673,10.0
1620882323673,10.0
1620882324076,10.0
1620882324076,10.0
1620882324471,10.0
1620882324471,10.0
1620882324899,10.0
1620882324899,10.0
1620882325342,15.0
1620882325342,15.0
1620882325770,0.0
1620882325770,0.0
1620882326242,10.0
1620882326242,10.0
1620882326618,8.0
1620882326618,8.0
1620882326972,8.0
1620882326972,8.0
1620882327389,10.0
1620882327389,10.0
1620882327819,10.0
1620882327819,10.0
1620882328662,0.0
1620882328662,0.0
1620882329642,0.0
1620882329642,0.0
1620882330517,0.0
1620882330517,0.0
1620882331503,0.0
1620882331503,0.0
1620882332503,0.0
1620882332503,0.0
1620882332936,10.0
1620882332936,10.0
1620882333367,15.0
1620882333367,15.0
1620882333862,8.0
1620882333862,8.0
1620882334323,10.0
1620882334323,10.0
1620882334713,10.0
1620882334713,10.0
1620882335075,10.0
1620882335075,10.0
1620882335500,8.0
1620882335500,8.0
1620882335956,10.0
1620882335956,10.0
1620882336713,0.0
1620882336713,0.0
1620882337540,0.0
1620882337540,0.0
1620882338522,0.0
1620882338522,0.0
1620882339314,0.0
1620882339314,0.0
1620882340205,0.0
1620882340205,0.0
1620882340712,8.0
1620882340712,8.0
1620882341134,10.0
1620882341134,10.0
1620882341478,8.0
1620882341478,8.0
1620882341860,10.0
1620882341860,10.0
1620882342300,10.0
1620882342300,10.0
1620882342743,10.0
1620882342743,10.0
1620882343095,8.0
1620882343095,8.0
1620882343478,10.0
1620882343478,10.0
1620882343994,10.0
1620882343994,10.0
1620882344404,10.0
1620882344404,10.0
1620882344790,10.0
1620882344790,10.0
1620882345199,10.0
1620882345199,10.0
1620882345695,10.0
1620882345695,10.0
1620882346515,0.0
1620882346515,0.0
1620882346995,10.0
1620882346995,10.0
1620882347424,10.0
1620882347424,10.0
1620882347840,10.0
1620882347840,10.0
1620882348300,10.0
1620882348300,10.0
1620882348696,10.0
1620882348696,10.0
1620882349045,10.0
1620882349045,10.0
1620882349513,10.0
1620882349513,10.0
1620882349900,10.0
1620882349900,10.0
1620882350249,15.0
1620882350249,15.0
1620882350698,10.0
1620882350698,10.0
1620882351085,10.0
1620882351085,10.0
1620882351479,10.0
1620882351479,10.0
1620882351906,8.0
1620882351906,8.0
1620882352318,10.0
1620882352318,10.0
1620882352742,10.0
1620882352742,10.0
1620882353156,10.0
1620882353156,10.0
1620882353543,8.0
1620882353543,8.0
1620882354045,10.0
1620882354045,10.0
1620882354585,8.0
1620882354585,8.0
1620882354923,8.0
1620882354923,8.0
1620882355320,10.0
1620882355320,10.0
1620882355747,10.0
1620882355747,10.0
1620882356116,15.0
1620882356116,15.0
1620882356567,10.0
1620882356567,10.0
1620882357038,10.0
1620882357038,10.0
1620882357467,10.0
1620882357467,10.0
1620882357892,10.0
1620882357892,10.0
1620882358290,10.0
1620882358290,10.0
1620882358743,10.0
1620882358743,10.0
1620882359207,10.0
1620882359207,10.0
1620882359672,10.0
1620882359672,10.0
1620882360077,10.0
1620882360077,10.0
1620882360436,8.0
1620882360436,8.0
1620882360790,10.0
1620882360790,10.0
1620882361157,10.0
1620882361157,10.0
1620882361520,10.0
1620882361520,10.0
1620882361867,10.0
1620882361867,10.0
1620882362368,10.0
1620882362368,10.0
1620882362813,10.0
1620882362813,10.0
1620882363179,15.0
1620882363179,15.0
1620882363618,10.0
1620882363618,10.0
1620882364065,10.0
1620882364065,10.0
1620882364452,8.0
1620882364452,8.0
1620882364834,8.0
1620882364834,8.0
1620882365206,10.0
1620882365206,10.0
1620882365560,10.0
1620882365560,10.0
1620882365992,8.0
1620882365992,8.0
1620882366417,10.0
1620882366417,10.0
1620882366895,10.0
1620882366895,10.0
1620882367349,10.0
1620882367349,10.0
1620882367822,10.0
1620882367822,10.0
1620882368288,10.0
1620882368288,10.0
1620882368751,8.0
1620882368751,8.0
1620882369148,10.0
1620882369148,10.0
1620882369565,10.0
1620882369565,10.0
1620882370063,8.0
1620882370063,8.0
1620882370492,8.0
1620882370492,8.0
1620882370880,15.0
1620882370880,15.0
1620882371234,8.0
1620882371234,8.0
1620882371663,8.0
1620882371663,8.0
1620882372075,10.0
1620882372075,10.0
1620882372501,10.0
1620882372501,10.0
1620882373085,10.0
1620882373085,10.0
1620882374079,0.0
1620882374079,0.0
1620882374582,10.0
1620882374582,10.0
1620882375017,10.0
1620882375017,10.0
1620882375507,10.0
1620882375507,10.0
1620882375972,10.0
1620882375972,10.0
1620882376364,10.0
1620882376364,10.0
1620882376727,15.0
1620882376727,15.0
1620882377128,10.0
1620882377128,10.0
1620882377540,10.0
1620882377540,10.0
1620882378014,10.0
1620882378014,10.0
1620882378488,10.0
1620882378488,10.0
1620882378895,8.0
1620882378895,8.0
1620882379245,8.0
1620882379245,8.0
1620882379666,1.0
1620882379666,1.0
1620882380046,10.0
1620882380046,10.0
1620882380443,10.0
1620882380443,10.0
1620882380787,8.0
1620882380787,8.0
1620882381144,15.0
1620882381144,15.0
1620882381534,15.0
1620882381534,15.0
1620882381890,8.0
1620882381890,8.0
1620882382260,10.0
1620882382260,10.0
1620882382690,15.0
1620882382690,15.0
1620882383092,8.0
1620882383092,8.0
1620882383424,10.0
1620882383424,10.0
1620882383843,10.0
1620882383843,10.0
1620882384208,10.0
1620882384208,10.0
1620882384582,8.0
1620882384582,8.0
1620882384942,10.0
1620882384942,10.0
1620882385261,10.0
1620882385261,10.0
1620882385600,8.0
1620882385600,8.0
1620882385970,10.0
1620882385970,10.0
1620882386333,10.0
1620882386333,10.0
1620882386679,15.0
1620882386679,15.0
1620882387065,10.0
1620882387065,10.0
1620882387441,10.0
1620882387441,10.0
1620882387716,10.0
1620882387716,10.0
1620882388078,10.0
1620882388078,10.0
1620882388484,10.0
1620882388484,10.0
1620882388900,10.0
1620882388900,10.0
1620882389345,10.0
1620882389345,10.0
1620882389740,8.0
1620882389740,8.0
1620882389950,10.0
1620882389950,10.0
1620882390321,8.0
1620882390321,8.0
1620882390646,8.0
1620882390646,8.0
1620882391002,8.0
1620882391002,8.0
1620882391360,10.0
1620882391360,10.0
1620882391756,10.0
1620882391756,10.0
1620882392095,10.0
1620882392095,10.0
1620882392606,10.0
1620882392606,10.0
1620882393548,0.0
1620882393548,0.0
1620882394019,10.0
1620882394019,10.0
1620882394479,8.0
1620882394479,8.0
1620882394856,8.0
1620882394856,8.0
1620882395452,10.0
1620882395452,10.0
1620882396387,0.0
1620882396387,0.0
1620882397171,0.0
1620882397171,0.0
1620882397717,8.0
1620882397717,8.0
1620882398065,10.0
1620882398065,10.0
1620882398401,10.0
1620882398401,10.0
1620882398902,10.0
1620882398902,10.0
1620882399339,16.0
1620882399339,16.0
1620882399705,8.0
1620882399705,8.0
1620882400112,10.0
1620882400112,10.0
1620882400509,10.0
1620882400509,10.0
1620882400861,10.0
1620882400861,10.0
1620882401251,15.0
1620882401251,15.0
1620882401659,10.0
1620882401659,10.0
1620882402078,10.0
1620882402078,10.0
1620882402494,10.0
1620882402494,10.0
1620882402855,2.0
1620882402855,2.0
1620882403239,1.0
1620882403239,1.0
1620882403645,8.0
1620882403645,8.0
1620882403994,8.0
1620882403994,8.0
1620882404399,0.0
1620882404399,0.0
1620882404776,10.0
1620882404776,10.0
1620882405174,10.0
1620882405174,10.0
1620882405515,8.0
1620882405515,8.0
1620882405888,10.0
1620882405888,10.0
1620882406308,10.0
1620882406308,10.0
1620882406735,10.0
1620882406735,10.0
1620882407124,8.0
1620882407124,8.0
1620882407442,10.0
1620882407442,10.0
1620882407844,10.0
1620882407844,10.0
1620882408243,10.0
1620882408243,10.0
1620882408626,10.0
1620882408626,10.0
1620882409048,15.0
1620882409048,15.0
1620882409548,10.0
1620882409548,10.0
1620882409917,10.0
1620882409917,10.0
1620882410388,8.0
1620882410388,8.0
1620882410809,10.0
1620882410809,10.0
1620882411155,10.0
1620882411155,10.0
1620882411590,8.0
1620882411590,8.0
1620882411982,10.0
1620882411982,10.0
1620882412375,10.0
1620882412375,10.0
1620882412874,10.0
1620882412874,10.0
1620882413366,10.0
1620882413366,10.0
1620882414251,0.0
1620882414251,0.0
1620882415063,0.0
1620882415063,0.0
1620882415617,8.0
1620882415617,8.0
1620882415918,10.0
1620882415918,10.0
1620882416282,10.0
1620882416282,10.0
1620882416689,8.0
1620882416689,8.0
1620882417149,10.0
1620882417149,10.0
1620882417631,10.0
1620882417631,10.0
1620882418123,10.0
1620882418123,10.0
1620882418543,10.0
1620882418543,10.0
1620882418977,15.0
1620882418977,15.0
1620882419445,10.0
1620882419445,10.0
1620882419817,10.0
1620882419817,10.0
1620882420204,10.0
1620882420204,10.0
1620882420583,0.0
1620882420583,0.0
1620882421019,0.0
1620882421019,0.0
1620882421408,0.0
1620882421408,0.0
1620882421855,1.0
1620882421855,1.0
1620882422174,1.0
1620882422174,1.0
1620882422634,0.0
1620882422634,0.0
1620882423178,8.0
1620882423178,8.0
1620882423534,8.0
1620882423534,8.0
1620882423922,10.0
1620882423922,10.0
1620882424252,10.0
1620882424252,10.0
1620882424627,10.0
1620882424627,10.0
1620882425131,16.0
1620882425131,16.0
1620882425494,10.0
1620882425494,10.0
1620882425904,0.0
1620882425904,0.0
1620882426323,10.0
1620882426323,10.0
1620882426724,10.0
1620882426724,10.0
1620882427148,10.0
1620882427148,10.0
1620882427540,10.0
1620882427540,10.0
1620882428002,15.0
1620882428002,15.0
1620882428435,10.0
1620882428435,10.0
1620882428892,8.0
1620882428892,8.0
1620882429321,10.0
1620882429321,10.0
1620882429732,8.0
1620882429732,8.0
1620882430206,8.0
1620882430206,8.0
1620882430613,10.0
1620882430613,10.0
1620882431012,10.0
1620882431012,10.0
1620882431416,10.0
1620882431416,10.0
1620882431748,10.0
1620882431748,10.0
1620882432215,10.0
1620882432215,10.0
1620882432622,8.0
1620882432622,8.0
1620882433014,10.0
1620882433014,10.0
1620882433438,10.0
1620882433438,10.0
1620882433843,10.0
1620882433843,10.0
1620882434219,10.0
1620882434219,10.0
1620882434610,10.0
1620882434610,10.0
1620882434941,0.0
1620882434941,0.0
1620882435311,10.0
1620882435311,10.0
1620882435718,8.0
1620882435718,8.0
1620882436083,10.0
1620882436083,10.0
1620882436629,10.0
1620882436629,10.0
1620882437130,10.0
1620882437130,10.0
1620882437539,8.0
1620882437539,8.0
1620882437998,8.0
1620882437998,8.0
1620882438407,10.0
1620882438407,10.0
1620882438818,8.0
1620882438818,8.0
1620882439275,8.0
1620882439275,8.0
1620882439712,10.0
1620882439712,10.0
1620882440123,10.0
1620882440123,10.0
1620882440609,10.0
1620882440609,10.0
1620882441065,0.0
1620882441065,0.0
1620882441526,10.0
1620882441526,10.0
1620882442050,10.0
1620882442050,10.0
1620882442513,8.0
1620882442513,8.0
1620882442962,15.0
1620882442962,15.0
1620882443351,10.0
1620882443351,10.0
1620882443710,8.0
1620882443710,8.0
1620882444198,10.0
1620882444198,10.0
1620882445024,0.0
1620882445024,0.0
1620882445475,10.0
1620882445475,10.0
1620882445804,10.0
1620882445804,10.0
1620882446130,10.0
1620882446130,10.0
1620882446513,10.0
1620882446513,10.0
1620882446858,10.0
1620882446858,10.0
1620882447222,10.0
1620882447222,10.0
1620882447655,10.0
1620882447655,10.0
1620882448053,10.0
1620882448053,10.0
1620882448408,0.0
1620882448408,0.0
1620882448775,1.0
1620882448775,1.0
1620882449135,1.0
1620882449135,1.0
1620882449464,10.0
1620882449464,10.0
1620882449887,10.0
1620882449887,10.0
1620882450312,8.0
1620882450312,8.0
1620882450764,8.0
1620882450764,8.0
1620882451190,10.0
1620882451190,10.0
1620882451524,8.0
1620882451524,8.0
1620882451926,8.0
1620882451926,8.0
1620882452341,10.0
1620882452341,10.0
1620882452778,10.0
1620882452778,10.0
1620882453242,10.0
1620882453242,10.0
1620882453619,10.0
1620882453619,10.0
1620882453972,8.0
1620882453972,8.0
1620882454345,8.0
1620882454345,8.0
1620882454719,10.0
1620882454719,10.0
1620882455032,10.0
1620882455032,10.0
1620882455425,10.0
1620882455425,10.0
1620882455887,10.0
1620882455887,10.0
1620882456399,10.0
1620882456399,10.0
1620882456898,8.0
1620882456898,8.0
1620882457237,10.0
1620882457237,10.0
1620882457589,10.0
1620882457589,10.0
1620882457984,10.0
1620882457984,10.0
1620882458374,16.0
1620882458374,16.0
1620882458783,10.0
1620882458783,10.0
1620882459182,8.0
1620882459182,8.0
1620882459512,10.0
1620882459512,10.0
1620882459880,15.0
1620882459880,15.0
1620882460306,10.0
1620882460306,10.0
1620882460730,10.0
1620882460730,10.0
1620882461153,10.0
1620882461153,10.0
1620882461510,10.0
1620882461510,10.0
1620882461937,10.0
1620882461937,10.0
1620882462350,8.0
1620882462350,8.0
1620882462789,8.0
1620882462789,8.0
1620882463194,8.0
1620882463194,8.0
1620882463604,15.0
1620882463604,15.0
1620882464001,15.0
1620882464001,15.0
1620882464400,10.0
1620882464400,10.0
1620882464863,10.0
1620882464863,10.0
1620882465215,8.0
1620882465215,8.0
1620882465589,8.0
1620882465589,8.0
1620882466034,10.0
1620882466034,10.0
1620882466473,10.0
1620882466473,10.0
1620882466907,10.0
1620882466907,10.0
1620882467285,8.0
1620882467285,8.0
1620882467654,8.0
1620882467654,8.0
1620882468059,10.0
1620882468059,10.0
1620882468433,10.0
1620882468433,10.0
1620882468888,10.0
1620882468888,10.0
1620882469332,15.0
1620882469332,15.0
1620882469744,10.0
1620882469744,10.0
1620882470243,8.0
1620882470243,8.0
1620882470798,10.0
1620882470798,10.0
1620882471226,10.0
1620882471226,10.0
1620882471668,10.0
1620882471668,10.0
1620882472158,10.0
1620882472158,10.0
1620882472600,10.0
1620882472600,10.0
1620882473092,8.0
1620882473092,8.0
1620882473503,16.0
1620882473503,16.0
1620882473895,8.0
1620882473895,8.0
1620882474326,10.0
1620882474326,10.0
1620882474832,8.0
1620882474832,8.0
1620882475288,10.0
1620882475288,10.0
1620882475725,8.0
1620882475725,8.0
1620882476123,15.0
1620882476123,15.0
1620882476514,10.0
1620882476514,10.0
1620882476935,10.0
1620882476935,10.0
1620882477305,10.0
1620882477305,10.0
1620882477626,10.0
1620882477626,10.0
1620882478017,10.0
1620882478017,10.0
1620882478388,10.0
1620882478388,10.0
1620882478789,10.0
1620882478789,10.0
1620882479151,15.0
1620882479151,15.0
1620882479531,10.0
1620882479531,10.0
1620882480016,8.0
1620882480016,8.0
1620882480415,8.0
1620882480415,8.0
1620882480751,8.0
1620882480751,8.0
1620882481116,8.0
1620882481116,8.0
1620882481526,16.0
1620882481526,16.0
1620882481949,15.0
1620882481949,15.0
1620882482372,10.0
1620882482372,10.0
1620882482774,10.0
1620882482774,10.0
1620882483138,10.0
1620882483138,10.0
1620882483558,10.0
1620882483558,10.0
1620882483928,8.0
1620882483928,8.0
1620882484268,8.0
1620882484268,8.0
1620882484669,10.0
1620882484669,10.0
1620882485045,15.0
1620882485045,15.0
1620882485352,8.0
1620882485352,8.0
1620882485741,10.0
1620882485741,10.0
1620882486117,10.0
1620882486117,10.0
1620882486461,10.0
1620882486461,10.0
1620882486860,10.0
1620882486860,10.0
1620882487215,10.0
1620882487215,10.0
1620882487599,15.0
1620882487599,15.0
1620882488017,10.0
1620882488017,10.0
1620882488447,8.0
1620882488447,8.0
1620882488908,10.0
1620882488908,10.0
1620882489351,10.0
1620882489351,10.0
1620882489832,10.0
1620882489832,10.0
1620882490299,10.0
1620882490299,10.0
1620882490800,15.0
1620882490800,15.0
1620882491195,10.0
1620882491195,10.0
1620882491619,8.0
1620882491619,8.0
1620882492033,10.0
1620882492033,10.0
1620882492452,10.0
1620882492452,10.0
1620882492927,10.0
1620882492927,10.0
1620882493374,8.0
1620882493374,8.0
1620882493860,8.0
1620882493860,8.0
1620882494312,10.0
1620882494312,10.0
1620882494750,10.0
1620882494750,10.0
1620882495161,10.0
1620882495161,10.0
1620882495659,8.0
1620882495659,8.0
1620882496087,8.0
1620882496087,8.0
1620882496500,10.0
1620882496500,10.0
1620882496945,8.0
1620882496945,8.0
1620882497340,15.0
1620882497340,15.0
1620882497772,8.0
1620882497772,8.0
1620882498159,8.0
1620882498159,8.0
1620882498570,10.0
1620882498570,10.0
1620882498966,10.0
1620882498966,10.0
1620882499429,10.0
1620882499429,10.0
1620882499823,8.0
1620882499823,8.0
1620882500243,10.0
1620882500243,10.0
1620882500613,10.0
1620882500613,10.0
1620882500979,8.0
1620882500979,8.0
1620882501473,10.0
1620882501473,10.0
1620882501949,10.0
1620882501949,10.0
1620882502377,10.0
1620882502377,10.0
1620882502834,8.0
1620882502834,8.0
1620882503303,10.0
1620882503303,10.0
1620882503678,10.0
1620882503678,10.0
1620882504116,10.0
1620882504116,10.0
1620882504532,10.0
1620882504532,10.0
1620882504928,8.0
1620882504928,8.0
1620882505304,8.0
1620882505304,8.0
1620882505635,10.0
1620882505635,10.0
1620882506062,8.0
1620882506062,8.0
1620882506464,10.0
1620882506464,10.0
1620882506890,10.0
1620882506890,10.0
1620882507326,10.0
1620882507326,10.0
1620882507756,15.0
1620882507756,15.0
1620882508166,10.0
1620882508166,10.0
1620882508577,10.0
1620882508577,10.0
1620882509002,10.0
1620882509002,10.0
1620882509477,10.0
1620882509477,10.0
1620882509924,8.0
1620882509924,8.0
1620882510347,10.0
1620882510347,10.0
1620882510696,10.0
1620882510696,10.0
1620882511107,8.0
1620882511107,8.0
1620882511498,15.0
1620882511498,15.0
1620882511929,8.0
1620882511929,8.0
1620882512314,10.0
1620882512314,10.0
1620882512692,10.0
1620882512692,10.0
1620882513114,10.0
1620882513114,10.0
1620882513491,8.0
1620882513491,8.0
1620882513881,8.0
1620882513881,8.0
1620882514262,10.0
1620882514262,10.0
1620882514695,10.0
1620882514695,10.0
1620882515174,10.0
1620882515174,10.0
1620882515608,10.0
1620882515608,10.0
1620882516022,8.0
1620882516022,8.0
1620882516328,10.0
1620882516328,10.0
1620882516708,10.0
1620882516708,10.0
1620882517066,10.0
1620882517066,10.0
1620882517480,8.0
1620882517480,8.0
1620882517943,10.0
1620882517943,10.0
1620882518342,8.0
1620882518342,8.0
1620882518782,10.0
1620882518782,10.0
1620882519223,15.0
1620882519223,15.0
1620882519622,8.0
1620882519622,8.0
1620882520111,10.0
1620882520111,10.0
1620882520571,10.0
1620882520571,10.0
1620882520931,10.0
1620882520931,10.0
1620882521341,16.0
1620882521341,16.0
1620882521705,10.0
1620882521705,10.0
1620882522099,10.0
1620882522099,10.0
1620882522523,10.0
1620882522523,10.0
1620882522881,0.0
1620882522881,0.0
1620882523237,10.0
1620882523237,10.0
1620882523616,0.0
1620882523616,0.0
1620882523975,10.0
1620882523975,10.0
1620882524311,15.0
1620882524311,15.0
1620882524758,10.0
1620882524758,10.0
1620882525144,10.0
1620882525144,10.0
1620882525528,10.0
1620882525528,10.0
1620882525947,10.0
1620882525947,10.0
1620882526394,8.0
1620882526394,8.0
1620882526701,10.0
1620882526701,10.0
1620882527117,8.0
1620882527117,8.0
1620882527489,10.0
1620882527489,10.0
1620882527893,10.0
1620882527893,10.0
1620882528278,10.0
1620882528278,10.0
1620882528652,8.0
1620882528652,8.0
1620882529001,10.0
1620882529001,10.0
1620882529420,10.0
1620882529420,10.0
1620882529731,8.0
1620882529731,8.0
1620882530085,10.0
1620882530085,10.0
1620882530418,8.0
1620882530418,8.0
1620882530848,10.0
1620882530848,10.0
1620882531298,10.0
1620882531298,10.0
1620882531714,10.0
1620882531714,10.0
1620882532148,10.0
1620882532148,10.0
1620882532592,10.0
1620882532592,10.0
1620882533034,15.0
1620882533034,15.0
1620882533405,10.0
1620882533405,10.0
1620882533764,10.0
1620882533764,10.0
1620882534082,8.0
1620882534082,8.0
1620882534433,10.0
1620882534433,10.0
1620882534774,8.0
1620882534774,8.0
1620882535175,10.0
1620882535175,10.0
1620882535603,8.0
1620882535603,8.0
1620882536018,8.0
1620882536018,8.0
1620882536362,8.0
1620882536362,8.0
1620882536789,10.0
1620882536789,10.0
1620882537210,10.0
1620882537210,10.0
1620882537621,10.0
1620882537621,10.0
1620882538117,8.0
1620882538117,8.0
1620882538606,10.0
1620882538606,10.0
1620882539028,8.0
1620882539028,8.0
1620882539490,10.0
1620882539490,10.0
1620882539879,10.0
1620882539879,10.0
1620882540321,15.0
1620882540321,15.0
1620882540746,10.0
1620882540746,10.0
1620882541133,10.0
1620882541133,10.0
1620882541513,10.0
1620882541513,10.0
1620882541949,10.0
1620882541949,10.0
1620882542391,0.0
1620882542391,0.0
1620882542828,8.0
1620882542828,8.0
1620882543260,15.0
1620882543260,15.0
1620882543656,10.0
1620882543656,10.0
1620882544123,10.0
1620882544123,10.0
1620882544532,10.0
1620882544532,10.0
1620882544951,8.0
1620882544951,8.0
1620882545309,10.0
1620882545309,10.0
1620882545611,15.0
1620882545611,15.0
1620882545981,8.0
1620882545981,8.0
1620882546370,10.0
1620882546370,10.0
1620882546719,10.0
1620882546719,10.0
1620882547047,10.0
1620882547047,10.0
1620882547415,10.0
1620882547415,10.0
1620882547800,8.0
1620882547800,8.0
1620882548168,10.0
1620882548168,10.0
1620882548671,10.0
1620882548671,10.0
1620882549193,15.0
1620882549193,15.0
1620882549642,8.0
1620882549642,8.0
1620882550021,10.0
1620882550021,10.0
1620882550334,10.0
1620882550334,10.0
1620882550675,10.0
1620882550675,10.0
1620882551032,10.0
1620882551032,10.0
1620882551382,10.0
1620882551382,10.0
1620882551774,10.0
1620882551774,10.0
1620882552206,10.0
1620882552206,10.0
1620882552602,10.0
1620882552602,10.0
1620882553033,0.0
1620882553033,0.0
1620882553427,8.0
1620882553427,8.0
1620882553869,8.0
1620882553869,8.0
1620882554238,10.0
1620882554238,10.0
1620882554573,15.0
1620882554573,15.0
1620882555044,10.0
1620882555044,10.0
1620882555465,10.0
1620882555465,10.0
1620882555887,10.0
1620882555887,10.0
1620882556328,10.0
1620882556328,10.0
1620882556767,10.0
1620882556767,10.0
1620882557191,10.0
1620882557191,10.0
1620882557681,15.0
1620882557681,15.0
1620882558182,10.0
1620882558182,10.0
1620882558637,10.0
1620882558637,10.0
1620882559182,8.0
1620882559182,8.0
1620882559693,10.0
1620882559693,10.0
1620882560107,10.0
1620882560107,10.0
1620882560571,15.0
1620882560571,15.0
1620882560978,10.0
1620882560978,10.0
1620882561379,10.0
1620882561379,10.0
1620882561771,10.0
1620882561771,10.0
1620882562083,10.0
1620882562083,10.0
1620882562428,10.0
1620882562428,10.0
1620882562811,10.0
1620882562811,10.0
1620882563179,10.0
1620882563179,10.0
1620882563518,10.0
1620882563518,10.0
1620882563924,8.0
1620882563924,8.0
1620882564264,0.0
1620882564264,0.0
1620882564649,1.0
1620882564649,1.0
1620882565059,10.0
1620882565059,10.0
1620882565546,10.0
1620882565546,10.0
1620882566087,10.0
1620882566087,10.0
1620882566502,8.0
1620882566502,8.0
1620882566895,10.0
1620882566895,10.0
1620882567319,1.0
1620882567319,1.0
1620882567666,1.0
1620882567666,1.0
1620882568012,0.0
1620882568012,0.0
1620882568369,8.0
1620882568369,8.0
1620882568677,0.0
1620882568677,0.0
1620882569040,10.0
1620882569040,10.0
1620882569456,10.0
1620882569456,10.0
1620882569849,10.0
1620882569849,10.0
1620882570286,10.0
1620882570286,10.0
1620882570708,15.0
1620882570708,15.0
1620882571099,0.0
1620882571099,0.0
1620882571539,8.0
1620882571539,8.0
1620882571992,10.0
1620882571992,10.0
1620882572341,8.0
1620882572341,8.0
1620882572703,10.0
1620882572703,10.0
1620882573012,10.0
1620882573012,10.0
1620882573414,10.0
1620882573414,10.0
1620882573831,15.0
1620882573831,15.0
1620882574200,8.0
1620882574200,8.0
1620882574686,10.0
1620882574686,10.0
1620882575086,10.0
1620882575086,10.0
1620882575424,10.0
1620882575424,10.0
1620882575850,10.0
1620882575850,10.0
1620882576288,10.0
1620882576288,10.0
1620882576690,0.0
1620882576690,0.0
1620882577075,8.0
1620882577075,8.0
1620882577505,10.0
1620882577505,10.0
1620882577977,10.0
1620882577977,10.0
1620882578479,10.0
1620882578479,10.0
1620882578938,10.0
1620882578938,10.0
1620882579334,10.0
1620882579334,10.0
1620882579716,8.0
1620882579716,8.0
1620882580069,8.0
1620882580069,8.0
1620882580466,8.0
1620882580466,8.0
1620882580849,8.0
1620882580849,8.0
1620882581289,10.0
1620882581289,10.0
1620882581707,10.0
1620882581707,10.0
1620882582045,10.0
1620882582045,10.0
1620882582454,8.0
1620882582454,8.0
1620882582862,8.0
1620882582862,8.0
1620882583264,8.0
1620882583264,8.0
1620882583685,8.0
1620882583685,8.0
1620882584114,10.0
1620882584114,10.0
1620882584503,10.0
1620882584503,10.0
1620882584907,8.0
1620882584907,8.0
1620882585286,10.0
1620882585286,10.0
1620882585609,10.0
1620882585609,10.0
1620882586014,8.0
1620882586014,8.0
1620882586359,10.0
1620882586359,10.0
1620882586755,10.0
1620882586755,10.0
1620882587195,10.0
1620882587195,10.0
1620882587556,8.0
1620882587556,8.0
1620882587920,10.0
1620882587920,10.0
1620882588265,10.0
1620882588265,10.0
1620882588650,8.0
1620882588650,8.0
1620882589032,10.0
1620882589032,10.0
1620882589400,10.0
1620882589400,10.0
1620882589788,10.0
1620882589788,10.0
1620882590303,10.0
1620882590303,10.0
1620882590702,10.0
1620882590702,10.0
1620882591093,10.0
1620882591093,10.0
1620882591522,8.0
1620882591522,8.0
1620882591977,10.0
1620882591977,10.0
1620882592393,8.0
1620882592393,8.0
1620882592830,10.0
1620882592830,10.0
1620882593334,10.0
1620882593334,10.0
1620882593751,8.0
1620882593751,8.0
1620882594071,8.0
1620882594071,8.0
1620882594388,10.0
1620882594388,10.0
1620882594744,10.0
1620882594744,10.0
1620882595152,10.0
1620882595152,10.0
1620882595543,10.0
1620882595543,10.0
1620882595950,8.0
1620882595950,8.0
1620882596386,8.0
1620882596386,8.0
1620882596704,10.0
1620882596704,10.0
1620882597178,10.0
1620882597178,10.0
1620882597694,15.0
1620882597694,15.0
1620882598089,8.0
1620882598089,8.0
1620882598582,8.0
1620882598582,8.0
1620882599036,10.0
1620882599036,10.0
1620882599456,10.0
1620882599456,10.0
1620882599876,10.0
1620882599876,10.0
1620882600334,8.0
1620882600334,8.0
1620882600820,10.0
1620882600820,10.0
1620882601267,10.0
1620882601267,10.0
1620882601674,10.0
1620882601674,10.0
1620882602082,0.0
1620882602082,0.0
1620882602449,0.0
1620882602449,0.0
1620882602806,10.0
1620882602806,10.0
1620882603573,10.0
1620882603573,10.0
1620882603968,10.0
1620882603968,10.0
1620882604326,8.0
1620882604326,8.0
1620882604787,10.0
1620882604787,10.0
1620882605236,8.0
1620882605236,8.0
1620882605596,8.0
1620882605596,8.0
1620882605974,10.0
1620882605974,10.0
1620882606311,8.0
1620882606311,8.0
1620882606684,10.0
1620882606684,10.0
1620882607061,10.0
1620882607061,10.0
1620882607397,10.0
1620882607397,10.0
1620882607746,15.0
1620882607746,15.0
1620882608193,10.0
1620882608193,10.0
1620882608625,10.0
1620882608625,10.0
1620882609047,8.0
1620882609047,8.0
1620882609456,8.0
1620882609456,8.0
1620882609898,10.0
1620882609898,10.0
1620882610284,10.0
1620882610284,10.0
1620882610684,15.0
1620882610684,15.0
1620882611092,15.0
1620882611092,15.0
1620882611462,10.0
1620882611462,10.0
1620882611860,0.0
1620882611860,0.0
1620882612225,10.0
1620882612225,10.0
1620882612681,8.0
1620882612681,8.0
1620882613187,10.0
1620882613187,10.0
1620882613653,8.0
1620882613653,8.0
1620882614006,10.0
1620882614006,10.0
1620882614388,10.0
1620882614388,10.0
1620882614659,10.0
1620882614659,10.0
1620882615009,10.0
1620882615009,10.0
1620882615397,8.0
1620882615397,8.0
1620882615780,0.0
1620882615780,0.0
1620882616102,10.0
1620882616102,10.0
1620882616533,10.0
1620882616533,10.0
1620882616959,15.0
1620882616959,15.0
1620882617409,0.0
1620882617409,0.0
1620882617832,10.0
1620882617832,10.0
1620882618247,10.0
1620882618247,10.0
1620882618618,8.0
1620882618618,8.0
1620882619050,16.0
1620882619050,16.0
1620882619542,10.0
1620882619542,10.0
1620882619960,10.0
1620882619960,10.0
1620882620421,8.0
1620882620421,8.0
1620882620882,15.0
1620882620882,15.0
1620882621234,10.0
1620882621234,10.0
1620882621708,10.0
1620882621708,10.0
1620882622091,10.0
1620882622091,10.0
1620882622514,15.0
1620882622514,15.0
1620882623018,10.0
1620882623018,10.0
1620882623442,10.0
1620882623442,10.0
1620882623836,10.0
1620882623836,10.0
1620882624258,8.0
1620882624258,8.0
1620882624710,8.0
1620882624710,8.0
1620882625046,0.0
1620882625046,0.0
1620882625486,10.0
1620882625486,10.0
1620882625942,8.0
1620882625942,8.0
1620882626355,10.0
1620882626355,10.0
1620882626830,10.0
1620882626830,10.0
1620882627278,10.0
1620882627278,10.0
1620882627719,10.0
1620882627719,10.0
1620882628157,10.0
1620882628157,10.0
1620882628536,10.0
1620882628536,10.0
1620882628922,10.0
1620882628922,10.0
1620882629315,10.0
1620882629315,10.0
1620882629661,10.0
1620882629661,10.0
1620882630093,8.0
1620882630093,8.0
1620882630539,15.0
1620882630539,15.0
1620882630947,10.0
1620882630947,10.0
1620882631366,10.0
1620882631366,10.0
1620882631831,0.0
1620882631831,0.0
1620882632305,0.0
1620882632305,0.0
1620882632777,0.0
1620882632777,0.0
1620882633238,10.0
1620882633238,10.0
1620882633684,10.0
1620882633684,10.0
1620882634072,8.0
1620882634072,8.0
1620882634568,0.0
1620882634568,0.0
1620882634993,1.0
1620882634993,1.0
1620882635377,8.0
1620882635377,8.0
1620882635740,0.0
1620882635740,0.0
1620882636099,10.0
1620882636099,10.0
1620882636526,8.0
1620882636526,8.0
1620882636897,10.0
1620882636897,10.0
1620882637238,10.0
1620882637238,10.0
1620882637621,10.0
1620882637621,10.0
1620882637974,8.0
1620882637974,8.0
1620882638343,0.0
1620882638343,0.0
1620882638837,0.0
1620882638837,0.0
1620882639325,10.0
1620882639325,10.0
1620882639764,1.0
1620882639764,1.0
1620882640272,10.0
1620882640272,10.0
1620882640714,10.0
1620882640714,10.0
1620882641072,0.0
1620882641072,0.0
1620882641465,10.0
1620882641465,10.0
1620882641809,1.0
1620882641809,1.0
1620882642157,0.0
1620882642157,0.0
1620882642569,10.0
1620882642569,10.0
1620882642952,10.0
1620882642952,10.0
1620882643353,10.0
1620882643353,10.0
1620882643735,8.0
1620882643735,8.0
1620882644120,10.0
1620882644120,10.0
1620882644550,10.0
1620882644550,10.0
1620882644963,8.0
1620882644963,8.0
1620882645343,10.0
1620882645343,10.0
1620882645682,0.0
1620882645682,0.0
1620882646086,10.0
1620882646086,10.0
1620882646498,8.0
1620882646498,8.0
1620882646867,10.0
1620882646867,10.0
1620882647285,10.0
1620882647285,10.0
1620882647712,10.0
1620882647712,10.0
1620882648108,8.0
1620882648108,8.0
1620882648561,10.0
1620882648561,10.0
1620882648954,8.0
1620882648954,8.0
1620882649369,10.0
1620882649369,10.0
1620882649784,15.0
1620882649784,15.0
1620882650218,10.0
1620882650218,10.0
1620882650625,10.0
1620882650625,10.0
1620882651080,15.0
1620882651080,15.0
1620882651505,10.0
1620882651505,10.0
1620882651900,10.0
1620882651900,10.0
1620882652346,10.0
1620882652346,10.0
1620882652742,0.0
1620882652742,0.0
1620882653197,8.0
1620882653197,8.0
1620882653601,0.0
1620882653601,0.0
1620882654011,0.0
1620882654011,0.0
1620882654444,10.0
1620882654444,10.0
1620882654914,0.0
1620882654914,0.0
1620882655615,0.0
1620882655615,0.0
1620882656648,0.0
1620882656648,0.0
1620882657981,0.0
1620882657981,0.0
1620882658808,0.0
1620882658808,0.0
1620882659664,0.0
1620882659664,0.0
1620882660477,0.0
1620882660477,0.0
1620882661328,0.0
1620882661328,0.0
1620882661878,10.0
1620882661878,10.0
1620882662308,10.0
1620882662308,10.0
1620882662731,0.0
1620882662731,0.0
1620882663181,8.0
1620882663181,8.0
1620882663569,10.0
1620882663569,10.0
1620882663948,0.0
1620882663948,0.0
1620882664443,10.0
1620882664443,10.0
1620882664881,0.0
1620882664881,0.0
1620882665223,10.0
1620882665223,10.0
1620882665592,1.0
1620882665592,1.0
1620882665911,0.0
1620882665911,0.0
1620882666286,10.0
1620882666286,10.0
1620882666669,10.0
1620882666669,10.0
1620882666998,10.0
1620882666998,10.0
1620882667343,15.0
1620882667343,15.0
1620882667714,0.0
1620882667714,0.0
1620882668054,10.0
1620882668054,10.0
1620882668412,10.0
1620882668412,10.0
1620882668814,10.0
1620882668814,10.0
1620882669183,10.0
1620882669183,10.0
1620882669493,10.0
1620882669493,10.0
1620882669904,1.0
1620882669904,1.0
1620882670308,0.0
1620882670308,0.0
1620882670686,8.0
1620882670686,8.0
1620882671087,10.0
1620882671087,10.0
1620882671460,8.0
1620882671460,8.0
1620882671921,15.0
1620882671921,15.0
1620882672311,10.0
1620882672311,10.0
1620882672683,10.0
1620882672683,10.0
1620882673085,10.0
1620882673085,10.0
1620882673459,0.0
1620882673459,0.0
1620882673873,0.0
1620882673873,0.0
1620882674295,0.0
1620882674295,0.0
1620882674662,1.0
1620882674662,1.0
1620882675069,10.0
1620882675069,10.0
1620882675467,10.0
1620882675467,10.0
1620882675897,10.0
1620882675897,10.0
1620882676300,1.0
1620882676300,1.0
1620882676679,10.0
1620882676679,10.0
1620882677098,10.0
1620882677098,10.0
1620882677454,8.0
1620882677454,8.0
1620882677931,0.0
1620882677931,0.0
1620882678408,0.0
1620882678408,0.0
1620882678861,0.0
1620882678861,0.0
1620882679413,10.0
1620882679413,10.0
1620882679847,8.0
1620882679847,8.0
1620882680262,8.0
1620882680262,8.0
1620882680692,8.0
1620882680692,8.0
1620882681129,8.0
1620882681129,8.0
1620882681573,0.0
1620882681573,0.0
1620882682047,8.0
1620882682047,8.0
1620882682477,8.0
1620882682477,8.0
1620882682875,10.0
1620882682875,10.0
1620882683351,8.0
1620882683351,8.0
1620882683759,10.0
1620882683759,10.0
1620882684148,0.0
1620882684148,0.0
1620882684581,15.0
1620882684581,15.0
1620882685007,0.0
1620882685007,0.0
1620882685357,10.0
1620882685357,10.0
1620882685776,10.0
1620882685776,10.0
1620882686213,15.0
1620882686213,15.0
1620882686693,1.0
1620882686693,1.0
1620882687199,0.0
1620882687199,0.0
1620882687641,10.0
1620882687641,10.0
1620882688049,8.0
1620882688049,8.0
1620882688463,10.0
1620882688463,10.0
1620882688932,0.0
1620882688932,0.0
1620882689268,0.0
1620882689268,0.0
1620882689658,10.0
1620882689658,10.0
1620882690054,10.0
1620882690054,10.0
1620882690425,15.0
1620882690425,15.0
1620882690828,0.0
1620882690828,0.0
1620882691209,0.0
1620882691209,0.0
1620882691627,10.0
1620882691627,10.0
1620882692052,10.0
1620882692052,10.0
1620882692392,15.0
1620882692392,15.0
1620882692771,8.0
1620882692771,8.0
1620882693198,10.0
1620882693198,10.0
1620882693594,8.0
1620882693594,8.0
1620882693982,1.0
1620882693982,1.0
1620882694354,0.0
1620882694354,0.0
1620882694813,0.0
1620882694813,0.0
1620882695187,10.0
1620882695187,10.0
1620882695723,8.0
1620882695723,8.0
1620882696632,0.0
1620882696632,0.0
1620882697439,0.0
1620882697439,0.0
1620882697922,1.0
1620882697922,1.0
1620882698321,0.0
1620882698321,0.0
1620882698722,1.0
1620882698722,1.0
1620882699155,10.0
1620882699155,10.0
1620882699576,8.0
1620882699576,8.0
1620882699878,10.0
1620882699878,10.0
1620882700209,10.0
1620882700209,10.0
1620882700641,10.0
1620882700641,10.0
1620882701088,8.0
1620882701088,8.0
1620882701455,10.0
1620882701455,10.0
1620882701866,8.0
1620882701866,8.0
1620882702313,10.0
1620882702313,10.0
1620882702671,10.0
1620882702671,10.0
1620882703071,10.0
1620882703071,10.0
1620882703475,10.0
1620882703475,10.0
1620882703862,8.0
1620882703862,8.0
1620882704288,10.0
1620882704288,10.0
1620882704671,15.0
1620882704671,15.0
1620882705025,8.0
1620882705025,8.0
1620882705495,10.0
1620882705495,10.0
1620882705909,10.0
1620882705909,10.0
1620882706262,10.0
1620882706262,10.0
1620882706696,10.0
1620882706696,10.0
1620882707132,10.0
1620882707132,10.0
1620882707492,10.0
1620882707492,10.0
1620882707930,8.0
1620882707930,8.0
1620882708355,10.0
1620882708355,10.0
1620882708751,10.0
1620882708751,10.0
1620882709181,10.0
1620882709181,10.0
1620882709575,10.0
1620882709575,10.0
1620882709920,10.0
1620882709920,10.0
1620882710339,10.0
1620882710339,10.0
1620882710837,10.0
1620882710837,10.0
1620882711223,10.0
1620882711223,10.0
1620882711620,10.0
1620882711620,10.0
1620882712058,10.0
1620882712058,10.0
1620882712454,10.0
1620882712454,10.0
1620882712868,8.0
1620882712868,8.0
1620882713256,15.0
1620882713256,15.0
1620882713664,8.0
1620882713664,8.0
1620882714143,10.0
1620882714143,10.0
1620882714481,15.0
1620882714481,15.0
1620882714919,10.0
1620882714919,10.0
1620882715328,16.0
1620882715328,16.0
1620882715771,10.0
1620882715771,10.0
1620882716194,0.0
1620882716194,0.0
1620882716657,8.0
1620882716657,8.0
1620882717087,10.0
1620882717087,10.0
1620882717430,10.0
1620882717430,10.0
1620882717842,10.0
1620882717842,10.0
1620882718183,10.0
1620882718183,10.0
1620882718543,10.0
1620882718543,10.0
1620882718952,8.0
1620882718952,8.0
1620882719376,10.0
1620882719376,10.0
1620882719704,10.0
1620882719704,10.0
1620882720018,10.0
1620882720018,10.0
1620882720235,10.0
1620882720235,10.0
1620882720554,10.0
1620882720554,10.0
1620882720941,0.0
1620882720941,0.0
1620882721293,8.0
1620882721293,8.0
1620882721656,10.0
1620882721656,10.0
1620882722007,10.0
1620882722007,10.0
1620882722458,10.0
1620882722458,10.0
1620882722858,10.0
1620882722858,10.0
1620882723257,15.0
1620882723257,15.0
1620882723605,10.0
1620882723605,10.0
1620882723933,10.0
1620882723933,10.0
1620882724310,10.0
1620882724310,10.0
1620882724752,10.0
1620882724752,10.0
1620882725187,10.0
1620882725187,10.0
1620882725643,10.0
1620882725643,10.0
1620882726052,8.0
1620882726052,8.0
1620882726500,10.0
1620882726500,10.0
1620882726939,10.0
1620882726939,10.0
1620882727337,10.0
1620882727337,10.0
1620882727716,10.0
1620882727716,10.0
1620882728164,10.0
1620882728164,10.0
1620882728574,10.0
1620882728574,10.0
1620882728942,10.0
1620882728942,10.0
1620882729374,10.0
1620882729374,10.0
1620882729830,15.0
1620882729830,15.0
1620882730205,8.0
1620882730205,8.0
1620882730601,10.0
1620882730601,10.0
1620882731003,10.0
1620882731003,10.0
1620882731447,10.0
1620882731447,10.0
1620882731884,10.0
1620882731884,10.0
1620882732270,10.0
1620882732270,10.0
1620882732604,15.0
1620882732604,15.0
1620882732999,10.0
1620882732999,10.0
1620882733513,8.0
1620882733513,8.0
1620882733910,8.0
1620882733910,8.0
1620882734358,10.0
1620882734358,10.0
1620882734689,10.0
1620882734689,10.0
1620882735062,15.0
1620882735062,15.0
1620882735467,15.0
1620882735467,15.0
1620882735755,10.0
1620882735755,10.0
1620882736107,10.0
1620882736107,10.0
1620882736448,10.0
1620882736448,10.0
1620882736827,8.0
1620882736827,8.0
1620882737185,10.0
1620882737185,10.0
1620882737590,8.0
1620882737590,8.0
1620882738048,10.0
1620882738048,10.0
1620882738479,10.0
1620882738479,10.0
1620882738879,8.0
1620882738879,8.0
1620882739263,10.0
1620882739263,10.0
1620882739639,8.0
1620882739639,8.0
1620882740056,8.0
1620882740056,8.0
1620882740452,8.0
1620882740452,8.0
1620882740800,10.0
1620882740800,10.0
1620882741241,15.0
1620882741241,15.0
1620882741643,8.0
1620882741643,8.0
1620882741989,8.0
1620882741989,8.0
1620882742383,15.0
1620882742383,15.0
1620882742795,10.0
1620882742795,10.0
1620882743292,8.0
1620882743292,8.0
1620882743751,8.0
1620882743751,8.0
1620882744170,10.0
1620882744170,10.0
1620882744527,10.0
1620882744527,10.0
1620882744943,8.0
1620882744943,8.0
1620882745341,10.0
1620882745341,10.0
1620882745707,10.0
1620882745707,10.0
1620882746069,10.0
1620882746069,10.0
1620882746374,10.0
1620882746374,10.0
1620882746673,10.0
1620882746673,10.0
1620882747112,15.0
1620882747112,15.0
1620882747424,10.0
1620882747424,10.0
1620882747769,15.0
1620882747769,15.0
1620882748174,10.0
1620882748174,10.0
1620882748577,10.0
1620882748577,10.0
1620882748974,10.0
1620882748974,10.0
1620882749366,10.0
1620882749366,10.0
1620882750133,0.0
1620882750133,0.0
1620882751097,0.0
1620882751097,0.0
1620882752094,0.0
1620882752094,0.0
1620882752877,0.0
1620882752877,0.0
1620882753716,0.0
1620882753716,0.0
1620882754553,0.0
1620882754553,0.0
1620882755413,0.0
1620882755413,0.0
1620882755906,10.0
1620882755906,10.0
1620882756280,10.0
1620882756280,10.0
1620882756577,10.0
1620882756577,10.0
1620882757003,10.0
1620882757003,10.0
1620882757352,10.0
1620882757352,10.0
1620882757743,10.0
1620882757743,10.0
1620882758096,10.0
1620882758096,10.0
1620882758590,8.0
1620882758590,8.0
1620882759089,15.0
1620882759089,15.0
1620882759540,8.0
1620882759540,8.0
1620882759991,15.0
1620882759991,15.0
1620882760389,8.0
1620882760389,8.0
1620882760855,10.0
1620882760855,10.0
1620882761280,10.0
1620882761280,10.0
1620882761601,15.0
1620882761601,15.0
1620882761984,10.0
1620882761984,10.0
1620882762391,10.0
1620882762391,10.0
1620882762701,10.0
1620882762701,10.0
1620882763026,10.0
1620882763026,10.0
1620882763395,10.0
1620882763395,10.0
1620882763752,10.0
1620882763752,10.0
1620882764168,10.0
1620882764168,10.0
1620882764574,8.0
1620882764574,8.0
1620882764973,15.0
1620882764973,15.0
1620882765314,15.0
1620882765314,15.0
1620882765706,8.0
1620882765706,8.0
1620882766116,10.0
1620882766116,10.0
1620882766525,8.0
1620882766525,8.0
1620882766958,10.0
1620882766958,10.0
1620882767399,8.0
1620882767399,8.0
1620882767877,10.0
1620882767877,10.0
1620882768323,10.0
1620882768323,10.0
1620882768700,10.0
1620882768700,10.0
1620882769150,8.0
1620882769150,8.0
1620882769575,8.0
1620882769575,8.0
1620882770093,10.0
1620882770093,10.0
1620882770480,8.0
1620882770480,8.0
1620882770833,10.0
1620882770833,10.0
1620882771278,8.0
1620882771278,8.0
1620882771728,10.0
1620882771728,10.0
1620882772111,10.0
1620882772111,10.0
1620882772560,10.0
1620882772560,10.0
1620882772972,8.0
1620882772972,8.0
1620882773338,10.0
1620882773338,10.0
1620882773697,8.0
1620882773697,8.0
1620882774090,10.0
1620882774090,10.0
1620882774401,15.0
1620882774401,15.0
1620882774757,8.0
1620882774757,8.0
1620882775125,8.0
1620882775125,8.0
1620882775433,8.0
1620882775433,8.0
1620882775800,10.0
1620882775800,10.0
1620882776179,8.0
1620882776179,8.0
1620882776553,10.0
1620882776553,10.0
1620882776944,10.0
1620882776944,10.0
1620882777428,8.0
1620882777428,8.0
1620882777747,10.0
1620882777747,10.0
1620882778116,15.0
1620882778116,15.0
1620882778558,10.0
1620882778558,10.0
1620882778910,8.0
1620882778910,8.0
1620882779294,15.0
1620882779294,15.0
1620882779731,10.0
1620882779731,10.0
1620882780170,10.0
1620882780170,10.0
1620882780629,10.0
1620882780629,10.0
1620882781083,8.0
1620882781083,8.0
1620882781424,10.0
1620882781424,10.0
1620882781849,10.0
1620882781849,10.0
1620882782214,10.0
1620882782214,10.0
1620882782599,10.0
1620882782599,10.0
1620882782995,10.0
1620882782995,10.0
1620882783448,10.0
1620882783448,10.0
1620882783826,10.0
1620882783826,10.0
1620882784248,8.0
1620882784248,8.0
1620882784741,8.0
1620882784741,8.0
1620882785110,8.0
1620882785110,8.0
1620882785528,8.0
1620882785528,8.0
1620882785874,8.0
1620882785874,8.0
1620882786239,15.0
1620882786239,15.0
1620882786677,10.0
1620882786677,10.0
1620882787120,10.0
1620882787120,10.0
1620882787520,8.0
1620882787520,8.0
1620882787982,8.0
1620882787982,8.0
1620882788409,10.0
1620882788409,10.0
1620882788811,10.0
1620882788811,10.0
1620882789185,10.0
1620882789185,10.0
1620882789667,10.0
1620882789667,10.0
1620882790133,10.0
1620882790133,10.0
1620882790542,10.0
1620882790542,10.0
1620882790931,10.0
1620882790931,10.0
1620882791377,8.0
1620882791377,8.0
1620882791817,8.0
1620882791817,8.0
1620882792137,8.0
1620882792137,8.0
1620882792554,10.0
1620882792554,10.0
1620882793184,15.0
1620882793184,15.0
1620882794227,0.0
1620882794227,0.0
1620882794711,10.0
1620882794711,10.0
1620882795086,8.0
1620882795086,8.0
1620882795434,10.0
1620882795434,10.0
1620882795838,10.0
1620882795838,10.0
1620882796219,0.0
1620882796219,0.0
1620882796580,10.0
1620882796580,10.0
1620882797003,8.0
1620882797003,8.0
1620882797387,10.0
1620882797387,10.0
1620882797728,8.0
1620882797728,8.0
1620882798190,15.0
1620882798190,15.0
1620882798595,8.0
1620882798595,8.0
1620882799061,10.0
1620882799061,10.0
1620882799592,10.0
1620882799592,10.0
1620882800071,10.0
1620882800071,10.0
1620882800498,10.0
1620882800498,10.0
1620882800920,10.0
1620882800920,10.0
1620882801310,15.0
1620882801310,15.0
1620882801673,8.0
1620882801673,8.0
1620882802161,8.0
1620882802161,8.0
1620882802510,8.0
1620882802510,8.0
1620882802829,10.0
1620882802829,10.0
1620882803220,10.0
1620882803220,10.0
1620882803612,10.0
1620882803612,10.0
1620882804084,10.0
1620882804084,10.0
1620882804587,8.0
1620882804587,8.0
1620882805030,10.0
1620882805030,10.0
1620882805488,10.0
1620882805488,10.0
1620882805955,10.0
1620882805955,10.0
1620882806370,10.0
1620882806370,10.0
1620882806725,8.0
1620882806725,8.0
1620882807129,8.0
1620882807129,8.0
1620882807502,15.0
1620882807502,15.0
1620882807838,15.0
1620882807838,15.0
1620882808263,10.0
1620882808263,10.0
1620882808689,10.0
1620882808689,10.0
1620882809076,10.0
1620882809076,10.0
1620882809467,10.0
1620882809467,10.0
1620882809816,8.0
1620882809816,8.0
1620882810311,10.0
1620882810311,10.0
1620882810804,10.0
1620882810804,10.0
1620882811252,10.0
1620882811252,10.0
1620882811593,10.0
1620882811593,10.0
1620882812008,10.0
1620882812008,10.0
1620882812463,10.0
1620882812463,10.0
1620882812778,10.0
1620882812778,10.0
1620882813200,8.0
1620882813200,8.0
1620882813621,8.0
1620882813621,8.0
1620882814060,8.0
1620882814060,8.0
1620882814607,10.0
1620882814607,10.0
1620882815406,0.0
1620882815406,0.0
1620882816139,0.0
1620882816139,0.0
1620882816911,0.0
1620882816911,0.0
1620882817661,0.0
1620882817661,0.0
1620882818453,0.0
1620882818453,0.0
1620882819405,0.0
1620882819405,0.0
1620882820243,0.0
1620882820243,0.0
1620882821159,0.0
1620882821159,0.0
1620882822223,0.0
1620882822223,0.0
1620882823178,0.0
1620882823178,0.0
1620882823677,8.0
1620882823677,8.0
1620882824024,8.0
1620882824024,8.0
1620882824374,10.0
1620882824374,10.0
1620882824773,10.0
1620882824773,10.0
1620882825118,10.0
1620882825118,10.0
1620882825469,8.0
1620882825469,8.0
1620882825795,10.0
1620882825795,10.0
1620882826131,8.0
1620882826131,8.0
1620882826536,10.0
1620882826536,10.0
1620882826977,10.0
1620882826977,10.0
1620882827355,10.0
1620882827355,10.0
1620882827758,8.0
1620882827758,8.0
1620882828148,10.0
1620882828148,10.0
1620882828471,8.0
1620882828471,8.0
1620882828837,10.0
1620882828837,10.0
1620882829206,15.0
1620882829206,15.0
1620882829601,8.0
1620882829601,8.0
1620882829998,10.0
1620882829998,10.0
1620882830388,8.0
1620882830388,8.0
1620882830798,15.0
1620882830798,15.0
1620882831151,10.0
1620882831151,10.0
1620882831591,10.0
1620882831591,10.0
1620882831990,8.0
1620882831990,8.0
1620882832366,15.0
1620882832366,15.0
1620882832798,10.0
1620882832798,10.0
1620882833201,8.0
1620882833201,8.0
1620882833710,10.0
1620882833710,10.0
1620882834167,8.0
1620882834167,8.0
1620882834599,15.0
1620882834599,15.0
1620882835009,8.0
1620882835009,8.0
1620882835513,1.0
1620882835513,1.0
1620882835937,0.0
1620882835937,0.0
1620882836278,10.0
1620882836278,10.0
1620882836731,10.0
1620882836731,10.0
1620882837147,10.0
1620882837147,10.0
1620882837568,10.0
1620882837568,10.0
1620882837990,10.0
1620882837990,10.0
1620882838466,10.0
1620882838466,10.0
1620882838912,10.0
1620882838912,10.0
1620882839284,10.0
1620882839284,10.0
1620882839711,10.0
1620882839711,10.0
1620882840165,10.0
1620882840165,10.0
1620882840594,10.0
1620882840594,10.0
1620882841031,8.0
1620882841031,8.0
1620882841468,8.0
1620882841468,8.0
1620882841896,15.0
1620882841896,15.0
1620882842360,10.0
1620882842360,10.0
1620882842791,8.0
1620882842791,8.0
1620882843182,10.0
1620882843182,10.0
1620882843625,10.0
1620882843625,10.0
1620882844121,10.0
1620882844121,10.0
1620882844464,8.0
1620882844464,8.0
1620882844805,8.0
1620882844805,8.0
1620882845168,8.0
1620882845168,8.0
1620882845555,15.0
1620882845555,15.0
1620882845980,10.0
1620882845980,10.0
1620882846383,10.0
1620882846383,10.0
1620882846717,10.0
1620882846717,10.0
1620882847065,10.0
1620882847065,10.0
1620882847482,15.0
1620882847482,15.0
1620882847959,10.0
1620882847959,10.0
1620882848357,8.0
1620882848357,8.0
1620882848717,15.0
1620882848717,15.0
1620882849000,10.0
1620882849000,10.0
1620882849370,10.0
1620882849370,10.0
1620882849740,10.0
1620882849740,10.0
1620882850123,10.0
1620882850123,10.0
1620882850564,8.0
1620882850564,8.0
1620882851034,31.0
1620882851034,31.0
1620882851432,10.0
1620882851432,10.0
1620882851746,15.0
1620882851746,15.0
1620882852100,8.0
1620882852100,8.0
1620882852376,15.0
1620882852376,15.0
1620882852709,10.0
1620882852709,10.0
1620882853091,10.0
1620882853091,10.0
1620882853385,10.0
1620882853385,10.0
1620882853788,10.0
1620882853788,10.0
1620882854202,8.0
1620882854202,8.0
1620882854637,10.0
1620882854637,10.0
1620882854988,8.0
1620882854988,8.0
1620882855368,8.0
1620882855368,8.0
1620882855665,10.0
1620882855665,10.0
1620882856001,10.0
1620882856001,10.0
1620882856406,10.0
1620882856406,10.0
1620882856788,8.0
1620882856788,8.0
1620882857138,8.0
1620882857138,8.0
1620882857602,8.0
1620882857602,8.0
1620882858027,10.0
1620882858027,10.0
1620882858423,8.0
1620882858423,8.0
1620882858825,10.0
1620882858825,10.0
1620882859231,8.0
1620882859231,8.0
1620882859663,8.0
1620882859663,8.0
1620882860114,10.0
1620882860114,10.0
1620882860567,10.0
1620882860567,10.0
1620882860980,8.0
1620882860980,8.0
1620882861427,10.0
1620882861427,10.0
1620882861815,8.0
1620882861815,8.0
1620882862239,8.0
1620882862239,8.0
1620882862667,10.0
1620882862667,10.0
1620882863037,16.0
1620882863037,16.0
1620882863515,10.0
1620882863515,10.0
1620882863981,10.0
1620882863981,10.0
1620882864284,10.0
1620882864284,10.0
1620882864675,8.0
1620882864675,8.0
1620882865005,10.0
1620882865005,10.0
1620882865326,10.0
1620882865326,10.0
1620882865689,10.0
1620882865689,10.0
1620882866084,8.0
1620882866084,8.0
1620882866412,10.0
1620882866412,10.0
1620882866760,10.0
1620882866760,10.0
1620882867157,10.0
1620882867157,10.0
1620882867554,8.0
1620882867554,8.0
1620882867897,10.0
1620882867897,10.0
1620882868301,10.0
1620882868301,10.0
1620882868701,10.0
1620882868701,10.0
1620882869094,15.0
1620882869094,15.0
1620882869498,8.0
1620882869498,8.0
1620882869886,8.0
1620882869886,8.0
1620882870257,8.0
1620882870257,8.0
1620882870679,10.0
1620882870679,10.0
1620882871079,8.0
1620882871079,8.0
1620882871508,10.0
1620882871508,10.0
1620882871975,10.0
1620882871975,10.0
1620882872352,10.0
1620882872352,10.0
1620882872843,10.0
1620882872843,10.0
1620882873327,8.0
1620882873327,8.0
1620882873802,15.0
1620882873802,15.0
1620882874530,8.0
1620882874530,8.0
1620882874894,10.0
1620882874894,10.0
1620882875244,10.0
1620882875244,10.0
1620882875683,10.0
1620882875683,10.0
1620882876032,10.0
1620882876032,10.0
1620882876444,10.0
1620882876444,10.0
1620882876806,10.0
1620882876806,10.0
1620882877235,10.0
1620882877235,10.0
1620882877614,10.0
1620882877614,10.0
1620882878095,8.0
1620882878095,8.0
1620882878594,10.0
1620882878594,10.0
1620882878958,10.0
1620882878958,10.0
1620882879419,10.0
1620882879419,10.0
1620882879887,8.0
1620882879887,8.0
1620882880283,10.0
1620882880283,10.0
1620882880700,8.0
1620882880700,8.0
1620882881111,10.0
1620882881111,10.0
1620882881473,10.0
1620882881473,10.0
1620882881881,15.0
1620882881881,15.0
1620882882280,10.0
1620882882280,10.0
1620882882648,10.0
1620882882648,10.0
1620882883057,10.0
1620882883057,10.0
1620882883418,8.0
1620882883418,8.0
1620882883843,8.0
1620882883843,8.0
1620882884326,15.0
1620882884326,15.0
1620882884735,10.0
1620882884735,10.0
1620882885144,10.0
1620882885144,10.0
1620882885586,8.0
1620882885586,8.0
1620882885999,8.0
1620882885999,8.0
1620882886380,10.0
1620882886380,10.0
1620882886801,10.0
1620882886801,10.0
1620882887137,10.0
1620882887137,10.0
1620882887580,10.0
1620882887580,10.0
1620882887995,10.0
1620882887995,10.0
1620882888427,10.0
1620882888427,10.0
1620882888803,10.0
1620882888803,10.0
1620882889245,8.0
1620882889245,8.0
1620882889690,10.0
1620882889690,10.0
1620882890093,10.0
1620882890093,10.0
1620882890471,10.0
1620882890471,10.0
1620882890869,8.0
1620882890869,8.0
1620882891273,10.0
1620882891273,10.0
1620882891700,8.0
1620882891700,8.0
1620882892123,10.0
1620882892123,10.0
1620882892507,10.0
1620882892507,10.0
1620882892925,10.0
1620882892925,10.0
1620882893333,10.0
1620882893333,10.0
1620882893732,10.0
1620882893732,10.0
1620882894126,8.0
1620882894126,8.0
1620882894516,8.0
1620882894516,8.0
1620882894881,8.0
1620882894881,8.0
1620882895332,10.0
1620882895332,10.0
1620882895796,10.0
1620882895796,10.0
1620882896226,10.0
1620882896226,10.0
1620882896815,10.0
1620882896815,10.0
1620882897833,0.0
1620882897833,0.0
1620882898550,0.0
1620882898550,0.0
1620882899252,0.0
1620882899252,0.0
1620882899994,0.0
1620882899994,0.0
1620882900739,0.0
1620882900739,0.0
1620882901772,0.0
1620882901772,0.0
1620882902858,0.0
1620882902858,0.0
1620882903781,0.0
1620882903781,0.0
1620882904575,0.0
1620882904575,0.0
1620882905439,0.0
1620882905439,0.0
1620882906208,0.0
1620882906208,0.0
1620882907028,0.0
1620882907028,0.0
1620882907825,0.0
1620882907825,0.0
1620882908606,0.0
1620882908606,0.0
1620882909502,0.0
1620882909502,0.0
1620882910241,0.0
1620882910241,0.0
1620882910937,0.0
1620882910937,0.0
1620882911429,10.0
1620882911429,10.0
1620882911806,10.0
1620882911806,10.0
1620882912147,10.0
1620882912147,10.0
1620882912490,8.0
1620882912490,8.0
1620882912862,10.0
1620882912862,10.0
1620882913279,8.0
1620882913279,8.0
1620882913734,8.0
1620882913734,8.0
1620882914118,8.0
1620882914118,8.0
1620882914452,10.0
1620882914452,10.0
1620882914886,8.0
1620882914886,8.0
1620882915204,10.0
1620882915204,10.0
1620882915543,8.0
1620882915543,8.0
1620882915991,8.0
1620882915991,8.0
1620882916401,10.0
1620882916401,10.0
1620882916794,10.0
1620882916794,10.0
1620882917296,10.0
1620882917296,10.0
1620882917815,15.0
1620882917815,15.0
1620882918193,10.0
1620882918193,10.0
1620882918618,10.0
1620882918618,10.0
1620882918994,10.0
1620882918994,10.0
1620882919407,10.0
1620882919407,10.0
1620882919847,8.0
1620882919847,8.0
1620882920226,10.0
1620882920226,10.0
1620882920584,10.0
1620882920584,10.0
1620882920990,10.0
1620882920990,10.0
1620882921459,10.0
1620882921459,10.0
1620882921913,10.0
1620882921913,10.0
1620882922415,8.0
1620882922415,8.0
1620882922854,10.0
1620882922854,10.0
1620882923323,8.0
1620882923323,8.0
1620882923804,10.0
1620882923804,10.0
1620882924223,10.0
1620882924223,10.0
1620882924608,10.0
1620882924608,10.0
1620882925034,10.0
1620882925034,10.0
1620882925401,10.0
1620882925401,10.0
1620882925796,10.0
1620882925796,10.0
1620882926231,15.0
1620882926231,15.0
1620882926625,10.0
1620882926625,10.0
1620882927072,10.0
1620882927072,10.0
1620882927557,10.0
1620882927557,10.0
1620882927957,10.0
1620882927957,10.0
1620882928456,10.0
1620882928456,10.0
1620882928992,10.0
1620882928992,10.0
1620882929414,10.0
1620882929414,10.0
1620882929885,15.0
1620882929885,15.0
1620882930330,10.0
1620882930330,10.0
1620882930666,10.0
1620882930666,10.0
1620882931014,10.0
1620882931014,10.0
1620882931428,10.0
1620882931428,10.0
1620882931934,10.0
1620882931934,10.0
1620882932455,10.0
1620882932455,10.0
1620882932901,15.0
1620882932901,15.0
1620882933355,10.0
1620882933355,10.0
1620882933869,8.0
1620882933869,8.0
1620882934348,10.0
1620882934348,10.0
1620882934751,10.0
1620882934751,10.0
1620882935174,10.0
1620882935174,10.0
1620882935554,10.0
1620882935554,10.0
1620882935908,15.0
1620882935908,15.0
1620882936317,15.0
1620882936317,15.0
1620882936752,8.0
1620882936752,8.0
1620882937188,10.0
1620882937188,10.0
1620882937612,8.0
1620882937612,8.0
1620882938011,10.0
1620882938011,10.0
1620882938411,8.0
1620882938411,8.0
1620882938864,10.0
1620882938864,10.0
1620882939301,10.0
1620882939301,10.0
1620882939720,10.0
1620882939720,10.0
1620882940189,15.0
1620882940189,15.0
1620882940615,10.0
1620882940615,10.0
1620882941001,10.0
1620882941001,10.0
1620882941413,8.0
1620882941413,8.0
1620882941812,10.0
1620882941812,10.0
1620882942240,10.0
1620882942240,10.0
1620882942724,8.0
1620882942724,8.0
1620882943106,10.0
1620882943106,10.0
1620882943553,15.0
1620882943553,15.0
1620882943903,8.0
1620882943903,8.0
1620882944215,8.0
1620882944215,8.0
1620882944664,8.0
1620882944664,8.0
1620882945064,10.0
1620882945064,10.0
1620882945441,10.0
1620882945441,10.0
1620882945925,10.0
1620882945925,10.0
1620882946377,8.0
1620882946377,8.0
