timestamp,value
1620882235309,49.849601674680756
1620882236530,49.92313293619204
1620882237726,50.1890873867295
1620882238942,50.26634460461163
1620882240128,50.31306676883573
1620882241307,50.5531014833291
1620882242464,50.808851511639546
1620882243657,49.84981704078608
1620882244831,49.104768911934485
1620882245998,49.56669415552913
1620882247157,49.97312903207671
1620882248342,50.18923222645583
1620882249482,50.37362749181018
1620882250672,50.539198497166396
1620882251892,50.547943924469905
1620882253038,50.93240900065648
1620882254226,50.024311815542355
1620882255443,50.26626669798255
1620882256614,50.377554582820956
1620882257788,50.55882458148142
1620882258911,50.8423216908936
1620882260054,51.008727338203926
1620882261208,51.10340339297639
1620882262345,51.274386418645626
1620882263563,51.20436506971346
1620882264820,51.03669346872802
1620882265994,50.998486619909556
1620882267221,50.924528448414925
1620882268510,50.67810471490081
1620882269687,50.655569607316764
1620882270899,50.54260434078417
1620882272115,50.475353747052594
1620882273316,50.3484912780889
1620882274542,50.27273798234388
1620882275711,50.37938405073508
1620882276909,50.269650594928756
1620882278092,50.28072356475245
1620882279258,50.38803616702073
1620882280478,50.284766824926805
1620882281649,50.290941478275414
1620882282874,50.07774987983426
1620882284083,49.94039405884103
1620882285249,49.915104805705674
1620882286464,49.75301153942328
1620882287650,49.82521935864229
1620882288857,49.92213395156904
1620882290079,49.824344274261094
1620882291216,50.01107536939951
1620882292429,50.16979339451959
1620882293613,50.15609412426374
1620882294721,50.375306528492814
1620882295857,50.54601277255622
1620882296962,50.74881139940102
1620882298092,50.95525822596211
1620882299282,50.90974224524774
1620882300433,51.01280179014121
1620882301640,50.96137573631226
1620882302851,50.86346884364571
1620882303995,51.026189829757485
1620882305158,51.04445678680506
1620882306284,51.260180271801985
1620882307435,51.387063161252485
1620882308592,51.406992241999454
1620882309719,51.603377131412984
1620882310866,51.68283176437176
1620882311991,51.871818339359166
1620882313090,52.148709345518064
1620882314217,52.170971054371435
1620882315313,52.43892111114927
1620882316412,52.63260620656849
1620882317545,52.57530953056294
1620882318637,52.675472864427675
1620882319794,52.55725192845695
1620882320938,52.52622470254946
1620882322025,52.76243673289189
1620882323161,52.79776454264926
1620882324299,52.95799296973818
1620882325407,53.19825468939292
1620882326559,53.18262794776348
1620882327680,53.28046490402456
1620882328757,53.39721538861471
1620882329882,53.45920719461135
1620882330988,53.579960701777814
1620882332104,53.607170673839896
1620882333264,53.57696804723204
1620882334368,53.62708103239638
1620882335474,53.609886485086115
1620882336607,53.59577876073428
1620882337700,53.6018236769797
1620882338891,53.384611031716354
1620882340095,53.21419030884454
1620882341263,53.03571809765653
1620882342490,52.87262245034997
1620882343657,52.81804982907637
1620882344837,52.604333132896194
1620882345981,52.58413099443211
1620882347116,52.59353859451922
1620882348233,52.57370636480948
1620882349293,52.785587845379396
1620882350385,52.8523371325502
1620882351498,52.76818838102536
1620882352563,52.909012459455205
1620882353695,52.846674182638075
1620882354800,52.87111990416584
1620882355902,53.007921238710296
1620882357038,52.933763408398
1620882358108,53.01753497533648
1620882359207,53.0972464564446
1620882360294,53.110439441086946
1620882361341,53.45015637065954
1620882362395,53.81136238575899
1620882363420,54.159560292972536
1620882364425,54.708979685735216
1620882365447,55.07024898636329
1620882366488,55.4256260844082
1620882367518,55.72012080493656
1620882368618,55.8084479200912
1620882369724,55.83625682668032
1620882370788,55.82675209586422
1620882371876,55.847025317504276
1620882372916,56.027778946320076
1620882373968,56.06107068796464
1620882375023,56.26502364045303
1620882376050,56.47041815968174
1620882377082,56.65627952470857
1620882378132,56.88861649776517
1620882379145,57.042619678505886
1620882380192,57.18477903205712
1620882381238,57.29673707974098
1620882382258,57.37016319325387
1620882383322,57.34200044927461
1620882384357,57.316340057463464
1620882385372,57.28650715143269
1620882386402,57.26715140446972
1620882387399,57.38598791030258
1620882388390,57.49267543314985
1620882389412,57.723586660829554
1620882390398,58.043153440026686
1620882391389,58.248417657464145
1620882392397,58.46651396187665
1620882393383,58.63252247323512
1620882394399,58.73511291262579
1620882395409,58.86226308920144
1620882396391,58.99519675856792
1620882397405,59.047812686953996
1620882398416,59.16096441246132
1620882399411,59.21269030588583
1620882400423,59.31398629728291
1620882401418,59.464292138553034
1620882402395,59.593048014069154
1620882403384,59.81487296816355
1620882404358,59.995818291465085
1620882405315,60.18765910231513
1620882406296,60.32039176083763
1620882407271,60.38721489937781
1620882408225,60.49942883497556
1620882409208,60.601341047075984
1620882410182,60.65478661797701
1620882411148,60.73024475503245
1620882412142,60.77437493048925
1620882413128,60.77190960279734
1620882414113,60.870607957371085
1620882415139,60.82153779858369
1620882416154,60.71777517928186
1620882417179,60.68515052066593
1620882418286,60.43248203606706
1620882419367,60.13181193835944
1620882420439,59.952670364380786
1620882421499,59.75930148547676
1620882422520,59.627758808696974
1620882423524,59.58274501579164
1620882424544,59.44739779667137
1620882425549,59.29009889440269
1620882426620,59.04181626796882
1620882427737,58.631694554669274
1620882428820,58.26504467787906
1620882429940,57.88164467413387
1620882431018,57.59299853435423
1620882432089,57.3040534451985
1620882433140,57.149178930602666
1620882434158,57.061861905729266
1620882435198,56.911681891015846
1620882436215,56.93628687158352
1620882437242,56.90572286628433
1620882438299,56.81908037750219
1620882439323,57.00466155619875
1620882440336,57.2282771594077
1620882441335,57.4274979035374
1620882442316,57.64509691221635
1620882443308,57.725846964450234
1620882444281,57.839567788045734
1620882445232,58.00522075989448
1620882446199,58.112443898488785
1620882447135,58.49364532348912
1620882448078,58.99560281190747
1620882449042,59.34227103761392
1620882450006,59.86175526239704
1620882450966,60.16710209264181
1620882451976,60.38110743580255
1620882452932,60.629626545752316
1620882453926,60.705881924429036
1620882454927,60.825326692829634
1620882455905,60.94504123465313
1620882456886,61.087777842485565
1620882457874,61.30036463500233
1620882458820,61.549723559674916
1620882459774,61.734444656227886
1620882460742,61.83175969787351
1620882461694,61.92364886339398
1620882462665,61.99016959890502
1620882463661,61.888611433075155
1620882464648,61.8082625285348
1620882465651,61.689163419374864
1620882466633,61.54597014681941
1620882467609,61.44149740302149
1620882468630,61.260858742465764
1620882469635,61.07150878231187
1620882470623,61.037782692675684
1620882471628,61.02199329256412
1620882472608,60.98858842521974
1620882473565,61.10191499002582
1620882474527,61.22291861591512
1620882475486,61.28602909891299
1620882476453,61.3263572557743
1620882477460,61.270830550616424
1620882478441,61.15681790475919
1620882479443,61.00960214875827
1620882480456,60.87220433622139
1620882481448,60.74752256416114
1620882482478,60.56842253177629
1620882483521,60.42396170611285
1620882484546,60.30359543604294
1620882485602,60.1463269916215
1620882486625,60.02311189923672
1620882487611,59.99263590394274
1620882488599,60.0931413644577
1620882489588,60.14296282979464
1620882490611,60.03501542274543
1620882491725,59.711994124339874
1620882492835,59.325366760540824
1620882494063,58.54292513628314
1620882495284,57.81276392128943
1620882496377,57.441297507004656
1620882497513,56.97968360891089
1620882498598,56.769089457866485
1620882499631,56.63121835553711
1620882500671,56.52845741471046
1620882501678,56.54341881960049
1620882502691,56.48976019531899
1620882503733,56.45607703092975
1620882504753,56.53873537077894
1620882505746,56.60414204583039
1620882506776,56.675256588959066
1620882507790,56.69770188622399
1620882508810,56.606681352641274
1620882509845,56.482325927119795
1620882510848,56.44167947108873
1620882511854,56.489558093484945
1620882512875,56.73575915897172
1620882513861,57.07254919772643
1620882514850,57.72670781458475
1620882515874,58.28078389791301
1620882516888,58.503503774841064
1620882517926,58.78988373075706
1620882518988,58.85318680197676
1620882520016,58.867154590347766
1620882521094,58.756437624606505
1620882522188,58.508826495293114
1620882523208,58.48745590289514
1620882524217,58.58470770209728
1620882525213,58.629465879702956
1620882526181,58.72126230357251
1620882527184,58.80062311020314
1620882528228,58.71494992715667
1620882529228,58.77073658098788
1620882530236,58.84961652363841
1620882531255,58.804466963724096
1620882532243,58.8534552397647
1620882533243,58.91750861423085
1620882534243,58.87634784519184
1620882535241,58.85210153007611
1620882536228,58.95586220246338
1620882537209,59.05214516021171
1620882538177,59.252848247382076
1620882539160,59.48805177522752
1620882540135,59.64415106591067
1620882541125,59.907562630860625
1620882542111,60.23257302258338
1620882543079,60.38986792886867
1620882544055,60.48852346203648
1620882545013,60.60660545332162
1620882545967,60.652622215033624
1620882546925,60.78611337187604
1620882547874,61.08092158283687
1620882548840,61.18953059369438
1620882549809,61.30828821639367
1620882550769,61.49583388786331
1620882551755,61.50320916057509
1620882552744,61.535725565432465
1620882553704,61.66075220157146
1620882554692,61.69087596571272
1620882555681,61.68678504052278
1620882556654,61.71182112046959
1620882557634,61.67570421319087
1620882558654,61.557035979472026
1620882559694,61.355361407876394
1620882560731,61.20482930585163
1620882561813,60.90769520002691
1620882562863,60.65454748371571
1620882563892,60.54607106958363
1620882564896,60.35625581777733
1620882565905,60.18515360655535
1620882566920,60.01485667777059
1620882567997,59.63396967582819
1620882569081,59.28405316771752
1620882570132,59.04382946469139
1620882571210,58.70390868724423
1620882572273,58.48338545502595
1620882573323,58.30993889993061
1620882574382,58.033205342711035
1620882575430,57.86576309920553
1620882576456,57.76193025737897
1620882577507,57.54520499544177
1620882578544,57.387730589281496
1620882579579,57.34566966122573
1620882580622,57.33660572454405
1620882581637,57.40092349475765
1620882582656,57.57383844780935
1620882583700,57.58948277829716
1620882584737,57.52033571552212
1620882585834,57.3078053804005
1620882586898,57.161440054821604
1620882587933,57.10942909036303
1620882588963,57.23507374858498
1620882589967,57.456517745277935
1620882590969,57.59155016775951
1620882591974,57.79270306441466
1620882592975,57.967130414981405
1620882594039,57.927918360253656
1620882595136,57.85651449406933
1620882596167,57.86806245719257
1620882597237,57.74431088613077
1620882598258,57.829065090516096
1620882599242,57.978386430583946
1620882600235,58.09615135751582
1620882601218,58.26616498851215
1620882602187,58.39481130957613
1620882603192,58.432626597207125
1620882604672,57.220453527407315
1620882605669,57.32824577001143
1620882606654,57.63566402672917
1620882607639,57.8562494946617
1620882608641,57.94581785958679
1620882609627,58.06976675987829
1620882610610,58.129162320502545
1620882611618,58.11654731142184
1620882612620,58.122650028606074
1620882613613,58.14370128557175
1620882614623,58.29802699558158
1620882615617,58.55291163136028
1620882616634,58.62903334159843
1620882617676,58.71164631125735
1620882618699,58.70539918448419
1620882619717,58.60790117535689
1620882620704,58.62487442674023
1620882621698,58.59196763692192
1620882622696,58.513511062271746
1620882623684,58.55963215181475
1620882624724,59.84488206568567
1620882625790,59.637179328401935
1620882626814,59.524653970785565
1620882627845,59.38882955504914
1620882628885,59.276992593636045
1620882629908,59.169135170114274
1620882630936,59.058294818712426
1620882631927,59.086603826094056
1620882632937,59.06411724936049
1620882634018,58.80919899371591
1620882635091,58.62682205445293
1620882636178,58.3638255950764
1620882637235,58.25014242159833
1620882638251,58.32351108703203
1620882639266,58.34834790299682
1620882640249,58.445097406060555
1620882641222,58.48548901910582
1620882642241,58.41459289993996
1620882643276,58.30686768412798
1620882644327,58.13179805962831
1620882645406,58.02194486658091
1620882646458,58.06332676733873
1620882647537,57.90718790341994
1620882648611,57.787150853646175
1620882649708,57.63019730130268
1620882650868,57.25216788911965
1620882652018,56.9018480108015
1620882653111,56.646322454658865
1620882654162,56.53754997919404
1620882655198,56.65880211016257
1620882656274,56.6537518144544
1620882657384,56.588430646256796
1620882658426,56.627781627418145
1620882659480,56.526849075668316
1620882660500,56.51173143515456
1620882661483,56.51290243720845
1620882662465,56.4885981295212
1620882663424,56.64800712782992
1620882664380,56.86006496357197
1620882665337,57.113511676619545
1620882666272,57.509460785544775
1620882667211,57.82113763473782
1620882668139,58.24628587704259
1620882669061,58.679477048500495
1620882670003,59.12550131650323
1620882670941,59.7828150113453
1620882671880,60.41772208874938
1620882672851,60.78909103287954
1620882673865,60.90293163874314
1620882674845,61.07693291187531
1620882675832,61.351565791655325
1620882676835,61.69334663990274
1620882677805,61.92358495448849
1620882678769,62.211632880652196
1620882679725,62.418413931457025
1620882680654,62.59497809879951
1620882681571,62.80895791825992
1620882682533,62.80061542509765
1620882683550,62.59774703405344
1620882684527,62.5340419690969
1620882685532,62.30325475837216
1620882686598,61.89712522412549
1620882687609,61.633633350451994
1620882688623,61.34155201078642
1620882689622,61.167136243373534
1620882690579,61.106535476366595
1620882691540,61.035240069146866
1620882692516,61.02161161737581
1620882693471,61.20783876549503
1620882694432,61.26417710493388
1620882695393,61.34707753258363
1620882696350,61.489575749085326
1620882697315,61.50642772922997
1620882698263,61.55824856933495
1620882699205,61.60055173560847
1620882700133,61.60554840104078
1620882701042,61.62929363585096
1620882701958,61.77376255184943
1620882702885,62.06492166656937
1620882703788,62.30067353777333
1620882704703,62.59575193929462
1620882705590,63.18432573794565
1620882706473,63.61214234934387
1620882707356,64.05887608595125
1620882708250,64.42000468762896
1620882709179,64.51683663627288
1620882710088,64.69968482087694
1620882711000,64.92352765882951
1620882711944,64.95653433504972
1620882712894,64.99915311520073
1620882713840,65.05145000495213
1620882714805,65.02511134331081
1620882715765,65.0424060226665
1620882716716,65.02888881290143
1620882717677,64.9641230216936
1620882718635,64.85764287868487
1620882719581,64.72859542669823
1620882720544,64.56572661838298
1620882721497,64.47157085788297
1620882722428,64.37792416602426
1620882723368,64.2926429660767
1620882724303,64.1288219775885
1620882725230,63.9781689426723
1620882726179,63.751030973704104
1620882727133,63.549325132645876
1620882728109,63.39156270978653
1620882729101,63.112463728083846
1620882730083,62.8812305605297
1620882731066,62.757012847772735
1620882732028,62.71677792971518
1620882732994,62.64829046128088
1620882733975,62.59600662516145
1620882734966,62.517850148672714
1620882735975,62.304988630637496
1620882737006,62.08471790877124
1620882738012,61.929241403434155
1620882739026,61.71301759993555
1620882740023,61.60550728592936
1620882741008,61.50539686793008
1620882741994,61.3327107381718
1620882742952,61.27479765529946
1620882743908,61.20854122346789
1620882744857,61.138851732883865
1620882745785,61.206752328916764
1620882746736,61.23497159845468
1620882747674,61.333177819653415
1620882748599,61.54743799557241
1620882749528,61.713684094027954
1620882750457,61.88363257335746
1620882751366,62.0525301557197
1620882752291,62.184932912044296
1620882753204,62.40544275309495
1620882754109,62.66385619271629
1620882755012,63.03950985520303
1620882755908,63.48430765786375
1620882756778,63.943828330856995
1620882757670,64.3616265255716
1620882758545,64.7884005439201
1620882759420,65.17489302355989
1620882760312,65.50807984845352
1620882761200,65.76025291393277
1620882762083,66.02337161331747
1620882762985,66.1951074313496
1620882763884,66.30200197237431
1620882764783,66.46730168788177
1620882765695,66.58689926062475
1620882766607,66.6350150345251
1620882767509,66.73569361910009
1620882768422,66.7989731661845
1620882769329,66.80283310815192
1620882770236,66.87125555797635
1620882771159,66.83494592133893
1620882772084,66.75777619611296
1620882773022,66.63002015558101
1620882773954,66.49470765851133
1620882774901,66.21523693163645
1620882775857,65.98294769691198
1620882776803,65.7229148200355
1620882777751,65.46381989244719
1620882778718,65.19539140297742
1620882779681,64.93080648606833
1620882780661,64.59391260508234
1620882781664,64.24241489807291
1620882782641,63.97636798268551
1620882783627,63.680459942735474
1620882784640,63.350222678672175
1620882785647,63.02408465395062
1620882786657,62.67157322413427
1620882787662,62.3690055979301
1620882788660,62.07619097181472
1620882789683,61.705623655138794
1620882790746,61.29223021892873
1620882791781,60.92483596368711
1620882792835,60.566083931772454
1620882793863,60.27471103675647
1620882794888,60.039187577731994
1620882795912,59.83398760967746
1620882796928,59.62736178389943
1620882797948,59.4152205455853
1620882798977,59.23445976543746
1620882800000,59.08295281039628
1620882801016,58.952960057600805
1620882802021,58.94952245728734
1620882803022,58.87783555656038
1620882804046,58.76866425437613
1620882805049,58.789739720675314
1620882806099,58.675158918000506
1620882807126,58.62521238815236
1620882808168,58.52024251763844
1620882809215,58.38004426083077
1620882810221,58.43068616031224
1620882811234,58.54730094991071
1620882812253,58.61517831250115
1620882813258,58.75495316495813
1620882814262,58.826392872947245
1620882815262,58.8982030943547
1620882816291,58.88544572602095
1620882817288,58.939880781321
1620882818282,59.01255762637715
1620882819261,59.16013025285883
1620882820225,59.30831089337499
1620882821181,59.5085899657807
1620882822114,59.72320088087734
1620882823059,59.88797056785706
1620882823998,60.144147478261175
1620882824928,60.36723198231794
1620882825885,60.64764712651716
1620882826855,60.82315318478385
1620882827815,61.07697021581558
1620882828774,61.35446108286503
1620882829741,61.47621923096011
1620882830678,61.71412843142105
1620882831618,61.967233482672725
1620882832555,62.18810720856556
1620882833468,62.48053015562908
1620882834384,62.75373754723955
1620882835324,63.04934699003202
1620882836252,63.27745916112319
1620882837188,63.47114488034588
1620882838136,63.574592731887385
1620882839074,63.662172859988026
1620882840025,63.680118631815716
1620882840981,63.600655722760564
1620882841910,63.658427550900754
1620882842829,63.72587000018107
1620882843759,63.72284470886128
1620882844680,63.84849348415493
1620882845582,64.07939009236503
1620882846502,64.21511206339723
1620882847424,64.34423651783183
1620882848328,64.5593282472777
1620882849258,64.63011083471551
1620882850170,64.68483124536091
1620882851082,64.77071974843048
1620882851977,64.83331382030671
1620882852871,64.91233156872784
1620882853771,65.05028631070394
1620882854653,65.21235152370282
1620882855543,65.37801870061969
1620882856438,65.56775115727105
1620882857327,65.75498836520279
1620882858226,65.93208797142647
1620882859155,66.0296129608207
1620882860108,65.94252976645798
1620882861037,65.90787298652131
1620882861967,65.90670016850684
1620882862925,65.81349344440021
1620882863843,65.71451446338136
1620882864766,65.70316263815934
1620882865701,65.65500690280301
1620882866650,65.49556234817327
1620882867583,65.43930523525893
1620882868519,65.3965280329302
1620882869485,65.207943240398
1620882870445,64.97965757669857
1620882871411,64.72317708385279
1620882872387,64.45968868333901
1620882873352,64.17648361857832
1620882874302,63.9697107684158
1620882875253,63.77875744311381
1620882876182,63.63207425608541
1620882877107,63.55570662982445
1620882878054,63.49408589628078
1620882879012,63.476802191049956
1620882879957,63.423100098934825
1620882880909,63.35128955245408
1620882881889,63.23915705365579
1620882882849,63.135063104285
1620882883805,63.03003333816056
1620882884747,63.00627510996974
1620882885672,63.084106253821695
1620882886592,63.12573051594086
1620882887510,63.189942014803066
1620882888415,63.38825432550867
1620882889330,63.54095977348917
1620882890264,63.651343401384715
1620882891210,63.75974986199975
1620882892175,63.75090227448863
1620882893130,63.73455492646594
1620882894089,63.70934945321438
1620882895028,63.67368171999164
1620882895947,63.69557253136907
1620882896858,63.81695934631019
1620882897773,64.02732173873211
1620882898657,64.17084846695857
1620882899610,64.16597256017027
1620882900580,64.21988202593637
1620882901553,64.15830848758287
1620882902538,64.05505318304235
1620882903519,63.923319290800706
1620882904489,63.77085346765192
1620882905459,63.605075239768624
1620882906426,63.438754798744974
1620882907396,63.23396186486237
1620882908360,63.05957821655209
1620882909314,62.99276417866061
1620882910254,63.00578550625413
1620882911207,63.05364052016088
1620882912149,63.0951814472825
1620882913076,63.200405325266246
1620882914028,63.158316900328686
1620882914960,63.111955876328054
1620882915894,63.03846007968685
1620882916844,62.869110441380755
1620882917776,62.81662523648497
1620882918667,62.96977419353827
1620882919579,63.142826864367926
1620882920479,63.40662558022986
1620882921368,63.730950022401174
1620882922259,64.03564480132192
1620882923154,64.29252240460443
1620882924076,64.45750043052257
1620882924987,64.64961310439071
1620882925905,64.8194842184
1620882926842,64.9269244759737
1620882927779,64.98658649776966
1620882928692,65.08065472657209
1620882929618,65.17744886340321
1620882930537,65.26148891802842
1620882931467,65.24905482666018
1620882932400,65.31676508270228
1620882933338,65.29508180575915
1620882934274,65.29046339743168
1620882935200,65.36369941979908
1620882936121,65.35805320145522
1620882937040,65.31389969047731
1620882937942,65.36155972289995
1620882938831,65.38652563519594
1620882939726,65.36620599832995
1620882940642,65.27643454892393
1620882941566,65.21138051623069
1620882942454,65.29442453085406
1620882943348,65.35860496414946
1620882944264,65.364550353173
1620882945175,65.45812422871917
1620882946097,65.50769363296322
