id,timestamp,mean,sd,skew
"1070917",0,46.6239742549048,0.5904195476075212,1.6650722558488862
"1070917",15000,45.08118374754376,1.0918561340431945,-0.3342250072406313
"1070917",30000,46.239399211278275,1.6397257332848139,-0.6876550876731864
"1070917",45000,49.33946857751184,0.9201890141242874,-0.8467837074981484
"1070917",60000,46.86662656978987,0.8973217744851328,0.36550959984774267
"1070917",75000,53.23324699276445,2.090315099472571,0.46274474808920857
"1070917",90000,68.5361301569127,7.472451522354906,0.5138114515706633
"1070917",105000,73.3086677773052,6.991022803276926,-0.6143339529545755
"1070917",120000,52.513026682475164,3.3738960362992017,1.0008137216254218
"1070917",135000,52.56118322547902,0.4891763678371447,0.05869475006588501
"1070917",150000,54.469519092389405,3.647958678148416,0.9822033145794192
"1070917",165000,67.55888575555447,2.6246133476826845,0.1519588390174968
"1070917",180000,55.18983333087767,2.8222706206944466,0.68785382780118
"1070917",195000,48.041843565004655,1.2070942001696323,0.9065216641463854
"1070917",210000,57.08189323775392,5.776219362716739,-0.18250687293343476
"1070917",225000,68.81557691049593,3.2934615225201704,1.9519071144328448
"1070917",240000,69.92716442221159,4.087454669696495,0.47727209534462206
"1070917",255000,59.443191768745706,1.4993702148966417,0.7427054003818276
"1070917",270000,67.52534701149807,5.250982658492796,0.21791689121593738
"1070917",285000,73.55876262712754,3.194483727327629,-0.09090987110590018
"1070917",300000,70.37764112771418,2.7056281456685873,0.6706841061182452
"1070917",315000,70.15823594655771,5.868682659697043,-0.46278178669438413
"1070917",330000,59.0803033631438,1.6197901721851322,-1.1689678095150335
"1070917",345000,64.73456892176824,1.1391224024056967,0.3431286193710304
"1070917",360000,65.7175939149093,1.152240874551971,-0.23410034813726394
"1070917",375000,62.13654211360416,1.1054050108833855,-1.6924522307833008
"1070917",390000,72.16577968632053,3.712669618492776,-1.6274264359728676
"1070917",405000,75.39486584894061,0.8158233301355087,-0.6537053394320137
"1070917",420000,73.44855605769565,0.569798585679669,-1.3553037209943466
"1070917",435000,75.35706559500748,0.6576470575635053,0.39748102190710155
"1070917",450000,67.26473063542836,6.119088040233871,-0.05746318624542002
"1070917",465000,53.851105025453236,3.2462344803081304,0.7386671273267484
"1070917",480000,60.80097180899282,6.278581667350248,0.45791612751817595
"1070917",495000,74.4014586537341,0.9244245793929343,0.15450579405533052
"1070917",510000,70.2661476194827,1.214521342048247,-1.642485665840589
"1070411",0,70.41839649810171,0.4038268630434365,0.8232075940358085
"1070411",15000,72.45516443431578,0.7337769380766613,-1.3623693743361458
"1070411",30000,73.4329428420302,0.3735297343871397,-0.15126908555039814
"1070411",45000,72.60276727353147,0.7652790691519068,-0.2607338383981544
"1070411",60000,74.14748793149467,0.7803977692731504,-0.09456779845251356
"1070411",75000,73.11210979656566,0.5367807388928322,-0.2715250729168798
"1070411",90000,74.86657503049261,0.7047744637272905,-0.2284449963211944
"1070411",105000,71.98038121245536,1.1584203015320709,0.18231321741548567
"1070411",120000,70.97313600607264,0.4110713008795315,0.5328773411147368
"1070411",135000,73.50919622311473,0.8931170924145929,-0.10661909118868051
"1070411",150000,72.92330910881194,2.1957554296752853,-0.37065950666990627
"1070411",165000,70.32147539589906,1.2287896280606012,-0.44578495397924445
"1070411",180000,68.99979145083636,0.8606116157791253,0.27706636034429144
"1070411",195000,67.0352147239108,0.2698545582730166,0.6261129006308167
"1070411",210000,70.60774810681677,1.3601568609290526,-0.39840007990307535
"1070411",225000,72.10098770492385,0.46492112397145785,-0.7062169301271445
"1070411",240000,70.66544320215841,0.7736586292270671,0.005310701092488182
"1070411",255000,69.96774080942104,0.12763458464935812,0.09378498584219745
"1070411",270000,70.02653733944432,0.2916793519927988,0.49851106178847504
"1070411",285000,70.81221674365909,0.4088428721937676,0.005995574994361515
"1070411",300000,72.62649031684731,0.7663521592832239,0.6559682497960528
"1070411",315000,74.18084582330778,0.24376282183336298,-0.5157172921231252
"1070411",330000,74.6668084454019,0.4531533209467466,0.06917390993967455
"1070411",345000,74.9172187451216,0.1564951238201717,-0.052334843758076635
"1070411",360000,73.37793631934073,0.5814414923358272,-0.3355684783784494
"1070411",375000,69.06382694949836,0.18544787915781855,-0.280601107304742
"1070411",390000,72.46946403849695,1.2522092402519764,-2.530754120803378
"1070411",405000,71.97200662524432,1.1111893145923577,-0.3758873838348253
"1070411",420000,69.3064733503397,0.5027529751180101,0.4787552289705189
"1070411",435000,71.85850426585498,1.950736677232888,0.3362492772865644
"1070411",450000,75.83120131288207,0.2755303547327361,0.6064498745928926
"1070411",465000,74.56390497462768,0.7774253354371289,-0.12007052320290386
"1070411",480000,73.41966617432809,0.752326658296187,-0.39631459882348985
"1070411",495000,74.28214095742243,0.4626579810474976,-0.41261439184736315
"1070411",510000,72.38428641256644,0.8089355661905585,0.1140170596602903
"1070411",525000,69.77910181600582,3.032731503231324,-1.4682731195957734
"1070411",540000,59.973084763158724,0.782291871917415,-0.08365928288818453
"1080854",0,45.10348740827632,1.3132602431477576,1.6516911867378257
"1080854",15000,54.21677795640342,4.070307582044069,-0.08429948366211393
"1080854",30000,64.32796339793704,2.459681669122304,-0.33067967315159835
"1080854",45000,70.34703996044618,1.9346577301692403,-1.0636073209684265
"1080854",60000,74.50995558249656,1.6253933080421927,0.1716400579133819
"1080854",75000,73.87375091821944,1.2033841015941882,0.03826956508794163
"1080854",90000,68.09218179358894,4.536262449382568,-0.19244687208269115
"1080854",105000,53.66892896382017,2.7790881062607196,0.9475060892451252
"1080854",120000,51.27653286109578,1.2957052915608012,-0.5015514339946555
"1080854",135000,58.19817816350094,5.563022626421492,0.4423156693029018
"1080854",150000,68.94782685278687,2.463984657399964,0.0514454046520873
"1080854",165000,68.5364629974447,3.626134932054642,0.6172739809513811
"1080854",180000,75.26853895494196,1.3593606849152964,-0.08522949974568372
"1080854",195000,73.63351617597459,0.7924467887476098,1.0295962636047067
"1080854",210000,74.1116152857107,1.2909559365096193,-0.013667982418689849
"1080854",225000,72.62031856156447,1.3880962825748229,-0.764841101335294
"1080854",240000,60.6238604234791,4.964798795658414,0.22088583894831357
"1080854",255000,52.28282736210521,2.556597132273217,0.7875993523372922
"1080854",270000,70.64560098682338,5.177683480922092,-0.6245822428170081
"1080854",285000,71.86039093653261,1.55585714065034,0.8676878747541715
"1080854",300000,72.44201340131815,1.5296182782070014,-0.9355419585472278
"1080854",315000,74.20823321282177,1.0468077534690767,0.7555131052779531
"1080854",330000,72.82381966421079,2.6325017305850307,0.007986732210735698
"1080854",345000,70.04873340214303,2.083919510772639,0.07305478108801543
"1080854",360000,74.79983059603707,1.522824416948559,0.21213859646746128
"1080854",375000,70.14041846441799,1.9378002524406306,0.5610277973491516
"1080854",390000,70.28448376896094,1.7852241897560441,0.3436317283142473
"1080854",405000,72.6629121762528,1.516013867815549,-0.44987301928561363
"1080854",420000,59.44846616916955,4.039643223830646,0.5536011304443336
"1080854",435000,49.84615479460443,2.3117343257433123,0.9727335177328812
"1080854",450000,48.19881585992921,0.6497191489658803,0.18829912092235265
"1080854",465000,49.42800481118824,0.6513562859383962,-1.3236412513742126
"1080854",480000,46.795825484796,0.0,NaN
"1080936",0,49.35676339389304,1.942519801216253,1.1572669840631744
"1080936",15000,59.771102776316866,5.0349568430969445,0.1643186883690365
"1080936",30000,64.805161065831,2.828335782697006,-1.2186568490382956
"1080936",45000,51.52248137381396,3.2483367153075777,0.13496460942280417
"1080936",60000,44.32437871581358,1.0905171600820405,-0.42913287167079284
"1080936",75000,50.79313337410869,3.0095397526908503,-0.3399257791076654
"1080936",90000,50.783842531341804,0.5926299521021826,1.5261481989408305
"1080936",105000,50.029258532337806,1.6194156479116544,-0.024155342284241176
"1080936",120000,50.0942422327363,1.7875521513724457,0.5180613577353896
"1080936",135000,55.718376315843834,4.056768496088394,0.46112163971183595
"1080936",150000,59.44843635415082,1.887850653303565,-1.64924498879965
"1080936",165000,50.13433774013541,2.9563210137966163,0.21620373035195675
"1080936",180000,44.59986959573352,0.4037807781168093,0.33459987175195677
"1080936",195000,46.14285577172811,0.9706848068439667,-1.3992414798820452
"1080936",210000,49.177332471275776,1.340081895382419,-0.305901372516904
"1080936",225000,48.883583117866756,0.4772631827458738,-0.4058765950415225
"1080936",240000,45.7184569224184,0.4325283163559487,2.001422529334034
"1080936",255000,47.469596358813924,1.26210061943417,-0.9596140934134234
"1080936",270000,47.7782915996836,0.7283791139470837,-1.2633271880847043
"1080936",285000,45.23977438340653,0.5252886714017241,0.04372200602888872
"1080936",300000,46.260848871580336,0.08904218479603568,-1.6281317575339995
"1080936",315000,45.21817551729486,0.44788074895187363,0.4829796829890933
"1080936",330000,46.58600752213221,2.0393706964977856,0.5200712704830157
"1080936",345000,55.50989439299535,2.9657996194412286,0.40847672604767277
"1080936",360000,56.97124219025711,2.6769807538373125,0.6051493243365463
"1080936",375000,49.51885324773392,3.1843977121743485,0.5788044167845724
"1080936",390000,46.81610499096261,1.0236170494983783,0.6342210577507988
"1080936",405000,50.9701998932805,0.7875988060243133,-2.006072325307496
"1080936",420000,48.55093889048727,1.665546071308652,0.5770633587320412
"1080936",435000,48.02676323653441,0.8691249861475496,0.2742861447225963
"1080936",450000,48.79827284288428,0.4545334443352326,-0.6768094150305854
"1080936",465000,47.94265879912027,0.09584575945814043,1.3358020670366726
"1080402",0,58.69886403252102,2.5823577131299484,0.11760569447542694
"1080402",15000,51.29455141533558,1.0727768206236468,0.8430074053499843
"1080402",30000,61.58081484615526,6.652474466808863,-0.020925733670169592
"1080402",45000,74.18733345352423,1.432909485231764,-2.561702625759647
"1080402",60000,72.74537304948589,0.7490759503624893,-1.0007166436188988
"1080402",75000,71.61322423946164,2.27152363811898,-1.2618837496245345
"1080402",90000,66.45469648434084,2.3081448530559663,-1.6519493902502542
"1080402",105000,59.45824561519962,3.4891841414780913,-0.7034478556629841
"1080402",120000,48.803177514946974,1.4927858860878531,0.2649279694233657
"1080402",135000,44.31445249941678,0.43841111395346977,2.1597840942396553
"1080402",150000,45.34181314989587,0.30836638696692803,-0.3490605672362578
"1080402",165000,45.86959780612897,0.26772781750610214,0.3592906948800313
"1080402",180000,45.88719254398044,1.2244994988843079,1.6053899069896507
"1080402",195000,48.00167791123607,0.2680853378294782,0.9095141995017167
"1080402",210000,47.83064254032204,1.1568132965350286,-0.7875980591858205
"1080402",225000,49.907360931851755,1.020815434245413,0.2053478168089927
"1080402",240000,49.38657705467286,1.3197527943987086,0.3600050307770028
"1080402",255000,48.04671942928152,0.6709518989057331,1.062114777134369
"1080402",270000,49.79078090358295,2.2592202230510434,0.9066257230454902
"1080402",285000,57.52639324509128,1.7355790461956973,1.2413893317573497
"1080402",300000,66.03759304069332,4.323539628016969,0.3353520356037622
"1080402",315000,71.81219685927489,1.1289452492844194,-0.30447155480288185
"1080402",330000,63.275953797216935,5.563386475522313,0.2063513165778244
"1080402",345000,52.70458456049486,0.75492851187617,0.8724205215406071
"1080402",360000,52.340997977662305,0.7163155339122731,0.3668924219190864
"1080402",375000,49.93494809626424,0.4824844394768956,0.7744316274488261
"1080402",390000,57.94152149601011,6.112433896907842,0.6428202019720155
"1080402",405000,70.63284635673622,2.818064582819205,0.18511266726398273
"1080402",420000,63.287268663097265,3.4592556744222014,-0.2039804103019667
"1080402",435000,52.79325211269395,2.5434694582856294,0.2473801284102077
"1080402",450000,52.56988868702373,1.395654457016796,0.015089295215249996
"1080402",465000,56.351405601185604,1.01106492532138,-0.11746489431248601
"1070717",0,45.895309745979354,0.28157050361383923,0.003575116877937728
"1070717",15000,52.19815075827023,3.422320877894309,-0.47367589124075354
"1070717",30000,56.686248334047725,1.0664286480199987,-0.04966766072175569
"1070717",45000,67.50758848682656,5.683142637359548,-0.18442208581049707
"1070717",60000,63.710349823692795,2.872424549564639,1.129276542872128
"1070717",75000,65.76038157851328,4.153172332071844,-0.05537648211181694
"1070717",90000,58.67631871980206,3.4113403680119156,0.46466519768252423
"1070717",105000,57.7834526372261,3.261678040420961,0.969630533939015
"1070717",120000,68.42713804129197,2.5127729022858287,0.2865781107510408
"1070717",135000,72.69072492231471,1.5616906580621461,-0.23986089122467888
"1070717",150000,64.1207633036112,2.6404845975423714,-1.211027768057936
"1070717",165000,65.31605367027174,3.1558332814407306,-0.7385724094755532
"1070717",180000,71.03858028986333,1.3455773041358527,0.30972570773589425
"1070717",195000,72.17134197236777,1.4873322365277335,0.1958994666119006
"1070717",210000,72.2831231626638,0.7642537141063729,0.22982720286049382
"1070717",225000,73.06119209129095,0.180949392776671,0.2461014551395197
"1070717",240000,73.2326279797402,0.7088416896865295,0.2476864120432778
"1070717",255000,72.03316530296074,0.932854124571556,-0.5747304775179459
"1070717",270000,66.40711152657357,3.694443388136612,0.8974955256519757
"1070717",285000,64.68553167500006,2.666941327027707,0.22641361978115654
"1070717",300000,66.98256345302212,1.4762261021021623,-0.4240703269147027
"1070717",315000,66.76449920877934,1.3209930745895888,0.7182792570223276
"1070717",330000,68.25092012786061,0.858458783341744,-0.720923337225324
"1070717",345000,65.25562517750168,0.3930360023274448,2.271275855357955
"1070717",360000,69.85798735477539,1.1438730347540615,-1.8351380490180906
"1070717",375000,71.57208882243701,1.0386204414968379,0.5005890049552755
"1070717",390000,66.68412808571287,1.7453273088641486,0.30945941335692806
"1070717",405000,68.34874637773548,1.2779580885445345,-0.81558120732245
"1070717",420000,60.122076283860544,5.216825224063448,0.19435635233858695
"1070717",435000,52.10424597849608,2.94620877753602,1.135134701649303
"1070717",450000,65.24109804957051,2.310887763124942,-1.5738233235819086
"1070717",465000,62.251474613702186,3.3820273500874007,-0.13936881114904648
"1070717",480000,50.168710218758996,3.57294744420733,0.08414002525131954
"1070320",0,66.21556410502718,1.4782399736534408,1.578588391390275
"1070320",15000,62.77653330812771,2.413579892182276,0.09580820791003963
"1070320",30000,56.350632265014305,1.95984887543922,0.08341351295718388
"1070320",45000,60.094887909220745,5.630398941529796,0.2134377323133607
"1070320",60000,70.91867795724431,2.8863089455817694,0.927025786141611
"1070320",75000,62.178017420464066,2.992427395402947,1.406411090299789
"1070320",90000,67.74794335982845,6.198859853581521,0.43086358679185455
"1070320",105000,76.47351014104748,1.100626753700089,-1.9132149560030365
"1070320",120000,74.90034625098149,0.42883705999631916,0.6210613054160848
"1070320",135000,66.01337213570478,4.189505243659987,0.7429017846234208
"1070320",150000,62.26971807712097,2.9287137817528555,0.3054384744081835
"1070320",165000,67.1140914096232,3.867990109169549,-0.12391982042326567
"1070320",180000,69.88807392254228,5.6621290724189,0.4673811471883617
"1070320",195000,56.817473859979316,4.193191884937946,0.6582819456311323
"1070320",210000,50.47265522913314,2.027715495100191,0.2912145833860342
"1070320",225000,71.1409561317855,8.360647218365425,-0.6312824795309272
"1070320",240000,72.41348097574146,5.839991668264534,-0.49061678316489093
"1070320",255000,54.63567326231896,2.640820574447397,0.734161813909484
"1070320",270000,53.973697003548935,0.8340951131682273,0.03983083581187126
"1070320",285000,48.80812090246878,1.9263599618833374,-0.19497096294955188
"1070320",300000,48.60402315256017,2.9210206402205667,0.43020521577368454
"1070320",315000,61.10064717073906,3.544627104576973,-0.4741448885129009
"1070320",330000,61.22378676422044,2.3501233680492755,0.19519128193890942
"1070320",345000,56.69884237290628,4.167553216378815,0.6348932769500285
"1070320",360000,47.34324442944675,2.0588948358865404,1.0857047582656933
"1070320",375000,50.02055652519567,3.5404855949424636,0.1642873626572636
"1070320",390000,52.472017025572846,0.6967060790342324,-1.1495779348175912
"1070320",405000,57.14377367139644,7.369553208096623,0.6692444285591295
"1070320",420000,67.73034461058793,6.512548941795976,-0.17110659712304152
"1070320",435000,48.65006454571536,4.26307767812498,0.3464583531824657
"1070320",450000,57.86390614064564,9.637048392125447,0.44015031617842904
"1070320",465000,75.82316013521158,0.5362278027874436,0.7856371841192068
"1070320",480000,75.5922893135761,2.719872983332859,-0.22876567919217006
"1070320",495000,59.943966436527454,4.352815732127952,1.1953381166719266
"1070320",510000,56.41602645073641,1.579314700751033,0.9989467647526754
"1070320",525000,51.122487954181615,2.9470337468556234,0.8247358172214202
"1070320",540000,48.2479475049229,0.6038646596113684,NaN
"1070335",0,60.415443434970115,1.3283735882067802,0.23951603324514747
"1070335",15000,57.324139220984,2.123156874736054,0.39455028697312566
"1070335",30000,56.89377703242706,2.355376357809,0.11574584409228107
"1070335",45000,62.45528755918724,1.1834997517831063,0.29770117719765093
"1070335",60000,59.64049608113341,1.630760864294978,1.0142466170825217
"1070335",75000,57.41686132921231,1.6181132297183702,-0.6250225726080603
"1070335",90000,61.48995626036451,2.321032941738154,-0.0902762595377059
"1070335",105000,60.08763091635315,1.6822174524063807,-0.043942571282728125
"1070335",120000,58.53221033731937,1.8464756399385982,-0.44144633494017244
"1070335",135000,51.62103750277734,2.829792346894802,-0.12314283909041931
"1070335",150000,46.291014609256194,0.5913251351098313,0.3721655022567432
"1070335",165000,45.65173047876807,0.43944556673004453,-1.8296674880181643
"1070335",180000,43.730710845341605,0.036819369736192674,-0.9361619477897214
"1070335",195000,44.54257705260571,0.7330209250272497,0.16691510416226849
"1070335",210000,45.65299863609124,0.34099285629300785,-3.295672816291002
"1070335",225000,46.09569309740232,1.3560245370727735,0.13680707944128145
"1070335",240000,49.411866773040124,0.8893531313791012,-0.6192673432742374
"1070335",255000,48.55341817255449,0.8412430036140226,0.2797697546126903
"1070335",270000,59.52627228456032,5.571326309985783,0.007735700070752945
"1070335",285000,58.7619887612212,5.2204775271145225,0.3694243979533361
"1070335",300000,48.66615422308851,2.3774601820750707,0.9337003357787746
"1070335",315000,46.523741889820116,0.8715065201892205,-0.7588731574663767
"1070335",330000,49.85546739893658,2.0305154457457095,0.48770822653457496
"1070335",345000,52.70073723445246,2.094472761651432,0.2009151592589109
"1070335",360000,47.24570100159381,2.0525364824024535,0.2657964806512557
"1070335",375000,44.55604939124011,0.4564552545066656,1.6521650403226862
"1070335",390000,44.15138665094383,0.3926146278223269,0.4225390909102091
"1070335",405000,43.874225951324995,0.41713029841049615,-1.897336624862154
"1070335",420000,44.708250881387436,0.45265888096539886,-1.1608962446044802
"1070335",435000,44.25263819825031,0.4338680981093832,1.7309600112987003
"1070335",450000,45.21076529715175,1.6771253809348736,1.011074287793286
"1070335",465000,51.60906759523154,2.599398141284631,0.7191045683490429
"1070335",480000,56.88835310524436,2.240876259963845,0.1334211454941499
"1070335",495000,55.398420542932875,2.340484899294285,-0.06826122470871802
"1070335",510000,46.94868869069064,1.9035589830311253,0.947982792998239
"1070335",525000,45.26492572473252,0.7831357443504957,-0.0492256242658971
"1070318",0,50.0738811711239,0.43877774536027325,-0.5942671927766137
"1070318",15000,50.747415883021624,0.3892636220172765,-0.3801097647690452
"1070318",30000,50.51780592635405,0.2497425018402001,0.9244497457524415
"1070318",45000,50.04199504524266,0.2004702926888852,0.2556180433431193
"1070318",60000,51.055825418176596,0.28997288680744376,0.31788761993890946
"1070318",75000,52.44602393020112,0.374744803627996,-0.8401124151583458
"1070318",90000,53.45108863164387,0.17215344987302336,-0.5342969737704013
"1070318",105000,52.77807841299646,0.14626311433326714,-0.1752715197645983
"1070318",120000,54.22554749125587,1.1643883138245867,0.2753204940387731
"1070318",135000,56.685400311468406,0.5933158305647639,-0.2457855995707596
"1070318",150000,58.30403708389888,0.7192416927789669,-0.28237357302527943
"1070318",165000,60.30009468852292,0.5167731192664529,-0.7401877969154095
"1070318",180000,59.531956586746105,0.85898811722088,-0.44685367335271414
"1070318",195000,57.303802257734745,0.38101862606552134,0.4588067671316004
"1070318",210000,60.275474330226366,1.1045521297083971,-0.6959771436508719
"1070318",225000,61.45497657547842,0.3747839172173947,0.11509823484522191
"1070318",240000,60.624234834812604,0.5004465058248839,0.1650234413943882
"1070318",255000,57.557557366132606,1.308164832482552,0.9813696558407342
"1070318",270000,57.38845828883112,0.9897106461718623,0.5936101652225303
"1070318",285000,58.74186414954275,0.1339190680367139,-0.759907719119885
"1070318",300000,60.20237779524671,0.7783405389626711,-0.2621663884556082
"1070318",315000,61.30283356130946,0.461839015906956,-1.0801703028314642
"1070318",330000,58.54275711285774,0.9619471462765037,0.4311764139030062
"1070318",345000,57.521817912123794,0.27280477939806075,0.22215903471718285
"1070318",360000,57.90469832539352,0.35394498588888224,-0.4291204568172557
"1070318",375000,58.54345646194502,0.42434296542477734,2.063047124012223
"1070318",390000,58.89151679820579,0.471254816074208,0.01962455870840576
"1070318",405000,57.62466041421622,0.6948811870485929,-0.48112696712401687
"1070318",420000,57.19423277306881,0.8785057319855928,1.200534240791661
"1070318",435000,61.72695848847039,0.9582443184328304,-0.6095958866724
"1070318",450000,61.442845896081934,0.3359806116687524,1.0561232646652838
"1070318",465000,63.73825313166876,1.284762655478942,-0.5280302090866458
"1070318",480000,64.1951327997514,0.692557981033305,-0.5182385256691864
"1070318",495000,61.95558060393759,0.5992799468094328,0.04064809041601411
"1070318",510000,62.68868652253333,1.304033149589457,0.6758647630050054
"1070318",525000,66.44820423982664,0.39708676409630705,-1.1031537879536857
"1070318",540000,63.93238243391049,1.3770805624935827,-0.09281537625600676
"1070318",555000,59.64198355269151,0.818333535734589,0.7629561136826059
"1070318",570000,58.77197986130395,0.266710985134393,0.4338002402000898
"1070318",585000,61.07422190277093,1.027473939324859,0.05605005177027274
"1070318",600000,63.86965504252935,0.47533609831557605,0.374232583476538
"1070318",615000,65.52685847466498,0.43665108964756766,-0.6566261543752555
"1070318",630000,64.42897437535856,0.8359733538988156,0.18265064827483685
"1070318",645000,63.39814954247711,0.2860851596855021,0.02224963668075567
"1070318",660000,63.70875068146233,0.4401839190893204,-0.5466359134628106
"1070318",675000,63.43932207676849,0.5979700918522616,1.0320934114471603
"1070318",690000,65.22211853005362,0.1755271624030024,-1.2549637338937276
"1070318",705000,65.35303039643051,0.103678570129297,0.28667795812483066
"1070428",0,70.66461465507805,3.950606686951607,-1.0221608884049165
"1070428",15000,55.52013821722561,3.533006488101509,0.5405903444631882
"1070428",30000,60.18354975087507,5.648590013990591,0.305327080886531
"1070428",45000,72.59593682754846,1.7122443147205932,-1.1930164441684181
"1070428",60000,69.73990813087825,3.5049064409907595,0.027465002959974966
"1070428",75000,58.84477740704083,3.0601762663456387,0.5286648354103934
"1070428",90000,53.8664733203126,1.4738520350130662,0.6106069457887686
"1070428",105000,50.73560131508279,1.5655787772406053,1.0089537283569066
"1070428",120000,48.12564499716066,0.7633973871605086,0.0728492741043101
"1070428",135000,55.03425069012715,4.546062467496467,0.34469985519430085
"1070428",150000,68.07618896822402,1.5499401567150524,0.06565537881761006
"1070428",165000,57.46322282078249,2.579508969428259,1.2746574960060537
"1070428",180000,61.19569557883022,4.770231382972223,-0.10384593069737548
"1070428",195000,64.23171973559398,1.9839882300704907,0.3160784328431274
"1070428",210000,66.6399595157228,2.291173695424792,0.1375402951140128
"1070428",225000,62.89688067213401,2.97944243477097,0.46647907209859074
"1070428",240000,59.27338184663479,0.9540511378399622,-0.6616952838195356
"1070428",255000,51.565255592526,3.5022075134198003,0.9043795392102371
"1070428",270000,48.1108409341527,1.74385305276768,0.4429381735538287
"1070428",285000,51.05635621902787,0.5532854600959891,-0.07269983481287913
"1070428",300000,49.25756882318755,1.3789737222000362,0.5837950056858705
"1070428",315000,46.06199333715723,0.903095675919179,0.8895138710007066
"1070428",330000,43.51784512070634,0.5913402851619057,1.2314797427891044
"1070428",345000,47.20197660909554,3.1648934322863793,0.5550436844195455
"1070428",360000,57.611215091448024,1.2852705148878298,-0.2109007052231767
"1070428",375000,52.18248309533578,2.849904877435567,0.384471512215251
"1070428",390000,46.977131457671724,1.387675896091739,0.3779010318746396
"1070428",405000,47.228965722829784,0.9314067615100274,0.5063157731424943
"1070428",420000,50.219699502061175,0.6717415720847608,-0.779444220759337
"1070428",435000,48.41092679546769,1.1961282753977127,-0.15071640946415915
"1070428",450000,48.652423902808444,2.058430537436193,0.7841604662848936
"1070428",465000,56.172662014138325,1.8064037526953995,-0.04902729052964293
"1070428",480000,53.48751960562598,2.214191260068308,0.8530389418145325
"1070428",495000,48.50452348555391,1.128983285250472,-0.05377043865727129
"1070428",510000,46.767044765388995,0.37558121849842724,-0.423953112478236
"1070428",525000,48.4221036919715,1.5914276863718624,0.13069211972769199
"1070428",540000,52.16273054974746,0.44803489103562166,-0.5619213281151013
"1070430",0,67.89090808900274,5.4457328196487795,-0.6126201323192292
"1070430",15000,57.734788744451535,3.299110895452943,1.2208889840427273
"1070430",30000,74.66967730859574,2.7384249064050086,-0.828159287748896
"1070430",45000,76.7023934795502,0.39857257271926305,0.46226000217847046
"1070430",60000,76.85220657475392,0.35797319492845214,0.1834170660033595
"1070430",75000,75.48759178926262,0.7868528246006906,0.14659399168939666
"1070430",90000,74.17577433110068,1.3359428125044055,-0.03160581237076364
"1070430",105000,74.22873841184145,1.7492194517239732,0.3214606617923138
"1070430",120000,75.34272485941337,0.6175035749473484,0.7400209910076094
"1070430",135000,74.42707260952797,0.2971524626692382,0.5822916877101916
"1070430",150000,74.35272522692951,0.4850057254590788,1.0105313807617866
"1070430",165000,77.2845018028634,1.1384048153778743,-0.2484495552362514
"1070430",180000,76.96081380589712,0.6421953537815077,0.7987678686860936
"1070430",195000,76.51090287234243,0.3512007149861874,0.09616808672029878
"1070430",210000,76.05225584728939,0.13524200216857477,0.5542362983511663
"1070430",225000,74.15820013233483,1.2307674441175518,1.623592569777888
"1070430",240000,73.50785983211031,0.7927719386769423,-1.111644630404563
"1070430",255000,73.3708006533711,0.5484934230564738,0.1224924920563253
"1070430",270000,72.36099806909364,0.3087416898700739,-0.06269205472696485
"1070430",285000,73.12012885496699,0.8668057896074282,0.014257125158589071
"1070430",300000,74.23281623571278,1.1954333441015903,-1.0691114976471636
"1070430",315000,73.93936225343396,0.8160171988458691,0.4836304410172042
"1070430",330000,68.37371926401302,3.1562359610830475,1.0145716565811158
"1070430",345000,69.37055874376783,2.8959461994288103,-0.37414506658555385
"1070430",360000,74.77635843341835,1.5183587563060357,-1.4385029617179883
"1070430",375000,73.09573641026476,2.6976858971903273,-0.05066167341920059
"1070430",390000,69.94064417267309,1.3673602186151512,-0.3946876199574523
"1070430",405000,72.92087637243567,1.2894119286423484,0.23762091769590993
"1070430",420000,73.91576633973587,1.4777116421668492,1.7334623391549784
"1070430",435000,74.52748338772284,1.784112028078364,-0.08408878386505679
"1070430",450000,66.25287606763756,2.07598546183216,-0.42281622993094
"1070430",465000,60.66766410240687,2.1267021914298514,-0.8612975323907461
"1070430",480000,57.67443912799672,1.3105099887205816,0.41580443125495253
"1070430",495000,65.40552997399608,3.508565143443087,-0.36032848703358644
"1070430",510000,66.24662847801612,3.6523923894604464,0.348740318376615
"1070430",525000,57.121730690602085,2.92492126555683,-0.27129951326878204
"1085412",0,45.895309745979354,0.28157050361383923,0.003575116877937728
"1085412",15000,52.19815075827023,3.422320877894309,-0.47367589124075354
"1085412",30000,56.686248334047725,1.0664286480199987,-0.04966766072175569
"1085412",45000,67.50758848682656,5.683142637359548,-0.18442208581049707
"1085412",60000,63.710349823692795,2.872424549564639,1.129276542872128
"1085412",75000,65.76038157851328,4.153172332071844,-0.05537648211181694
"1085412",90000,58.67631871980206,3.4113403680119156,0.46466519768252423
"1085412",105000,57.7834526372261,3.261678040420961,0.969630533939015
"1085412",120000,68.42713804129197,2.5127729022858287,0.2865781107510408
"1085412",135000,72.69072492231471,1.5616906580621461,-0.23986089122467888
"1085412",150000,64.1207633036112,2.6404845975423714,-1.211027768057936
"1085412",165000,65.31605367027174,3.1558332814407306,-0.7385724094755532
"1085412",180000,71.03858028986333,1.3455773041358527,0.30972570773589425
"1085412",195000,72.17134197236777,1.4873322365277335,0.1958994666119006
"1085412",210000,72.2831231626638,0.7642537141063729,0.22982720286049382
"1085412",225000,73.06119209129095,0.180949392776671,0.2461014551395197
"1085412",240000,73.2326279797402,0.7088416896865295,0.2476864120432778
"1085412",255000,72.03316530296074,0.932854124571556,-0.5747304775179459
"1085412",270000,66.40711152657357,3.694443388136612,0.8974955256519757
"1085412",285000,64.68553167500006,2.666941327027707,0.22641361978115654
"1085412",300000,66.98256345302212,1.4762261021021623,-0.4240703269147027
"1085412",315000,66.76449920877934,1.3209930745895888,0.7182792570223276
"1085412",330000,68.25092012786061,0.858458783341744,-0.720923337225324
"1085412",345000,65.25562517750168,0.3930360023274448,2.271275855357955
"1085412",360000,69.85798735477539,1.1438730347540615,-1.8351380490180906
"1085412",375000,71.57208882243701,1.0386204414968379,0.5005890049552755
"1085412",390000,66.68412808571287,1.7453273088641486,0.30945941335692806
"1085412",405000,68.34874637773548,1.2779580885445345,-0.81558120732245
"1085412",420000,59.41298981359388,5.5475033887478435,0.21348018970142899
"1085412",435000,52.13699313435178,3.0466002377411425,1.0736166371982483
"1085412",450000,65.24109804957051,2.310887763124942,-1.5738233235819086
"1085412",465000,62.251474613702186,3.3820273500874007,-0.13936881114904648
"1085412",480000,50.168710218758996,3.57294744420733,0.08414002525131954
"1085412",495000,42.89650806338174,0.0,NaN
"1085412",510000,42.862494545747566,0.0,NaN
"1085412",525000,42.823827448810086,0.0,NaN
"1085412",540000,42.84829927423194,0.0,NaN
"1085412",555000,42.82866179704783,0.0,NaN
"1085412",570000,42.87033007689115,0.0,NaN
"1085412",585000,42.87846723772447,0.0,NaN
"1085412",600000,42.9533061052326,0.0,NaN
"1085412",615000,44.35320333434077,0.0,NaN
"1085412",630000,44.54220964548187,0.0,NaN
"1085412",645000,44.552113702637435,0.0,NaN
"1085412",660000,44.50042102960847,0.0,NaN
"1085412",675000,44.47863368753893,0.0,NaN
"1085412",690000,44.84073004480237,0.14925920420619213,-0.1563215834504847
"1085412",705000,43.68579209784195,0.5091312941761817,0.4125708754790417
"1085412",720000,42.88434789261794,0.39322674002801744,1.32249226920475
"1085412",735000,45.38021772901382,0.6318535253794997,-0.5632941526887157
"1085412",750000,45.82561932410025,0.42877443716605546,-0.8416078356488631
"1085412",765000,44.47598443205549,0.3143465254823355,-0.5568559890517433
"1085412",780000,44.64941644205914,0.17074701051598123,0.6639186253558653
"1085412",795000,45.54327166876825,0.5303377082406476,0.27212980379230073
"1085412",810000,46.34354237608253,0.21733252486787016,-0.31745877140560164
"1085412",825000,45.673980009282,0.6448279536836811,0.15171131960012993
"1085412",840000,42.986597484353396,0.5797502100422393,0.5392120702023095
"1085412",855000,50.77729613393221,6.461527218636256,0.3926422392171955
"1085412",870000,62.85428208366112,1.3167610629792366,0.42366164616552077
"1085412",885000,54.08717046906721,3.558679125171895,0.7748336847844199
"1085412",900000,45.30910766460925,2.603668984410949,0.6919157761072529
"1085412",915000,43.611431065845224,0.47982508107958594,-0.22377053281005635
"1085412",930000,43.10962812432998,0.3446395342875762,-0.577698237981794
"1085412",945000,42.49175290294881,0.19574744217202372,0.7037378683152001
"1085412",960000,42.93442905542683,0.07291767974922397,0.0023923440276851396
"1085412",975000,44.162559872614494,1.9287051907281185,1.016586994538168
"1085412",990000,52.530592929565536,2.4278655102622517,-0.3857281517866443
"1085412",1005000,49.45625697129746,3.172388050489466,0.7016171566343252
"1085412",1020000,44.63428654796118,1.4207512617770974,0.329621136782763
"1085412",1035000,46.884319895829634,0.12530942812103707,-0.10912256507671125
"1085412",1050000,45.552242903658275,1.076388971421475,0.014220525933104501
"1085412",1065000,50.04610076265607,3.671010181728799,0.15363114954133783
"1085412",1080000,65.24371276641064,3.5287126203648773,-0.3445669013924812
"1085412",1095000,60.32468014864567,4.833220856089055,-0.2527778671229188
"1085412",1110000,48.229652144882614,2.964219515657576,0.21696129358892707
"1085412",1125000,43.72995961131277,0.35306470039523047,-0.8770546815029276
"1085412",1140000,43.591669605178666,0.44446827177476267,1.2840583764502418
"1085412",1155000,45.97023506201424,1.674785069209421,0.2635739314420934
"1071522",0,45.895309745979354,0.28157050361383923,0.003575116877937728
"1071522",15000,52.19815075827023,3.422320877894309,-0.47367589124075354
"1071522",30000,56.686248334047725,1.0664286480199987,-0.04966766072175569
"1071522",45000,67.50758848682656,5.683142637359548,-0.18442208581049707
"1071522",60000,63.710349823692795,2.872424549564639,1.129276542872128
"1071522",75000,65.76038157851328,4.153172332071844,-0.05537648211181694
"1071522",90000,58.67631871980206,3.4113403680119156,0.46466519768252423
"1071522",105000,57.7834526372261,3.261678040420961,0.969630533939015
"1071522",120000,68.42713804129197,2.5127729022858287,0.2865781107510408
"1071522",135000,72.69072492231471,1.5616906580621461,-0.23986089122467888
"1071522",150000,64.1207633036112,2.6404845975423714,-1.211027768057936
"1071522",165000,65.31605367027174,3.1558332814407306,-0.7385724094755532
"1071522",180000,71.03858028986333,1.3455773041358527,0.30972570773589425
"1071522",195000,72.17134197236777,1.4873322365277335,0.1958994666119006
"1071522",210000,72.2831231626638,0.7642537141063729,0.22982720286049382
"1071522",225000,73.06119209129095,0.180949392776671,0.2461014551395197
"1071522",240000,73.2326279797402,0.7088416896865295,0.2476864120432778
"1071522",255000,72.03316530296074,0.932854124571556,-0.5747304775179459
"1071522",270000,66.40711152657357,3.694443388136612,0.8974955256519757
"1071522",285000,64.68553167500006,2.666941327027707,0.22641361978115654
"1071522",300000,66.98256345302212,1.4762261021021623,-0.4240703269147027
"1071522",315000,66.76449920877934,1.3209930745895888,0.7182792570223276
"1071522",330000,68.25092012786061,0.858458783341744,-0.720923337225324
"1071522",345000,65.25562517750168,0.3930360023274448,2.271275855357955
"1071522",360000,69.85798735477539,1.1438730347540615,-1.8351380490180906
"1071522",375000,71.57208882243701,1.0386204414968379,0.5005890049552755
"1071522",390000,66.68412808571287,1.7453273088641486,0.30945941335692806
"1071522",405000,68.34874637773548,1.2779580885445345,-0.81558120732245
"1071522",420000,59.41298981359388,5.5475033887478435,0.21348018970142899
"1071522",435000,52.13699313435178,3.0466002377411425,1.0736166371982483
"1071522",450000,65.24109804957051,2.310887763124942,-1.5738233235819086
"1071522",465000,62.251474613702186,3.3820273500874007,-0.13936881114904648
"1071522",480000,50.168710218758996,3.57294744420733,0.08414002525131954
"1071522",495000,42.89650806338174,0.0,NaN
"1071522",510000,42.862494545747566,0.0,NaN
"1071522",525000,42.83606336152101,0.017304193703807327,NaN
"1071522",540000,42.82866179704783,0.0,NaN
"1071522",555000,42.87033007689115,0.0,NaN
"1071522",570000,42.87846723772447,0.0,NaN
"1071522",585000,43.65325471978669,0.9898768236666449,NaN
"1071522",600000,44.54220964548187,0.0,NaN
"1071522",615000,44.552113702637435,0.0,NaN
"1071522",630000,44.50042102960847,0.0,NaN
"1071522",645000,44.47863368753893,0.0,NaN
"1071522",660000,44.687942422267454,0.0,NaN
"1071522",675000,44.8254156520714,0.0,NaN
"1071522",690000,44.864744618411784,0.15843557780059048,-0.6225863661124449
"1071522",705000,43.68579209784195,0.5091312941761817,0.4125708754790417
"1071522",720000,42.88434789261794,0.39322674002801744,1.32249226920475
"1071522",735000,45.38021772901382,0.6318535253794997,-0.5632941526887157
"1071522",750000,45.82561932410025,0.42877443716605546,-0.8416078356488631
"1071522",765000,44.47598443205549,0.3143465254823355,-0.5568559890517433
"1071522",780000,44.64941644205914,0.17074701051598123,0.6639186253558653
"1071522",795000,45.58675146929342,0.5314097484505964,0.0719145808751583
"1071522",810000,46.36704570613124,0.2138456208687856,-0.6082860883660288
"1071522",825000,45.673980009282,0.6448279536836811,0.15171131960012993
"1071522",840000,42.986597484353396,0.5797502100422393,0.5392120702023095
"1071522",855000,50.77729613393221,6.461527218636256,0.3926422392171955
"1071522",870000,62.85428208366112,1.3167610629792366,0.42366164616552077
"1071522",885000,54.08717046906721,3.558679125171895,0.7748336847844199
"1071522",900000,45.30910766460925,2.603668984410949,0.6919157761072529
"1071522",915000,43.611431065845224,0.47982508107958594,-0.22377053281005635
"1071522",930000,43.10962812432998,0.3446395342875762,-0.577698237981794
"1071522",945000,42.49175290294881,0.19574744217202372,0.7037378683152001
"1071522",960000,42.93442905542683,0.07291767974922397,0.0023923440276851396
"1071522",975000,44.162559872614494,1.9287051907281185,1.016586994538168
"1071522",990000,52.530592929565536,2.4278655102622517,-0.3857281517866443
"1071522",1005000,49.45625697129746,3.172388050489466,0.7016171566343252
"1071522",1020000,44.63428654796118,1.4207512617770974,0.329621136782763
"1071522",1035000,46.884319895829634,0.12530942812103707,-0.10912256507671125
"1071522",1050000,45.552242903658275,1.076388971421475,0.014220525933104501
"1071522",1065000,50.04610076265607,3.671010181728799,0.15363114954133783
"1071522",1080000,65.24371276641064,3.5287126203648773,-0.3445669013924812
"1071522",1095000,60.32468014864567,4.833220856089055,-0.2527778671229188
"1071522",1110000,47.812614403955735,3.174092230733465,0.20612577187332462
"1071522",1125000,43.78043564706804,0.32766607430251227,-1.321873889967709
"1071522",1140000,43.591669605178666,0.44446827177476267,1.2840583764502418
"1071522",1155000,45.97023506201424,1.674785069209421,0.2635739314420934
"1071522",1170000,49.98851752185988,0.7778563947928681,NaN
"1071522",1185000,50.35651996497536,0.0,NaN
"1071522",1200000,50.366836359533764,0.0,NaN
"1071522",1215000,49.16967376781925,0.0,NaN
"1071522",1230000,49.05618756731428,0.0,NaN
"1071522",1245000,49.9890940459823,0.0,NaN
"1071522",1260000,50.262706412181004,0.0,NaN
"1071522",1275000,50.396490186837426,0.0,NaN
"1071522",1290000,50.53841521806021,0.0,NaN
"1071522",1305000,50.34786176826726,0.0,NaN
"1071522",1320000,50.327155067791665,1.1013067595961037,-1.0984145770972717
"1071522",1335000,46.5343626980522,0.8139416712334006,0.9374507990397155
"1071522",1350000,44.99857936672193,0.24864233716154982,0.20218993681245936
"1071522",1365000,44.58073225630091,0.10845962257853824,0.053659389848327355
"1071522",1380000,44.5610338571276,0.35000768261544474,0.6967642079353036
"1071522",1395000,44.67984650172214,0.13031804251366091,0.2897648208845248
"1071522",1410000,47.78438959788821,2.7769338123075533,0.00706683077715475
"1071522",1425000,53.50858818753945,1.4672805260427568,-1.2058668737037685
"1071522",1440000,51.395275523963946,1.3223030506038764,0.49141731285435486
"1071522",1455000,48.257025777556585,1.3213431942946767,0.11558288894223995
"1071522",1470000,45.29026210042145,0.6503419431770896,1.220059353003947
"1071522",1485000,45.62882989866657,0.5093727287940963,2.3734069475925166
"1071522",1500000,46.46822889663575,0.2653948429335521,-0.4803909752572762
"1071522",1515000,45.22841301605066,0.9407862807773207,-0.7261077172198965
"1071522",1530000,43.94147984619466,0.13556041756349516,0.5325585371268501
"1071522",1545000,45.58193046985757,1.1715210063139647,1.374244165832486
"1071522",1560000,54.292515084850955,4.085905266656496,-0.2624739419934906
"1071522",1575000,54.65542233587511,2.4089109576237595,0.548209692669328
"1071522",1590000,47.07637829908236,1.476008438324102,1.1212217707342456
"1071522",1605000,45.20878055082059,1.5717998728802924,-0.169555126301854
"1071522",1620000,42.99643159598913,0.47746357173333387,-0.09555397568756276
"1071522",1635000,42.904738171265784,0.25545969310785055,0.7626330191149115
"1071522",1650000,43.93136631387362,0.5498411740482149,-0.11738279174269226
"1071522",1665000,46.855684351809735,0.613727372401466,-1.4931311472795308
"1071522",1680000,45.69002416306805,0.8547671377736681,-1.465366760078547
"1071522",1695000,43.00661038173174,0.44544981003520856,1.1607264687685948
"1071522",1710000,44.36363934502638,0.4450787420761913,0.7073752001489162
"1071522",1725000,48.01077246341349,1.061574286732696,-1.4982275078818308
"1071522",1740000,49.550091017166466,0.6999178541893627,-0.21951852938381833
"1071522",1755000,51.08865410410239,1.1923037619891041,-0.3264883273780465
"1071522",1770000,52.64863034692431,0.17694765509354238,-0.39362477663671347
"1071522",1785000,53.1563741327945,0.23589654812007643,0.17433050412803677
"1071522",1800000,63.0194211676669,0.0,NaN
"1071522",1815000,63.271847333890435,0.0,NaN
"1071522",1830000,63.57147738524155,0.0,NaN
"1071522",1845000,63.896314173065086,0.0,NaN
"1071522",1860000,64.19281123964771,0.0,NaN
"1071522",1875000,64.36272083318829,0.0,NaN
"1071522",1890000,64.59552248599745,0.0,NaN
"1071522",1905000,64.69269138631908,0.0,NaN
"1071522",1920000,70.21838186851944,2.432701584290607,0.5589893997654783
"1071522",1935000,59.31066157181853,3.4843313332303913,0.3287631089082693
"1071522",1950000,58.206300948248156,3.4121229462173046,-0.32198281360729086
"1071522",1965000,59.182234463731376,1.6032221925104841,0.8350563509468661
"1071522",1980000,61.713007687843245,3.7539673244158607,0.7354980673851584
"1071522",1995000,64.51596595762366,1.906202614312053,-0.2971028212500811
"1071522",2010000,63.38468461934913,1.1839319817976908,-0.8864994500824884
"1071522",2025000,60.566551843974274,1.8803979759134524,-0.3345952062945068
"1071522",2040000,68.54331272956365,3.1300400625467475,-0.4253334962182779
"1071522",2055000,58.79784646144278,5.0780709374740685,0.018778802015713737
"1071522",2070000,50.56186054031984,1.5647366468424053,0.2009677313756925
"1071522",2085000,60.83753630964258,3.3274084449199632,0.06656484309586394
"1071522",2100000,63.86493555271541,2.927778963500141,-0.10522087190500183
"1071522",2115000,56.28983173084257,1.0503474051133224,0.2183304555554391
"1071522",2130000,56.62597798115854,1.4678796491867294,0.6856506330633872
"1071522",2145000,51.351963054560215,1.6697432305734836,0.5515694581729564
"1071522",2160000,55.76179381412666,4.454789013061165,-0.049817798147601684
"1071522",2175000,61.83256267019723,3.206663407759986,-0.6817038005890763
"1071522",2190000,64.20329576333563,3.80730223557467,0.2242312117556886
"1071522",2205000,65.93155560171992,4.0580336637896215,0.2869922215206024
"1071522",2220000,58.04954606498526,1.2192173385117666,0.015071774329448657
"1071522",2235000,64.31458674819352,2.37816667883166,-0.5325490220277712
"1071522",2250000,63.98950807995557,2.0432888478779505,-1.2869361379423714
"1071522",2265000,60.416530881734985,1.858908020381588,-0.36963963321225846
"1071522",2280000,63.094329058007474,2.2717003622591205,0.5272653994573984
"1071522",2295000,61.058495730324175,1.630491412108382,1.9125439568576965
"1071522",2310000,68.60205197433218,3.2426538786198638,0.2624651486624459
"1071522",2325000,68.39952459713906,0.8021175376210583,-0.32496821365660306
"1071522",2340000,63.45708668626243,3.9441332008368026,0.8434919582139239
"1071522",2355000,58.83209464027355,2.013272090899325,-0.43700778233006093
"1071522",2370000,58.01720220444467,1.8041456871081074,0.3204828541107262
"1071522",2385000,50.873004305199174,1.6377535579129097,0.4057526720854856
"1071522",2400000,46.36173455696337,0.6081186689147169,0.3995095863388558
"1071522",2415000,47.66651813536381,1.1715308365781103,1.5162232831127689
"1071522",2430000,50.64897782735451,0.27630772862806796,0.3316071446469815
"1080903",0,41.50500902619828,20.352823933894545,-2.4388441742083105
"1080903",15000,67.70053278626789,0.0,NaN
"1080903",30000,65.8201139576543,0.0,NaN
"1080903",45000,66.53563213203064,0.0,NaN
"1080903",60000,64.11047517081434,0.0,NaN
"1080903",75000,59.2963511844113,2.3374686643072735,0.47188569850171025
"1080903",90000,64.83739876096651,3.4765444608864766,-0.7606805410988496
"1080903",105000,60.981376286015156,2.9867109708938466,0.6051348215034814
"1080903",120000,66.91909231279807,6.280069448158105,-0.0026998763475634675
"1080903",135000,76.00052396113801,1.1491724597487003,-1.0684807067756543
"1080903",150000,68.8964351790753,5.270891585372423,0.6968495335168583
"1080903",165000,67.0646300345457,3.5206983275026906,0.2582077386959156
"1080903",180000,70.80530961474177,1.0059917048988627,-0.33517457953003993
"1080903",195000,73.70363933863135,0.6254239636412627,0.7859187230379949
"1080903",210000,61.644710576000115,5.132591988242526,0.5740064399792209
"1080903",225000,56.23139612480203,1.9597712696712333,0.19050820785166273
"1080903",240000,64.61549020718971,2.110534485965272,0.6855996654138575
"1080903",255000,63.990889613913865,4.208791134955174,0.29449022298900696
"1080903",270000,56.15106863767783,2.6726339678485553,1.265796781131152
"1080903",285000,51.395365475558116,2.1288203515004684,0.4928190505775696
"1080903",300000,47.649157622460926,0.575905116777796,0.15218155571171715
"1080903",315000,60.88305443448721,7.692036830158595,0.20908311437424482
"1080903",330000,64.51283285874763,4.894692499841511,-0.09195671754691015
"1080903",345000,62.87149528756876,4.825478366473697,0.8311250083917604
"1080903",360000,67.71485466443568,2.499153702020594,0.8290544687061434
"1080903",375000,61.181911382673384,1.48520767303702,0.4030561101333759
"1080903",390000,55.13660512668539,2.4673509420485216,0.8973986638024396
"1080903",405000,71.06792331733166,6.456029766078864,-0.689823804658898
"1080903",420000,70.16917397735489,5.44143879335833,0.25177633753804923
"1080903",435000,62.45108543210077,1.4072053518136447,0.33218616123495126
"1080903",450000,54.68854891825214,2.729754562187113,1.0887463128733397
"1080903",465000,61.974161175222825,6.9081909927110585,-0.24434881573754555
"1080903",480000,71.25205822098653,1.9852065403463242,0.8244991829440701
"1080903",495000,64.33132502755315,2.6499537308410437,0.8021358292413573
"1080903",510000,54.45453908510653,3.046593556937264,0.39437565760672316
"1080903",525000,47.4983949687043,1.2308530495540104,-0.1189944228497504
"1080903",540000,48.73645041190839,0.28563827719043394,-0.31144892261391255
"1071203",0,45.895309745979354,0.28157050361383923,0.003575116877937728
"1071203",15000,52.19815075827023,3.422320877894309,-0.47367589124075354
"1071203",30000,56.686248334047725,1.0664286480199987,-0.04966766072175569
"1071203",45000,67.50758848682656,5.683142637359548,-0.18442208581049707
"1071203",60000,63.710349823692795,2.872424549564639,1.129276542872128
"1071203",75000,65.76038157851328,4.153172332071844,-0.05537648211181694
"1071203",90000,58.67631871980206,3.4113403680119156,0.46466519768252423
"1071203",105000,57.7834526372261,3.261678040420961,0.969630533939015
"1071203",120000,68.42713804129197,2.5127729022858287,0.2865781107510408
"1071203",135000,72.69072492231471,1.5616906580621461,-0.23986089122467888
"1071203",150000,64.1207633036112,2.6404845975423714,-1.211027768057936
"1071203",165000,65.31605367027174,3.1558332814407306,-0.7385724094755532
"1071203",180000,71.03858028986333,1.3455773041358527,0.30972570773589425
"1071203",195000,72.17134197236777,1.4873322365277335,0.1958994666119006
"1071203",210000,72.2831231626638,0.7642537141063729,0.22982720286049382
"1071203",225000,73.06119209129095,0.180949392776671,0.2461014551395197
"1071203",240000,73.2326279797402,0.7088416896865295,0.2476864120432778
"1071203",255000,72.03316530296074,0.932854124571556,-0.5747304775179459
"1071203",270000,66.40711152657357,3.694443388136612,0.8974955256519757
"1071203",285000,64.68553167500006,2.666941327027707,0.22641361978115654
"1071203",300000,66.98256345302212,1.4762261021021623,-0.4240703269147027
"1071203",315000,66.76449920877934,1.3209930745895888,0.7182792570223276
"1071203",330000,68.25092012786061,0.858458783341744,-0.720923337225324
"1071203",345000,65.25562517750168,0.3930360023274448,2.271275855357955
"1071203",360000,69.85798735477539,1.1438730347540615,-1.8351380490180906
"1071203",375000,71.57208882243701,1.0386204414968379,0.5005890049552755
"1071203",390000,66.68412808571287,1.7453273088641486,0.30945941335692806
"1071203",405000,68.34874637773548,1.2779580885445345,-0.81558120732245
"1071203",420000,59.41298981359388,5.5475033887478435,0.21348018970142899
"1071203",435000,52.13699313435178,3.0466002377411425,1.0736166371982483
"1071203",450000,65.24109804957051,2.310887763124942,-1.5738233235819086
"1071203",465000,62.251474613702186,3.3820273500874007,-0.13936881114904648
"1071203",480000,50.168710218758996,3.57294744420733,0.08414002525131954
"1071203",495000,42.89650806338174,0.0,NaN
"1071203",510000,42.862494545747566,0.0,NaN
"1071203",525000,42.83606336152101,0.017304193703807327,NaN
"1071203",540000,42.82866179704783,0.0,NaN
"1071203",555000,42.87033007689115,0.0,NaN
"1071203",570000,42.87846723772447,0.0,NaN
"1071203",585000,43.65325471978669,0.9898768236666449,NaN
"1071203",600000,44.54220964548187,0.0,NaN
"1071203",615000,44.552113702637435,0.0,NaN
"1071203",630000,44.50042102960847,0.0,NaN
"1071203",645000,44.47863368753893,0.0,NaN
"1071203",660000,44.687942422267454,0.0,NaN
"1071203",675000,44.8254156520714,0.0,NaN
"1071203",690000,44.864744618411784,0.15843557780059048,-0.6225863661124449
"1071203",705000,43.68579209784195,0.5091312941761817,0.4125708754790417
"1071203",720000,42.88434789261794,0.39322674002801744,1.32249226920475
"1071203",735000,45.38021772901382,0.6318535253794997,-0.5632941526887157
"1071203",750000,45.82561932410025,0.42877443716605546,-0.8416078356488631
"1071203",765000,44.47598443205549,0.3143465254823355,-0.5568559890517433
"1071203",780000,44.64941644205914,0.17074701051598123,0.6639186253558653
"1071203",795000,45.58675146929342,0.5314097484505964,0.0719145808751583
"1071203",810000,46.36704570613124,0.2138456208687856,-0.6082860883660288
"1071203",825000,45.673980009282,0.6448279536836811,0.15171131960012993
"1071203",840000,42.986597484353396,0.5797502100422393,0.5392120702023095
"1071203",855000,50.77729613393221,6.461527218636256,0.3926422392171955
"1071203",870000,62.85428208366112,1.3167610629792366,0.42366164616552077
"1071203",885000,54.08717046906721,3.558679125171895,0.7748336847844199
"1071203",900000,45.30910766460925,2.603668984410949,0.6919157761072529
"1071203",915000,43.611431065845224,0.47982508107958594,-0.22377053281005635
"1071203",930000,43.10962812432998,0.3446395342875762,-0.577698237981794
"1071203",945000,42.49175290294881,0.19574744217202372,0.7037378683152001
"1071203",960000,42.93442905542683,0.07291767974922397,0.0023923440276851396
"1071203",975000,44.162559872614494,1.9287051907281185,1.016586994538168
"1071203",990000,52.530592929565536,2.4278655102622517,-0.3857281517866443
"1071203",1005000,49.45625697129746,3.172388050489466,0.7016171566343252
"1071203",1020000,44.63428654796118,1.4207512617770974,0.329621136782763
"1071203",1035000,46.884319895829634,0.12530942812103707,-0.10912256507671125
"1071203",1050000,45.552242903658275,1.076388971421475,0.014220525933104501
"1071203",1065000,50.04610076265607,3.671010181728799,0.15363114954133783
"1071203",1080000,65.24371276641064,3.5287126203648773,-0.3445669013924812
"1071203",1095000,60.32468014864567,4.833220856089055,-0.2527778671229188
"1071203",1110000,47.812614403955735,3.174092230733465,0.20612577187332462
"1071203",1125000,43.78043564706804,0.32766607430251227,-1.321873889967709
"1071203",1140000,43.591669605178666,0.44446827177476267,1.2840583764502418
"1071203",1155000,45.97023506201424,1.674785069209421,0.2635739314420934
"1071203",1170000,49.438489990312526,0.0,NaN
"1071203",1185000,50.53854505340724,0.0,NaN
"1071203",1200000,50.35651996497536,0.0,NaN
"1071203",1215000,50.366836359533764,0.0,NaN
"1071203",1230000,49.16967376781925,0.0,NaN
"1071203",1245000,49.05618756731428,0.0,NaN
"1071203",1260000,49.9890940459823,0.0,NaN
"1071203",1275000,50.262706412181004,0.0,NaN
"1071203",1290000,50.396490186837426,0.0,NaN
"1071203",1305000,50.53841521806021,0.0,NaN
"1071203",1320000,50.32945581228895,1.0302012653931938,-1.140853524734494
"1071203",1335000,46.5343626980522,0.8139416712334006,0.9374507990397155
"1071203",1350000,44.99857936672193,0.24864233716154982,0.20218993681245936
"1071203",1365000,44.58073225630091,0.10845962257853824,0.053659389848327355
"1071203",1380000,44.5610338571276,0.35000768261544474,0.6967642079353036
"1071203",1395000,44.67984650172214,0.13031804251366091,0.2897648208845248
"1071203",1410000,47.78438959788821,2.7769338123075533,0.00706683077715475
"1071203",1425000,53.50858818753945,1.4672805260427568,-1.2058668737037685
"1071203",1440000,51.395275523963946,1.3223030506038764,0.49141731285435486
"1071203",1455000,48.257025777556585,1.3213431942946767,0.11558288894223995
"1071203",1470000,45.29026210042145,0.6503419431770896,1.220059353003947
"1071203",1485000,45.62882989866657,0.5093727287940963,2.3734069475925166
"1071203",1500000,46.46822889663575,0.2653948429335521,-0.4803909752572762
"1071203",1515000,45.22841301605066,0.9407862807773207,-0.7261077172198965
"1071203",1530000,43.916200856496694,0.10853169520932882,-0.021900232836223398
"1071203",1545000,45.47713187470485,1.1835815862512757,1.3677120045312017
"1071203",1560000,54.292515084850955,4.085905266656496,-0.2624739419934906
"1071203",1575000,54.65542233587511,2.4089109576237595,0.548209692669328
"1071203",1590000,47.07637829908236,1.476008438324102,1.1212217707342456
"1071203",1605000,45.20878055082059,1.5717998728802924,-0.169555126301854
"1071203",1620000,42.99643159598913,0.47746357173333387,-0.09555397568756276
"1071203",1635000,42.904738171265784,0.25545969310785055,0.7626330191149115
"1071203",1650000,43.89596287200765,0.5621502642176366,0.06756069310942751
"1071203",1665000,46.644444337025526,0.936956497681538,-1.7081544765821237
"1071203",1680000,45.69002416306805,0.8547671377736681,-1.465366760078547
"1071203",1695000,43.00661038173174,0.44544981003520856,1.1607264687685948
"1071203",1710000,44.36363934502638,0.4450787420761913,0.7073752001489162
"1071203",1725000,47.9457791266758,1.0755396787187872,-1.4141563762261966
"1071203",1740000,49.49222391915288,0.6968021345874765,-0.006825169097866849
"1071203",1755000,51.08865410410239,1.1923037619891041,-0.3264883273780465
"1071203",1770000,52.639772325405154,0.18091333033799092,-0.25582885357815516
"1071203",1785000,53.10028991763433,0.26151620506207257,0.2269506668141451
"1070408",0,54.553144221873865,3.022463151927341,-0.5366299817769048
"1070408",15000,46.8714326629218,1.1114357696545354,-0.6554507676690455
"1070408",30000,45.02496935099382,0.32578702288571365,0.053202011096121216
"1070408",45000,44.83997724830674,0.19860111409967499,0.9645769707123772
"1070408",60000,43.72997123966155,0.5110948836509798,-0.17254395854326313
"1070408",75000,45.54492730374152,1.1459036089530825,0.19606607611286023
"1070408",90000,48.53058000064439,0.6999793024370676,-0.21683425970557796
"1070408",105000,50.60121692073343,2.3863401677250473,-0.28891634032939467
"1070408",120000,54.677595975902214,1.7501370899398916,0.1453832491321605
"1070408",135000,47.450441160413355,1.4940173960728282,1.4631054899342644
"1070408",150000,54.99159227493275,5.440627082253425,0.16733891816882374
"1070408",165000,61.55034613267043,1.4520390400251966,0.33719797280194674
"1070408",180000,57.65761599316744,0.8612025643091687,0.5580611742649235
"1070408",195000,57.88730178216582,1.2509130940547337,-0.18768463171473954
"1070408",210000,61.07424089685193,2.1464804922387253,0.6299695716838462
"1070408",225000,64.32056475508546,1.3978296965119297,0.021618076959054443
"1070408",240000,66.19140631540444,1.744219056595716,0.8711168518474303
"1070408",255000,63.9367586691021,4.630102944921427,-0.2236754186649094
"1070408",270000,53.652374897051594,2.3038739858565367,0.9805231769067834
"1070408",285000,55.128923401570916,1.492334606714756,0.7894120861137549
"1070408",300000,54.12725512605258,1.8385605393602316,0.1468062256200879
"1070408",315000,52.610142866099466,1.4007710142767473,0.488762836456663
"1070408",330000,48.102696508604026,2.092418911543943,0.8745588683398934
"1070408",345000,51.209399215377225,3.8961284183015423,0.8050768984449244
"1070408",360000,60.23648946821594,1.9451107169981896,1.5120175233242121
"1070408",375000,57.27434086898205,2.7409007674305905,0.25261045171284047
"1070408",390000,62.14401683018877,3.1574368946505307,-0.4232460683020357
"1070408",405000,61.91398560539686,2.850850568663333,0.2955515422064125
"1070408",420000,51.21437176889962,3.5409417065038684,0.4879303470970547
"1070408",435000,52.567475798365386,3.6883556318993853,0.0422328883234825
"1070408",450000,68.08054354127235,3.6635196172842734,-0.3247254036208757
"1070408",465000,70.2557933503192,3.740395799032472,0.08828222698024268
"1070408",480000,70.24899985066449,3.7061544998426923,0.5562235841223432
"1070408",495000,73.013482556494,2.8401875043539557,-1.9610369754249355
"1070408",510000,58.4637286809944,3.7571617507244617,-0.4992117024595154
"1070408",525000,51.52318970733019,0.5715672116179354,-0.5851734864603925
"1070408",540000,53.669864052356594,1.4240798157163068,-0.21997777684675626
"1070408",555000,51.70192033020219,2.439993742943732,0.05828618745953885
"1070408",570000,47.48730971369123,1.839814589800895,0.278069113675135
"1070408",585000,46.030890279626014,1.3286054440146147,1.1188737130797584
"1070408",600000,51.169366709471895,2.7991653158414187,0.4876959073828432
"1070408",615000,53.229986577365864,1.278434856873637,0.20096993998224588
"1070408",630000,52.30241506949612,1.318913855503544,0.341747812666122
"1070408",645000,55.894050026788605,3.154320472945849,0.5261584312260166
"1070408",660000,52.5727105839595,1.513845542167905,0.8270627498261308
"1070408",675000,53.25479981672454,2.6614911556781378,0.07327932225853172
"1070408",690000,54.95849780624306,1.888145760334097,0.34382592992507455
"1070408",705000,58.99686406173892,2.017000140704444,-0.2989010536755794
"1070408",720000,54.79345525099616,2.2072263519119986,0.22376883974761627
"1070408",735000,51.29841638349833,1.303747286797852,-0.04602836365462462
"1070408",750000,52.18901764658347,1.7381580740098788,0.03294510374660411
"1070408",765000,51.75116834067579,2.661561285858937,0.7971227451395178
"1070408",780000,58.42417441639343,1.2246331437103413,-0.9917738406238398
"1070408",795000,57.477291907782785,2.1402220993428234,-0.14502652816699807
"1070408",810000,55.51308885603061,1.4394092355080441,-0.3627300830692658
"1070408",825000,49.6013775865573,2.161450171874805,0.6883617421487453
"1070408",840000,52.59759410177809,2.4714928044719913,-0.5757918663866053
"1070408",855000,58.782216462361866,2.562311015323494,-0.12079866342134385
"1070408",870000,59.67524916986153,4.057829776452729,0.00737931374017736
"1070408",885000,50.92292146729325,3.455892262008275,-0.20549017629515928
"1070408",900000,45.033323889734476,0.30595741844129354,0.21253099081809246
"1070408",915000,45.580978177949476,0.8509377960206633,0.17724866837697908
"1070408",930000,54.697599806519484,4.977385639392229,-0.25084401023655006
"1070408",945000,63.40654288833191,3.1781507573067453,0.22427133741671262
"1070408",960000,55.59552370050888,2.6624301081214488,0.32435256006391266
"1070408",975000,48.71629445214317,2.0741891494562212,0.2625755704250078
"1070408",990000,46.42339500679479,0.8293085508375801,0.6542111137564659
"1070408",1005000,47.564255343052615,0.7305574585856711,-0.011815169107717533
"1070408",1020000,46.83263896399998,0.49553784935875056,-1.417294514020874
"1070416",0,63.545232846445835,2.2758045634384487,0.37970853490860346
"1070416",15000,61.528304263380534,1.4917413589671746,0.3870757140596238
"1070416",30000,61.46050496158302,2.6174861595614134,0.07454928124903853
"1070416",45000,55.26442487149263,2.1112438739038213,0.6981735175943949
"1070416",60000,61.28296125367665,2.249197199748081,-0.014042169424215335
"1070416",75000,58.12645128334851,2.3511497619842165,6.204258759614323E-4
"1070416",90000,51.8110913710753,1.3032107520097813,0.12356012657034303
"1070416",105000,55.66566176820804,2.84963695699448,0.9818949241585818
"1070416",120000,62.870320910581,1.7984398477144445,-0.22020829208563658
"1070416",135000,62.11584775149362,0.8601427207738419,-0.46815858098994184
"1070416",150000,61.489096007015114,1.2702689091627073,-0.45394385765493
"1070416",165000,58.370603519225234,2.077873672164138,0.15157755864306635
"1070416",180000,60.75166618377519,3.261218520717578,0.015930556021224087
"1070416",195000,65.8473546335554,1.4151110781771008,-0.9022814075475801
"1070416",210000,60.47115263541692,2.1355829110350357,-0.5869027431379215
"1070416",225000,54.586353341518574,1.41246680470939,1.1936168137048773
"1070416",240000,53.46608119520757,1.0069323243605408,-0.8106994297676958
"1070416",255000,54.935592381630194,1.5169595979050725,-0.1806990250166923
"1070416",270000,65.55422919312312,3.2521404572093275,-1.0926176587496235
"1070416",285000,61.386765434466106,5.5782419739770255,-0.0823482900962325
"1070416",300000,49.41798957427623,1.3454494341218817,0.50860544474757
"1070416",315000,48.673341782154054,0.8439110803884,0.23710554614158855
"1070416",330000,49.71333010843407,0.5255744817531074,-0.3515964022728642
"1070416",345000,47.85529039280692,0.9948277273124906,0.06229307054310875
"1070416",360000,46.2431384315407,0.22172119857206,1.160073851330088
"1070416",375000,50.30778048515432,1.6732783032407748,-0.5264334574641973
"1070416",390000,54.06112714296886,1.7270705837278817,-0.1946522286244235
"1070416",405000,48.807434060751106,2.213723441035828,-0.05240175401154601
"1070416",420000,46.693649910677784,1.373071138734674,1.4390086289747892
"1070416",435000,58.96839406958121,5.75288893537816,0.31036146611359244
"1070416",450000,62.37937332539417,2.4681321551080773,0.43031759220531474
"1070416",465000,58.79790260023531,1.6686943647789245,-1.0204709562657683
"1070416",480000,54.859100412159954,3.3743163216869534,-0.03737389003608673
"1070416",495000,47.702448012920925,1.9752541193918443,0.6859486801047274
"1070416",510000,47.50171580287559,0.7509866326619388,-0.5752176935301211
"1070416",525000,48.89526311908586,0.41081990078620223,0.3252611911908325
"1070416",540000,48.75028244694899,0.0,NaN
"1070401",0,61.59448772341393,0.48743866138286307,0.504142813998372
"1070401",15000,62.62105610591615,0.3624122233975136,-1.3311301005047458
"1070401",30000,60.63802730985025,0.468455695597601,0.21229766905669303
"1070401",45000,61.37520461744896,0.6537977349367906,-0.3217578246490842
"1070401",60000,62.468118821172105,0.2299861801091542,0.7300545494514236
"1070401",75000,63.20351136729255,0.23118449849190156,-0.9083400478281857
"1070401",90000,62.24484105447704,0.1742955692594273,-0.2842954101994782
"1070401",105000,62.44881405181767,0.18731107995668747,0.6759843586734806
"1070401",120000,63.344744182821046,0.16704242364660515,-0.594388150201226
"1070401",135000,63.137040279306305,0.11776441962860232,0.29208257293483536
"1070401",150000,62.72824647991225,0.18374619031367262,0.9086991912435552
"1070401",165000,63.45358531393955,0.6250384584881118,-0.16182497944631488
"1070401",180000,63.06791707712594,0.8413577233796417,-0.4205226106216282
"1070401",195000,61.41884837804442,0.2964803288415456,-0.35305286435146327
"1070401",210000,60.22205710534851,0.4917425406854516,0.12431163085585799
"1070401",225000,59.482847763926884,0.12036523376228159,0.8064818056941212
"1070401",240000,60.738767183750184,0.7230235821488225,-0.17797184395508295
"1070401",255000,61.41069006595404,0.4088216182739351,-0.8925518151297553
"1070401",270000,60.08211118392797,0.3212335942606847,0.694259323745133
"1070401",285000,61.39100785731328,1.01591654642479,0.02857427969394524
"1070401",300000,62.83337029221559,0.5792039543973152,-0.8023565863255987
"1070401",315000,61.11140029294497,0.33326845077272044,0.23210437506432022
"1070401",330000,61.2793482959919,0.2181384545220806,0.12937037559578005
"1070401",345000,61.12554417101778,0.33082314216245007,0.1853519190489583
"1070401",360000,59.57570213115218,0.6713484185052175,0.48539215645398526
"1070401",375000,58.20668440338873,0.1510210498647465,-0.3525877235835203
"1070401",390000,57.85813738250612,0.5031052735349479,-0.8245775103031163
"1070401",405000,55.96835354472419,0.7352718326993605,0.2746134746493213
"1070401",420000,58.12514982699493,1.7279161580360785,0.3404228311811861
"1070401",435000,64.46855039742354,1.3951190615985258,-0.0485697993310029
"1070401",450000,68.99061944578256,1.1643982791545597,0.05753473280978121
"1070401",465000,72.61343153057264,0.8668161570123452,-0.5638417392691882
"1070401",480000,71.12753104297366,1.2272783798516356,-0.09923606199842243
"1070401",495000,68.77771572810353,0.27677660347170807,-0.5075049685760338
"1070401",510000,68.37355955193706,0.2622345326979731,-0.4096729900493108
"1080323",0,69.31131014052346,0.5639422029032447,-1.097323267909181
"1080323",15000,68.32308755844015,0.5544203031965389,0.32800693438177597
"1080323",30000,67.22050803587766,0.5385132246235556,0.7889171665167694
"1080323",45000,65.44469986660657,0.3761011282824066,-0.25565508303989465
"1080323",60000,64.35814068474507,0.25071335837994463,-0.6093663610355721
"1080323",75000,64.34327422521247,0.4739762796820936,1.0742272987389776
"1080323",90000,66.30681274416193,0.458541968132525,-0.023347624544111163
"1080323",105000,65.22847755063383,0.3437697785675289,-0.5443951617993227
"1080323",120000,65.06481698921141,0.20286331737188495,1.2439123082146946
"1080323",135000,69.13124295548198,1.6589818106691814,-0.6007533995026181
"1080323",150000,70.20937664960364,0.9339524276496566,0.4470551905866152
"1080323",165000,68.45855175326236,0.5974666438767853,-0.48074787798918645
"1080323",180000,66.00997342971479,0.6716546608274083,0.6824644776832026
"1080323",195000,66.89541744122972,1.1566637182273134,0.8034278817091568
"1080323",210000,69.56869390495764,0.6981544169063317,-0.3155624937675743
"1080323",225000,67.31989032640968,0.5500167341949411,-0.5025792983237538
"1080323",240000,66.55825282471248,0.19413485422759727,-0.11182793515314234
"1080323",255000,67.87554005643223,0.7583551665886633,0.6772969098622493
"1080323",270000,67.59612914651017,0.6382354254819823,-0.4639846156047653
"1080323",285000,65.33831736337521,1.224669313256365,0.8880964277775087
"1080323",300000,67.30409459007349,2.004141945383376,0.11212842213743217
"1080323",315000,68.72758680324864,0.7327141972749633,0.07383848864471264
"1080323",330000,72.3686390403626,1.6080329292753444,-0.35098112559223954
"1080323",345000,73.93131375173951,0.21867736048976905,-1.2384336673501053
"1080323",360000,73.11889354183496,0.4920515042493239,-0.13437155303068488
"1080323",375000,72.53932328050271,0.41615791720343737,1.4457940391704291
"1080323",390000,72.04106161045891,0.8220668275489815,-0.13235823582198772
"1080323",405000,69.8140115834251,0.37720026223472636,-1.119122260592938
"1080323",420000,69.12823378446711,0.23857572347623338,1.073501145809781
"1080323",435000,69.43482868934298,2.146417033469555,-1.1974222058912611
"1080323",450000,65.4752350012543,0.860468158744549,2.617735602827968
"1080323",465000,66.27038360699771,4.657841205330065,0.0067959468517975775
"1080323",480000,66.75024721801904,6.109084310985742,0.8030857950172006
"1080323",495000,75.58702942021367,2.0899558683758976,-1.4560724812454942
"1080323",510000,68.78088804856554,0.7998274005140174,2.6395083291055803
"1080323",525000,61.57400892338398,4.800285441666415,-0.04172989743161494
"1070415",0,61.36748449657727,2.39918332572408,0.2991423134023614
"1070415",15000,65.04734181231719,4.119135336484002,0.059469776495927516
"1070415",30000,68.76331739486419,2.120189352608869,0.27896249292882114
"1070415",45000,65.92648862504605,1.4743882161657293,0.05982731519116139
"1070415",60000,63.58683737275406,1.3784785924927312,0.3917105291589277
"1070415",75000,61.74005760160209,2.065221799407833,0.1689401653382251
"1070415",90000,67.67005058894074,2.4997237290312646,0.8859149314699866
"1070415",105000,65.24131702749148,2.063305872183414,-0.11471950127830921
"1070415",120000,61.52623095570159,3.3063837175394966,0.7236795658453237
"1070415",135000,59.49008388429902,1.3755861522949493,0.6251912462327287
"1070415",150000,60.17380478644095,1.912371433681877,0.44352473322720715
"1070415",165000,60.56492710059591,1.9831364381961185,0.3114225965272616
"1070415",180000,64.67241868843713,1.982515594433205,-0.5929433575292352
"1070415",195000,63.82803791875503,3.0604337193982625,0.7409363569679845
"1070415",210000,54.67238810141579,1.954885235804728,0.1224844917528586
"1070415",225000,61.17937559076141,2.3575957740807123,-0.28041276207302
"1070415",240000,56.44371214372151,1.6930726991455143,-0.018418718986930725
"1070415",255000,59.350684589893994,2.8300610288871137,0.05438237099371604
"1070415",270000,60.653034067827136,2.1183263565259938,0.3533622986338977
"1070415",285000,51.655449794902225,2.270616328813004,0.9954191211773704
"1070415",300000,53.05283162893708,1.914849693416955,0.8541603310800496
"1070415",315000,55.938121266290395,0.6120418761060759,1.746085273108157
"1070415",330000,53.29426103340864,1.8745882543741426,0.4091896554215215
"1070415",345000,47.631793867940885,1.2683369740078845,-0.6014374046957182
"1070415",360000,46.64498098413874,0.9022177412580386,-0.4905703039830343
"1070415",375000,52.34165816648936,3.144895716698244,-0.9209183202515513
"1070415",390000,55.76343497673494,2.7022023670094852,-0.7313669059462976
"1070415",405000,48.59205009258663,1.4285485016706059,-0.5419138904444105
"1070415",420000,45.20815357111529,0.4271012757070535,-0.31834445786007426
"1070415",435000,45.35866503483583,0.5943679634411583,2.207908301760334
"1070415",450000,46.564020251369634,0.2795596642150737,0.1167393470571339
"1070415",465000,47.23157159957273,0.5975642583037657,1.1128510175637456
"1070415",480000,50.43089350265041,0.5160658194598301,0.40523033146688286
"1070415",495000,49.56441207657176,1.766006811131926,-0.12345621229865665
"1070415",510000,54.39363140077282,1.3969702879306989,-0.9963820301437627
"1070415",525000,54.731913504738074,1.9869894048849521,-0.29938780107648355
"1070436",0,52.53704457194341,0.893238685977181,0.7873176594159204
"1070436",15000,54.653214996272226,0.37838473266542316,0.05538134721180768
"1070436",30000,53.25513814553587,0.5631890252696935,0.21784588746860936
"1070436",45000,52.70311766535099,0.30814472710848556,-1.3494783134538084
"1070436",60000,52.32515738346665,0.2179006000643694,0.6505694845162653
"1070436",75000,53.465889023125364,0.5360134384690997,0.3705155539081233
"1070436",90000,53.94408132450079,0.45093701336901815,0.6334590001502268
"1070436",105000,52.848647171890825,0.6060167026217178,0.5746673727865145
"1070436",120000,53.39225144360168,0.43415482480973944,0.24833522398627464
"1070436",135000,52.92737804880129,0.4180103464194727,0.5010600481472638
"1070436",150000,53.258186952527616,0.3229868415159208,0.20177405156586473
"1070436",165000,52.66529626937916,0.4439042647249803,0.7592802191532689
"1070436",180000,53.41107721629389,0.4049496489316491,0.16842992361680037
"1070436",195000,53.2315063422606,0.25479403627700414,0.6668410898963253
"1070436",210000,54.53122568833309,0.41260514328752435,-0.16178516735101783
"1070436",225000,52.89879683917673,0.9759945780695095,0.49764745024701545
"1070436",240000,51.495523606043264,0.20743483266844018,0.17803027050682543
"1070436",255000,51.58479689576232,0.25368826818042967,0.2429303864327237
"1070436",270000,51.07621993835848,0.23488689963567272,1.4718236240640654
"1070436",285000,52.5011343993819,0.591660427569574,-0.3913707326315145
"1070436",300000,53.96045839846887,0.22601391031143148,1.4120843045026295
"1070436",315000,54.337246342967404,0.330982140138124,-0.8005548209572322
"1070436",330000,54.88497881691386,0.3069818781866967,-0.5644702528823611
"1070436",345000,54.12683095534963,0.31721481499285636,-0.18391305477388575
"1070436",360000,53.348094894013876,0.11579058686646977,-0.39209231015869506
"1070436",375000,53.83186066408395,0.5494924330688262,1.3261970606816202
"1070436",390000,53.898690023067026,0.2529203668649532,1.9593129256463482
"1070436",405000,53.22730519009522,0.5035979999379677,-0.43533895174719245
"1070436",420000,52.460678484615876,0.43416156228874503,0.9346450301854389
"1070436",435000,52.9766259474731,0.5179502396135719,0.7530518137252554
"1070436",450000,54.15004268483308,0.11028013220737816,-0.7671475281280233
"1070436",465000,54.32186512965014,0.12908486796082408,0.9568816291201834
"1070436",480000,54.49282298405215,0.2195862435095009,1.6046713098261052
"1070436",495000,55.97311981208848,0.265565641352018,-0.4566750029626912
"1070436",510000,58.457946495516566,1.3020987700659525,0.9589476884552635
"1070436",525000,64.11705216887155,1.0884945481501824,-0.587135879800497
"1070436",540000,63.70229695320324,0.7637648173713887,-0.5406573237979014
"1070837",0,74.81997105998884,1.256276148161375,-0.45937684091265235
"1070837",15000,72.20496168626435,0.7468437396291597,-0.3610466597740386
"1070837",30000,67.57974343412329,1.2301823577909916,1.158682896847011
"1070837",45000,67.70427708034967,0.5559789807688441,-0.09072662580891655
"1070837",60000,65.06391293370804,0.35732250762861556,1.6711280646210123
"1070837",75000,64.19683303253296,0.4463760615621598,-1.7300486307452103
"1070837",90000,62.48686984511826,0.43620835703829114,0.6047190627088562
"1070837",105000,65.25471775638496,1.0651594973946312,-0.019625677928686542
"1070837",120000,63.923145999020385,0.49232414038938865,0.06782109489689865
"1070837",135000,68.69189648215567,2.748055346388626,0.2901520966352122
"1070837",150000,73.81332410552413,0.9979978447742732,1.1871566844468866
"1070837",165000,71.9970554237891,0.48478957818078977,0.014182622804800711
"1070837",180000,68.37841109568816,1.8428555629331453,0.8461126985053831
"1070837",195000,68.06239992954494,1.4013091077080913,1.1742736099461122
"1070837",210000,70.89340881318705,0.9440446220824594,0.5458636499771229
"1070837",225000,71.68671568832247,0.32574477364736587,-0.37996542902304364
"1070837",240000,68.08265677939043,1.5372891854348676,0.6499682286385222
"1070837",255000,68.31243462705883,1.4655356424572876,0.22176399803992053
"1070837",270000,62.49762957901682,3.14253530916939,0.9403157667191401
"1070837",285000,61.95563334273182,3.3798523418638164,0.27294721349512363
"1070837",300000,66.35387384063328,0.7167089861010292,1.1439955634774812
"1070837",315000,67.77664662554167,2.2452243536605963,0.3761144063964378
"1070837",330000,70.25101961300653,0.42431123209880167,-0.19129804223713928
"1070837",345000,66.98970135623621,3.557553074849022,-1.0150782418390798
"1070837",360000,54.23786612739735,1.6712043032682942,1.489848256760365
"1070837",375000,67.21265603640133,4.67772439596579,-0.8662598509535367
"1070837",390000,65.86267178906185,1.4333426139429093,-0.03737086010796957
"1070837",405000,64.74494014595793,0.3639615931843897,-0.2953446347411156
"1070837",420000,65.37937347223755,0.8893111489711927,0.03375014457491777
"1070837",435000,66.34932785339744,0.6364557921798559,-0.3102234343971889
"1070837",450000,67.23029989439931,0.8090113178954488,0.005707006153187399
"1070837",465000,64.66775811769318,3.807606231325025,-1.6367552269547399
"1099705",0,64.37890178991375,4.107645181853567,-0.1282148331516366
"1099705",15000,54.54706371312498,1.6211261966160881,0.1656647179875826
"1099705",30000,53.50094744689429,1.6164636064146805,-0.39368233762598
"1099705",45000,56.56738612839322,2.060159657901612,0.20700578316083587
"1099705",60000,49.87125769471816,3.8414964267504708,-0.4088312042430635
"1099705",75000,39.821959654843965,0.947703937228452,0.23915259443741546
"1099705",90000,38.79086182111191,0.4378038078234826,-0.7210206384219234
"1099705",105000,43.42660889791145,2.206455709915686,0.36479606006208287
"1099705",120000,52.36319748171926,3.3887021013273766,-0.8483476234974973
"1099705",135000,55.16528922770393,0.0,NaN
"1099705",150000,55.4085627267052,0.49220752459388,1.073223986367589
"1099705",165000,63.11825893172825,4.032942885605377,0.06843485623196675
"1099705",180000,69.70975838617082,0.30643365202821277,0.5214411961941997
"1099705",195000,69.64920717879279,0.9590555972794428,-0.34920635968126745
"1099705",210000,67.2184360884426,1.3922018052987604,-0.563170820363403
"1099705",225000,69.81988384184442,2.099715573701495,0.6932592056680684
"1099705",240000,71.53193425000383,2.1665098405240926,-0.48719024270560485
"1099705",255000,68.20243528164899,2.2564664694168575,1.0689100906788274
"1099705",270000,73.61515763759331,1.042079947003764,0.4699608069119099
"1099705",285000,73.80564828436066,0.9001676819024389,0.15605320409186366
"1099705",300000,71.10387427125688,3.2290007228616484,-0.9461273532731536
"1099705",315000,64.30151613617024,2.8934963997112697,-1.5565559418886776
"1099705",330000,51.93724593186379,2.6239348721008926,0.5727839411097937
"1099705",345000,61.98334427274725,8.539527119781305,-0.02479807492662982
"1099705",360000,70.23707290521573,2.5788858249464153,-1.3055135822730937
"1099705",375000,58.770032893522846,1.197680054507363,2.229643854194037
"1099705",390000,58.212048933630484,0.0,NaN
"1099705",405000,58.212048933630484,0.0,NaN
"1099705",420000,58.212048933630484,0.0,NaN
"1099705",435000,61.90808783530484,3.225071052909423,0.06959340640177444
"1099705",450000,60.86934339224925,3.757915144990456,0.44528679235909613
"1099705",465000,59.148443083713374,2.36390854671941,0.5807367877796222
"1099705",480000,55.68482147736696,6.290445366588273,-0.6793886855245802
"1099705",495000,45.339268632486636,0.0501112008378586,-2.4494897427834985
"1099705",510000,45.35972644456178,0.0,NaN
"1099705",525000,45.35972644456178,0.0,NaN
"1099705",540000,38.03608706322637,3.172898868837453,1.4439384827353685
"1099705",555000,38.02095161497356,1.6908112574555412,0.18069999824003144
"1070913",0,49.46403270258746,0.8155804271912459,-0.9546769441792069
"1070913",15000,45.92232259264157,0.7069590114342793,1.1888544054973846
"1070913",30000,44.886179070564864,0.10544233717217598,-0.048871100304439696
"1070913",45000,44.984916664865416,0.3286104982681095,0.988966591317133
"1070913",60000,44.991034033800055,0.11580286414614416,-0.04438945573189478
"1070913",75000,45.07859248148082,0.09451209550242934,0.0693073292839583
"1070913",90000,45.09476031555702,0.06882797017260861,0.4962311295707671
"1070913",105000,45.26153363624651,0.10852488934663498,0.1038537920327064
"1070913",120000,46.22039253991489,0.32406791508813215,-0.7733070831275721
"1070913",135000,46.55786559277819,0.051007030092895186,0.21624244053554792
"1070913",150000,46.81371013846104,0.09513525576454807,0.31201904376599154
"1070913",165000,46.121783073728544,0.46147918196835713,-0.8285941463194532
"1070913",180000,44.59468549744499,0.3604168561811079,0.20583413562628153
"1070913",195000,44.47630539302489,0.19057942250291746,1.3177522449454784
"1070913",210000,45.077358365679366,0.21868750617782792,-0.1642515806785624
"1070913",225000,45.380576719765635,0.1270499602023047,0.2890272597465942
"1070913",240000,45.84339727893839,0.2924028189959847,-0.32316195741197545
"1070913",255000,46.963124674624005,0.34855231917898083,-0.5171432367787178
"1070913",270000,47.98221061549186,0.3106724216418071,-0.37706399548348574
"1070913",285000,47.64604046780609,0.3642797632004836,-0.17881753883772702
"1070913",300000,45.310064300164676,0.7282994677796494,1.8172250597543869
"1070913",315000,45.683789496839175,0.8349889242453672,1.4685804119385422
"1070913",330000,47.16201214376383,0.14430089683871894,1.4084249793457764
"1070913",345000,47.9432498048048,0.3525816948582101,1.0379749008072179
"1070913",360000,48.69422918099428,0.24723641268215943,0.266884401641198
"1070913",375000,48.0690033270744,0.1416103659710071,-0.0700194034634215
"1070913",390000,47.899752583114626,0.08204602863508327,0.13059592386763755
"1070913",405000,47.38068562153515,0.40990565465933204,-0.5460309010672358
"1070913",420000,46.74566596061962,0.20961907727644316,0.5703664117503475
"1070913",435000,48.239113434903594,0.5933831822176268,-0.39906951530358387
"1070913",450000,48.33704086602467,0.18055233703794193,0.15795012287699559
"1070913",465000,48.29424285243062,0.9843587725887178,-2.0967726705983014
"1070417",0,53.791437355747576,1.1151209776043736,-1.1593409537285853
"1070417",15000,48.77564288440506,0.5661383327234257,1.041893618493837
"1070417",30000,47.78305104563531,0.25667977980887885,-1.2775616301637254
"1070417",45000,47.62467377982969,0.3844659247087861,0.482566721730885
"1070417",60000,47.1222596713135,0.5419298654421786,-0.5861483020473237
"1070417",75000,45.85248033702468,0.5610707627665327,-1.2204782522725866
"1070417",90000,47.77521206490115,2.3456922668827467,0.47203255967043134
"1070417",105000,52.54098997065372,0.8892776017124366,0.31526830251691673
"1070417",120000,47.38521677482245,1.7475985108458663,1.2915265301954815
"1070417",135000,44.87188359289127,0.23143281279760863,0.6830390470873645
"1070417",150000,46.34462897977358,0.9407437974949844,-0.7005402463177751
"1070417",165000,49.00906514760167,1.013598903965836,-0.5592166613774869
"1070417",180000,49.44970915531112,0.46022862582286966,-0.4944538655127953
"1070417",195000,48.227567100541435,0.6850303041174493,-0.07563014098382305
"1070417",210000,47.127099420787864,0.24743114504921546,0.2233168134227288
"1070417",225000,47.167272497971204,0.20869278081814258,-1.1936501733505938
"1070417",240000,47.47473183542381,0.40474627483235265,-0.7360889999627168
"1070417",255000,47.44605060522364,0.5517228386733507,-0.2921931153684698
"1070417",270000,47.09562986449661,0.17331299179602774,0.48807738170053927
"1070417",285000,46.69576731177025,0.20970006833620278,-0.3696399960637794
"1070417",300000,46.8177416881432,0.27834724596939464,0.947603620472348
"1070417",315000,46.749765269294556,0.3337440171514536,-0.21794839729630608
"1070417",330000,47.46690263665497,1.7461773827871137,0.6707690861142206
"1070417",345000,50.56457941947051,0.5778549458233697,-0.20849000646136548
"1070417",360000,49.91486157409868,1.036149110052273,0.8068968906288126
"1070417",375000,50.291815531817676,0.34683272967708767,-1.642836938352143
"1070417",390000,48.71366191114717,0.6568794234693366,0.7957780844256894
"1070417",405000,48.0416984625942,0.19856382012363655,0.04125375402282106
"1070417",420000,47.44856182850053,0.4538711113051238,0.1508436221815657
"1070417",435000,45.87199990470951,0.4197783851515545,-0.33244985423428663
"1070417",450000,50.01441803149932,2.678182749028513,0.4073295827231283
"1070417",465000,54.343924180846244,1.8936291070289373,-0.32029952088951213
"1070417",480000,49.44004493602496,1.4026575058990416,0.025645317827927675
"1070417",495000,48.293798015600956,0.8286624158024971,0.46493293122067336
"1070417",510000,50.76151061176253,1.4101082999561838,-0.28179680785129985
"1070417",525000,54.48951222961999,0.7907673565977815,-1.1275960221835808
"1070426",0,67.66993936313501,2.026455822169859,-0.6405439661657649
"1070426",15000,60.649577477103776,3.6358028675673126,-0.08111041556536813
"1070426",30000,56.38288886051087,1.7955004208294187,1.0172831525439587
"1070426",45000,66.69787714891062,3.1649766657987475,-0.48843037092680425
"1070426",60000,63.941147241139795,3.573817227189465,-0.47960697442322014
"1070426",75000,60.757023458224126,1.6350757639678,1.1283639213274559
"1070426",90000,67.64312781961154,1.8803529161873982,0.4136714027952727
"1070426",105000,62.64563544220068,3.205417394688518,-0.7814484872312201
"1070426",120000,60.17778282260926,2.2516927426158575,1.2211035437807778
"1070426",135000,67.99953493103656,1.5458400246925592,1.0292541507019568
"1070426",150000,68.42125808916596,2.0033928970478407,0.5056608752437233
"1070426",165000,71.40999302209606,0.6658537833269429,-0.08957995212887365
"1070426",180000,73.16678595609754,0.4973330873554248,0.19675170598424102
"1070426",195000,73.23792651005826,1.3644318809496159,-0.009877975549713012
"1070426",210000,68.42751554580593,2.163185586239236,0.4200465042580766
"1070426",225000,67.23955949090411,1.4496410667356772,0.06146099087598311
"1070426",240000,67.13269182115997,1.6548142742007994,0.2411166323777265
"1070426",255000,66.21392348450351,1.822375688074369,0.24050022939934518
"1070426",270000,68.17882671967028,1.6959944416202848,0.3480517443945356
"1070426",285000,70.57756110667141,1.8962969528393931,-0.5113890286764996
"1070426",300000,67.4676550307584,2.611113980755264,-0.3305678171534365
"1070426",315000,68.66179992172322,1.5266002737726212,0.763699566459128
"1070426",330000,68.38592069973554,1.8839245050718008,0.3885468096954018
"1070426",345000,68.43849989441418,1.2212924546243686,-0.6373523815965131
"1070426",360000,67.99475893753817,2.364376962799454,-0.4499612367059732
"1070426",375000,60.72440983940818,3.0820220733308887,0.08078860611883731
"1070426",390000,51.51284796436947,2.0251386111350684,-0.25570946887980706
"1070426",405000,59.313180603619976,3.863227321499656,-0.32809812031472535
"1070426",420000,61.19991698556616,1.818898508688847,-0.6980849540848322
"1070426",435000,67.42147935474158,3.782636652673734,-0.6560843971964584
"1070426",450000,71.75206384134425,1.54126979412664,-0.6046152146835745
"1070426",465000,68.19904581535963,2.593303850461962,-0.4209280499988993
"1070426",480000,64.98415211166484,1.8864596084193137,1.5145150263797298
"1070426",495000,63.418505020734635,1.8022347248730686,0.8616686482852327
"1070426",510000,59.968982610833834,2.1523364026116423,0.759543282383163
"1070426",525000,55.32351511573609,1.1967815249172535,-0.8608514765325246
"1070426",540000,50.88964586238434,0.37765825148908966,0.24290029046296252
"1080901",0,0.0,0.0,NaN
"1080901",15000,19.402139273997324,23.98021742976556,0.38913422183411484
"1080901",30000,46.094741321301605,0.3392004124137536,-1.0125889758704698
"1080901",45000,55.32757010625567,0.0,NaN
"1080901",60000,55.13652561870418,0.0,NaN
"1080901",75000,54.79266410243087,0.0,NaN
"1080901",90000,54.31694808277469,0.0,NaN
"1080901",105000,54.55270484516413,1.1842610232524715,-0.8135865819693875
"1080901",120000,51.73393293792917,2.1090774798276777,-1.0676617239223158
"1080901",135000,48.350202914340436,0.7876206023909057,0.2890544069795327
"1080901",150000,47.030815937044736,0.7763996657711272,-1.2647002905810412
"1080901",165000,44.4192300804147,0.28807882055264145,-0.6151927310295221
"1080901",180000,48.476548321585696,2.90908261938414,0.027612790045518826
"1080901",195000,54.638169395600706,1.9461461556913184,-1.2336944006725787
"1080901",210000,47.339638646966456,2.3693963991926767,-0.5538782215182158
"1080901",225000,43.91854194461826,0.3394854935744383,-0.05673810673151908
"1080901",240000,46.886952416476774,2.527244336371652,0.24336070259717751
"1080901",255000,51.627204644262335,1.271293125264722,0.20518871020534396
"1080901",270000,49.93961253386481,1.7619473596680046,0.9629216933811999
"1080901",285000,45.96567783307088,1.3899620490044615,-0.8664427867804719
"1080901",300000,47.27096512418093,2.430222978834559,-0.43340259970883205
"1080901",315000,54.8146359375632,2.1726277271762897,-0.1974635981834119
"1080901",330000,50.06703326001856,1.7799174723349955,-0.7225743469397361
"1080901",345000,45.63842850046365,0.4808021289198861,0.049610965764318726
"1080901",360000,47.22393215324134,1.1888322769783257,-1.2635796758133562
"1080901",375000,49.360717365684366,2.469903503808203,0.5382159127651236
"1080901",390000,61.70547968089597,4.5025269524597205,0.26461371295599817
"1080901",405000,54.47642087227089,4.232942239641979,0.6624428554584522
"1080901",420000,45.6712458206,1.6361640076101618,1.112177465798492
"1080901",435000,47.65294504197768,2.4919237260281153,0.5201748776994126
"1080901",450000,56.98825680986433,2.3570152406960094,-0.5958348252792622
"1080901",465000,54.89053525487258,3.8173447407754826,0.324023327551817
"1080901",480000,46.4793602926441,1.4735635914094323,-1.0630598505678752
"1080901",495000,45.603657448669445,2.0424371730741955,1.29841296998496
"1080901",510000,59.2092723512386,4.080989435446382,-0.7355349421820491
"1080901",525000,54.13897636931329,5.075922019615653,0.2342920317329356
"1080901",540000,47.041615511268496,3.0204643294879205,0.7052111121581225
"1080901",555000,56.811985937438486,2.9473940753221757,0.6498033450514562
"1080901",570000,56.725218270358745,1.123936270128672,1.2323294657048125
"1070438",0,69.05028496991208,1.7353470768418202,-0.34572761551485887
"1070438",15000,70.70034783175916,2.478244626917046,-0.12741640645111707
"1070438",30000,67.42921402976086,1.6342797730987886,-0.22976860695894802
"1070438",45000,69.05538629434746,1.0071448017821372,-0.46286086545056904
"1070438",60000,71.05321588487547,0.5982083199443569,-1.0281158035428426
"1070438",75000,68.6205418066869,0.5417603773942429,0.1674224546155439
"1070438",90000,67.3586815174123,0.8900895679894001,0.16012067324407905
"1070438",105000,69.45677514901354,2.0951469964300506,-0.050979905916258304
"1070438",120000,68.25840888322514,2.50763674653563,0.3465921845943986
"1070438",135000,65.88146157923165,0.9041909294352466,0.0473009012501736
"1070438",150000,70.14890211188782,1.3262499708847093,-0.0809732462612514
"1070438",165000,70.24068171428624,1.8821228826068308,0.011266137166614447
"1070438",180000,64.74080553010887,0.8244823509963608,1.5545013333710467
"1070438",195000,68.01198316339263,0.9574982105423664,-0.4122685794010636
"1070438",210000,65.43351302636754,1.7842850820833898,-0.4810867760460963
"1070438",225000,60.40717302200136,0.5736839204560784,0.3273559434852463
"1070438",240000,62.482011127410544,1.9002367292267426,-0.32976847862489295
"1070438",255000,67.73361405483256,0.6561671092987641,-0.6103681145502277
"1070438",270000,68.02880356123076,0.9896970319148894,0.23241663288747508
"1070438",285000,69.60487377981077,0.4365208269051403,-0.45235129152417103
"1070438",300000,68.24069943400445,0.7866449586963373,-0.041310252280710426
"1070438",315000,66.94538795467426,0.7829480437123135,0.7808026566409063
"1070438",330000,70.67341511367272,1.1645919791794348,-0.05483255465134829
"1070438",345000,71.11406217954172,0.6767499671128152,-0.764991775420811
"1070438",360000,69.33321553157857,1.5491722418935632,-0.3475919135255562
"1070438",375000,65.9487626470349,0.8155069713874398,0.5541445756912835
"1070438",390000,66.17619023033859,0.8942217604010143,-0.18651166291590704
"1070438",405000,68.19266827621529,0.3608047826434763,-0.8026354348222126
"1070438",420000,69.71301758416794,0.7912320152353817,0.386315807567153
"1070438",435000,70.82440423243433,0.7589399176948589,-0.3897657862731946
"1070438",450000,67.84241190019807,1.8187259956693458,0.3632003629198303
"1070438",465000,66.98030538406086,0.9026812992676325,0.6175215212708751
"1070438",480000,67.74641708444302,0.4421055392993669,-0.3406992246166091
"1070438",495000,68.06869372992392,1.1979917938330613,-0.09088190916787084
"1070438",510000,68.94282326027391,1.8970653568819449,1.6719090512806962
"1070438",525000,57.61480265423024,3.8382563987304943,0.1033042826992073
"1070438",540000,48.71555718503091,1.0378228474301696,0.3545016112127669
"1070931",0,64.54334565259961,3.802816435427597,-0.2377841943352202
"1070931",15000,60.62634378140654,0.8247238925674072,0.5622670857846214
"1070931",30000,61.64245724601771,2.4027182788831167,0.7281752489564634
"1070931",45000,55.73539580849787,0.8831236988866582,0.679061268642748
"1070931",60000,53.3564222022878,1.550345361114119,-0.34636721995316416
"1070931",75000,48.2441663283414,1.4469323108694236,0.39392624986079716
"1070931",90000,49.523426643611685,1.6597953265329455,0.08006932915964571
"1070931",105000,56.0861821652865,2.4999263548223687,-0.14435406929167527
"1070931",120000,62.75825580678535,1.61233183975678,0.4964639915318473
"1070931",135000,59.99882907351551,4.761312476166645,-0.0904333187251788
"1070931",150000,58.643304803173876,5.151303842795804,0.9506276584276426
"1070931",165000,72.60971584599051,1.2736142713065925,-0.6060266036382893
"1070931",180000,71.07907020288388,2.474001119165874,-1.2568546799372313
"1070931",195000,65.47346994878738,2.160342821593095,0.04365458258188804
"1070931",210000,74.89809221849251,2.8250073704722567,-0.06029889135637799
"1070931",225000,73.91970710233069,2.811032437535066,-0.8430078836917714
"1070931",240000,64.23415828656151,2.351520775600499,1.118758697285616
"1070931",255000,65.93760708674765,2.8747214680154802,-0.4446578551000121
"1070931",270000,73.59855097042846,1.2806530398097702,-0.31286542701525333
"1070931",285000,72.94787031238656,0.9865668671477688,-1.6224855941223502
"1070931",300000,61.7510421738331,4.923265490542018,-0.23449609157907633
"1070931",315000,52.803859085627465,2.4934591990695103,1.0273478781646566
"1070931",330000,68.92076372172629,5.064712313585934,0.02762319471213448
"1070931",345000,55.04494528450283,4.648113314473939,0.15953509192649007
"1070931",360000,45.25027431616353,0.8786372086108566,1.4819852885272289
"1070931",375000,46.700544259373814,0.7946259794137759,-1.4740117502369239
"1070931",390000,47.507077571462226,0.752755601566952,-1.496825557879786
"1070931",405000,52.93440105176767,4.627461262192318,0.4038805444311438
"1070931",420000,69.01423107962854,2.2484761970230807,-1.1851436678860516
"1070931",435000,69.21674992033697,1.7827358866235505,-1.5474019155931549
"1070931",450000,67.07070404169865,1.5157539987356565,1.553618468845724
"1070931",465000,73.67620209455212,0.49018684675634655,0.4318497286417673
"1070931",480000,71.50101179462719,1.9254412018505822,0.4805277070263084
"1070931",495000,64.17676781428284,3.635769533599268,0.6626139689345013
"1070931",510000,52.19945298563896,3.069052721997361,0.6620423145210368
"1070931",525000,48.49796853537591,0.7300297911290783,0.944452523473859
"1070931",540000,52.92115356442987,1.7690784880823942,0.18489325108916416
"1070931",555000,55.98398896120248,0.08273124348165711,-1.519156630826892
"1080425",0,48.14585875101328,0.35802391235680225,-0.1148170606783864
"1080425",15000,49.63722343872346,1.0478170824269752,0.16819963685002062
"1080425",30000,53.57617686232963,0.913042923700494,-0.9207000307760208
"1080425",45000,53.06369986204314,1.000386542031387,-0.7054349159797786
"1080425",60000,49.65838869556626,0.7162788247000541,0.6635642910963706
"1080425",75000,49.03522844806701,0.44509219306689835,-1.1405343859297659
"1080425",90000,47.02095992653064,0.8152099744780686,-0.11074125174525475
"1080425",105000,46.13082112521935,0.7937737401070593,0.6814403285205439
"1080425",120000,48.878885147929054,0.563924229522745,-0.29156839716879646
"1080425",135000,49.372967239708466,0.45779938026725103,-0.4333507666138561
"1080425",150000,48.259634494838906,0.31728194950936356,-0.7251705506838243
"1080425",165000,47.391759856869704,0.08239503017227318,1.1703849069542505
"1080425",180000,47.735069206047534,0.45278535448029206,0.4955729666346501
"1080425",195000,48.30426423509383,0.2716571035364064,-0.6591063901826971
"1080425",210000,47.16727499167329,0.3850938337431066,0.9225328463929383
"1080425",225000,47.593319802178826,0.6054796692833543,-0.6353958340041004
"1080425",240000,48.22300408537389,0.1620371905677764,-0.8480960891795125
"1080425",255000,47.14102475136334,0.32265021080183587,-0.36260344658951105
"1080425",270000,47.070872378166065,0.6037689461570468,-0.2715934618660422
"1080425",285000,47.13352395924489,0.12892306143723117,0.3392739935147386
"1080425",300000,46.185072128107414,0.5172506902750631,2.227647363448173
"1080425",315000,47.64638096733222,0.9879161339031366,-0.06881734674563095
"1080425",330000,50.032599272464864,0.3567713034762489,-1.0363905184755722
"1080425",345000,48.613083806596066,0.5195006909051813,0.581574218407633
"1080425",360000,47.33565748059718,0.3004684713162779,1.19410525610541
"1080425",375000,46.23988565899452,0.32532877426127127,0.31129806917667585
"1080425",390000,46.295410362343574,0.2976176937916319,0.7698630571061712
"1080425",405000,46.98639906447527,0.1499423512264319,0.12487234447039952
"1080425",420000,46.52246432391077,0.37691373957196317,0.3492012687322537
"1080425",435000,46.429645981707864,0.13534995628476126,0.36214458740763145
"1080425",450000,46.03104871163573,0.1913142365438085,-1.2940915305408904
"1080425",465000,46.17223111733044,0.4293664716792324,0.9280397071086326
"1080425",480000,47.747962700410355,0.5508918298360426,0.4769475156301302
"1080425",495000,50.31526282836802,0.8807374197441925,-0.11177012362464821
"1080425",510000,51.32165946442359,0.30999819535805195,-0.8720859360959202
"1080425",525000,52.92973579181925,0.6718408640706032,-0.43972551484064104
"1080425",540000,54.657461246867435,0.514963540131831,0.521627144520371
