timestamp,value
1620697687995,68.91674873981417
1620697688789,69.22192479868534
1620697689553,69.33862679818895
1620697690883,67.2377052914225
1620697692175,65.28447820183916
1620697693566,65.32615224717065
1620697694959,65.51445306159684
1620697695723,65.5853213929426
1620697696515,65.4659412894892
1620697697309,65.33507611019132
1620697698100,65.31130470107506
1620697698922,65.29366779289175
1620697699748,65.32647942428207
1620697700540,65.4643698710712
1620697701351,65.51687463542589
1620697702166,65.64949341568408
1620697702949,65.87597201369124
1620697703689,66.11729439436091
1620697705111,64.03312305389332
1620697706571,61.95848605885013
1620697708019,59.92821798050296
1620697708781,60.019548366903095
1620697709519,60.10187267418274
1620697710997,59.660231995772484
1620697711764,61.259704749664
1620697712503,63.36718989483422
1620697713250,65.60531481776403
1620697714006,65.63485753516605
1620697714754,65.7943036498129
1620697716164,63.64439247290498
1620697717534,61.746928669176164
1620697718980,59.82385762480243
1620697720422,58.04469760961778
1620697721165,58.18227235616239
1620697721906,58.38125704771237
1620697723332,56.696432136047996
1620697724775,54.97993598869319
1620697726140,53.44976116642344
1620697727547,53.485040679830526
1620697728308,55.20665714995909
1620697729068,57.01033255267185
1620697729835,56.998766974173414
1620697731301,55.09196938594356
1620697732733,55.207238773147935
1620697734138,53.63373708661628
1620697734891,53.60071274654429
1620697735648,53.57802297363117
1620697736383,53.62416458578843
1620697737135,53.61471287802169
1620697737921,55.15437387513805
1620697738714,56.657247871351785
1620697739506,58.46209325181312
1620697740296,60.37721267390146
1620697741099,60.197722429204816
1620697741914,59.97649521152659
1620697742740,61.82852291967889
1620697743575,63.82970574931179
1620697744368,65.8345508610583
1620697745166,68.10871740501247
1620697745975,67.92385034496542
1620697746787,67.72248656879677
1620697747590,67.58365293361213
1620697748371,70.29797083735544
1620697749153,73.08180808047281
1620697749926,76.00413335811918
1620697750683,75.98398308292603
1620697751417,76.09775289043043
1620697752771,73.22661164907244
1620697754146,70.54471750279697
1620697754891,70.71149374671745
1620697755626,70.95404932985677
1620697757115,68.14846802527832
1620697757889,68.21206790852423
1620697758677,68.26981642360147
1620697759442,68.4605186192358
1620697760215,68.67109190813045
1620697761001,68.85962775518131
1620697761770,68.95507490675983
1620697762523,69.13833924869444
1620697763274,69.40499846701711
1620697764706,67.0092813997256
1620697766164,64.60822006076614
1620697767622,62.33482893634705
1620697768382,62.40623463246473
1620697769133,62.47977217375875
1620697770592,60.27548004020176
1620697771347,60.208952158016835
1620697772791,59.939380307725784
1620697774287,59.579360776017175
1620697775072,59.46422731191957
1620697775825,59.41143173975535
1620697776569,61.68255832111591
1620697777347,61.68751756166516
1620697778128,61.69157686857874
1620697778907,61.64874957070635
1620697779681,61.64550975648069
1620697780461,61.66539421838623
1620697781269,61.5427316572273
1620697782080,61.35592294800481
1620697782883,61.166110488321145
1620697783658,63.280849427279314
1620697784438,65.66496944608976
1620697785230,68.15109210705288
1620697786009,68.07579786253339
1620697786764,68.05936932218253
1620697787526,70.86241866544448
1620697788307,70.75750806443955
1620697789092,73.61568465592698
1620697789853,77.0918685809777
1620697790618,77.1877269198566
1620697791408,77.006683474231
1620697792207,76.74095980302127
1620697793011,76.58295043985417
1620697793780,76.67053107440654
1620697794555,76.69054234976375
1620697795334,76.6621651069217
1620697796110,76.68212301358955
1620697796861,76.96098020582825
1620697797632,77.16564911969101
1620697798423,77.21940639511814
1620697799205,77.18628214519208
1620697799995,77.13688950249853
1620697800797,77.08737185509221
1620697801596,76.98748485030646
1620697802365,76.91886117780092
1620697803137,76.86841165647976
1620697803900,76.95596079709443
1620697804657,77.09611321872606
1620697806094,73.88829518275412
1620697806827,74.03476252918043
1620697807580,74.20191205960394
1620697808333,74.4135329939374
1620697809082,74.66679940764335
1620697809853,74.6604164284274
1620697810642,74.59282109987235
1620697811436,74.52467695260398
1620697812210,74.53627258014266
1620697812971,74.4880066860435
1620697813738,74.50251874390248
1620697814514,74.58207931853862
1620697815277,74.66516871745951
1620697816032,74.82797049583002
1620697816772,75.11571576012841
1620697817529,75.31386110190964
1620697818297,75.32271073882158
1620697819060,75.36297162226138
1620697819812,75.41614155559498
1620697820570,75.45983335953467
1620697821934,75.75473495501488
1620697823323,72.7447843808219
1620697824072,72.75980738538722
1620697824822,72.77424519462559
1620697826279,69.78144277668736
1620697827012,69.9314799704003
1620697828445,67.40454799830115
1620697829916,64.94428294665414
1620697830651,65.0729399872945
1620697832125,62.6560134735491
1620697832885,62.674250738472395
1620697833660,62.67185471243517
1620697834451,62.584531492458076
1620697835214,62.55697572054305
1620697835966,62.519823994191455
1620697836717,62.55049975503657
1620697837470,62.586473644418675
1620697838221,62.62962374940388
1620697839682,60.392211176263054
1620697841149,58.28259550076819
1620697842596,58.08026993386258
1620697843331,59.97469367800253
1620697844084,59.96482463386972
1620697844859,59.88998808089417
1620697845625,62.0268642484184
1620697846383,61.9481068968273
1620697847164,64.10442011729191
1620697847935,66.58762715323574
1620697848669,66.59853636396636
1620697850075,66.84653956354222
1620697851496,64.4782186129704
1620697852940,62.24125144749811
1620697853727,62.253240475708104
1620697854481,62.282918079277806
1620697855237,62.26811613003658
1620697856007,62.19809949560455
1620697856755,62.22332011813725
1620697857509,62.212613368878856
1620697858280,64.522539658779
1620697859064,66.98321819197224
1620697859853,69.53615329476773
1620697860624,69.39205103646573
1620697861384,69.36604235109037
1620697862140,69.43696630820035
1620697862909,69.42992362592685
1620697863697,69.31190548074072
1620697864490,69.25909220376373
1620697865277,69.19395671514378
1620697866033,69.11027944568713
1620697866811,71.70253057948617
1620697867607,74.48477022317373
1620697868402,77.61006028167407
1620697869163,77.74127896712936
1620697869934,77.65779935399067
1620697870704,77.58597447305067
1620697872144,74.36176689754957
1620697873446,71.89631257592922
1620697874745,69.62472332150307
1620697876154,67.13664556450011
1620697876912,67.23441649098882
1620697878392,64.72538690409097
1620697879187,64.64676415470535
1620697879975,64.54601105920598
1620697880737,64.52868090147854
1620697881522,64.47251995840875
1620697882286,64.55276793392895
1620697883036,64.70548999661209
1620697884447,62.599578976098385
1620697885811,60.67152456822604
1620697887142,59.02060035361212
1620697888599,57.162885929269905
1620697889350,57.28345802669178
1620697890745,55.60277930492356
1620697892138,54.04268804907654
1620697893498,52.64522745348584
1620697894835,52.88473679068184
1620697896228,52.67435375700922
1620697897595,52.51636311406452
1620697899001,52.523095718264706
1620697900378,51.13848980624517
1620697901808,51.2479867014891
1620697903152,50.07256766869387
1620697904529,48.87219469020709
1620697905268,48.91775779423958
1620697906005,49.01341509424485
1620697907476,47.63794211235765
1620697908238,47.616043273460136
1620697909010,48.8541821541209
1620697909790,50.04428084783687
1620697910551,51.262983204879696
1620697911317,52.82200924094637
1620697912091,52.769984432854564
1620697912845,54.29689569715651
1620697913585,55.95233793347031
1620697914340,57.574725156254225
1620697915120,59.183282537637076
1620697915879,61.06552315368013
1620697916628,63.04592848605767
1620697917383,65.28244313015168
1620697918146,67.5347584518062
1620697918901,70.20280537430556
1620697919645,72.75560772941016
1620697920401,75.60379077406941
1620697921167,75.4744560162859
1620697921907,75.45933512151005
1620697922656,79.04971179463203
1620697923429,78.99187930567456
1620697924204,78.9781231257094
1620697924970,79.04919105998442
1620697925757,78.91921710558236
1620697926550,78.77843015071106
1620697927324,78.77662009699242
1620697928101,78.66061425680388
1620697928886,78.42537018898749
1620697929675,78.25425708049416
1620697930410,78.43649399068596
1620697931149,78.58206006930534
1620697932592,75.1695684521339
1620697933325,75.27291607088675
1620697934756,72.24472177052552
1620697935515,72.22798039732601
1620697936279,72.14435942031281
1620697937732,69.2394747631923
1620697939163,66.6832559789042
1620697940567,64.31002921872577
1620697941299,64.36598671689853
1620697942727,62.18512626093943
1620697944147,60.17081893788273
1620697945575,58.239549458845325
1620697947034,56.397481175695724
1620697947784,56.51275339788812
1620697949256,54.71468707257008
1620697950004,54.78683538089989
1620697950751,54.90289736315105
1620697952157,53.37554746075837
1620697953634,51.67230971349005
1620697954391,51.63158830899072
1620697955140,53.22025330445668
1620697956607,51.542667750551765
1620697957357,53.09636308496594
1620697958113,53.103181783342905
1620697958875,53.105621150340326
1620697959615,54.83724101227899
1620697960973,55.02286039366007
1620697962304,55.20591807441761
1620697963657,53.67393860569156
1620697964981,53.93350053317766
1620697966328,54.10067079872566
1620697967672,54.30632651054301
1620697969031,54.553466465916046
1620697970481,52.8697455568597
1620697971909,52.9718931576337
1620697973312,51.48420820591358
1620697974585,50.33079917759485
1620697975797,50.761840040558724
1620697977099,51.13992381770783
1620697978497,49.78046400536434
1620697979966,48.3362988324004
1620697981429,48.34403744181234
1620697982179,48.34371998157142
1620697982930,48.35309947598542
1620697984354,47.0984989355151
1620697985774,45.873716539424514
1620697987144,45.85084437577683
1620697988568,45.689107100064376
1620697989952,45.63609587002844
1620697991289,45.604185917016935
1620697992603,45.66966340849131
1620697994000,45.57817798878613
1620697994753,46.65510319933863
1620697995517,47.930276784966395
1620697996285,49.22833356429637
1620697997794,49.015495186800905
1620697998550,50.07344731524323
1620697999299,51.0607313785981
1620698000040,52.30850282123731
1620698001501,52.16441458398787
1620698002253,53.84278901698632
1620698003012,55.59683878227909
1620698003764,55.59505635786688
1620698004517,55.589248816921824
1620698005299,57.29265287613419
1620698006088,59.07146160222077
1620698006853,60.883835417801436
1620698007605,63.033847442645886
1620698008352,65.21607989404562
1620698009758,64.9758506421779
1620698011044,65.07381865531909
1620698012385,65.27310047662428
1620698013835,62.8815897220462
1620698015294,60.6787770718364
1620698016064,60.67106137499733
1620698016858,62.94791374876856
1620698017650,62.82922185013948
1620698018423,62.747138756617254
1620698019200,62.62921843015063
1620698019976,64.95261760672773
1620698020738,64.91910565492475
1620698022184,62.591729483552626
1620698023655,60.32641719447657
1620698024394,60.37556924728124
1620698025861,58.359502707005454
1620698026620,58.44648084971834
1620698027359,58.519109561525
1620698028093,58.57293201307998
1620698028842,58.56722888278023
1620698029600,60.4802159385631
1620698030348,62.16288935596232
1620698031806,61.78673012575759
1620698032545,64.14370241940422
1620698033967,64.26334949253108
1620698035359,62.19212952381653
1620698036764,60.28130875543811
1620698038111,58.647334420003276
1620698039447,57.095546685339414
1620698040751,55.6844960998579
1620698042039,54.389236297617686
1620698043386,52.983606209943666
1620698044746,53.18626975171843
1620698046158,53.32787492906848
1620698047633,51.63611393663449
1620698049052,51.744519026502715
1620698050461,50.33236558175536
1620698051925,48.849186441224454
1620698053354,47.5027582278637
1620698054088,47.530083374103576
1620698054838,47.54439725530942
1620698056281,46.27330781694607
1620698057731,46.287324555610766
1620698059094,45.1970047041042
1620698060422,45.360278548398504
1620698061699,45.558598532466476
1620698062886,45.93910908907573
1620698064090,46.191700252202786
1620698065394,46.24140959846811
1620698066776,46.10794215067036
1620698068245,45.79079035018625
1620698068996,46.85648436734915
1620698069789,47.91898815861912
1620698070590,49.11511346532575
1620698071381,50.52770290788615
1620698072172,51.90482938104016
1620698072967,53.32004360868631
1620698073711,55.0819831056214
1620698075123,55.133455352858924
1620698076447,53.67040494454709
1620698077727,52.42694370927791
1620698079068,52.660930487045114
1620698080427,52.8726760310932
1620698081901,52.614896794345356
1620698083345,52.349518364799955
1620698084079,53.61828233296355
1620698085542,52.990519995972726
1620698086922,52.557274947339806
1620698088362,52.24032867176927
1620698089780,52.16292707744499
1620698091170,52.34611126628332
1620698092628,50.77872131224404
1620698093364,50.9015836967317
1620698094803,49.55953754508735
1620698095539,49.6746537852562
1620698096287,49.75946894704366
1620698097051,49.82503730545866
1620698097808,49.79731868827385
1620698098544,51.228392824439
1620698099277,52.5626780369084
1620698100015,53.8404867897879
1620698100762,55.316218157391894
1620698101531,56.8609082677182
1620698102294,58.84346696292394
1620698103064,60.85218618578304
1620698103865,60.64964564686408
1620698104691,62.62966297412612
1620698105482,64.65590745670657
1620698106250,67.08477626164937
1620698107028,69.57676915170148
1620698107810,72.11300107268094
1620698108549,75.37243877386874
1620698109283,75.37963540001054
1620698110714,75.42014204252449
1620698112132,72.31977490228992
1620698113452,69.91010318090382
1620698114734,67.86303926657247
1620698115999,65.96793068001884
1620698117316,63.925154724178206
1620698118778,61.579132186842834
1620698120145,59.61307833441659
1620698121565,57.683361224840894
1620698123000,55.92067614807946
1620698124382,54.327372126608395
1620698125824,52.72580087855246
1620698127268,51.275681264725044
1620698128659,50.07555357794202
1620698130077,48.79029544760117
1620698131468,47.58356764935979
1620698132865,46.44506744481767
1620698134255,45.376643726378425
1620698135727,44.15408879188566
1620698137173,43.02604312607865
1620698137925,44.09998436655559
1620698138678,45.20717828207977
1620698139426,46.19974026506019
1620698140193,47.13368846210899
1620698140992,48.0144446655332
1620698141760,49.09150042034592
1620698142557,50.43553607174753
1620698143372,51.66646523921122
1620698144188,53.044291452920156
1620698144977,54.57886921770434
1620698145728,56.216497602577135
1620698146487,58.075145754097
1620698147247,60.064097401542035
1620698148025,61.95067817407409
1620698148837,63.963194724912725
1620698149674,65.9139404523576
1620698150500,68.04696147634685
1620698151300,70.40407480010526
1620698152113,73.23444567505429
1620698152927,76.17346653448881
1620698153752,75.82198615187248
1620698154586,75.42917313786097
1620698155383,75.2050277067856
1620698156159,75.15972380805778
1620698156940,75.24370495488569
1620698157720,75.19141855378338
1620698158493,75.29948960123455
1620698159242,75.61032655595972
1620698159992,75.92702147785637
1620698160760,76.03174604180317
1620698161543,75.87643446770483
1620698162315,75.8139240737449
1620698163075,75.81154362158293
1620698163862,75.77270638069963
1620698164655,75.86378985275012
1620698165422,76.20077176141652
1620698166173,76.56253120321915
1620698166929,76.78015263766382
1620698167689,77.03857058013854
1620698168462,77.24569654568852
1620698169229,77.53083417427345
1620698169980,77.94936019814735
1620698170745,78.11308470329041
1620698171531,78.06450509087917
1620698172307,78.08771006814148
1620698173053,78.26260665481284
1620698173804,78.37375503290149
1620698174557,78.35706649165171
1620698175950,75.26555097613462
1620698177321,72.4586662557454
1620698178070,72.60836662578232
1620698178847,72.58440901411274
1620698179627,72.50105624976347
1620698180420,72.47281408857003
1620698181186,72.58984914438058
1620698181950,72.6035870165181
1620698183425,69.55820108580356
1620698184856,66.9374920407138
1620698186261,64.61503171790359
1620698187660,62.50850376103237
1620698189085,60.438027627129
1620698190467,58.573114989031055
1620698191944,56.6086227008881
1620698192696,56.70016386347366
1620698193458,56.73539971223792
1620698194269,56.55956908018441
1620698195086,56.38783742540653
1620698195895,56.23635653268943
1620698196688,57.824614859152746
1620698197478,59.53259471573816
1620698198268,59.41392912037088
1620698199074,59.334020124616146
1620698200519,57.43909242404679
1620698201984,55.649293699164275
1620698202736,55.68505424281138
1620698204191,53.953057333171344
1620698204935,55.788239002394626
1620698206335,55.868231424092336
1620698207780,55.76510066646276
1620698209164,55.80061065398268
1620698210522,55.97621160276791
1620698211774,56.319477114955774
1620698213031,56.9054772991958
1620698214190,55.82736763633523
1620698215860,53.56700929316189
1620698216999,52.79306784784708
1620698218133,52.067606836980026
1620698219327,51.211152286774116
1620698220555,50.30817108668656
1620698221711,49.52105709629312
1620698222873,48.77076537262657
1620698224056,48.03061471381869
1620698225240,48.54019411223643
1620698226463,49.02130396423452
1620698227721,48.028555858170925
1620698228845,48.674944300653
1620698230028,47.82095070919279
