timestamp,value
1620702053139,10.0
1620702053139,10.0
1620702053538,10.0
1620702053538,10.0
1620702053970,8.0
1620702053970,8.0
1620702054393,10.0
1620702054393,10.0
1620702054779,10.0
1620702054779,10.0
1620702055201,10.0
1620702055201,10.0
1620702055406,0.0
1620702055406,0.0
1620702055732,1.0
1620702055732,1.0
1620702056216,8.0
1620702056216,8.0
1620702056677,0.0
1620702056677,0.0
1620702057134,0.0
1620702057134,0.0
1620702057609,0.0
1620702057609,0.0
1620702058081,0.0
1620702058081,0.0
1620702058651,10.0
1620702058651,10.0
1620702059462,0.0
1620702059462,0.0
1620702060739,0.0
1620702060739,0.0
1620702061486,0.0
1620702061486,0.0
1620702062260,0.0
1620702062260,0.0
1620702063422,0.0
1620702063422,0.0
1620702064277,0.0
1620702064277,0.0
1620702064723,1.0
1620702064723,1.0
1620702065180,0.0
1620702065180,0.0
1620702065600,10.0
1620702065600,10.0
1620702066057,8.0
1620702066057,8.0
1620702066543,0.0
1620702066543,0.0
1620702067006,10.0
1620702067006,10.0
1620702067379,8.0
1620702067379,8.0
1620702067939,0.0
1620702067939,0.0
1620702068411,1.0
1620702068411,1.0
1620702068775,1.0
1620702068775,1.0
1620702069346,0.0
1620702069346,0.0
1620702069804,0.0
1620702069804,0.0
1620702070184,0.0
1620702070184,0.0
1620702070687,1.0
1620702070687,1.0
1620702071201,0.0
1620702071201,0.0
1620702071596,10.0
1620702071596,10.0
1620702072088,0.0
1620702072088,0.0
1620702072495,10.0
1620702072495,10.0
1620702072949,1.0
1620702072949,1.0
1620702073445,1.0
1620702073445,1.0
1620702073750,0.0
1620702073750,0.0
1620702074132,0.0
1620702074132,0.0
1620702074566,10.0
1620702074566,10.0
1620702075004,15.0
1620702075004,15.0
1620702075470,10.0
1620702075470,10.0
1620702075898,8.0
1620702075898,8.0
1620702076335,8.0
1620702076335,8.0
1620702076802,10.0
1620702076802,10.0
1620702077237,0.0
1620702077237,0.0
1620702077770,8.0
1620702077770,8.0
1620702078269,10.0
1620702078269,10.0
1620702078703,0.0
1620702078703,0.0
1620702079026,8.0
1620702079026,8.0
1620702079545,8.0
1620702079545,8.0
1620702079929,8.0
1620702079929,8.0
1620702080289,8.0
1620702080289,8.0
1620702080681,8.0
1620702080681,8.0
1620702081045,8.0
1620702081045,8.0
1620702081496,10.0
1620702081496,10.0
1620702081942,8.0
1620702081942,8.0
1620702082401,8.0
1620702082401,8.0
1620702083244,0.0
1620702083244,0.0
1620702084269,0.0
1620702084269,0.0
1620702085254,0.0
1620702085254,0.0
1620702086203,0.0
1620702086203,0.0
1620702087221,0.0
1620702087221,0.0
1620702088472,0.0
1620702088472,0.0
1620702089462,0.0
1620702089462,0.0
1620702089925,10.0
1620702089925,10.0
1620702090275,10.0
1620702090275,10.0
1620702090749,10.0
1620702090749,10.0
1620702091208,10.0
1620702091208,10.0
1620702091604,8.0
1620702091604,8.0
1620702092035,10.0
1620702092035,10.0
1620702092363,8.0
1620702092363,8.0
1620702092786,10.0
1620702092786,10.0
1620702093201,8.0
1620702093201,8.0
1620702093817,10.0
1620702093817,10.0
1620702094379,10.0
1620702094379,10.0
1620702094800,10.0
1620702094800,10.0
1620702095299,10.0
1620702095299,10.0
1620702095675,10.0
1620702095675,10.0
1620702096092,10.0
1620702096092,10.0
1620702096527,8.0
1620702096527,8.0
1620702096927,10.0
1620702096927,10.0
1620702097357,8.0
1620702097357,8.0
1620702097683,10.0
1620702097683,10.0
1620702098053,10.0
1620702098053,10.0
1620702098406,8.0
1620702098406,8.0
1620702098713,8.0
1620702098713,8.0
1620702099071,10.0
1620702099071,10.0
1620702099578,10.0
1620702099578,10.0
1620702100144,10.0
1620702100144,10.0
1620702100575,10.0
1620702100575,10.0
1620702101173,10.0
1620702101173,10.0
1620702101636,10.0
1620702101636,10.0
1620702102180,10.0
1620702102180,10.0
1620702102934,0.0
1620702102934,0.0
1620702103700,0.0
1620702103700,0.0
1620702104142,10.0
1620702104142,10.0
1620702104463,10.0
1620702104463,10.0
1620702104812,10.0
1620702104812,10.0
1620702105269,10.0
1620702105269,10.0
1620702105671,10.0
1620702105671,10.0
1620702106053,10.0
1620702106053,10.0
1620702106636,8.0
1620702106636,8.0
1620702107082,8.0
1620702107082,8.0
1620702107383,10.0
1620702107383,10.0
1620702107752,8.0
1620702107752,8.0
1620702108196,8.0
1620702108196,8.0
1620702108669,10.0
1620702108669,10.0
1620702109459,0.0
1620702109459,0.0
1620702109930,15.0
1620702109930,15.0
1620702110306,10.0
1620702110306,10.0
1620702111163,0.0
1620702111163,0.0
1620702112152,0.0
1620702112152,0.0
1620702112969,0.0
1620702112969,0.0
1620702113889,0.0
1620702113889,0.0
1620702114788,0.0
1620702114788,0.0
1620702115671,0.0
1620702115671,0.0
1620702116510,0.0
1620702116510,0.0
1620702117402,0.0
1620702117402,0.0
1620702118136,0.0
1620702118136,0.0
1620702118924,0.0
1620702118924,0.0
1620702119779,0.0
1620702119779,0.0
1620702120569,0.0
1620702120569,0.0
1620702121085,1.0
1620702121085,1.0
1620702121404,10.0
1620702121404,10.0
1620702121855,10.0
1620702121855,10.0
1620702122280,10.0
1620702122280,10.0
1620702122872,10.0
1620702122872,10.0
1620702123358,10.0
1620702123358,10.0
1620702124122,0.0
1620702124122,0.0
1620702125201,0.0
1620702125201,0.0
1620702126145,0.0
1620702126145,0.0
1620702126933,0.0
1620702126933,0.0
1620702127732,0.0
1620702127732,0.0
1620702128457,0.0
1620702128457,0.0
1620702129259,0.0
1620702129259,0.0
1620702129982,0.0
1620702129982,0.0
1620702130738,0.0
1620702130738,0.0
1620702131772,0.0
1620702131772,0.0
1620702132767,0.0
1620702132767,0.0
1620702133703,0.0
1620702133703,0.0
1620702134653,0.0
1620702134653,0.0
1620702135609,0.0
1620702135609,0.0
1620702136947,0.0
1620702136947,0.0
1620702137663,0.0
1620702137663,0.0
1620702138146,10.0
1620702138146,10.0
1620702138551,10.0
1620702138551,10.0
1620702139007,10.0
1620702139007,10.0
1620702139438,8.0
1620702139438,8.0
1620702139905,10.0
1620702139905,10.0
1620702140290,10.0
1620702140290,10.0
1620702140657,10.0
1620702140657,10.0
1620702141094,16.0
1620702141094,16.0
1620702141405,8.0
1620702141405,8.0
1620702141834,10.0
1620702141834,10.0
1620702142203,8.0
1620702142203,8.0
1620702142590,10.0
1620702142590,10.0
1620702143043,10.0
1620702143043,10.0
1620702143454,10.0
1620702143454,10.0
1620702143817,10.0
1620702143817,10.0
1620702144241,8.0
1620702144241,8.0
1620702144639,8.0
1620702144639,8.0
1620702145081,10.0
1620702145081,10.0
1620702145614,8.0
1620702145614,8.0
1620702146112,16.0
1620702146112,16.0
1620702146507,10.0
1620702146507,10.0
1620702146935,8.0
1620702146935,8.0
1620702147392,8.0
1620702147392,8.0
1620702147744,10.0
1620702147744,10.0
1620702148185,8.0
1620702148185,8.0
1620702148605,15.0
1620702148605,15.0
1620702148960,10.0
1620702148960,10.0
1620702149365,10.0
1620702149365,10.0
1620702149780,8.0
1620702149780,8.0
1620702150165,10.0
1620702150165,10.0
1620702150592,8.0
1620702150592,8.0
1620702151043,10.0
1620702151043,10.0
1620702151502,8.0
1620702151502,8.0
1620702151897,10.0
1620702151897,10.0
1620702152392,8.0
1620702152392,8.0
1620702153193,0.0
1620702153193,0.0
1620702153993,0.0
1620702153993,0.0
1620702154790,0.0
1620702154790,0.0
1620702155608,0.0
1620702155608,0.0
1620702156416,0.0
1620702156416,0.0
1620702157514,0.0
1620702157514,0.0
1620702158437,0.0
1620702158437,0.0
1620702159281,0.0
1620702159281,0.0
1620702160105,0.0
1620702160105,0.0
1620702161129,0.0
1620702161129,0.0
1620702162227,0.0
1620702162227,0.0
1620702162768,8.0
1620702162768,8.0
1620702163161,10.0
1620702163161,10.0
1620702163586,10.0
1620702163586,10.0
1620702164009,8.0
1620702164009,8.0
1620702164449,8.0
1620702164449,8.0
1620702164833,10.0
1620702164833,10.0
1620702165274,10.0
1620702165274,10.0
1620702165652,10.0
1620702165652,10.0
1620702166059,10.0
1620702166059,10.0
1620702166533,10.0
1620702166533,10.0
1620702166863,10.0
1620702166863,10.0
1620702167219,10.0
1620702167219,10.0
1620702167569,15.0
1620702167569,15.0
1620702167889,10.0
1620702167889,10.0
1620702168218,8.0
1620702168218,8.0
1620702168627,10.0
1620702168627,10.0
1620702169023,8.0
1620702169023,8.0
1620702169340,8.0
1620702169340,8.0
1620702169593,10.0
1620702169593,10.0
1620702169973,8.0
1620702169973,8.0
1620702170270,10.0
1620702170270,10.0
1620702170732,10.0
1620702170732,10.0
1620702171130,10.0
1620702171130,10.0
1620702171558,10.0
1620702171558,10.0
1620702171950,10.0
1620702171950,10.0
1620702172389,10.0
1620702172389,10.0
1620702172750,8.0
1620702172750,8.0
1620702173178,10.0
1620702173178,10.0
1620702173685,1.0
1620702173685,1.0
1620702174095,10.0
1620702174095,10.0
1620702174527,10.0
1620702174527,10.0
1620702175010,10.0
1620702175010,10.0
1620702175544,8.0
1620702175544,8.0
1620702175922,8.0
1620702175922,8.0
1620702176312,10.0
1620702176312,10.0
1620702176770,8.0
1620702176770,8.0
1620702177262,8.0
1620702177262,8.0
1620702177725,10.0
1620702177725,10.0
1620702178132,8.0
1620702178132,8.0
1620702178550,8.0
1620702178550,8.0
1620702178889,15.0
1620702178889,15.0
1620702179269,1.0
1620702179269,1.0
1620702179688,8.0
1620702179688,8.0
1620702180063,8.0
1620702180063,8.0
1620702180458,10.0
1620702180458,10.0
1620702180849,10.0
1620702180849,10.0
1620702181220,8.0
1620702181220,8.0
1620702181619,8.0
1620702181619,8.0
1620702182018,8.0
1620702182018,8.0
1620702182403,10.0
1620702182403,10.0
1620702182731,10.0
1620702182731,10.0
1620702183095,10.0
1620702183095,10.0
1620702183422,8.0
1620702183422,8.0
1620702183763,8.0
1620702183763,8.0
1620702184079,10.0
1620702184079,10.0
1620702184479,10.0
1620702184479,10.0
1620702184888,10.0
1620702184888,10.0
1620702185269,10.0
1620702185269,10.0
1620702185678,10.0
1620702185678,10.0
1620702186064,0.0
1620702186064,0.0
1620702186565,10.0
1620702186565,10.0
1620702187024,10.0
1620702187024,10.0
1620702187450,10.0
1620702187450,10.0
1620702187915,10.0
1620702187915,10.0
1620702188367,8.0
1620702188367,8.0
1620702188807,8.0
1620702188807,8.0
1620702189282,10.0
1620702189282,10.0
1620702189834,10.0
1620702189834,10.0
1620702190360,10.0
1620702190360,10.0
1620702190783,10.0
1620702190783,10.0
1620702191210,0.0
1620702191210,0.0
1620702191698,10.0
1620702191698,10.0
1620702192061,10.0
1620702192061,10.0
1620702192520,10.0
1620702192520,10.0
1620702192931,10.0
1620702192931,10.0
1620702193336,15.0
1620702193336,15.0
1620702193771,10.0
1620702193771,10.0
1620702194095,8.0
1620702194095,8.0
1620702194476,10.0
1620702194476,10.0
1620702194947,8.0
1620702194947,8.0
1620702195465,8.0
1620702195465,8.0
1620702195983,8.0
1620702195983,8.0
1620702196474,8.0
1620702196474,8.0
1620702196858,8.0
1620702196858,8.0
1620702197227,10.0
1620702197227,10.0
1620702197640,10.0
1620702197640,10.0
1620702198022,10.0
1620702198022,10.0
1620702198416,10.0
1620702198416,10.0
1620702198906,8.0
1620702198906,8.0
1620702199309,8.0
1620702199309,8.0
1620702199672,0.0
1620702199672,0.0
1620702200116,8.0
1620702200116,8.0
1620702200563,8.0
1620702200563,8.0
1620702200919,10.0
1620702200919,10.0
1620702201412,10.0
1620702201412,10.0
1620702201869,10.0
1620702201869,10.0
1620702202332,10.0
1620702202332,10.0
1620702202747,10.0
1620702202747,10.0
1620702203189,10.0
1620702203189,10.0
1620702203583,8.0
1620702203583,8.0
1620702204035,2.0
1620702204035,2.0
1620702204420,10.0
1620702204420,10.0
1620702204785,10.0
1620702204785,10.0
1620702205198,10.0
1620702205198,10.0
1620702205557,8.0
1620702205557,8.0
1620702205915,8.0
1620702205915,8.0
1620702206315,8.0
1620702206315,8.0
1620702206720,10.0
1620702206720,10.0
1620702207089,8.0
1620702207089,8.0
1620702207457,1.0
1620702207457,1.0
1620702207842,8.0
1620702207842,8.0
1620702208220,10.0
1620702208220,10.0
1620702208664,10.0
1620702208664,10.0
1620702209065,8.0
1620702209065,8.0
1620702209499,10.0
1620702209499,10.0
1620702209969,8.0
1620702209969,8.0
1620702210366,10.0
1620702210366,10.0
1620702210798,10.0
1620702210798,10.0
1620702211357,10.0
1620702211357,10.0
1620702212127,0.0
1620702212127,0.0
1620702212562,10.0
1620702212562,10.0
1620702212970,8.0
1620702212970,8.0
1620702213372,10.0
1620702213372,10.0
1620702213823,10.0
1620702213823,10.0
1620702214229,8.0
1620702214229,8.0
1620702214625,8.0
1620702214625,8.0
1620702215066,8.0
1620702215066,8.0
1620702215458,15.0
1620702215458,15.0
1620702215922,10.0
1620702215922,10.0
1620702216381,15.0
1620702216381,15.0
1620702216818,8.0
1620702216818,8.0
1620702217185,10.0
1620702217185,10.0
1620702217668,8.0
1620702217668,8.0
1620702218176,8.0
1620702218176,8.0
1620702218723,10.0
1620702218723,10.0
1620702219217,8.0
1620702219217,8.0
1620702219662,10.0
1620702219662,10.0
1620702220137,10.0
1620702220137,10.0
1620702220644,10.0
1620702220644,10.0
1620702221123,8.0
1620702221123,8.0
1620702221545,8.0
1620702221545,8.0
1620702221972,10.0
1620702221972,10.0
1620702222354,8.0
1620702222354,8.0
1620702222744,10.0
1620702222744,10.0
1620702223216,8.0
1620702223216,8.0
1620702223702,10.0
1620702223702,10.0
1620702224188,10.0
1620702224188,10.0
1620702224626,8.0
1620702224626,8.0
1620702225122,10.0
1620702225122,10.0
1620702225521,15.0
1620702225521,15.0
1620702225846,10.0
1620702225846,10.0
1620702226285,10.0
1620702226285,10.0
1620702226733,10.0
1620702226733,10.0
1620702227154,10.0
1620702227154,10.0
1620702227529,10.0
1620702227529,10.0
1620702227906,8.0
1620702227906,8.0
1620702228321,8.0
1620702228321,8.0
1620702228821,10.0
1620702228821,10.0
1620702229293,8.0
1620702229293,8.0
1620702229778,10.0
1620702229778,10.0
1620702230223,8.0
1620702230223,8.0
1620702230621,8.0
1620702230621,8.0
1620702231018,10.0
1620702231018,10.0
1620702231393,10.0
1620702231393,10.0
1620702231798,8.0
1620702231798,8.0
1620702232173,10.0
1620702232173,10.0
1620702232535,10.0
1620702232535,10.0
1620702232886,8.0
1620702232886,8.0
1620702233331,8.0
1620702233331,8.0
1620702233735,15.0
1620702233735,15.0
1620702234221,10.0
1620702234221,10.0
1620702234702,8.0
1620702234702,8.0
1620702235184,10.0
1620702235184,10.0
1620702235609,10.0
1620702235609,10.0
1620702235978,8.0
1620702235978,8.0
1620702236367,10.0
1620702236367,10.0
1620702236888,15.0
1620702236888,15.0
1620702237412,10.0
1620702237412,10.0
1620702237846,8.0
1620702237846,8.0
1620702238229,10.0
1620702238229,10.0
1620702238648,10.0
1620702238648,10.0
1620702239091,10.0
1620702239091,10.0
1620702239549,8.0
1620702239549,8.0
1620702239941,10.0
1620702239941,10.0
1620702240347,10.0
1620702240347,10.0
1620702240774,10.0
1620702240774,10.0
1620702241140,10.0
1620702241140,10.0
1620702241494,10.0
1620702241494,10.0
1620702241924,10.0
1620702241924,10.0
1620702242238,8.0
1620702242238,8.0
1620702242624,10.0
1620702242624,10.0
1620702242992,10.0
1620702242992,10.0
1620702243297,10.0
1620702243297,10.0
1620702243651,10.0
1620702243651,10.0
1620702244088,10.0
1620702244088,10.0
1620702244441,10.0
1620702244441,10.0
1620702244908,8.0
1620702244908,8.0
1620702245427,10.0
1620702245427,10.0
1620702245874,10.0
1620702245874,10.0
1620702246363,8.0
1620702246363,8.0
1620702246859,8.0
1620702246859,8.0
1620702247239,10.0
1620702247239,10.0
1620702247617,10.0
1620702247617,10.0
1620702248028,10.0
1620702248028,10.0
1620702248428,8.0
1620702248428,8.0
1620702248893,10.0
1620702248893,10.0
1620702249288,15.0
1620702249288,15.0
1620702249710,10.0
1620702249710,10.0
1620702250121,10.0
1620702250121,10.0
1620702250453,8.0
1620702250453,8.0
1620702250864,10.0
1620702250864,10.0
1620702251247,10.0
1620702251247,10.0
1620702251651,10.0
1620702251651,10.0
1620702252043,10.0
1620702252043,10.0
1620702252499,10.0
1620702252499,10.0
1620702252952,10.0
1620702252952,10.0
1620702253303,10.0
1620702253303,10.0
1620702253704,10.0
1620702253704,10.0
1620702254142,10.0
1620702254142,10.0
1620702254484,10.0
1620702254484,10.0
1620702254826,10.0
1620702254826,10.0
1620702255183,15.0
1620702255183,15.0
1620702255385,14.0
1620702255385,14.0
1620702255672,10.0
1620702255672,10.0
1620702256005,10.0
1620702256005,10.0
1620702256460,10.0
1620702256460,10.0
1620702256842,10.0
1620702256842,10.0
1620702257256,10.0
1620702257256,10.0
1620702257660,10.0
1620702257660,10.0
1620702258072,10.0
1620702258072,10.0
1620702258573,10.0
1620702258573,10.0
1620702259066,10.0
1620702259066,10.0
1620702259578,10.0
1620702259578,10.0
1620702260049,8.0
1620702260049,8.0
1620702260458,10.0
1620702260458,10.0
1620702260901,8.0
1620702260901,8.0
1620702261370,8.0
1620702261370,8.0
1620702261835,10.0
1620702261835,10.0
1620702262237,10.0
1620702262237,10.0
1620702262684,8.0
1620702262684,8.0
1620702263091,10.0
1620702263091,10.0
1620702263505,10.0
1620702263505,10.0
1620702263878,8.0
1620702263878,8.0
1620702264187,10.0
1620702264187,10.0
1620702264550,15.0
1620702264550,15.0
1620702264923,8.0
1620702264923,8.0
1620702265343,10.0
1620702265343,10.0
1620702265714,10.0
1620702265714,10.0
1620702266161,10.0
1620702266161,10.0
1620702266624,10.0
1620702266624,10.0
1620702267021,10.0
1620702267021,10.0
1620702267491,8.0
1620702267491,8.0
1620702267859,10.0
1620702267859,10.0
1620702268189,10.0
1620702268189,10.0
1620702268568,8.0
1620702268568,8.0
1620702268976,8.0
1620702268976,8.0
1620702269380,8.0
1620702269380,8.0
1620702269795,10.0
1620702269795,10.0
1620702270200,10.0
1620702270200,10.0
1620702270593,10.0
1620702270593,10.0
1620702271031,8.0
1620702271031,8.0
1620702271440,10.0
1620702271440,10.0
1620702271809,10.0
1620702271809,10.0
1620702272222,10.0
1620702272222,10.0
1620702272592,10.0
1620702272592,10.0
1620702273064,10.0
1620702273064,10.0
1620702273474,15.0
1620702273474,15.0
1620702273946,10.0
1620702273946,10.0
1620702274390,8.0
1620702274390,8.0
1620702274778,10.0
1620702274778,10.0
1620702275230,10.0
1620702275230,10.0
1620702275648,8.0
1620702275648,8.0
1620702276023,8.0
1620702276023,8.0
1620702276442,10.0
1620702276442,10.0
1620702276950,10.0
1620702276950,10.0
1620702277400,10.0
1620702277400,10.0
1620702277790,8.0
1620702277790,8.0
1620702278181,10.0
1620702278181,10.0
1620702278621,10.0
1620702278621,10.0
1620702278948,10.0
1620702278948,10.0
1620702279296,10.0
1620702279296,10.0
1620702279711,8.0
1620702279711,8.0
1620702280112,10.0
1620702280112,10.0
1620702280471,8.0
1620702280471,8.0
1620702280796,8.0
1620702280796,8.0
1620702281144,10.0
1620702281144,10.0
1620702281573,8.0
1620702281573,8.0
1620702281967,10.0
1620702281967,10.0
1620702282285,10.0
1620702282285,10.0
1620702282696,8.0
1620702282696,8.0
1620702283161,10.0
1620702283161,10.0
1620702283615,10.0
1620702283615,10.0
1620702284038,10.0
1620702284038,10.0
1620702284451,8.0
1620702284451,8.0
1620702284838,10.0
1620702284838,10.0
1620702285210,10.0
1620702285210,10.0
1620702285643,10.0
1620702285643,10.0
1620702286080,10.0
1620702286080,10.0
1620702286467,10.0
1620702286467,10.0
1620702286914,10.0
1620702286914,10.0
1620702287365,8.0
1620702287365,8.0
1620702287833,8.0
1620702287833,8.0
1620702288245,8.0
1620702288245,8.0
1620702288671,10.0
1620702288671,10.0
1620702289123,10.0
1620702289123,10.0
1620702289572,10.0
1620702289572,10.0
1620702290003,15.0
1620702290003,15.0
1620702290357,8.0
1620702290357,8.0
1620702290775,8.0
1620702290775,8.0
1620702291193,10.0
1620702291193,10.0
1620702291609,8.0
1620702291609,8.0
1620702291979,8.0
1620702291979,8.0
1620702292401,10.0
1620702292401,10.0
1620702292830,10.0
1620702292830,10.0
1620702293332,10.0
1620702293332,10.0
1620702293726,8.0
1620702293726,8.0
1620702294195,10.0
1620702294195,10.0
1620702294589,10.0
1620702294589,10.0
1620702294946,10.0
1620702294946,10.0
1620702295425,10.0
1620702295425,10.0
1620702295878,10.0
1620702295878,10.0
1620702296271,10.0
1620702296271,10.0
1620702296657,15.0
1620702296657,15.0
1620702297036,10.0
1620702297036,10.0
1620702297423,10.0
1620702297423,10.0
1620702297867,10.0
1620702297867,10.0
1620702298336,10.0
1620702298336,10.0
1620702298701,8.0
1620702298701,8.0
1620702299111,8.0
1620702299111,8.0
1620702299508,10.0
1620702299508,10.0
1620702299965,10.0
1620702299965,10.0
1620702300415,8.0
1620702300415,8.0
1620702300752,8.0
1620702300752,8.0
1620702301144,10.0
1620702301144,10.0
1620702301528,10.0
1620702301528,10.0
1620702301945,10.0
1620702301945,10.0
1620702302358,8.0
1620702302358,8.0
1620702302820,10.0
1620702302820,10.0
1620702303229,10.0
1620702303229,10.0
1620702303610,10.0
1620702303610,10.0
1620702304040,10.0
1620702304040,10.0
1620702304448,10.0
1620702304448,10.0
1620702304838,10.0
1620702304838,10.0
1620702305294,10.0
1620702305294,10.0
1620702305658,10.0
1620702305658,10.0
1620702306045,10.0
1620702306045,10.0
1620702306404,10.0
1620702306404,10.0
1620702306791,10.0
1620702306791,10.0
1620702307117,8.0
1620702307117,8.0
1620702307529,10.0
1620702307529,10.0
1620702307926,10.0
1620702307926,10.0
1620702308328,10.0
1620702308328,10.0
1620702308753,10.0
1620702308753,10.0
1620702309217,10.0
1620702309217,10.0
1620702309705,15.0
1620702309705,15.0
1620702310114,10.0
1620702310114,10.0
1620702310593,10.0
1620702310593,10.0
1620702311073,10.0
1620702311073,10.0
1620702311551,10.0
1620702311551,10.0
1620702312018,10.0
1620702312018,10.0
1620702312493,8.0
1620702312493,8.0
1620702312916,8.0
1620702312916,8.0
1620702313345,10.0
1620702313345,10.0
1620702313803,8.0
1620702313803,8.0
1620702314321,15.0
1620702314321,15.0
1620702314734,10.0
1620702314734,10.0
1620702315169,8.0
1620702315169,8.0
1620702315568,10.0
1620702315568,10.0
1620702316026,10.0
1620702316026,10.0
1620702316412,10.0
1620702316412,10.0
1620702316809,10.0
1620702316809,10.0
1620702317222,8.0
1620702317222,8.0
1620702317708,8.0
1620702317708,8.0
1620702318155,10.0
1620702318155,10.0
1620702318611,10.0
1620702318611,10.0
1620702318997,10.0
1620702318997,10.0
1620702319402,10.0
1620702319402,10.0
1620702319808,8.0
1620702319808,8.0
1620702320199,10.0
1620702320199,10.0
1620702320571,10.0
1620702320571,10.0
1620702320911,10.0
1620702320911,10.0
1620702321394,8.0
1620702321394,8.0
1620702321793,8.0
1620702321793,8.0
1620702322219,10.0
1620702322219,10.0
1620702322622,10.0
1620702322622,10.0
1620702323029,10.0
1620702323029,10.0
1620702323446,10.0
1620702323446,10.0
1620702323815,10.0
1620702323815,10.0
1620702324250,10.0
1620702324250,10.0
1620702324755,10.0
1620702324755,10.0
1620702325115,10.0
1620702325115,10.0
1620702325417,8.0
1620702325417,8.0
1620702325746,10.0
1620702325746,10.0
1620702326075,8.0
1620702326075,8.0
1620702326422,8.0
1620702326422,8.0
1620702326811,10.0
1620702326811,10.0
1620702327371,10.0
1620702327371,10.0
1620702328199,0.0
1620702328199,0.0
1620702328900,0.0
1620702328900,0.0
1620702329681,0.0
1620702329681,0.0
1620702330591,0.0
1620702330591,0.0
1620702331324,0.0
1620702331324,0.0
1620702332017,0.0
1620702332017,0.0
1620702332500,10.0
1620702332500,10.0
1620702332866,10.0
1620702332866,10.0
1620702333248,8.0
1620702333248,8.0
1620702333544,10.0
1620702333544,10.0
1620702333916,8.0
1620702333916,8.0
1620702334247,8.0
1620702334247,8.0
1620702334615,10.0
1620702334615,10.0
1620702334994,10.0
1620702334994,10.0
1620702335345,8.0
1620702335345,8.0
1620702335676,8.0
1620702335676,8.0
1620702336063,8.0
1620702336063,8.0
1620702336447,10.0
1620702336447,10.0
1620702336831,8.0
1620702336831,8.0
1620702337226,10.0
1620702337226,10.0
1620702337602,10.0
1620702337602,10.0
1620702337990,8.0
1620702337990,8.0
1620702338388,8.0
1620702338388,8.0
1620702338767,10.0
1620702338767,10.0
1620702339212,10.0
1620702339212,10.0
1620702339631,10.0
1620702339631,10.0
1620702340075,15.0
1620702340075,15.0
1620702340495,10.0
1620702340495,10.0
1620702340763,10.0
1620702340763,10.0
1620702341106,10.0
1620702341106,10.0
1620702341453,10.0
1620702341453,10.0
1620702341905,10.0
1620702341905,10.0
1620702342363,10.0
1620702342363,10.0
1620702342885,10.0
1620702342885,10.0
1620702343680,0.0
1620702343680,0.0
1620702344458,0.0
1620702344458,0.0
1620702345265,0.0
1620702345265,0.0
1620702346021,0.0
1620702346021,0.0
1620702346522,8.0
1620702346522,8.0
1620702346843,10.0
1620702346843,10.0
1620702347207,10.0
1620702347207,10.0
1620702347570,10.0
1620702347570,10.0
1620702347997,8.0
1620702347997,8.0
1620702348339,10.0
1620702348339,10.0
1620702348650,10.0
1620702348650,10.0
1620702349066,10.0
1620702349066,10.0
1620702349401,15.0
1620702349401,15.0
1620702349775,10.0
1620702349775,10.0
1620702350185,8.0
1620702350185,8.0
1620702350551,10.0
1620702350551,10.0
1620702350860,8.0
1620702350860,8.0
1620702351299,8.0
1620702351299,8.0
1620702351663,10.0
1620702351663,10.0
1620702352066,8.0
1620702352066,8.0
1620702352465,10.0
1620702352465,10.0
1620702352844,8.0
1620702352844,8.0
1620702353216,10.0
1620702353216,10.0
1620702353620,15.0
1620702353620,15.0
1620702353965,8.0
1620702353965,8.0
1620702354286,10.0
1620702354286,10.0
1620702354636,8.0
1620702354636,8.0
1620702355046,8.0
1620702355046,8.0
1620702355417,10.0
1620702355417,10.0
1620702355853,10.0
1620702355853,10.0
1620702356233,10.0
1620702356233,10.0
1620702356579,10.0
1620702356579,10.0
1620702357028,10.0
1620702357028,10.0
1620702357343,10.0
1620702357343,10.0
1620702357737,10.0
1620702357737,10.0
1620702358141,10.0
1620702358141,10.0
1620702358520,10.0
1620702358520,10.0
1620702358937,10.0
1620702358937,10.0
1620702359352,10.0
1620702359352,10.0
1620702359772,8.0
1620702359772,8.0
1620702360177,10.0
1620702360177,10.0
1620702360621,8.0
1620702360621,8.0
1620702361036,8.0
1620702361036,8.0
1620702361451,10.0
1620702361451,10.0
1620702361820,8.0
1620702361820,8.0
1620702362248,10.0
1620702362248,10.0
1620702362564,10.0
1620702362564,10.0
1620702362927,8.0
1620702362927,8.0
1620702363245,10.0
1620702363245,10.0
1620702363620,10.0
1620702363620,10.0
1620702364090,8.0
1620702364090,8.0
1620702364517,10.0
1620702364517,10.0
1620702364926,10.0
1620702364926,10.0
1620702365366,8.0
1620702365366,8.0
1620702365800,10.0
1620702365800,10.0
1620702366219,10.0
1620702366219,10.0
1620702366749,8.0
1620702366749,8.0
1620702367146,8.0
1620702367146,8.0
1620702367549,10.0
1620702367549,10.0
1620702367975,8.0
1620702367975,8.0
1620702368395,10.0
1620702368395,10.0
1620702368851,8.0
1620702368851,8.0
1620702369394,8.0
1620702369394,8.0
1620702369940,10.0
1620702369940,10.0
1620702370339,10.0
1620702370339,10.0
1620702370830,8.0
1620702370830,8.0
1620702371242,10.0
1620702371242,10.0
1620702371747,10.0
1620702371747,10.0
1620702372224,8.0
1620702372224,8.0
1620702372607,10.0
1620702372607,10.0
1620702373003,10.0
1620702373003,10.0
1620702373389,10.0
1620702373389,10.0
1620702373658,10.0
1620702373658,10.0
1620702374037,10.0
1620702374037,10.0
1620702374376,10.0
1620702374376,10.0
1620702374705,10.0
1620702374705,10.0
1620702375106,10.0
1620702375106,10.0
1620702375498,10.0
1620702375498,10.0
1620702375839,10.0
1620702375839,10.0
1620702376193,8.0
1620702376193,8.0
1620702376642,10.0
1620702376642,10.0
1620702377042,10.0
1620702377042,10.0
1620702377439,10.0
1620702377439,10.0
1620702377900,8.0
1620702377900,8.0
1620702378336,10.0
1620702378336,10.0
1620702378778,10.0
1620702378778,10.0
1620702379148,10.0
1620702379148,10.0
1620702379534,10.0
1620702379534,10.0
1620702380013,10.0
1620702380013,10.0
1620702380433,10.0
1620702380433,10.0
1620702380763,10.0
1620702380763,10.0
1620702381146,8.0
1620702381146,8.0
1620702381501,8.0
1620702381501,8.0
1620702381927,8.0
1620702381927,8.0
1620702382297,10.0
1620702382297,10.0
1620702382751,10.0
1620702382751,10.0
1620702383162,10.0
1620702383162,10.0
1620702383655,15.0
1620702383655,15.0
1620702384121,10.0
1620702384121,10.0
1620702384499,10.0
1620702384499,10.0
1620702384977,8.0
1620702384977,8.0
1620702385338,10.0
1620702385338,10.0
1620702385703,10.0
1620702385703,10.0
1620702386089,10.0
1620702386089,10.0
1620702386521,10.0
1620702386521,10.0
1620702386968,10.0
1620702386968,10.0
1620702387448,10.0
1620702387448,10.0
1620702387847,10.0
1620702387847,10.0
1620702388203,10.0
1620702388203,10.0
1620702388648,10.0
1620702388648,10.0
1620702389041,10.0
1620702389041,10.0
1620702389402,10.0
1620702389402,10.0
1620702389807,10.0
1620702389807,10.0
1620702390118,10.0
1620702390118,10.0
1620702390553,10.0
1620702390553,10.0
1620702390887,8.0
1620702390887,8.0
1620702391192,8.0
1620702391192,8.0
1620702391549,10.0
1620702391549,10.0
1620702391950,8.0
1620702391950,8.0
1620702392380,10.0
1620702392380,10.0
1620702392837,10.0
1620702392837,10.0
1620702393351,8.0
1620702393351,8.0
1620702393767,10.0
1620702393767,10.0
1620702394172,8.0
1620702394172,8.0
1620702394575,10.0
1620702394575,10.0
1620702394998,8.0
1620702394998,8.0
1620702395460,10.0
1620702395460,10.0
1620702395942,10.0
1620702395942,10.0
1620702396361,10.0
1620702396361,10.0
1620702396838,10.0
1620702396838,10.0
1620702397319,10.0
1620702397319,10.0
1620702397772,10.0
1620702397772,10.0
1620702398263,10.0
1620702398263,10.0
1620702398663,8.0
1620702398663,8.0
1620702399076,8.0
1620702399076,8.0
1620702399540,10.0
1620702399540,10.0
1620702399928,10.0
1620702399928,10.0
1620702400299,8.0
1620702400299,8.0
1620702400848,15.0
1620702400848,15.0
1620702401634,0.0
1620702401634,0.0
1620702402638,0.0
1620702402638,0.0
1620702403637,0.0
1620702403637,0.0
1620702404607,0.0
1620702404607,0.0
1620702405564,0.0
1620702405564,0.0
1620702406357,0.0
1620702406357,0.0
1620702407075,0.0
1620702407075,0.0
1620702407556,10.0
1620702407556,10.0
1620702407965,10.0
1620702407965,10.0
1620702408321,10.0
1620702408321,10.0
1620702408689,10.0
1620702408689,10.0
1620702409039,10.0
1620702409039,10.0
1620702409468,10.0
1620702409468,10.0
1620702409858,10.0
1620702409858,10.0
1620702410169,8.0
1620702410169,8.0
1620702410576,8.0
1620702410576,8.0
1620702411070,10.0
1620702411070,10.0
1620702411521,10.0
1620702411521,10.0
1620702411993,8.0
1620702411993,8.0
1620702412390,10.0
1620702412390,10.0
1620702412832,8.0
1620702412832,8.0
1620702413278,8.0
1620702413278,8.0
1620702413681,10.0
1620702413681,10.0
1620702414052,8.0
1620702414052,8.0
1620702414478,8.0
1620702414478,8.0
1620702414847,15.0
1620702414847,15.0
1620702415240,10.0
1620702415240,10.0
1620702415691,10.0
1620702415691,10.0
1620702416097,10.0
1620702416097,10.0
1620702416489,10.0
1620702416489,10.0
1620702416912,8.0
1620702416912,8.0
1620702417343,15.0
1620702417343,15.0
1620702417751,10.0
1620702417751,10.0
1620702418242,10.0
1620702418242,10.0
1620702418685,8.0
1620702418685,8.0
1620702419115,10.0
1620702419115,10.0
1620702419559,8.0
1620702419559,8.0
1620702419972,16.0
1620702419972,16.0
1620702420383,10.0
1620702420383,10.0
1620702420817,15.0
1620702420817,15.0
1620702421192,10.0
1620702421192,10.0
1620702421537,10.0
1620702421537,10.0
1620702421940,10.0
1620702421940,10.0
1620702422333,10.0
1620702422333,10.0
1620702422754,10.0
1620702422754,10.0
1620702423155,10.0
1620702423155,10.0
1620702423546,10.0
1620702423546,10.0
1620702423909,10.0
1620702423909,10.0
1620702424357,10.0
1620702424357,10.0
1620702424747,10.0
1620702424747,10.0
1620702425077,10.0
1620702425077,10.0
1620702425489,8.0
1620702425489,8.0
1620702425823,10.0
1620702425823,10.0
1620702426284,8.0
1620702426284,8.0
1620702426630,10.0
1620702426630,10.0
1620702427059,10.0
1620702427059,10.0
1620702427453,8.0
1620702427453,8.0
1620702427850,10.0
1620702427850,10.0
1620702428251,10.0
1620702428251,10.0
1620702428593,10.0
1620702428593,10.0
1620702428962,10.0
1620702428962,10.0
1620702429327,8.0
1620702429327,8.0
1620702429772,8.0
1620702429772,8.0
1620702430250,10.0
1620702430250,10.0
1620702430601,10.0
1620702430601,10.0
1620702430929,10.0
1620702430929,10.0
1620702431347,10.0
1620702431347,10.0
1620702431691,10.0
1620702431691,10.0
1620702432002,10.0
1620702432002,10.0
1620702432352,10.0
1620702432352,10.0
1620702432731,8.0
1620702432731,8.0
1620702433126,10.0
1620702433126,10.0
1620702433547,10.0
1620702433547,10.0
1620702433913,8.0
1620702433913,8.0
1620702434293,2.0
1620702434293,2.0
1620702434730,10.0
1620702434730,10.0
1620702435194,8.0
1620702435194,8.0
1620702435658,10.0
1620702435658,10.0
1620702436356,0.0
1620702436356,0.0
1620702437199,0.0
1620702437199,0.0
1620702438058,0.0
1620702438058,0.0
1620702438928,0.0
1620702438928,0.0
1620702439792,0.0
1620702439792,0.0
1620702440766,0.0
1620702440766,0.0
1620702441652,0.0
1620702441652,0.0
1620702442415,0.0
1620702442415,0.0
1620702442959,10.0
1620702442959,10.0
1620702443429,10.0
1620702443429,10.0
1620702443835,10.0
1620702443835,10.0
1620702444267,10.0
1620702444267,10.0
1620702444719,10.0
1620702444719,10.0
1620702445144,10.0
1620702445144,10.0
1620702445583,10.0
1620702445583,10.0
1620702445988,8.0
1620702445988,8.0
1620702446330,15.0
1620702446330,15.0
1620702446748,10.0
1620702446748,10.0
1620702447157,16.0
1620702447157,16.0
1620702447562,8.0
1620702447562,8.0
1620702448003,10.0
1620702448003,10.0
1620702448376,10.0
1620702448376,10.0
1620702448793,10.0
1620702448793,10.0
1620702449225,15.0
1620702449225,15.0
1620702449597,8.0
1620702449597,8.0
1620702449973,10.0
1620702449973,10.0
1620702450406,8.0
1620702450406,8.0
1620702450899,8.0
1620702450899,8.0
1620702451301,8.0
1620702451301,8.0
1620702451701,8.0
1620702451701,8.0
1620702452028,10.0
1620702452028,10.0
1620702452424,8.0
1620702452424,8.0
1620702452824,10.0
1620702452824,10.0
1620702453245,10.0
1620702453245,10.0
1620702453635,10.0
1620702453635,10.0
1620702454055,10.0
1620702454055,10.0
1620702454491,10.0
1620702454491,10.0
1620702454888,10.0
1620702454888,10.0
1620702455236,8.0
1620702455236,8.0
1620702455584,10.0
1620702455584,10.0
1620702455932,8.0
1620702455932,8.0
1620702456302,10.0
1620702456302,10.0
1620702456637,8.0
1620702456637,8.0
1620702457016,10.0
1620702457016,10.0
1620702457398,10.0
1620702457398,10.0
1620702457721,10.0
1620702457721,10.0
1620702458103,10.0
1620702458103,10.0
1620702458503,10.0
1620702458503,10.0
1620702458846,8.0
1620702458846,8.0
1620702459181,8.0
1620702459181,8.0
1620702459561,10.0
1620702459561,10.0
1620702459950,8.0
1620702459950,8.0
1620702460303,10.0
1620702460303,10.0
1620702460691,8.0
1620702460691,8.0
1620702460985,10.0
1620702460985,10.0
1620702461374,8.0
1620702461374,8.0
1620702461806,10.0
1620702461806,10.0
1620702462219,10.0
1620702462219,10.0
1620702462592,8.0
1620702462592,8.0
1620702462974,10.0
1620702462974,10.0
1620702463363,8.0
1620702463363,8.0
1620702463774,8.0
1620702463774,8.0
1620702464205,8.0
1620702464205,8.0
1620702464637,10.0
1620702464637,10.0
1620702465028,10.0
1620702465028,10.0
1620702465492,8.0
1620702465492,8.0
1620702465882,10.0
1620702465882,10.0
1620702466266,10.0
1620702466266,10.0
1620702466702,8.0
1620702466702,8.0
1620702467087,8.0
1620702467087,8.0
1620702467444,10.0
1620702467444,10.0
1620702467853,0.0
1620702467853,0.0
1620702468191,10.0
1620702468191,10.0
1620702468586,10.0
1620702468586,10.0
1620702468949,8.0
1620702468949,8.0
1620702469295,10.0
1620702469295,10.0
1620702469674,8.0
1620702469674,8.0
1620702470101,10.0
1620702470101,10.0
1620702470593,10.0
1620702470593,10.0
1620702471004,10.0
1620702471004,10.0
1620702471414,8.0
1620702471414,8.0
1620702471784,10.0
1620702471784,10.0
1620702472186,8.0
1620702472186,8.0
1620702472610,10.0
1620702472610,10.0
1620702473014,10.0
1620702473014,10.0
1620702473438,10.0
1620702473438,10.0
1620702473863,10.0
1620702473863,10.0
1620702474280,10.0
1620702474280,10.0
1620702474645,8.0
1620702474645,8.0
1620702474981,10.0
1620702474981,10.0
1620702475356,8.0
1620702475356,8.0
1620702475790,8.0
1620702475790,8.0
1620702476103,8.0
1620702476103,8.0
1620702476520,8.0
1620702476520,8.0
1620702476934,10.0
1620702476934,10.0
1620702477335,8.0
1620702477335,8.0
1620702477692,8.0
1620702477692,8.0
1620702478103,8.0
1620702478103,8.0
1620702478477,10.0
1620702478477,10.0
1620702478916,0.0
1620702478916,0.0
1620702479363,10.0
1620702479363,10.0
1620702479767,10.0
1620702479767,10.0
1620702480121,10.0
1620702480121,10.0
1620702480512,10.0
1620702480512,10.0
1620702480830,8.0
1620702480830,8.0
1620702481173,10.0
1620702481173,10.0
1620702481562,10.0
1620702481562,10.0
1620702481974,8.0
1620702481974,8.0
1620702482345,8.0
1620702482345,8.0
1620702482771,8.0
1620702482771,8.0
1620702483252,10.0
1620702483252,10.0
1620702483697,8.0
1620702483697,8.0
1620702484173,8.0
1620702484173,8.0
1620702484621,10.0
1620702484621,10.0
1620702485108,10.0
1620702485108,10.0
1620702485461,10.0
1620702485461,10.0
1620702485813,10.0
1620702485813,10.0
1620702486118,10.0
1620702486118,10.0
1620702486506,10.0
1620702486506,10.0
1620702486859,10.0
1620702486859,10.0
1620702487258,8.0
1620702487258,8.0
1620702487662,10.0
1620702487662,10.0
1620702488059,10.0
1620702488059,10.0
1620702488518,10.0
1620702488518,10.0
1620702488867,10.0
1620702488867,10.0
1620702489254,10.0
1620702489254,10.0
1620702489674,8.0
1620702489674,8.0
1620702490191,10.0
1620702490191,10.0
1620702490695,10.0
1620702490695,10.0
1620702491136,10.0
1620702491136,10.0
1620702491511,8.0
1620702491511,8.0
1620702491912,10.0
1620702491912,10.0
1620702492311,8.0
1620702492311,8.0
1620702492676,10.0
1620702492676,10.0
1620702493080,15.0
1620702493080,15.0
1620702493506,10.0
1620702493506,10.0
1620702493881,10.0
1620702493881,10.0
1620702494275,10.0
1620702494275,10.0
1620702494733,10.0
1620702494733,10.0
1620702495185,10.0
1620702495185,10.0
1620702495549,10.0
1620702495549,10.0
1620702496068,10.0
1620702496068,10.0
1620702496856,0.0
1620702496856,0.0
1620702497761,0.0
1620702497761,0.0
1620702498712,0.0
1620702498712,0.0
1620702499749,0.0
1620702499749,0.0
1620702500628,0.0
1620702500628,0.0
1620702501099,10.0
1620702501099,10.0
1620702501500,10.0
1620702501500,10.0
1620702501910,0.0
1620702501910,0.0
1620702502355,10.0
1620702502355,10.0
1620702502778,8.0
1620702502778,8.0
1620702503224,10.0
1620702503224,10.0
1620702503670,8.0
1620702503670,8.0
1620702504092,8.0
1620702504092,8.0
1620702504493,10.0
1620702504493,10.0
1620702504929,8.0
1620702504929,8.0
1620702505310,10.0
1620702505310,10.0
1620702505756,15.0
1620702505756,15.0
1620702506284,10.0
1620702506284,10.0
1620702506688,8.0
1620702506688,8.0
1620702507059,10.0
1620702507059,10.0
1620702507507,10.0
1620702507507,10.0
1620702507916,10.0
1620702507916,10.0
1620702508359,8.0
1620702508359,8.0
1620702508787,10.0
1620702508787,10.0
1620702509192,10.0
1620702509192,10.0
1620702509603,10.0
1620702509603,10.0
1620702509989,10.0
1620702509989,10.0
1620702510435,10.0
1620702510435,10.0
1620702510804,10.0
1620702510804,10.0
1620702511266,8.0
1620702511266,8.0
1620702511659,8.0
1620702511659,8.0
1620702512063,10.0
1620702512063,10.0
1620702512531,10.0
1620702512531,10.0
1620702512925,10.0
1620702512925,10.0
1620702513277,10.0
1620702513277,10.0
1620702513699,10.0
1620702513699,10.0
1620702514126,10.0
1620702514126,10.0
1620702514511,10.0
1620702514511,10.0
1620702514895,10.0
1620702514895,10.0
1620702515284,10.0
1620702515284,10.0
1620702515771,0.0
1620702515771,0.0
1620702516134,0.0
1620702516134,0.0
1620702516503,8.0
1620702516503,8.0
1620702516838,10.0
1620702516838,10.0
1620702517193,10.0
1620702517193,10.0
1620702517561,10.0
1620702517561,10.0
1620702517914,10.0
1620702517914,10.0
1620702518344,10.0
1620702518344,10.0
1620702518786,10.0
1620702518786,10.0
1620702519226,10.0
1620702519226,10.0
1620702519652,10.0
1620702519652,10.0
1620702520033,8.0
1620702520033,8.0
1620702520438,10.0
1620702520438,10.0
1620702520830,10.0
1620702520830,10.0
1620702521201,10.0
1620702521201,10.0
1620702521619,8.0
1620702521619,8.0
1620702522049,15.0
1620702522049,15.0
1620702522449,10.0
1620702522449,10.0
1620702522903,8.0
1620702522903,8.0
1620702523294,8.0
1620702523294,8.0
1620702523663,10.0
1620702523663,10.0
1620702524092,10.0
1620702524092,10.0
1620702524439,10.0
1620702524439,10.0
1620702524739,10.0
1620702524739,10.0
1620702525114,10.0
1620702525114,10.0
1620702525508,15.0
1620702525508,15.0
1620702525862,10.0
1620702525862,10.0
1620702526264,10.0
1620702526264,10.0
1620702526595,10.0
1620702526595,10.0
1620702526976,10.0
1620702526976,10.0
1620702527358,10.0
1620702527358,10.0
1620702527752,8.0
1620702527752,8.0
1620702528103,10.0
1620702528103,10.0
1620702528526,10.0
1620702528526,10.0
1620702528918,8.0
1620702528918,8.0
1620702529272,8.0
1620702529272,8.0
1620702529732,10.0
1620702529732,10.0
1620702530177,8.0
1620702530177,8.0
1620702530560,15.0
1620702530560,15.0
1620702531047,8.0
1620702531047,8.0
1620702531444,10.0
1620702531444,10.0
1620702531909,8.0
1620702531909,8.0
1620702532438,8.0
1620702532438,8.0
1620702532872,10.0
1620702532872,10.0
1620702533244,8.0
1620702533244,8.0
1620702533660,10.0
1620702533660,10.0
1620702533989,10.0
1620702533989,10.0
1620702534370,10.0
1620702534370,10.0
1620702534789,8.0
1620702534789,8.0
1620702535150,10.0
1620702535150,10.0
1620702535505,10.0
1620702535505,10.0
1620702535856,10.0
1620702535856,10.0
1620702536211,8.0
1620702536211,8.0
1620702536563,10.0
1620702536563,10.0
1620702536955,8.0
1620702536955,8.0
1620702537352,8.0
1620702537352,8.0
1620702537799,8.0
1620702537799,8.0
1620702538258,10.0
1620702538258,10.0
1620702538653,8.0
1620702538653,8.0
1620702539002,10.0
1620702539002,10.0
1620702539434,8.0
1620702539434,8.0
1620702539847,10.0
1620702539847,10.0
1620702540385,10.0
1620702540385,10.0
1620702540809,8.0
1620702540809,8.0
1620702541274,10.0
1620702541274,10.0
1620702541777,8.0
1620702541777,8.0
1620702542259,8.0
1620702542259,8.0
1620702542695,10.0
1620702542695,10.0
1620702543187,1.0
1620702543187,1.0
1620702543642,10.0
1620702543642,10.0
1620702544074,10.0
1620702544074,10.0
1620702544527,10.0
1620702544527,10.0
1620702544872,8.0
1620702544872,8.0
1620702545330,8.0
1620702545330,8.0
1620702545754,8.0
1620702545754,8.0
1620702546134,10.0
1620702546134,10.0
1620702546518,10.0
1620702546518,10.0
1620702546877,10.0
1620702546877,10.0
1620702547167,10.0
1620702547167,10.0
1620702547492,8.0
1620702547492,8.0
1620702547940,10.0
1620702547940,10.0
1620702548600,0.0
1620702548600,0.0
1620702549174,10.0
1620702549174,10.0
1620702549994,0.0
1620702549994,0.0
1620702550474,10.0
1620702550474,10.0
1620702550742,8.0
1620702550742,8.0
1620702551110,8.0
1620702551110,8.0
1620702551489,10.0
1620702551489,10.0
1620702551885,8.0
1620702551885,8.0
1620702552223,10.0
1620702552223,10.0
1620702552610,8.0
1620702552610,8.0
1620702552981,10.0
1620702552981,10.0
1620702553387,8.0
1620702553387,8.0
1620702554209,8.0
1620702554209,8.0
1620702554587,10.0
1620702554587,10.0
1620702555083,10.0
1620702555083,10.0
1620702555549,8.0
1620702555549,8.0
1620702555883,8.0
1620702555883,8.0
1620702556266,8.0
1620702556266,8.0
1620702556735,10.0
1620702556735,10.0
1620702557088,10.0
1620702557088,10.0
1620702557454,10.0
1620702557454,10.0
1620702557903,8.0
1620702557903,8.0
1620702558351,10.0
1620702558351,10.0
1620702558759,10.0
1620702558759,10.0
1620702559128,10.0
1620702559128,10.0
1620702559509,10.0
1620702559509,10.0
1620702559916,0.0
1620702559916,0.0
1620702560329,1.0
1620702560329,1.0
1620702560746,8.0
1620702560746,8.0
1620702561165,10.0
1620702561165,10.0
1620702561557,8.0
1620702561557,8.0
1620702561882,10.0
1620702561882,10.0
1620702562374,15.0
1620702562374,15.0
1620702562811,10.0
1620702562811,10.0
1620702563167,10.0
1620702563167,10.0
1620702563659,10.0
1620702563659,10.0
1620702564092,8.0
1620702564092,8.0
1620702564534,8.0
1620702564534,8.0
1620702564988,10.0
1620702564988,10.0
1620702565458,10.0
1620702565458,10.0
1620702565864,8.0
1620702565864,8.0
1620702566256,8.0
1620702566256,8.0
1620702566621,8.0
1620702566621,8.0
1620702567093,8.0
1620702567093,8.0
1620702567608,8.0
1620702567608,8.0
1620702568049,8.0
1620702568049,8.0
1620702568395,8.0
1620702568395,8.0
1620702568837,10.0
1620702568837,10.0
1620702569295,10.0
1620702569295,10.0
1620702569622,10.0
1620702569622,10.0
1620702569986,8.0
1620702569986,8.0
1620702570372,15.0
1620702570372,15.0
1620702570780,8.0
1620702570780,8.0
1620702571195,10.0
1620702571195,10.0
1620702571572,10.0
1620702571572,10.0
1620702571977,8.0
1620702571977,8.0
1620702572368,10.0
1620702572368,10.0
1620702572770,8.0
1620702572770,8.0
1620702573210,8.0
1620702573210,8.0
1620702573670,8.0
1620702573670,8.0
1620702574050,10.0
1620702574050,10.0
1620702574511,8.0
1620702574511,8.0
1620702574997,10.0
1620702574997,10.0
1620702575397,8.0
1620702575397,8.0
1620702575889,8.0
1620702575889,8.0
1620702576632,0.0
1620702576632,0.0
1620702577362,0.0
1620702577362,0.0
1620702577856,8.0
1620702577856,8.0
1620702578313,15.0
1620702578313,15.0
1620702578806,10.0
1620702578806,10.0
1620702579239,10.0
1620702579239,10.0
1620702579770,10.0
1620702579770,10.0
1620702580500,0.0
1620702580500,0.0
1620702581451,0.0
1620702581451,0.0
1620702582395,0.0
1620702582395,0.0
1620702583601,0.0
1620702583601,0.0
1620702584519,0.0
1620702584519,0.0
1620702585491,0.0
1620702585491,0.0
1620702586448,0.0
1620702586448,0.0
1620702587389,0.0
1620702587389,0.0
