timestamp,value
1620798992994,15.0
1620798992994,15.0
1620798993458,10.0
1620798993458,10.0
1620798993999,31.0
1620798993999,31.0
1620798994651,31.0
1620798994651,31.0
1620798995003,15.0
1620798995003,15.0
1620798995437,0.0
1620798995437,0.0
1620798995951,15.0
1620798995951,15.0
1620798996394,8.0
1620798996394,8.0
1620798996762,10.0
1620798996762,10.0
1620798997290,10.0
1620798997290,10.0
1620798997703,15.0
1620798997703,15.0
1620798998195,8.0
1620798998195,8.0
1620798998612,15.0
1620798998612,15.0
1620798999022,31.0
1620798999022,31.0
1620798999420,8.0
1620798999420,8.0
1620798999796,10.0
1620798999796,10.0
1620799000243,0.0
1620799000243,0.0
1620799000637,10.0
1620799000637,10.0
1620799001076,8.0
1620799001076,8.0
1620799001636,8.0
1620799001636,8.0
1620799002110,8.0
1620799002110,8.0
1620799002550,8.0
1620799002550,8.0
1620799002935,8.0
1620799002935,8.0
1620799003430,8.0
1620799003430,8.0
1620799003929,0.0
1620799003929,0.0
1620799004779,0.0
1620799004779,0.0
1620799005309,8.0
1620799005309,8.0
1620799005836,15.0
1620799005836,15.0
1620799006273,10.0
1620799006273,10.0
1620799006713,15.0
1620799006713,15.0
1620799007213,1.0
1620799007213,1.0
1620799007619,0.0
1620799007619,0.0
1620799008077,1.0
1620799008077,1.0
1620799008526,1.0
1620799008526,1.0
1620799009045,1.0
1620799009045,1.0
1620799009489,0.0
1620799009489,0.0
1620799009997,10.0
1620799009997,10.0
1620799010490,0.0
1620799010490,0.0
1620799010805,0.0
1620799010805,0.0
1620799011367,0.0
1620799011367,0.0
1620799011850,0.0
1620799011850,0.0
1620799012319,0.0
1620799012319,0.0
1620799012749,8.0
1620799012749,8.0
1620799013181,1.0
1620799013181,1.0
1620799013658,15.0
1620799013658,15.0
1620799014035,15.0
1620799014035,15.0
1620799014416,15.0
1620799014416,15.0
1620799014743,31.0
1620799014743,31.0
1620799015158,15.0
1620799015158,15.0
1620799015546,31.0
1620799015546,31.0
1620799015936,15.0
1620799015936,15.0
1620799016410,10.0
1620799016410,10.0
1620799017009,15.0
1620799017009,15.0
1620799017863,0.0
1620799017863,0.0
1620799018748,0.0
1620799018748,0.0
1620799019520,0.0
1620799019520,0.0
1620799020122,15.0
1620799020122,15.0
1620799020575,15.0
1620799020575,15.0
1620799020938,31.0
1620799020938,31.0
1620799021297,0.0
1620799021297,0.0
1620799021810,31.0
1620799021810,31.0
1620799022291,0.0
1620799022291,0.0
1620799022710,0.0
1620799022710,0.0
1620799023228,0.0
1620799023228,0.0
1620799023543,15.0
1620799023543,15.0
1620799023744,8.0
1620799023744,8.0
1620799024094,0.0
1620799024094,0.0
1620799024495,1.0
1620799024495,1.0
1620799025462,0.0
1620799025462,0.0
1620799026478,0.0
1620799026478,0.0
1620799027028,0.0
1620799027028,0.0
1620799027464,0.0
1620799027464,0.0
1620799027980,0.0
1620799027980,0.0
1620799028831,0.0
1620799028831,0.0
1620799029330,1.0
1620799029330,1.0
1620799029687,0.0
1620799029687,0.0
1620799030089,0.0
1620799030089,0.0
1620799030538,1.0
1620799030538,1.0
1620799030977,10.0
1620799030977,10.0
1620799031462,0.0
1620799031462,0.0
1620799031902,15.0
1620799031902,15.0
1620799032283,15.0
1620799032283,15.0
1620799032667,15.0
1620799032667,15.0
1620799033077,0.0
1620799033077,0.0
1620799033440,0.0
1620799033440,0.0
1620799033823,0.0
1620799033823,0.0
1620799034202,1.0
1620799034202,1.0
1620799034599,0.0
1620799034599,0.0
1620799035030,8.0
1620799035030,8.0
1620799035456,15.0
1620799035456,15.0
1620799035785,0.0
1620799035785,0.0
1620799036278,8.0
1620799036278,8.0
1620799036778,15.0
1620799036778,15.0
1620799037249,1.0
1620799037249,1.0
1620799037710,10.0
1620799037710,10.0
1620799038238,1.0
1620799038238,1.0
1620799038628,0.0
1620799038628,0.0
1620799038981,1.0
1620799038981,1.0
1620799039466,0.0
1620799039466,0.0
1620799039955,0.0
1620799039955,0.0
1620799040400,15.0
1620799040400,15.0
1620799040871,1.0
1620799040871,1.0
1620799041376,0.0
1620799041376,0.0
1620799041845,0.0
1620799041845,0.0
1620799042322,1.0
1620799042322,1.0
1620799042816,1.0
1620799042816,1.0
1620799043223,0.0
1620799043223,0.0
1620799043596,0.0
1620799043596,0.0
1620799044060,1.0
1620799044060,1.0
1620799044564,0.0
1620799044564,0.0
1620799045023,0.0
1620799045023,0.0
1620799045479,1.0
1620799045479,1.0
1620799045839,1.0
1620799045839,1.0
1620799046253,1.0
1620799046253,1.0
1620799046675,15.0
1620799046675,15.0
1620799047118,0.0
1620799047118,0.0
1620799047586,1.0
1620799047586,1.0
1620799048011,31.0
1620799048011,31.0
1620799048464,0.0
1620799048464,0.0
1620799048822,15.0
1620799048822,15.0
1620799049152,0.0
1620799049152,0.0
1620799049534,1.0
1620799049534,1.0
1620799049955,0.0
1620799049955,0.0
1620799050392,0.0
1620799050392,0.0
1620799050720,0.0
1620799050720,0.0
1620799051045,0.0
1620799051045,0.0
1620799051416,0.0
1620799051416,0.0
1620799051778,8.0
1620799051778,8.0
1620799052135,0.0
1620799052135,0.0
1620799052538,0.0
1620799052538,0.0
1620799052901,1.0
1620799052901,1.0
1620799053268,0.0
1620799053268,0.0
1620799053723,10.0
1620799053723,10.0
1620799054205,0.0
1620799054205,0.0
1620799054615,1.0
1620799054615,1.0
1620799055081,0.0
1620799055081,0.0
1620799055487,1.0
1620799055487,1.0
1620799056257,0.0
1620799056257,0.0
1620799057118,0.0
1620799057118,0.0
1620799058285,0.0
1620799058285,0.0
1620799059300,0.0
1620799059300,0.0
1620799060238,0.0
1620799060238,0.0
1620799060672,1.0
1620799060672,1.0
1620799061141,31.0
1620799061141,31.0
1620799061610,15.0
1620799061610,15.0
1620799062030,1.0
1620799062030,1.0
1620799062425,8.0
1620799062425,8.0
1620799062900,0.0
1620799062900,0.0
1620799063375,8.0
1620799063375,8.0
1620799063885,10.0
1620799063885,10.0
1620799064423,31.0
1620799064423,31.0
1620799064876,0.0
1620799064876,0.0
1620799065413,0.0
1620799065413,0.0
1620799065897,0.0
1620799065897,0.0
1620799066371,10.0
1620799066371,10.0
1620799066902,15.0
1620799066902,15.0
1620799067382,1.0
1620799067382,1.0
1620799067863,1.0
1620799067863,1.0
1620799068272,1.0
1620799068272,1.0
1620799068601,0.0
1620799068601,0.0
1620799068938,1.0
1620799068938,1.0
1620799069287,8.0
1620799069287,8.0
1620799069699,0.0
1620799069699,0.0
1620799070235,0.0
1620799070235,0.0
1620799071078,0.0
1620799071078,0.0
1620799071969,0.0
1620799071969,0.0
1620799072794,0.0
1620799072794,0.0
1620799073629,0.0
1620799073629,0.0
1620799074498,0.0
1620799074498,0.0
1620799074892,1.0
1620799074892,1.0
1620799075237,0.0
1620799075237,0.0
1620799075563,0.0
1620799075563,0.0
1620799075967,31.0
1620799075967,31.0
1620799076430,8.0
1620799076430,8.0
1620799076844,15.0
1620799076844,15.0
1620799077331,0.0
1620799077331,0.0
1620799077839,1.0
1620799077839,1.0
1620799078263,15.0
1620799078263,15.0
1620799078741,0.0
1620799078741,0.0
1620799079208,0.0
1620799079208,0.0
1620799079544,0.0
1620799079544,0.0
1620799079937,0.0
1620799079937,0.0
1620799080354,1.0
1620799080354,1.0
1620799080745,0.0
1620799080745,0.0
1620799081135,1.0
1620799081135,1.0
1620799081319,0.0
1620799081319,0.0
1620799081646,0.0
1620799081646,0.0
1620799081970,1.0
1620799081970,1.0
1620799082334,0.0
1620799082334,0.0
1620799082735,1.0
1620799082735,1.0
1620799083185,1.0
1620799083185,1.0
1620799083723,1.0
1620799083723,1.0
1620799084272,10.0
1620799084272,10.0
1620799084647,0.0
1620799084647,0.0
1620799084989,0.0
1620799084989,0.0
1620799085523,1.0
1620799085523,1.0
1620799085905,0.0
1620799085905,0.0
1620799086256,0.0
1620799086256,0.0
1620799086799,15.0
1620799086799,15.0
1620799087732,0.0
1620799087732,0.0
1620799088936,0.0
1620799088936,0.0
1620799090058,0.0
1620799090058,0.0
1620799090880,0.0
1620799090880,0.0
1620799091340,31.0
1620799091340,31.0
1620799091669,0.0
1620799091669,0.0
1620799092021,1.0
1620799092021,1.0
1620799092395,1.0
1620799092395,1.0
1620799092782,0.0
1620799092782,0.0
1620799093190,15.0
1620799093190,15.0
1620799093676,31.0
1620799093676,31.0
1620799094126,10.0
1620799094126,10.0
1620799094602,8.0
1620799094602,8.0
1620799095044,10.0
1620799095044,10.0
1620799095426,0.0
1620799095426,0.0
1620799095863,10.0
1620799095863,10.0
1620799096290,10.0
1620799096290,10.0
1620799096679,15.0
1620799096679,15.0
1620799097123,31.0
1620799097123,31.0
1620799097523,15.0
1620799097523,15.0
1620799097930,15.0
1620799097930,15.0
1620799098350,8.0
1620799098350,8.0
1620799098758,1.0
1620799098758,1.0
1620799099236,15.0
1620799099236,15.0
1620799099648,0.0
1620799099648,0.0
1620799100018,10.0
1620799100018,10.0
1620799100480,15.0
1620799100480,15.0
1620799100930,0.0
1620799100930,0.0
1620799101398,8.0
1620799101398,8.0
1620799101903,15.0
1620799101903,15.0
1620799102377,0.0
1620799102377,0.0
1620799102821,10.0
1620799102821,10.0
1620799103273,10.0
1620799103273,10.0
1620799103820,0.0
1620799103820,0.0
1620799104261,15.0
1620799104261,15.0
1620799104772,15.0
1620799104772,15.0
1620799105150,10.0
1620799105150,10.0
1620799105508,8.0
1620799105508,8.0
1620799105942,31.0
1620799105942,31.0
1620799106493,10.0
1620799106493,10.0
1620799107267,0.0
1620799107267,0.0
1620799108129,0.0
1620799108129,0.0
1620799108994,0.0
1620799108994,0.0
1620799109875,0.0
1620799109875,0.0
1620799110916,0.0
1620799110916,0.0
1620799111962,0.0
1620799111962,0.0
1620799112998,0.0
1620799112998,0.0
1620799114116,0.0
1620799114116,0.0
1620799115311,0.0
1620799115311,0.0
1620799116421,0.0
1620799116421,0.0
1620799117327,0.0
1620799117327,0.0
1620799118258,0.0
1620799118258,0.0
1620799119134,0.0
1620799119134,0.0
1620799119941,0.0
1620799119941,0.0
1620799120754,0.0
1620799120754,0.0
1620799121530,0.0
1620799121530,0.0
1620799122023,10.0
1620799122023,10.0
1620799122432,31.0
1620799122432,31.0
1620799122838,10.0
1620799122838,10.0
1620799123214,0.0
1620799123214,0.0
1620799123662,15.0
1620799123662,15.0
1620799124075,15.0
1620799124075,15.0
1620799124505,10.0
1620799124505,10.0
1620799124954,8.0
1620799124954,8.0
1620799125420,15.0
1620799125420,15.0
1620799125828,15.0
1620799125828,15.0
1620799126228,15.0
1620799126228,15.0
1620799126643,1.0
1620799126643,1.0
1620799127069,15.0
1620799127069,15.0
1620799127499,15.0
1620799127499,15.0
1620799127900,15.0
1620799127900,15.0
1620799128276,31.0
1620799128276,31.0
1620799128666,31.0
1620799128666,31.0
1620799129105,8.0
1620799129105,8.0
1620799129458,31.0
1620799129458,31.0
1620799129909,1.0
1620799129909,1.0
1620799130382,10.0
1620799130382,10.0
1620799130814,8.0
1620799130814,8.0
1620799131167,8.0
1620799131167,8.0
1620799131524,0.0
1620799131524,0.0
1620799131935,15.0
1620799131935,15.0
1620799132398,0.0
1620799132398,0.0
1620799132830,15.0
1620799132830,15.0
1620799133300,10.0
1620799133300,10.0
1620799134057,0.0
1620799134057,0.0
1620799135275,0.0
1620799135275,0.0
1620799136287,0.0
1620799136287,0.0
1620799137180,0.0
1620799137180,0.0
1620799137689,0.0
1620799137689,0.0
1620799138076,15.0
1620799138076,15.0
1620799138509,31.0
1620799138509,31.0
1620799138899,15.0
1620799138899,15.0
1620799139359,1.0
1620799139359,1.0
1620799139790,10.0
1620799139790,10.0
1620799140276,15.0
1620799140276,15.0
1620799140758,8.0
1620799140758,8.0
1620799141286,15.0
1620799141286,15.0
1620799141734,10.0
1620799141734,10.0
1620799142076,8.0
1620799142076,8.0
1620799142523,0.0
1620799142523,0.0
1620799142848,15.0
1620799142848,15.0
1620799143251,15.0
1620799143251,15.0
1620799143717,10.0
1620799143717,10.0
1620799144092,8.0
1620799144092,8.0
1620799144584,15.0
1620799144584,15.0
1620799144964,31.0
1620799144964,31.0
1620799145305,31.0
1620799145305,31.0
1620799145767,0.0
1620799145767,0.0
1620799146161,10.0
1620799146161,10.0
1620799146607,15.0
1620799146607,15.0
1620799147111,15.0
1620799147111,15.0
1620799147484,15.0
1620799147484,15.0
1620799147799,0.0
1620799147799,0.0
1620799148242,8.0
1620799148242,8.0
1620799148596,10.0
1620799148596,10.0
1620799149058,15.0
1620799149058,15.0
1620799149491,15.0
1620799149491,15.0
1620799149821,10.0
1620799149821,10.0
1620799150321,15.0
1620799150321,15.0
1620799151062,0.0
1620799151062,0.0
1620799152116,0.0
1620799152116,0.0
1620799153153,0.0
1620799153153,0.0
1620799154126,0.0
1620799154126,0.0
1620799154875,0.0
1620799154875,0.0
1620799155805,0.0
1620799155805,0.0
1620799156303,10.0
1620799156303,10.0
1620799156830,0.0
1620799156830,0.0
1620799157275,15.0
1620799157275,15.0
1620799157680,0.0
1620799157680,0.0
1620799158052,10.0
1620799158052,10.0
1620799158407,0.0
1620799158407,0.0
1620799158836,15.0
1620799158836,15.0
1620799159296,31.0
1620799159296,31.0
1620799159749,15.0
1620799159749,15.0
1620799160104,31.0
1620799160104,31.0
1620799160433,15.0
1620799160433,15.0
1620799160789,15.0
1620799160789,15.0
1620799161126,1.0
1620799161126,1.0
1620799161518,0.0
1620799161518,0.0
1620799161994,1.0
1620799161994,1.0
1620799162719,0.0
1620799162719,0.0
1620799163664,0.0
1620799163664,0.0
1620799164636,0.0
1620799164636,0.0
1620799165651,0.0
1620799165651,0.0
1620799166514,0.0
1620799166514,0.0
1620799167414,0.0
1620799167414,0.0
1620799168423,0.0
1620799168423,0.0
1620799169247,0.0
1620799169247,0.0
1620799169950,0.0
1620799169950,0.0
1620799170462,8.0
1620799170462,8.0
1620799170948,0.0
1620799170948,0.0
1620799171351,1.0
1620799171351,1.0
1620799171798,1.0
1620799171798,1.0
1620799172156,1.0
1620799172156,1.0
1620799172575,0.0
1620799172575,0.0
1620799172949,1.0
1620799172949,1.0
1620799173282,0.0
1620799173282,0.0
1620799173693,0.0
1620799173693,0.0
1620799174017,0.0
1620799174017,0.0
1620799174332,0.0
1620799174332,0.0
1620799174731,0.0
1620799174731,0.0
1620799175212,1.0
1620799175212,1.0
1620799175644,1.0
1620799175644,1.0
1620799176102,0.0
1620799176102,0.0
1620799176551,1.0
1620799176551,1.0
1620799176948,8.0
1620799176948,8.0
1620799177286,0.0
1620799177286,0.0
1620799177633,0.0
1620799177633,0.0
1620799178048,15.0
1620799178048,15.0
1620799178467,0.0
1620799178467,0.0
1620799178885,15.0
1620799178885,15.0
1620799179361,1.0
1620799179361,1.0
1620799179735,1.0
1620799179735,1.0
1620799180136,0.0
1620799180136,0.0
1620799180539,1.0
1620799180539,1.0
1620799180899,1.0
1620799180899,1.0
1620799181289,1.0
1620799181289,1.0
1620799181670,8.0
1620799181670,8.0
1620799182024,8.0
1620799182024,8.0
1620799182422,31.0
1620799182422,31.0
1620799182870,1.0
1620799182870,1.0
1620799183249,8.0
1620799183249,8.0
1620799183702,31.0
1620799183702,31.0
1620799184140,10.0
1620799184140,10.0
1620799184706,0.0
1620799184706,0.0
1620799185171,8.0
1620799185171,8.0
1620799185601,0.0
1620799185601,0.0
1620799186105,1.0
1620799186105,1.0
1620799186590,0.0
1620799186590,0.0
1620799187071,8.0
1620799187071,8.0
1620799187528,0.0
1620799187528,0.0
1620799187950,1.0
1620799187950,1.0
1620799188362,0.0
1620799188362,0.0
1620799188761,1.0
1620799188761,1.0
1620799189153,1.0
1620799189153,1.0
1620799189581,0.0
1620799189581,0.0
1620799189999,1.0
1620799189999,1.0
1620799190407,15.0
1620799190407,15.0
1620799190806,10.0
1620799190806,10.0
1620799191118,0.0
1620799191118,0.0
1620799191566,0.0
1620799191566,0.0
1620799192020,15.0
1620799192020,15.0
1620799192422,1.0
1620799192422,1.0
1620799192811,0.0
1620799192811,0.0
1620799193138,1.0
1620799193138,1.0
1620799193474,1.0
1620799193474,1.0
1620799193834,8.0
1620799193834,8.0
1620799194208,10.0
1620799194208,10.0
1620799194679,0.0
1620799194679,0.0
1620799195154,0.0
1620799195154,0.0
1620799195619,15.0
1620799195619,15.0
1620799195988,0.0
1620799195988,0.0
1620799196355,1.0
1620799196355,1.0
1620799196665,8.0
1620799196665,8.0
1620799197008,16.0
1620799197008,16.0
1620799197425,1.0
1620799197425,1.0
1620799197817,31.0
1620799197817,31.0
1620799198125,8.0
1620799198125,8.0
1620799198475,1.0
1620799198475,1.0
1620799198782,1.0
1620799198782,1.0
1620799199257,31.0
1620799199257,31.0
1620799199705,15.0
1620799199705,15.0
1620799200110,10.0
1620799200110,10.0
1620799200585,1.0
1620799200585,1.0
1620799200993,0.0
1620799200993,0.0
1620799201495,15.0
1620799201495,15.0
1620799201920,31.0
1620799201920,31.0
1620799202345,0.0
1620799202345,0.0
1620799202814,0.0
1620799202814,0.0
1620799203190,1.0
1620799203190,1.0
1620799203504,10.0
1620799203504,10.0
1620799203880,0.0
1620799203880,0.0
1620799204218,0.0
1620799204218,0.0
1620799204570,15.0
1620799204570,15.0
1620799204947,31.0
1620799204947,31.0
1620799205291,10.0
1620799205291,10.0
1620799205635,8.0
1620799205635,8.0
1620799206081,31.0
1620799206081,31.0
1620799206552,15.0
1620799206552,15.0
1620799207020,8.0
1620799207020,8.0
1620799207442,8.0
1620799207442,8.0
1620799207807,31.0
1620799207807,31.0
1620799208182,8.0
1620799208182,8.0
1620799208617,0.0
1620799208617,0.0
1620799209015,0.0
1620799209015,0.0
1620799209407,15.0
1620799209407,15.0
1620799209782,15.0
1620799209782,15.0
1620799210113,0.0
1620799210113,0.0
1620799210518,0.0
1620799210518,0.0
1620799210886,1.0
1620799210886,1.0
1620799211370,1.0
1620799211370,1.0
1620799211909,1.0
1620799211909,1.0
1620799212359,1.0
1620799212359,1.0
1620799212891,8.0
1620799212891,8.0
1620799213765,0.0
1620799213765,0.0
1620799214685,0.0
1620799214685,0.0
1620799215491,0.0
1620799215491,0.0
1620799215985,15.0
1620799215985,15.0
1620799216410,0.0
1620799216410,0.0
1620799216769,0.0
1620799216769,0.0
1620799217156,1.0
1620799217156,1.0
1620799217623,1.0
1620799217623,1.0
1620799218051,0.0
1620799218051,0.0
1620799218489,0.0
1620799218489,0.0
1620799218923,0.0
1620799218923,0.0
1620799219325,0.0
1620799219325,0.0
1620799219774,1.0
1620799219774,1.0
1620799220219,15.0
1620799220219,15.0
1620799220688,15.0
1620799220688,15.0
1620799221137,1.0
1620799221137,1.0
1620799221574,1.0
1620799221574,1.0
1620799222035,0.0
1620799222035,0.0
1620799222422,0.0
1620799222422,0.0
1620799222753,1.0
1620799222753,1.0
1620799223153,31.0
1620799223153,31.0
1620799223558,15.0
1620799223558,15.0
1620799223933,0.0
1620799223933,0.0
1620799224387,1.0
1620799224387,1.0
1620799224805,0.0
1620799224805,0.0
1620799225180,0.0
1620799225180,0.0
1620799225664,0.0
1620799225664,0.0
1620799226115,1.0
1620799226115,1.0
1620799226590,10.0
1620799226590,10.0
1620799227007,1.0
1620799227007,1.0
1620799227455,8.0
1620799227455,8.0
1620799227945,8.0
1620799227945,8.0
1620799228452,1.0
1620799228452,1.0
1620799228837,15.0
1620799228837,15.0
1620799229077,10.0
1620799229077,10.0
1620799229369,0.0
1620799229369,0.0
1620799229756,8.0
1620799229756,8.0
1620799230271,0.0
1620799230271,0.0
1620799230748,0.0
1620799230748,0.0
1620799231107,10.0
1620799231107,10.0
1620799231555,15.0
1620799231555,15.0
1620799231917,0.0
1620799231917,0.0
1620799232371,0.0
1620799232371,0.0
1620799232725,0.0
1620799232725,0.0
1620799233171,1.0
1620799233171,1.0
1620799233666,0.0
1620799233666,0.0
1620799234117,1.0
1620799234117,1.0
1620799234611,0.0
1620799234611,0.0
1620799235380,0.0
1620799235380,0.0
1620799236306,0.0
1620799236306,0.0
1620799237084,0.0
1620799237084,0.0
1620799237576,0.0
1620799237576,0.0
1620799237916,1.0
1620799237916,1.0
1620799238345,1.0
1620799238345,1.0
1620799238770,0.0
1620799238770,0.0
1620799239224,0.0
1620799239224,0.0
1620799239777,1.0
1620799239777,1.0
1620799240231,8.0
1620799240231,8.0
1620799240621,1.0
1620799240621,1.0
1620799241008,0.0
1620799241008,0.0
1620799241432,15.0
1620799241432,15.0
1620799241869,1.0
1620799241869,1.0
1620799242281,15.0
1620799242281,15.0
1620799242711,31.0
1620799242711,31.0
1620799243153,10.0
1620799243153,10.0
1620799243513,1.0
1620799243513,1.0
1620799243936,0.0
1620799243936,0.0
1620799244323,8.0
1620799244323,8.0
1620799244655,15.0
1620799244655,15.0
1620799245061,0.0
1620799245061,0.0
1620799245461,0.0
1620799245461,0.0
1620799245862,0.0
1620799245862,0.0
1620799246283,0.0
1620799246283,0.0
1620799246711,10.0
1620799246711,10.0
1620799247140,8.0
1620799247140,8.0
1620799247522,15.0
1620799247522,15.0
1620799247824,0.0
1620799247824,0.0
1620799248210,1.0
1620799248210,1.0
1620799248577,0.0
1620799248577,0.0
1620799248974,31.0
1620799248974,31.0
1620799249387,10.0
1620799249387,10.0
1620799249758,0.0
1620799249758,0.0
1620799250137,31.0
1620799250137,31.0
1620799250546,15.0
1620799250546,15.0
1620799251215,0.0
1620799251215,0.0
1620799251979,0.0
1620799251979,0.0
1620799252388,10.0
1620799252388,10.0
1620799252814,10.0
1620799252814,10.0
1620799253235,0.0
1620799253235,0.0
1620799253722,15.0
1620799253722,15.0
1620799254174,10.0
1620799254174,10.0
1620799254556,15.0
1620799254556,15.0
1620799254933,15.0
1620799254933,15.0
1620799255321,15.0
1620799255321,15.0
1620799255722,15.0
1620799255722,15.0
1620799256152,15.0
1620799256152,15.0
1620799256511,10.0
1620799256511,10.0
1620799256951,15.0
1620799256951,15.0
1620799257393,0.0
1620799257393,0.0
1620799257841,31.0
1620799257841,31.0
1620799258360,8.0
1620799258360,8.0
1620799258833,15.0
1620799258833,15.0
1620799259268,15.0
1620799259268,15.0
1620799259744,10.0
1620799259744,10.0
1620799260124,8.0
1620799260124,8.0
1620799260497,8.0
1620799260497,8.0
1620799260951,15.0
1620799260951,15.0
1620799261334,10.0
1620799261334,10.0
1620799261741,8.0
1620799261741,8.0
1620799262119,10.0
1620799262119,10.0
1620799262455,31.0
1620799262455,31.0
1620799262868,31.0
1620799262868,31.0
1620799263280,10.0
1620799263280,10.0
1620799263593,15.0
1620799263593,15.0
1620799264075,31.0
1620799264075,31.0
1620799264488,15.0
1620799264488,15.0
1620799264849,15.0
1620799264849,15.0
1620799265300,15.0
1620799265300,15.0
1620799265673,0.0
1620799265673,0.0
1620799266052,1.0
1620799266052,1.0
1620799266461,15.0
1620799266461,15.0
1620799266889,15.0
1620799266889,15.0
1620799267320,1.0
1620799267320,1.0
1620799267705,15.0
1620799267705,15.0
1620799268050,8.0
1620799268050,8.0
1620799268429,15.0
1620799268429,15.0
1620799268812,10.0
1620799268812,10.0
1620799269233,8.0
1620799269233,8.0
1620799269653,0.0
1620799269653,0.0
1620799270051,8.0
1620799270051,8.0
1620799270440,15.0
1620799270440,15.0
1620799270842,15.0
1620799270842,15.0
1620799271232,31.0
1620799271232,31.0
1620799271636,0.0
1620799271636,0.0
1620799272035,15.0
1620799272035,15.0
1620799272416,15.0
1620799272416,15.0
1620799272872,0.0
1620799272872,0.0
1620799273361,8.0
1620799273361,8.0
1620799273787,15.0
1620799273787,15.0
1620799274233,15.0
1620799274233,15.0
1620799274587,15.0
1620799274587,15.0
1620799275048,0.0
1620799275048,0.0
1620799275513,15.0
1620799275513,15.0
1620799275823,31.0
1620799275823,31.0
1620799276230,10.0
1620799276230,10.0
1620799276628,10.0
1620799276628,10.0
1620799276993,10.0
1620799276993,10.0
1620799277364,15.0
1620799277364,15.0
1620799277784,8.0
1620799277784,8.0
1620799278186,15.0
1620799278186,15.0
1620799278576,15.0
1620799278576,15.0
1620799278948,15.0
1620799278948,15.0
1620799279299,31.0
1620799279299,31.0
1620799279758,15.0
1620799279758,15.0
1620799280168,15.0
1620799280168,15.0
1620799280704,8.0
1620799280704,8.0
1620799281063,31.0
1620799281063,31.0
1620799281439,15.0
1620799281439,15.0
1620799281861,15.0
1620799281861,15.0
1620799282237,15.0
1620799282237,15.0
1620799282561,15.0
1620799282561,15.0
1620799282983,15.0
1620799282983,15.0
1620799283402,15.0
1620799283402,15.0
1620799283796,15.0
1620799283796,15.0
1620799284229,10.0
1620799284229,10.0
1620799284582,15.0
1620799284582,15.0
1620799285028,15.0
1620799285028,15.0
1620799285347,31.0
1620799285347,31.0
1620799285693,10.0
1620799285693,10.0
1620799286101,15.0
1620799286101,15.0
1620799286461,15.0
1620799286461,15.0
1620799286817,0.0
1620799286817,0.0
1620799287249,15.0
1620799287249,15.0
1620799287704,8.0
1620799287704,8.0
1620799288147,10.0
1620799288147,10.0
1620799288635,31.0
1620799288635,31.0
1620799289059,10.0
1620799289059,10.0
1620799289371,1.0
1620799289371,1.0
1620799289765,15.0
1620799289765,15.0
1620799290174,15.0
1620799290174,15.0
1620799290568,10.0
1620799290568,10.0
1620799290931,10.0
1620799290931,10.0
1620799291265,15.0
1620799291265,15.0
1620799291664,15.0
1620799291664,15.0
1620799292066,15.0
1620799292066,15.0
1620799292473,10.0
1620799292473,10.0
1620799292913,15.0
1620799292913,15.0
1620799293338,15.0
1620799293338,15.0
1620799293717,15.0
1620799293717,15.0
1620799294148,10.0
1620799294148,10.0
1620799294554,15.0
1620799294554,15.0
1620799294942,8.0
1620799294942,8.0
1620799295362,8.0
1620799295362,8.0
1620799295788,0.0
1620799295788,0.0
1620799296335,15.0
1620799296335,15.0
1620799296830,15.0
1620799296830,15.0
1620799297285,15.0
1620799297285,15.0
1620799297800,8.0
1620799297800,8.0
1620799298336,15.0
1620799298336,15.0
1620799298804,0.0
1620799298804,0.0
1620799299572,10.0
1620799299572,10.0
1620799299983,15.0
1620799299983,15.0
1620799300454,15.0
1620799300454,15.0
1620799300859,0.0
1620799300859,0.0
1620799301238,15.0
1620799301238,15.0
1620799301674,31.0
1620799301674,31.0
1620799302099,10.0
1620799302099,10.0
1620799302489,15.0
1620799302489,15.0
1620799302997,0.0
1620799302997,0.0
1620799303338,10.0
1620799303338,10.0
1620799303741,1.0
1620799303741,1.0
1620799304164,0.0
1620799304164,0.0
1620799304576,1.0
1620799304576,1.0
1620799304958,10.0
1620799304958,10.0
1620799305400,0.0
1620799305400,0.0
1620799305853,15.0
1620799305853,15.0
1620799306234,10.0
1620799306234,10.0
1620799306737,0.0
1620799306737,0.0
1620799307189,0.0
1620799307189,0.0
1620799307615,0.0
1620799307615,0.0
1620799308042,15.0
1620799308042,15.0
1620799308468,0.0
1620799308468,0.0
1620799308878,0.0
1620799308878,0.0
1620799309317,15.0
1620799309317,15.0
1620799309713,0.0
1620799309713,0.0
1620799310100,0.0
1620799310100,0.0
1620799310485,8.0
1620799310485,8.0
1620799310870,31.0
1620799310870,31.0
1620799311269,1.0
1620799311269,1.0
1620799311713,15.0
1620799311713,15.0
1620799312048,8.0
1620799312048,8.0
1620799312507,1.0
1620799312507,1.0
1620799312974,0.0
1620799312974,0.0
1620799313745,0.0
1620799313745,0.0
1620799314221,15.0
1620799314221,15.0
1620799314587,15.0
1620799314587,15.0
1620799315027,8.0
1620799315027,8.0
1620799315455,15.0
1620799315455,15.0
1620799315899,15.0
1620799315899,15.0
1620799316279,10.0
1620799316279,10.0
1620799316709,0.0
1620799316709,0.0
1620799317186,0.0
1620799317186,0.0
1620799317657,31.0
1620799317657,31.0
1620799317996,1.0
1620799317996,1.0
1620799318451,0.0
1620799318451,0.0
1620799318931,0.0
1620799318931,0.0
1620799319436,8.0
1620799319436,8.0
1620799319960,15.0
1620799319960,15.0
1620799320404,0.0
1620799320404,0.0
1620799320872,15.0
1620799320872,15.0
1620799321367,10.0
1620799321367,10.0
1620799321819,8.0
1620799321819,8.0
1620799322312,31.0
1620799322312,31.0
1620799322765,10.0
1620799322765,10.0
1620799323121,15.0
1620799323121,15.0
1620799323516,8.0
1620799323516,8.0
1620799323970,16.0
1620799323970,16.0
1620799324458,8.0
1620799324458,8.0
1620799324950,15.0
1620799324950,15.0
1620799325454,8.0
1620799325454,8.0
1620799325884,15.0
1620799325884,15.0
1620799326353,31.0
1620799326353,31.0
1620799326743,31.0
1620799326743,31.0
1620799327181,0.0
1620799327181,0.0
1620799327595,31.0
1620799327595,31.0
1620799327957,10.0
1620799327957,10.0
1620799328386,10.0
1620799328386,10.0
1620799328727,0.0
1620799328727,0.0
1620799329088,8.0
1620799329088,8.0
1620799329492,8.0
1620799329492,8.0
1620799329873,0.0
1620799329873,0.0
1620799330246,15.0
1620799330246,15.0
1620799330731,0.0
1620799330731,0.0
1620799331166,10.0
1620799331166,10.0
1620799331512,31.0
1620799331512,31.0
1620799331946,10.0
1620799331946,10.0
1620799332357,1.0
1620799332357,1.0
1620799332823,10.0
1620799332823,10.0
1620799333240,31.0
1620799333240,31.0
1620799333602,31.0
1620799333602,31.0
1620799334023,8.0
1620799334023,8.0
1620799334461,8.0
1620799334461,8.0
1620799334833,15.0
1620799334833,15.0
1620799335288,8.0
1620799335288,8.0
1620799335687,8.0
1620799335687,8.0
1620799336123,0.0
1620799336123,0.0
1620799336524,0.0
1620799336524,0.0
1620799336921,8.0
1620799336921,8.0
1620799337315,15.0
1620799337315,15.0
1620799337804,15.0
1620799337804,15.0
1620799338540,0.0
1620799338540,0.0
1620799339387,0.0
1620799339387,0.0
1620799339935,10.0
1620799339935,10.0
1620799340381,15.0
1620799340381,15.0
1620799340753,0.0
1620799340753,0.0
1620799341126,0.0
1620799341126,0.0
1620799341523,10.0
1620799341523,10.0
1620799341851,10.0
1620799341851,10.0
1620799342288,0.0
1620799342288,0.0
1620799342772,1.0
1620799342772,1.0
1620799343195,1.0
1620799343195,1.0
1620799343773,1.0
1620799343773,1.0
1620799344229,0.0
1620799344229,0.0
1620799344693,10.0
1620799344693,10.0
1620799345157,15.0
1620799345157,15.0
1620799345531,15.0
1620799345531,15.0
1620799346001,1.0
1620799346001,1.0
1620799346462,8.0
1620799346462,8.0
1620799346890,31.0
1620799346890,31.0
1620799347274,31.0
1620799347274,31.0
1620799347653,0.0
1620799347653,0.0
1620799348089,15.0
1620799348089,15.0
1620799348633,8.0
1620799348633,8.0
1620799349062,1.0
1620799349062,1.0
1620799349466,0.0
1620799349466,0.0
1620799349907,8.0
1620799349907,8.0
1620799350359,0.0
1620799350359,0.0
1620799350784,15.0
1620799350784,15.0
1620799351232,0.0
1620799351232,0.0
1620799351738,1.0
1620799351738,1.0
1620799352276,8.0
1620799352276,8.0
1620799352727,0.0
1620799352727,0.0
1620799353118,10.0
1620799353118,10.0
1620799353499,0.0
1620799353499,0.0
1620799353962,15.0
1620799353962,15.0
1620799354500,1.0
1620799354500,1.0
1620799354882,0.0
1620799354882,0.0
1620799355270,0.0
1620799355270,0.0
1620799355713,15.0
1620799355713,15.0
1620799356110,31.0
1620799356110,31.0
1620799356451,10.0
1620799356451,10.0
1620799356849,8.0
1620799356849,8.0
1620799357249,10.0
1620799357249,10.0
1620799357609,15.0
1620799357609,15.0
1620799358001,8.0
1620799358001,8.0
1620799358370,8.0
1620799358370,8.0
1620799358811,15.0
1620799358811,15.0
1620799359256,0.0
1620799359256,0.0
1620799359696,8.0
1620799359696,8.0
1620799360064,8.0
1620799360064,8.0
1620799360548,0.0
1620799360548,0.0
1620799361023,8.0
1620799361023,8.0
1620799361521,8.0
1620799361521,8.0
1620799362051,0.0
1620799362051,0.0
1620799362429,31.0
1620799362429,31.0
1620799362830,1.0
1620799362830,1.0
1620799363159,15.0
1620799363159,15.0
1620799363500,15.0
1620799363500,15.0
1620799363869,15.0
1620799363869,15.0
1620799364241,31.0
1620799364241,31.0
1620799364588,15.0
1620799364588,15.0
1620799364998,1.0
1620799364998,1.0
1620799365386,1.0
1620799365386,1.0
1620799365741,8.0
1620799365741,8.0
1620799366150,1.0
1620799366150,1.0
1620799366542,1.0
1620799366542,1.0
1620799366940,10.0
1620799366940,10.0
1620799367381,8.0
1620799367381,8.0
1620799367780,0.0
1620799367780,0.0
1620799368244,31.0
1620799368244,31.0
1620799368706,0.0
1620799368706,0.0
1620799369159,10.0
1620799369159,10.0
1620799369602,0.0
1620799369602,0.0
1620799370037,15.0
1620799370037,15.0
1620799370544,8.0
1620799370544,8.0
1620799371112,1.0
1620799371112,1.0
1620799371594,0.0
1620799371594,0.0
1620799372067,0.0
1620799372067,0.0
1620799372414,15.0
1620799372414,15.0
1620799372729,8.0
1620799372729,8.0
1620799373076,15.0
1620799373076,15.0
1620799373489,1.0
1620799373489,1.0
1620799373933,0.0
1620799373933,0.0
1620799374328,10.0
1620799374328,10.0
1620799374698,15.0
1620799374698,15.0
1620799375079,1.0
1620799375079,1.0
1620799375460,31.0
1620799375460,31.0
1620799375777,8.0
1620799375777,8.0
1620799376109,15.0
1620799376109,15.0
1620799376474,0.0
1620799376474,0.0
1620799376826,8.0
1620799376826,8.0
1620799377245,15.0
1620799377245,15.0
1620799377676,0.0
1620799377676,0.0
1620799378103,0.0
1620799378103,0.0
1620799378507,1.0
1620799378507,1.0
1620799378988,10.0
1620799378988,10.0
1620799379439,10.0
1620799379439,10.0
1620799379821,0.0
1620799379821,0.0
1620799380317,1.0
1620799380317,1.0
1620799380840,8.0
1620799380840,8.0
1620799381265,15.0
1620799381265,15.0
1620799381735,1.0
1620799381735,1.0
1620799382140,1.0
1620799382140,1.0
1620799382558,15.0
1620799382558,15.0
1620799382996,31.0
1620799382996,31.0
1620799383369,8.0
1620799383369,8.0
1620799383785,15.0
1620799383785,15.0
1620799384198,31.0
1620799384198,31.0
1620799384639,15.0
1620799384639,15.0
1620799385112,10.0
1620799385112,10.0
1620799385498,15.0
1620799385498,15.0
1620799385914,15.0
1620799385914,15.0
1620799386388,31.0
1620799386388,31.0
1620799386871,31.0
1620799386871,31.0
1620799387294,10.0
1620799387294,10.0
1620799387694,15.0
1620799387694,15.0
1620799388065,10.0
1620799388065,10.0
1620799388418,8.0
1620799388418,8.0
1620799388830,15.0
1620799388830,15.0
1620799389156,31.0
1620799389156,31.0
1620799389615,31.0
1620799389615,31.0
1620799390088,1.0
1620799390088,1.0
1620799390471,31.0
1620799390471,31.0
1620799390862,0.0
1620799390862,0.0
1620799391211,15.0
1620799391211,15.0
1620799391596,10.0
1620799391596,10.0
1620799392064,8.0
1620799392064,8.0
1620799392442,31.0
1620799392442,31.0
1620799392770,15.0
1620799392770,15.0
1620799393215,15.0
1620799393215,15.0
1620799393657,15.0
1620799393657,15.0
1620799394005,15.0
1620799394005,15.0
1620799394405,10.0
1620799394405,10.0
1620799394765,1.0
1620799394765,1.0
1620799395149,15.0
1620799395149,15.0
1620799395645,15.0
1620799395645,15.0
1620799396069,8.0
1620799396069,8.0
1620799396442,15.0
1620799396442,15.0
1620799396794,10.0
1620799396794,10.0
1620799397132,15.0
1620799397132,15.0
1620799397481,15.0
1620799397481,15.0
1620799397862,15.0
1620799397862,15.0
1620799398267,15.0
1620799398267,15.0
1620799398631,15.0
1620799398631,15.0
1620799399064,1.0
1620799399064,1.0
1620799399464,0.0
1620799399464,0.0
1620799399885,1.0
1620799399885,1.0
1620799400350,0.0
1620799400350,0.0
1620799400735,15.0
1620799400735,15.0
1620799401221,0.0
1620799401221,0.0
1620799401590,0.0
1620799401590,0.0
1620799401988,31.0
1620799401988,31.0
1620799402499,8.0
1620799402499,8.0
1620799402930,15.0
1620799402930,15.0
1620799403344,10.0
1620799403344,10.0
1620799403810,8.0
1620799403810,8.0
1620799404161,15.0
1620799404161,15.0
1620799404525,0.0
1620799404525,0.0
1620799404908,0.0
1620799404908,0.0
1620799405310,8.0
1620799405310,8.0
1620799405720,10.0
1620799405720,10.0
1620799406072,8.0
1620799406072,8.0
1620799406489,8.0
1620799406489,8.0
1620799406931,10.0
1620799406931,10.0
1620799407312,8.0
1620799407312,8.0
1620799407704,15.0
1620799407704,15.0
1620799408126,15.0
1620799408126,15.0
1620799408509,15.0
1620799408509,15.0
1620799408884,0.0
1620799408884,0.0
1620799409333,15.0
1620799409333,15.0
1620799409769,15.0
1620799409769,15.0
1620799410235,10.0
1620799410235,10.0
1620799410727,10.0
1620799410727,10.0
1620799411099,10.0
1620799411099,10.0
1620799411466,0.0
1620799411466,0.0
1620799411872,10.0
1620799411872,10.0
1620799412253,15.0
1620799412253,15.0
1620799412600,8.0
1620799412600,8.0
1620799412947,0.0
1620799412947,0.0
1620799413343,31.0
1620799413343,31.0
1620799413784,10.0
1620799413784,10.0
1620799414300,0.0
1620799414300,0.0
1620799414663,15.0
1620799414663,15.0
1620799415060,15.0
1620799415060,15.0
1620799415485,15.0
1620799415485,15.0
1620799415913,15.0
1620799415913,15.0
1620799416325,0.0
1620799416325,0.0
1620799416764,15.0
1620799416764,15.0
1620799417196,15.0
1620799417196,15.0
1620799417646,0.0
1620799417646,0.0
1620799418113,0.0
1620799418113,0.0
1620799418605,1.0
1620799418605,1.0
1620799419105,1.0
1620799419105,1.0
1620799419424,0.0
1620799419424,0.0
1620799419769,1.0
1620799419769,1.0
1620799420291,0.0
1620799420291,0.0
1620799420727,1.0
1620799420727,1.0
1620799421187,1.0
1620799421187,1.0
1620799421547,31.0
1620799421547,31.0
1620799421875,0.0
1620799421875,0.0
1620799422281,1.0
1620799422281,1.0
1620799422668,1.0
1620799422668,1.0
1620799423010,1.0
1620799423010,1.0
1620799423394,0.0
1620799423394,0.0
1620799423826,1.0
1620799423826,1.0
1620799424199,1.0
1620799424199,1.0
1620799424649,0.0
1620799424649,0.0
1620799425149,1.0
1620799425149,1.0
1620799425574,8.0
1620799425574,8.0
1620799426029,1.0
1620799426029,1.0
1620799426424,1.0
1620799426424,1.0
1620799426796,0.0
1620799426796,0.0
1620799427267,0.0
1620799427267,0.0
1620799427684,0.0
1620799427684,0.0
1620799428109,8.0
1620799428109,8.0
1620799428552,8.0
1620799428552,8.0
1620799428959,15.0
1620799428959,15.0
1620799429325,1.0
1620799429325,1.0
1620799429746,0.0
1620799429746,0.0
1620799430165,31.0
1620799430165,31.0
1620799430630,1.0
1620799430630,1.0
1620799431070,0.0
1620799431070,0.0
1620799431455,1.0
1620799431455,1.0
1620799431854,1.0
1620799431854,1.0
1620799432305,0.0
1620799432305,0.0
1620799432685,0.0
1620799432685,0.0
1620799433099,1.0
1620799433099,1.0
1620799433447,0.0
1620799433447,0.0
1620799433856,15.0
1620799433856,15.0
1620799434326,0.0
1620799434326,0.0
1620799434840,8.0
1620799434840,8.0
1620799435293,15.0
1620799435293,15.0
1620799435772,0.0
1620799435772,0.0
1620799436196,10.0
1620799436196,10.0
1620799436665,10.0
1620799436665,10.0
1620799437160,8.0
1620799437160,8.0
1620799437636,8.0
1620799437636,8.0
1620799438092,15.0
1620799438092,15.0
1620799438582,31.0
1620799438582,31.0
1620799439049,10.0
1620799439049,10.0
1620799439426,8.0
1620799439426,8.0
1620799439860,15.0
1620799439860,15.0
1620799440287,10.0
1620799440287,10.0
1620799440719,15.0
1620799440719,15.0
1620799441148,10.0
1620799441148,10.0
1620799441538,10.0
1620799441538,10.0
1620799441966,15.0
1620799441966,15.0
1620799442451,15.0
1620799442451,15.0
1620799442875,8.0
1620799442875,8.0
1620799443300,2.0
1620799443300,2.0
1620799443666,10.0
1620799443666,10.0
1620799444067,15.0
1620799444067,15.0
1620799444499,15.0
1620799444499,15.0
1620799444945,8.0
1620799444945,8.0
1620799445431,15.0
1620799445431,15.0
1620799445973,10.0
1620799445973,10.0
1620799446399,8.0
1620799446399,8.0
1620799446816,10.0
1620799446816,10.0
1620799447243,15.0
1620799447243,15.0
1620799447646,15.0
1620799447646,15.0
1620799448054,15.0
1620799448054,15.0
1620799448502,31.0
1620799448502,31.0
1620799448944,10.0
1620799448944,10.0
1620799449378,15.0
1620799449378,15.0
1620799449797,10.0
1620799449797,10.0
1620799450164,15.0
1620799450164,15.0
1620799450506,0.0
1620799450506,0.0
1620799450852,0.0
1620799450852,0.0
1620799451279,0.0
1620799451279,0.0
1620799451773,0.0
1620799451773,0.0
1620799452212,0.0
1620799452212,0.0
1620799452656,0.0
1620799452656,0.0
1620799453168,0.0
1620799453168,0.0
1620799453613,1.0
1620799453613,1.0
1620799453957,0.0
1620799453957,0.0
1620799454300,0.0
1620799454300,0.0
1620799454597,1.0
1620799454597,1.0
1620799454977,1.0
1620799454977,1.0
1620799455422,1.0
1620799455422,1.0
1620799456176,0.0
1620799456176,0.0
1620799457044,0.0
1620799457044,0.0
1620799457834,0.0
1620799457834,0.0
1620799458552,0.0
1620799458552,0.0
1620799459254,0.0
1620799459254,0.0
1620799460005,0.0
1620799460005,0.0
1620799460793,0.0
1620799460793,0.0
1620799461721,0.0
1620799461721,0.0
1620799462434,0.0
1620799462434,0.0
1620799462901,1.0
1620799462901,1.0
1620799463335,0.0
1620799463335,0.0
1620799463790,0.0
1620799463790,0.0
1620799464271,0.0
1620799464271,0.0
1620799464720,0.0
1620799464720,0.0
1620799465152,15.0
1620799465152,15.0
1620799465571,0.0
1620799465571,0.0
1620799466006,15.0
1620799466006,15.0
1620799466398,1.0
1620799466398,1.0
1620799466823,15.0
1620799466823,15.0
1620799467243,10.0
1620799467243,10.0
1620799467593,15.0
1620799467593,15.0
1620799468019,15.0
1620799468019,15.0
1620799468444,1.0
1620799468444,1.0
1620799468768,8.0
1620799468768,8.0
1620799469158,8.0
1620799469158,8.0
1620799469525,0.0
1620799469525,0.0
1620799469958,1.0
1620799469958,1.0
1620799470356,31.0
1620799470356,31.0
1620799470737,0.0
1620799470737,0.0
1620799471245,0.0
1620799471245,0.0
1620799471648,1.0
1620799471648,1.0
1620799472052,1.0
1620799472052,1.0
1620799472460,1.0
1620799472460,1.0
1620799473244,0.0
1620799473244,0.0
1620799474052,0.0
1620799474052,0.0
1620799475002,0.0
1620799475002,0.0
1620799475575,1.0
1620799475575,1.0
1620799476028,0.0
1620799476028,0.0
1620799476429,1.0
1620799476429,1.0
1620799476888,0.0
1620799476888,0.0
1620799477281,0.0
1620799477281,0.0
1620799477717,0.0
1620799477717,0.0
1620799478159,1.0
1620799478159,1.0
1620799478501,0.0
1620799478501,0.0
1620799478861,0.0
1620799478861,0.0
1620799479304,1.0
1620799479304,1.0
1620799479681,0.0
1620799479681,0.0
1620799480081,1.0
1620799480081,1.0
1620799480567,0.0
1620799480567,0.0
1620799481015,0.0
1620799481015,0.0
1620799481433,1.0
1620799481433,1.0
1620799481848,0.0
1620799481848,0.0
1620799482271,0.0
1620799482271,0.0
1620799482745,1.0
1620799482745,1.0
1620799483241,0.0
1620799483241,0.0
1620799483671,0.0
1620799483671,0.0
1620799484078,1.0
1620799484078,1.0
1620799484435,1.0
1620799484435,1.0
1620799484856,1.0
1620799484856,1.0
1620799485333,0.0
1620799485333,0.0
1620799485676,1.0
1620799485676,1.0
1620799486057,1.0
1620799486057,1.0
1620799486474,0.0
1620799486474,0.0
1620799486896,0.0
1620799486896,0.0
1620799487357,1.0
1620799487357,1.0
1620799487700,1.0
1620799487700,1.0
1620799488045,1.0
1620799488045,1.0
1620799488384,1.0
1620799488384,1.0
1620799488752,1.0
1620799488752,1.0
1620799489137,1.0
1620799489137,1.0
1620799489516,0.0
1620799489516,0.0
1620799489960,1.0
1620799489960,1.0
1620799490319,0.0
1620799490319,0.0
1620799490784,1.0
1620799490784,1.0
1620799491217,0.0
1620799491217,0.0
1620799491628,0.0
1620799491628,0.0
1620799492027,0.0
1620799492027,0.0
1620799492405,0.0
1620799492405,0.0
1620799492759,0.0
1620799492759,0.0
1620799493149,1.0
1620799493149,1.0
1620799493546,1.0
1620799493546,1.0
1620799493888,1.0
1620799493888,1.0
1620799494279,10.0
1620799494279,10.0
1620799494683,1.0
1620799494683,1.0
1620799495041,15.0
1620799495041,15.0
1620799495498,1.0
1620799495498,1.0
1620799495928,8.0
1620799495928,8.0
1620799496321,8.0
1620799496321,8.0
1620799496711,15.0
1620799496711,15.0
1620799497092,1.0
1620799497092,1.0
1620799497388,31.0
1620799497388,31.0
1620799497787,10.0
1620799497787,10.0
1620799498157,15.0
1620799498157,15.0
1620799498572,8.0
1620799498572,8.0
1620799498929,10.0
1620799498929,10.0
1620799499309,8.0
1620799499309,8.0
1620799499750,10.0
1620799499750,10.0
1620799500216,1.0
1620799500216,1.0
1620799500577,15.0
1620799500577,15.0
1620799500942,15.0
1620799500942,15.0
1620799501363,0.0
1620799501363,0.0
1620799501737,15.0
1620799501737,15.0
1620799502185,10.0
1620799502185,10.0
1620799502605,15.0
1620799502605,15.0
1620799503046,0.0
1620799503046,0.0
1620799503441,1.0
1620799503441,1.0
1620799503916,1.0
1620799503916,1.0
1620799504379,0.0
1620799504379,0.0
1620799504786,0.0
1620799504786,0.0
1620799505179,0.0
1620799505179,0.0
1620799505573,1.0
1620799505573,1.0
1620799505942,1.0
1620799505942,1.0
1620799506397,1.0
1620799506397,1.0
1620799506854,10.0
1620799506854,10.0
1620799507260,15.0
1620799507260,15.0
1620799507696,8.0
1620799507696,8.0
1620799508473,0.0
1620799508473,0.0
1620799510219,0.0
1620799510219,0.0
1620799511085,0.0
1620799511085,0.0
1620799512031,0.0
1620799512031,0.0
1620799512790,0.0
1620799512790,0.0
1620799513520,0.0
1620799513520,0.0
1620799514221,0.0
1620799514221,0.0
1620799515006,0.0
1620799515006,0.0
1620799515801,0.0
1620799515801,0.0
1620799516282,15.0
1620799516282,15.0
1620799516601,1.0
1620799516601,1.0
1620799516961,10.0
1620799516961,10.0
1620799517386,10.0
1620799517386,10.0
1620799517820,15.0
1620799517820,15.0
1620799518275,8.0
1620799518275,8.0
1620799518653,15.0
1620799518653,15.0
1620799519067,10.0
1620799519067,10.0
1620799519462,10.0
1620799519462,10.0
1620799519844,31.0
1620799519844,31.0
1620799520296,15.0
1620799520296,15.0
1620799520768,0.0
1620799520768,0.0
1620799521215,1.0
1620799521215,1.0
1620799521610,8.0
1620799521610,8.0
1620799522123,31.0
1620799522123,31.0
1620799522617,10.0
1620799522617,10.0
1620799523161,15.0
1620799523161,15.0
1620799523972,0.0
1620799523972,0.0
1620799524450,31.0
1620799524450,31.0
1620799524863,15.0
1620799524863,15.0
1620799525272,10.0
1620799525272,10.0
1620799525748,8.0
1620799525748,8.0
1620799526257,10.0
1620799526257,10.0
1620799526680,1.0
1620799526680,1.0
1620799527127,15.0
1620799527127,15.0
1620799527545,0.0
1620799527545,0.0
1620799527923,1.0
1620799527923,1.0
1620799528336,15.0
1620799528336,15.0
1620799528631,0.0
1620799528631,0.0
1620799529127,10.0
1620799529127,10.0
1620799529625,31.0
1620799529625,31.0
1620799530047,15.0
1620799530047,15.0
1620799530471,8.0
1620799530471,8.0
1620799530870,15.0
1620799530870,15.0
1620799531220,15.0
1620799531220,15.0
1620799531600,15.0
1620799531600,15.0
1620799532029,15.0
1620799532029,15.0
1620799532467,15.0
1620799532467,15.0
1620799532877,10.0
1620799532877,10.0
1620799533237,15.0
1620799533237,15.0
1620799533603,15.0
1620799533603,15.0
1620799533992,1.0
1620799533992,1.0
1620799534342,8.0
1620799534342,8.0
1620799534733,0.0
1620799534733,0.0
1620799535106,10.0
1620799535106,10.0
1620799535443,15.0
1620799535443,15.0
1620799535849,15.0
1620799535849,15.0
1620799536267,8.0
1620799536267,8.0
1620799536642,15.0
1620799536642,15.0
1620799537036,0.0
1620799537036,0.0
1620799537462,15.0
1620799537462,15.0
1620799537812,10.0
1620799537812,10.0
1620799538287,15.0
1620799538287,15.0
1620799538622,31.0
1620799538622,31.0
1620799539020,15.0
1620799539020,15.0
1620799539554,0.0
1620799539554,0.0
1620799539999,10.0
1620799539999,10.0
1620799540447,31.0
1620799540447,31.0
1620799540912,10.0
1620799540912,10.0
1620799541315,31.0
1620799541315,31.0
1620799541622,15.0
1620799541622,15.0
1620799542045,31.0
1620799542045,31.0
1620799542416,31.0
1620799542416,31.0
1620799542762,10.0
1620799542762,10.0
1620799543218,10.0
1620799543218,10.0
1620799543630,1.0
1620799543630,1.0
1620799544094,10.0
1620799544094,10.0
1620799544513,8.0
1620799544513,8.0
1620799544964,0.0
1620799544964,0.0
1620799545445,0.0
1620799545445,0.0
1620799546150,0.0
1620799546150,0.0
1620799546960,0.0
1620799546960,0.0
