timestamp,value
1620970478132,61.256133589418006
1620970479116,61.191234233313615
1620970480127,61.10502324027717
1620970481114,61.088210102717284
1620970482076,61.10670661891041
1620970483019,61.12406856470143
1620970483959,61.19476350289229
1620970484911,61.32309169565247
1620970485836,61.55814120267986
1620970486763,61.69441870130576
1620970487697,61.779073605287216
1620970488627,61.988693365644586
1620970489579,62.18092763787817
1620970490548,62.20502184251586
1620970491499,62.272992239591595
1620970492436,62.44330343183713
1620970493397,62.578754710941695
1620970494385,62.645723087736684
1620970495374,62.63691712368561
1620970496342,62.62653495680102
1620970497277,62.68073925872817
1620970498212,62.83982270581888
1620970499174,63.001071805734085
1620970500150,63.03944362227585
1620970501124,63.00023499087651
1620970502094,62.90995666447635
1620970503068,62.798058556154366
1620970504057,62.67667641045242
1620970505046,62.46926317035571
1620970506024,62.30188972534368
1620970507035,62.05232158677715
1620970508082,61.679489318500245
1620970509123,61.39854527403374
1620970510117,61.32146531320654
1620970511113,61.17948541730885
1620970512124,60.977028835325534
1620970513112,60.86858867351216
1620970514112,60.83014904400353
1620970515093,60.854605567831285
1620970516093,60.75668809622562
1620970517117,60.48245645867959
1620970518134,60.23137279545647
1620970519130,60.1329298547369
1620970520123,60.08385001689107
1620970521091,60.097309563645474
1620970522054,60.168260540601814
1620970523006,60.18767419629517
1620970523962,60.28554247191825
1620970524898,60.4472644212691
1620970525840,60.556743561115
1620970526799,60.7182636641013
1620970527764,60.96937340707986
1620970528726,61.215448024386205
1620970529688,61.31650835595826
1620970530639,61.458266380100426
1620970531573,61.67313986229518
1620970532530,61.79630742344622
1620970533519,61.83508603167049
1620970534492,61.85889059172669
1620970535448,61.99847432087777
1620970536411,62.19693571246979
1620970537396,62.30182503331978
1620970538390,62.3067775962689
1620970539366,62.358229215443586
1620970540324,62.394770569489005
1620970541272,62.4018049098052
1620970542233,62.41039557477008
1620970543211,62.34389024939996
1620970544190,62.200717360873284
1620970545151,62.141340894139304
1620970546074,62.255155660716035
1620970546999,62.38455283610314
1620970547932,62.47924842879006
1620970548844,62.641439149479595
1620970549770,62.72282282809681
1620970550712,62.697605217945515
1620970551643,62.78505395512094
1620970552577,62.966096692312234
1620970553535,63.01451350274994
1620970554503,62.975464758929895
1620970555447,63.03788718855277
1620970556374,63.23153284880769
1620970557315,63.40795234004671
1620970558283,63.43655147487602
1620970559247,63.4137692959513
1620970560194,63.403737724309885
1620970561147,63.44581518540696
1620970562141,63.3895434827705
1620970563136,63.33807154890245
1620970564113,63.284900871322364
1620970565063,63.19640795830258
1620970566018,63.09590467092146
1620970567002,62.92824968167483
1620970567997,62.65587934315547
1620970568977,62.47857505530394
1620970569939,62.413037833951336
1620970570899,62.317167273454096
1620970571852,62.255029700577666
1620970572783,62.34636491857333
1620970573727,62.42394357749437
1620970574663,62.446725137617
1620970575609,62.386875049227136
1620970576592,62.2499368163141
1620970577594,62.140192105368236
1620970578566,62.11528638563365
1620970579530,62.06206485765055
1620970580514,61.95846686458608
1620970581501,61.98378163361664
1620970582461,62.09516860778755
1620970583396,62.2299640907178
1620970584345,62.23364647575533
1620970585324,62.156729747977806
1620970586266,62.28906392461902
1620970587204,62.47361140684841
1620970588149,62.59113856567089
1620970589141,62.492045283402454
1620970590111,62.461121205233184
1620970591057,62.485306189716326
1620970592009,62.41503103743454
1620970592969,62.36227032755364
1620970593900,62.378923159927055
1620970594831,62.42786655107103
1620970595771,62.56680635922769
1620970596721,62.73787129252512
1620970597650,62.87962921140248
1620970598583,62.98042584109969
1620970599536,63.08863006194257
1620970600492,63.188211775713
1620970601416,63.30847895206741
1620970602350,63.31080365626221
1620970603314,63.26209740001215
1620970604264,63.35777183388016
1620970605204,63.365122030928255
1620970606158,63.3140905983483
1620970607116,63.26762744182726
1620970608054,63.45051515473258
1620970609000,63.532142525678964
1620970609960,63.48033474450118
1620970610905,63.50469723077187
1620970611841,63.58690891795277
1620970612793,63.51804875941836
1620970613770,63.361348025351575
1620970614742,63.254677722951776
1620970615678,63.3006176399514
1620970616621,63.25349407030115
1620970617581,63.16326693891432
1620970618548,63.11830627074582
1620970619509,63.09967034628896
1620970620454,63.02977179755971
1620970621408,62.96823111061952
1620970622370,62.970233498348506
1620970623297,63.04792256832437
1620970624246,63.01924576255957
1620970625179,63.08799655707771
1620970626099,63.213296200438414
1620970627044,63.18963256123854
1620970628012,63.114933398229546
1620970628974,63.108962040590455
1620970629930,63.07687415191172
1620970630920,62.89518485995489
1620970631937,62.68130240254821
1620970632918,62.66873229771505
1620970633879,62.70625131160576
1620970634852,62.585275697788084
1620970635832,62.46612839256799
1620970636780,62.50327491117511
1620970637710,62.62260004756189
1620970638653,62.68559834422254
1620970639613,62.63648555448662
1620970640546,62.7006027408941
1620970641472,62.82262033149404
1620970642417,62.7638041141673
1620970643378,62.72182619196562
1620970644320,62.69498466768023
1620970645257,62.63725061304903
1620970646194,62.66281234670456
1620970647114,62.81873637913116
1620970648021,63.00573588468057
1620970648932,63.15002424960926
1620970649855,63.37563005278715
1620970650773,63.709552397921335
1620970651681,63.95747765778768
1620970652605,64.08399959776607
1620970653558,64.15253248269929
1620970654532,64.17091366707301
1620970655497,64.11508229838678
1620970656465,64.0060148585696
1620970657404,63.99479167722142
1620970658321,64.14330469512959
1620970659264,64.12715302908353
1620970660254,63.93409162362704
1620970661236,63.76226028711082
1620970662223,63.67865542943583
1620970663202,63.5494934046218
1620970664176,63.43005641680653
1620970665120,63.406947213874915
1620970666065,63.324524891920916
1620970667053,63.05143736260045
1620970668068,62.70736214217549
1620970669085,62.403226246796976
1620970670090,62.12079782568928
1620970671062,61.91521402825389
1620970672020,61.80574444220856
1620970672998,61.726404194679496
1620970673954,61.78528265299415
1620970674903,61.835140199070956
1620970675883,61.775708772011726
1620970676852,61.702520630237764
1620970677806,61.58489655046052
1620970678782,61.46607026821637
1620970679784,61.402585488900996
1620970680798,61.344857169235475
1620970681773,61.38167071700442
1620970682729,61.455855414038055
1620970683705,61.444797609797355
1620970684719,61.226473408704855
1620970685746,60.97212740491851
1620970686756,60.90505521094006
1620970687741,60.99968417413517
1620970688777,60.93929699512902
1620970689805,60.86639354901443
1620970690793,60.81712058707165
1620970691781,60.72690407816083
1620970692803,60.59130448130254
1620970693798,60.47076490478378
1620970694782,60.365874547337725
1620970695804,60.23725950587876
1620970696845,60.02055103667495
1620970697870,59.80814146300085
1620970698856,59.77902384938959
1620970699858,59.779589663929585
1620970700884,59.74327121493521
1620970701898,59.62592187265144
1620970702877,59.55943883096733
1620970703864,59.52607127830354
1620970704901,59.458944416440886
1620970705942,59.416976856295314
1620970706956,59.406067052518985
1620970707954,59.3647173816479
1620970708980,59.395972656074015
1620970710013,59.38187035868829
1620970711011,59.35321613315383
1620970711995,59.36302582840731
1620970712982,59.468019907712566
1620970713966,59.50000066937498
1620970714930,59.558442640033185
1620970715918,59.66218673250182
1620970716946,59.69947285365463
1620970717975,59.68773169409602
1620970718964,59.67670443754477
1620970719951,59.72148586459614
1620970720931,59.86022935746181
1620970721876,60.06757000950367
1620970722821,60.18802739759001
1620970723771,60.2831650972531
1620970724703,60.60118802569004
1620970725641,60.91745649110269
1620970726612,61.048138543052666
1620970727575,61.16022787077706
1620970728560,61.28623254836219
1620970729544,61.440116392156526
1620970730523,61.50082618672382
1620970731478,61.594326012813426
1620970732419,61.735813521624856
1620970733394,61.76788011554513
1620970734401,61.631857507145405
1620970735425,61.51572911056559
1620970736428,61.5947148860208
1620970737393,61.79709664880513
1620970738358,61.87572549288141
1620970739364,61.8125574373873
1620970740395,61.67714021603951
1620970741384,61.51122941315271
1620970742376,61.342574251352346
1620970743353,61.27882785858073
1620970744327,61.1496843886435
1620970745344,60.905537440105775
1620970746378,60.71066385340193
1620970747381,60.58913236968336
1620970748349,60.640199813501056
1620970749336,60.63526352893989
1620970750349,60.5274757666902
1620970751372,60.31751441173917
1620970752352,60.202128646932145
1620970753334,60.17924991379318
1620970754382,60.056374919136694
1620970755447,59.935766838679136
1620970756459,59.90695252134381
1620970757449,59.832263241615415
1620970758460,59.695802131498404
1620970759465,59.70061039396593
1620970760441,59.83789913125346
1620970761424,59.880284341530235
1620970762415,59.88388215830089
1620970763387,59.89895645036385
1620970764328,59.99650520357196
1620970765272,60.21469549679381
1620970766231,60.44391826894259
1620970767179,60.61315050790787
1620970768101,60.7548240089699
1620970769025,60.94408791306569
1620970769936,61.264477370357106
1620970770844,61.62683441901837
1620970771780,61.76880533262448
1620970772741,61.83244787550401
1620970773701,62.1154439336426
1620970774647,62.49761402338127
1620970775608,62.66658540899441
1620970776580,62.72601293232657
1620970777540,62.891766571548
1620970778494,63.06018464022062
1620970779463,63.086155816706636
1620970780430,63.137305329272635
1620970781369,63.31223664088074
1620970782300,63.44906919422369
1620970783259,63.386014330204524
1620970784229,63.30250764971231
1620970785182,63.32179487105072
1620970786181,63.1498580864814
1620970787222,62.75896571969322
1620970788223,62.50866656616666
1620970789194,62.30950815055088
1620970790174,62.07988408444037
1620970791174,61.874497173031536
1620970792170,61.7639061305979
1620970793147,61.70923472526733
1620970794138,61.56884813304785
1620970795133,61.46045089128138
1620970796123,61.40355320871177
1620970797088,61.38932640152352
1620970798074,61.289037158419575
1620970799074,61.18784888865268
1620970800062,61.12643488575276
1620970801015,61.080032402957066
1620970801995,60.92865630073907
1620970802997,60.797736216557915
1620970803993,60.71567386251981
1620970804961,60.669677972427415
1620970805954,60.68648245520921
1620970806953,60.815869211824186
1620970807910,60.953541972228045
1620970808859,61.024196551614175
1620970809806,61.12553503944895
1620970810733,61.35397485560723
1620970811670,61.53973335961761
1620970812647,61.53788402908847
1620970813636,61.54374483224867
1620970814612,61.60594057870874
1620970815659,61.4242313678807
1620970816752,61.0241996549081
1620970817753,60.97709390386075
1620970818726,61.06343809342843
1620970819667,61.2080822824332
1620970820635,61.16307395619741
1620970821601,61.20691778946939
1620970822554,61.39217814536674
1620970823514,61.49756092986144
1620970824470,61.51174020762564
1620970825461,61.51732797025279
1620970826446,61.560680208579896
1620970827414,61.524837730804116
1620970828423,61.3360901861336
1620970829444,61.10459385355006
1620970830429,60.92432249741801
1620970831403,60.81229413771507
1620970832386,60.79461910879232
1620970833380,60.779367754782754
1620970834392,60.666543311362084
1620970835383,60.840789287559474
1620970836400,61.07479112039711
1620970837445,60.937604260432366
1620970838484,60.771660311132756
1620970839464,60.61559990956146
1620970840492,60.432129003257074
1620970841551,60.15038196996304
1620970842572,59.91430457017337
1620970843585,59.76328956270019
1620970844633,59.51405583132605
1620970845686,59.33297278663535
1620970846696,59.25849840940311
1620970847707,59.13472590684945
1620970848725,59.10799824311328
1620970849731,59.151652909142406
1620970850735,59.0957900897837
1620970851791,58.856012737618336
1620970852886,58.53645972662304
1620970853931,58.390523607288614
1620970854944,58.388469483971875
1620970855979,58.263593430430355
1620970857010,58.224264729428995
1620970858019,58.32776910719287
1620970859040,58.344597487185716
1620970860097,58.15797129875039
1620970861181,58.00096204262381
1620970862228,58.034086610941294
1620970863251,58.03121837751961
1620970864286,57.9706644283549
1620970865279,58.12415338537835
1620970866264,58.3159887813644
1620970867273,58.31931887701104
1620970868276,58.33966764377505
1620970869296,58.336139544712644
1620970870351,58.19822937706941
1620970871415,58.027758351911
1620970872441,58.11265777949782
1620970873458,58.330167706523476
1620970874538,58.255897086685735
1620970875607,58.073611205884035
1620970876659,58.02868154628447
1620970877777,57.78303539196468
1620970878954,57.32030716615136
1620970880053,57.10665152578976
1620970881126,57.06444516049748
1620970882220,57.03667386833884
1620970883305,56.93546564243558
1620970884326,56.93824819230558
1620970885348,56.9733424579306
1620970886418,56.76735997904907
1620970887503,56.50087802364447
1620970888594,56.28259113793086
1620970889762,55.85001701331136
1620970890878,55.60183893815325
1620970891953,55.54996969749148
1620970893082,55.38370453569006
1620970894205,55.13669788797506
1620970895254,55.05857544194837
1620970896267,55.20502917815807
1620970897278,55.37323150011487
1620970898269,55.52871153676532
1620970899250,55.88599963962846
1620970900245,56.36123153236177
1620970901229,56.667762715643896
1620970902212,56.912243312740316
1620970903199,57.20107694374268
1620970904184,57.47555026014161
1620970905100,57.76388214107794
1620970906018,58.057135381595536
1620970906964,58.40493494444652
1620970907931,58.74106731931915
1620970908895,59.107902164994414
1620970909857,59.71471593037842
1620970910811,60.199812206685735
1620970911741,60.6428168911874
1620970912646,61.33755431120973
1620970913546,62.04361428250203
1620970914452,62.50325212233684
1620970915367,62.825517987233845
1620970916263,63.208594683314374
1620970917166,63.50248260309808
1620970918084,63.714941052794934
1620970919005,63.965632544946374
1620970919911,64.23184097609264
1620970920818,64.49387864412579
1620970921726,64.76993314933279
1620970922614,65.10896364868898
1620970923498,65.22366908249704
1620970924374,65.37322829017725
1620970925237,65.67061131787008
1620970926092,66.07496899019107
1620970926956,66.44378836125195
1620970927819,66.81043901974627
1620970928674,67.17831913799462
1620970929527,67.46950504877131
1620970930393,67.61662007505903
1620970931257,67.75757491573927
1620970932103,67.98463184735566
1620970932954,68.23440907722345
1620970933819,68.35389522931382
1620970934672,68.54477444627963
1620970935527,68.79185339355381
1620970936377,69.07673475426078
1620970937231,69.28659690622655
1620970938072,69.54713110549928
1620970938912,69.82429588743628
1620970939746,70.04523229246308
1620970940572,70.28472517881742
1620970941403,70.46802513359563
1620970942234,70.59841392426638
1620970943049,70.76841167023008
1620970943849,71.03470933484864
1620970944672,71.20094032708516
1620970945476,71.41892562248599
1620970946275,71.6491356158718
1620970947077,71.92551681181021
1620970947887,72.15318698823094
1620970948692,72.33654141875807
1620970949514,72.50794279195811
1620970950312,72.75700167911046
1620970951125,72.93681799516615
1620970951941,73.10880320158074
1620970952758,73.2554757857688
1620970953578,73.40634369058085
1620970954391,73.5333227281942
1620970955217,73.59642870876465
1620970956064,73.53677896039221
1620970956912,73.43734059889738
1620970957786,73.24655529080323
1620970958664,73.0390565398989
1620970959531,72.8083812640008
1620970960400,72.5039780515958
1620970961263,72.33139205923085
1620970962121,72.09725198320015
1620970962983,71.81939719825333
1620970963844,71.56694270434069
1620970964688,71.43002979167964
1620970965534,71.25072453080529
1620970966396,71.03958319655756
1620970967274,70.74673711626748
1620970968164,70.42556466777594
1620970969052,70.13104277555286
1620970969938,69.85126744251635
1620970970834,69.57922197441715
1620970971689,69.37311218418452
1620970972564,69.17434425027481
1620970973436,69.07760160494902
1620970974305,68.99259088566494
1620970975179,68.99295581921102
1620970976044,69.04419190764092
1620970976912,69.03883728012086
1620970977784,69.02934161194553
1620970978657,68.98947324122533
1620970979522,68.96143107842305
1620970980391,68.93488875718506
1620970981276,68.83891298537677
1620970982158,68.6858710072476
1620970983054,68.49618844397358
1620970983946,68.3735243355333
1620970984833,68.34283545539719
1620970985714,68.37479438417306
1620970986573,68.49001546847012
1620970987441,68.55771311122277
1620970988304,68.65296475539881
1620970989174,68.63099242931509
1620970990057,68.60246432628962
1620970990958,68.484070291365
1620970991859,68.36226737815834
1620970992774,68.20145322519834
1620970993674,68.0635152843148
1620970994562,67.99074872545646
