id,timestamp,mean,sd,skew
"1070430",450000,0.9285714285714285,2.175765256489255,5.021810520723203
"1070430",480000,0.8857142857142853,2.025510185456287,4.037918661776715
"1070430",510000,1.081967213114754,2.051788504104108,3.3332456244457456
"1070416",450000,1.0135135135135132,3.673277224537787,7.745575385086618
"1070416",480000,0.4383561643835616,1.0136060675992289,5.931749183632096
"1070416",510000,1.9130434782608694,3.1842402844726276,1.730866469647784
"1070416",540000,0.75,0.5,-2.0
"1070415",450000,0.3157894736842105,0.4689614184877847,0.8141782389037349
"1070415",480000,0.391304347826087,0.5206723962776637,0.7751874342552976
"1070415",510000,0.3529411764705882,0.4814377064012162,0.6294278553615547
"1099705",450000,6.45945945945946,10.526143824468795,1.680114896395248
"1099705",480000,1.5270270270270268,4.078755427195408,5.621691065438393
"1099705",510000,3.4459459459459465,7.589000497099953,2.8219896523089405
"1099705",540000,3.344262295081967,8.571046699794286,2.8730886707087704
"1070417",450000,0.3623188405797101,0.5136665917050963,0.9180739602012573
"1070417",480000,0.21666666666666665,0.41545020165658497,1.4110160356506167
"1070417",510000,0.3076923076923077,0.4651302547095317,0.8531489680739207
"1070426",450000,0.5070422535211268,1.240659265259745,6.564862135247817
"1070426",480000,0.8823529411764703,1.9280290126378568,3.9822698948012127
"1070426",510000,1.7922077922077932,5.254916650993225,4.7871320934299595
"1070426",540000,0.5517241379310345,0.5061201788784758,-0.21953503485540699
"1070931",450000,1.328125,4.507681935160402,5.2713084746005965
"1070931",480000,4.617647058823529,9.965656566375666,2.2221037567269133
"1070931",510000,0.3333333333333333,0.47471266327754114,0.7222414091294026
"1070931",540000,1.048780487804878,2.2466777640796103,3.1622344023223916
