timestamp,value
1618992762166,65.90845217130727
1618992763336,64.70665185459511
1618992764642,63.00417449909186
1618992765408,63.2627977740352
1618992766772,61.84601064885227
1618992767528,62.442546352923394
1618992768339,62.613829986232794
1618992769162,62.614320051531585
1618992770587,60.82316551630631
1618992771911,59.55016401603925
1618992773202,58.49578669472385
1618992773983,58.70230340011568
1618992774796,58.695931936588636
1618992775590,58.83737638451088
1618992776421,59.00875616180497
1618992777263,59.21943163262198
1618992778085,59.27576573051626
1618992778837,59.64993244148069
1618992779631,59.85495349120476
1618992780442,61.49835830132515
1618992781311,62.681839363056405
1618992782139,63.817373397100354
1618992782953,65.5368549780812
1618992783778,65.32323269218762
1618992784608,67.28111518896966
1618992785420,67.06894245747424
1618992786874,64.7458899174193
1618992787638,64.94785417972729
1618992788450,67.17948123668691
1618992789299,69.01360068282057
1618992790091,71.05490299851098
1618992790831,71.22841111376898
1618992791586,71.4742128187571
1618992792401,71.38266133001959
1618992793247,71.31690528609816
1618992794062,71.4320069679542
1618992794809,71.75327635923877
1618992795545,71.82068672786026
1618992796983,69.15445994400794
1618992798412,66.77577085671646
1618992799249,66.89679162987342
1618992800127,66.70960541601946
1618992801019,66.42141665590088
1618992801869,66.33247628088843
1618992802649,66.51345292784735
1618992803434,66.61337966367903
1618992804249,69.061377608736
1618992805076,68.81339613320326
1618992805886,68.82193254051231
1618992806650,69.15679938413562
1618992808077,66.71524277621253
1618992808817,66.71655582452212
1618992809603,66.60246558997493
1618992811086,64.21997138358076
1618992811906,64.31384470200234
1618992812752,64.20660143382972
1618992813554,64.01818116345044
1618992814346,63.835698827215865
1618992815191,65.90543690196996
1618992816050,68.03383299837064
1618992816902,67.98558705554422
1618992817695,68.30524109530188
1618992819197,66.01389559495323
1618992820003,66.17565799008199
1618992820845,65.95001351700485
1618992821664,65.8255911467213
1618992822494,65.77330801864868
1618992823312,65.804579154217
1618992824118,65.84912056853257
1618992825481,63.72497659567473
1618992826794,64.13124844782335
1618992828270,61.686807237877595
1618992829094,61.567960484862034
1618992829957,63.58906204543757
1618992830791,63.541346698478996
1618992831625,63.58216177018675
1618992832492,63.364148374757086
1618992833396,63.03082790519722
1618992834248,62.96968497683422
1618992835000,63.3250829545394
1618992836297,61.86224535824376
1618992837529,60.5028451967144
1618992839088,60.327618179667404
1618992839979,60.071599339252465
1618992840837,60.02403962787099
1618992841656,60.02360428238406
1618992842442,60.15773056164615
1618992843204,60.32453089508282
1618992844657,58.401688860038426
1618992845460,60.063342801318285
1618992846315,61.45619532991298
1618992847158,63.53291952930999
1618992847931,63.702977647049835
1618992848709,63.992914704483916
1618992849533,64.02870534918216
1618992850342,64.11348257384856
1618992851152,64.30663461195287
1618992851972,64.55014973752026
1618992852734,64.91455783611215
1618992853466,64.9830391560176
1618992854218,66.96134120887987
1618992855003,68.67336731787522
1618992855838,71.6716363978433
1618992856663,71.92364585755762
1618992857429,72.32436029103323
1618992858837,69.84605115454937
1618992860288,67.23819882761232
1618992861056,67.22184064491289
1618992862400,67.63402485178426
1618992863789,65.4720741143879
1618992864552,65.8010754527772
1618992865348,65.97166253207598
1618992866116,65.98920317652231
1618992866865,66.09473060311059
1618992867641,66.26686760989824
1618992868434,66.32728102421265
1618992869221,66.41349105947123
1618992869963,66.6991306157403
1618992871264,64.75704962780618
1618992872586,62.76059703528353
1618992873327,62.79968204520978
1618992874137,62.71595192780472
1618992874934,62.81897644016168
1618992875690,63.06746594869266
1618992876443,63.11126879578489
1618992877210,65.31350509660332
1618992877987,67.80958210423762
1618992878759,67.78273577109044
1618992880144,67.62816255353121
1618992881543,67.58932478433515
1618992882312,67.56786812283686
1618992883089,67.63690300992111
1618992884485,65.32516006705622
1618992885980,62.79745387723248
1618992886771,62.73142996765092
1618992887540,62.807804037139036
1618992888942,60.84764110682055
1618992890391,58.74402340753515
1618992891173,60.27861680868225
1618992891966,61.92044718946964
1618992893350,59.92877165844542
1618992894789,58.10605914974081
1618992895576,58.1329667597634
1618992896368,58.034591808620476
1618992897120,58.033727364609625
1618992897860,58.109362498164096
1618992898628,58.13113628641438
1618992899419,58.085574960547795
1618992900210,59.80114921861829
1618992901599,59.83174117746073
1618992902975,58.07447402795786
1618992903729,58.13991797620371
1618992904520,59.896507818965
1618992905303,62.08498772579798
1618992906727,60.1327671365608
1618992908200,58.082170298375345
1618992908972,59.910335196827695
1618992909718,62.088527685429725
1618992911179,59.980719197813855
1618992911966,60.00188705934797
1618992912757,61.83484387268737
1618992913508,64.1065776126583
1618992914786,62.4991243612264
1618992915967,61.2258205203848
1618992917303,59.45641379127188
1618992918088,59.3237683644141
1618992918852,59.335149648191994
1618992920297,57.4762164613704
1618992921062,57.54811369991834
1618992921811,59.37148749621636
1618992922581,61.2062871710245
1618992923337,61.19898293410264
1618992924667,59.56289176251164
1618992925890,58.28758931419453
1618992927229,58.53014134004861
1618992927987,60.668211818612605
1618992929318,58.97973028864238
1618992930693,57.21059721427297
1618992931453,59.18910920390648
1618992932269,59.10327622758367
1618992933077,59.05461823846769
1618992933828,59.05435377485024
1618992934580,60.595226913975964
1618992935339,61.94736497590966
1618992936094,63.861092756960055
1618992936842,63.98658499916627
1618992938176,62.100557569856164
1618992939381,62.87961932678462
1618992940739,60.98556329417179
1618992941518,60.89278566632536
1618992942347,60.70819447809398
1618992943138,60.60570554233114
1618992943925,62.316021682859756
1618992944726,63.71000902823919
1618992945528,65.5757628483138
1618992946343,65.34922626516101
1618992947119,67.41508648512914
1618992948517,67.32805256974348
1618992949983,64.75949591424246
1618992950784,64.81347303589388
1618992951609,64.75320234264134
1618992952428,64.5154318493655
1618992953162,64.57977483077545
1618992953903,64.6418086950451
1618992954671,64.595216498135
1618992955477,64.39520107643017
1618992956277,66.2951889415647
1618992957094,67.74668430790328
1618992957837,70.18439428937658
1618992959167,67.98940045246947
1618992960388,66.54853562165653
1618992961663,64.77533834453348
1618992962454,64.75636470072278
1618992963217,64.89657999890649
1618992964661,62.71781701857376
1618992965412,62.93061914971397
1618992966756,61.10608428698283
1618992968098,61.28054273316945
1618992969533,61.393522451304214
1618992970302,61.47969325731707
1618992971707,59.70560063908876
1618992973033,58.23880326247955
1618992974385,56.54221458232194
1618992975688,55.08088835007539
1618992976965,53.82544381657565
1618992978434,52.27196388425474
1618992979263,52.20435499170215
1618992980099,52.16283864603875
1618992980853,52.138440768645715
1618992981601,53.49084127586889
1618992982385,54.530642040143945
1618992983207,55.70098929134555
1618992984042,55.58657852797018
1618992984848,55.474080567965856
1618992985581,57.361563125539796
1618992987042,55.47617839030879
1618992987817,56.977516529533695
1618992988605,58.51869291867244
1618992989382,60.441522298313025
1618992990745,58.69976785709307
1618992992119,58.78935953744919
1618992992889,60.4368831188453
1618992993690,62.16037449139219
1618992994502,63.785480075302985
1618992995901,63.37144985216494
1618992997323,63.53163798804404
1618992998083,63.76116258703257
1618992998839,64.03335198482581
1618993000240,61.89644837663417
1618993001565,60.10761065535632
1618993002978,58.27578559036984
1618993003736,58.45226868111362
1618993004490,58.68542878948679
1618993005546,58.68542878948679
1618993006685,54.95313939729325
1618993007475,54.81059081295016
1618993008271,56.52814585844416
1618993009036,56.55599177506213
1618993010467,54.88940904735725
1618993011209,54.97913999796572
1618993011975,56.524143864120454
1618993012764,58.126264972841476
1618993014118,56.52555501500382
1618993015434,55.186282676832754
1618993016941,53.47810688749446
1618993017807,54.78156308233952
1618993018592,56.41826129356079
1618993019382,56.34114147997762
1618993020222,56.11908207326891
1618993020979,57.86228929447351
1618993022282,57.923606679016515
1618993023390,58.7852959163619
1618993024474,57.86513527229118
1618993025616,56.80338120233169
1618993026381,60.92617844048986
1618993027164,60.946359838990034
1618993027980,60.88608431799246
1618993028729,60.93236264017492
1618993029469,63.15018709032297
1618993030231,63.08529352483091
1618993031008,63.04995321693474
1618993031786,63.085462664840335
1618993033188,62.9258275965517
1618993034430,63.17083478363039
1618993035657,64.11652794254387
1618993037110,62.16201347734605
1618993037922,62.0803754621107
1618993039320,60.187327036669
1618993040770,58.40158085292501
1618993041529,58.39193288197671
1618993042286,59.98896802877964
1618993043632,59.2833356124482
1618993044887,58.78783597370734
1618993046185,58.33984916523699
1618993047635,56.46093806460927
1618993048992,54.97714004702557
1618993050209,53.98375358935721
1618993051460,52.791258612233904
1618993052868,51.30678378295185
1618993054137,50.197128305951495
1618993055433,49.128794984474105
1618993056167,49.21798769796394
1618993056923,50.558937480334606
1618993058327,50.217212460112336
1618993059699,49.912268789213634
1618993060474,51.36268850802224
1618993061266,51.40595501147876
1618993062619,51.50339261431039
1618993063937,51.79734857142258
1618993064672,51.8546888154751
1618993065407,51.89992880627267
1618993066757,51.89222400212561
1618993068101,51.69164572114006
1618993069592,51.26591128340059
1618993071026,51.30000409117535
1618993071766,52.69077287089101
1618993072524,53.77407521361973
1618993073311,54.91785501658821
1618993074107,56.47284183387647
1618993075540,56.065905846094836
1618993077011,55.61304811872648
1618993077806,55.45545076477924
1618993078586,55.3940153229079
1618993080108,55.09218184551926
1618993080951,56.464843435693716
1618993081833,56.18228980660372
1618993082631,56.164619247877056
1618993084031,56.04625609608122
1618993085440,55.80678426334257
1618993086181,55.78851133239006
1618993086936,55.73900138283812
1618993088304,55.69257734434303
1618993089660,55.66110034017277
1618993091031,55.97373898745838
1618993091834,57.67232755805848
1618993092692,57.34545864826137
1618993094145,55.50311795703027
1618993095498,54.08650108204545
1618993096905,52.63719358135037
1618993098278,52.77578646916792
1618993099599,53.1250100992857
1618993100339,53.25482861531054
1618993101122,53.24780079926726
1618993102525,53.531626373337076
1618993103936,52.207700505305304
1618993105004,52.207700505305304
1618993106023,49.608407765237075
1618993107271,48.701988514366626
1618993108581,48.87885351716343
1618993109992,48.87572394111357
1618993111475,47.44248626460955
1618993112252,47.40049746822093
1618993113028,48.543255337401675
1618993114407,48.49109648915978
1618993115743,48.558634065047215
1618993116758,48.558634065047215
1618993117729,46.3398632765504
1618993118964,45.6765142820754
1618993120306,45.86895408005488
1618993121655,45.87681898242082
1618993122889,46.18152309587999
1618993124006,46.640581884790194
1618993125211,46.852821777566355
1618993126434,45.985958494146935
1618993127666,45.20784589700183
1618993129114,45.13210222737087
1618993129863,46.28339515702128
1618993131244,47.57940189361268
1618993132561,47.44869738102566
1618993133968,47.26768739136805
1618993135344,47.333090014954465
1618993136565,47.82666659492659
1618993137891,46.80384170613113
1618993138667,46.79823079288489
1618993139462,47.89465666056817
1618993140222,49.021426121524435
1618993140963,51.649724481000995
1618993141711,52.75216391574393
1618993142482,54.11169031663187
1618993143251,55.564623393401064
1618993144629,55.1979799747249
1618993145999,54.5635894984734
1618993147463,53.92938728710879
1618993148834,53.57209822265628
1618993150192,53.27034174611131
1618993150930,55.004852573931345
1618993151685,54.990265806447844
1618993152456,56.57009036553371
1618993153836,56.404442413884404
1618993155290,56.28007290520642
1618993156079,57.872938035445365
1618993156832,59.21031206794978
1618993158235,58.985351676073556
1618993159595,57.33727418789636
1618993160887,56.00823694471338
1618993162150,54.725476487883085
1618993163403,53.47553786030198
1618993164890,51.77255419550973
1618993166236,50.51893258042157
1618993167575,49.334745622651305
1618993168930,49.38037708584253
1618993170160,49.66735495963099
1618993171426,50.07674469778029
1618993172873,49.91961278354759
1618993174236,49.908413901456306
1618993175559,48.723501114874914
1618993176937,47.5214382078145
1618993178234,46.551626218993135
1618993179532,46.699879101796384
1618993180973,46.72885732406504
1618993182315,45.73848965180002
1618993183643,44.76174720765966
1618993185058,44.738275496063615
1618993186374,44.81033744611328
1618993187674,44.79887656363946
1618993189068,44.57930509779212
1618993189818,45.42941300844744
1618993191206,45.59945499531391
1618993192647,45.435861677486
1618993193967,45.467729373801426
1618993195245,45.6012432722966
1618993196512,45.53710906296997
1618993197910,45.309400907773934
1618993199286,45.43115357308641
1618993200707,45.334121542593174
1618993202152,45.124519419167704
1618993203490,45.19332631656719
1618993204800,45.17095569282588
1618993206239,44.93222030731909
1618993207644,44.98735855224676
1618993208972,45.01675579921795
1618993210406,44.83427514577954
1618993211157,45.97913252396782
1618993211911,46.99076063748449
1618993213288,46.84933534847946
1618993214558,47.0781237139336
1618993215851,46.094196717586144
1618993217170,46.217261569480414
1618993218426,46.54971387248582
1618993219711,46.61256036035235
1618993221056,46.491735570970256
1618993222381,46.38751612980916
1618993223693,46.54238195843509
1618993225047,46.58264658219623
1618993226348,46.798750941337445
1618993227628,47.1034591367286
1618993228877,47.267005959739286
1618993230293,47.07244315629837
1618993231660,47.20463215908402
1618993233069,47.197168610390364
1618993234544,46.92523015945544
1618993235299,48.205139865003964
1618993236617,47.13289981277632
1618993237772,46.40289764441099
1618993238936,46.78777552394992
1618993240313,46.592731766807994
1618993241089,47.54673695659278
1618993241876,48.57231004320748
1618993242665,49.50716851423296
1618993243449,50.55229008825035
1618993244798,50.54408176819372
1618993246089,50.61501674154944
1618993247473,50.46304257074891
1618993248863,50.38663343388273
1618993250259,50.18641954650626
1618993251649,49.955616516209425
1618993252895,49.96283597717228
1618993254049,50.511411201275784
1618993255217,50.94204794419332
1618993256350,51.54415772958977
1618993257432,52.430228473458946
1618993258601,51.499131123826054
1618993259979,51.36438136118445
1618993261435,50.71147352159564
1618993262782,50.32130151014236
1618993264138,50.36683001748899
1618993265481,49.19695805368967
1618993266691,48.35626380646884
1618993267863,47.62179910077345
1618993269231,46.54515846182837
1618993270038,47.544088326456354
1618993270812,48.53780862715056
1618993271549,49.84193461136922
1618993272310,51.178218550184965
1618993273113,52.50851556851222
1618993273908,53.909942093983375
1618993274656,55.14586517911318
1618993275971,54.7638602880827
1618993277216,54.54680085967592
1618993278570,54.00773633819165
1618993280038,53.097951295196275
1618993280840,53.95948883456749
1618993281587,55.53523377371515
1618993283020,55.59448971508914
1618993284409,55.48609005336925
1618993285693,55.67178070737132
1618993286870,56.10486635376679
1618993288024,56.25207341626852
1618993289124,56.44138479878295
1618993290170,57.3094885744222
1618993291179,56.76051829164461
1618993292255,55.96297638716823
1618993293329,55.097511575986964
1618993294428,54.255966901689874
1618993295573,53.42785789952925
1618993296708,52.631915976304214
1618993297846,51.74623491160645
1618993298966,52.16511981871556
