timestamp,value
1618992026339,71.71809052974568
1618992027137,71.57167643948087
1618992027935,74.4962424405714
1618992028705,74.44947405789465
1618992030151,71.3634607662723
1618992031610,71.35546181165691
1618992033018,68.68341000309762
1618992033754,68.81386966481051
1618992035167,66.32403302737872
1618992036613,63.995938391110116
1618992038013,61.917405586405046
1618992039431,59.98841023914179
1618992040898,57.90433219947001
1618992041666,57.82976180740367
1618992042448,57.76379594399955
1618992043196,57.83933082207812
1618992044690,55.87929587803115
1618992045468,55.80251267554077
1618992046239,55.78149903388768
1618992046979,55.960935536266646
1618992048450,54.27080480347276
1618992049199,54.39310687035254
1618992049946,54.518963285567146
1618992050717,54.542638161956724
1618992051490,56.23453023219894
1618992052309,57.97222434787044
1618992053130,59.66366399333677
1618992053902,59.56063016536462
1618992054669,61.53511970811431
1618992055441,63.73441952363726
1618992056210,65.94296461104861
1618992056954,68.48330034721035
1618992057695,71.44129478297563
1618992058463,71.44244742297268
1618992059256,71.39331248132991
1618992060080,71.07285601474479
1618992060882,74.11327633734163
1618992061655,74.13343115651426
1618992062452,74.01359765480514
1618992063274,73.63969081148485
1618992064047,76.9391650997792
1618992064810,76.86868247526635
1618992065591,76.70228251930695
1618992066385,76.53852968719087
1618992067147,76.64398962623596
1618992067898,76.97878291540592
1618992068666,77.24047586312369
1618992069472,77.07168694508387
1618992070252,77.00611024233247
1618992071026,77.0009564802144
1618992071824,76.85482884974002
1618992072630,76.54694681658471
1618992073412,76.35087119207188
1618992074183,76.33434826210542
1618992074975,76.341622909663
1618992075768,76.49108372121216
1618992076520,76.73246560850892
1618992077259,76.9016923370924
1618992078008,77.14462044846738
1618992078782,77.37818964182027
1618992079555,77.37567003300263
1618992080335,77.29126078019858
1618992081162,77.06449521182236
1618992082009,76.80549558682024
1618992082818,76.57660215960058
1618992083609,76.37721970499175
1618992084425,76.15058295492308
1618992085214,76.22602897834129
1618992085958,76.40145091448716
1618992086719,76.50346034714082
1618992087469,76.70182657090616
1618992088244,76.8547894719954
1618992089012,76.92216963594784
1618992089782,76.931721878747
1618992090581,76.8905266001495
1618992091390,76.81890851341716
1618992092167,76.69385570370608
1618992092926,76.5987792963202
1618992093711,76.41811483770417
1618992094510,76.29822381549867
1618992095272,76.35212454558557
1618992096012,76.54522808755705
1618992096755,76.95716993598892
1618992097534,77.29638377242296
1618992098339,77.3156122513804
1618992099125,77.33982455074096
1618992099920,77.442962451457
1618992100736,77.31024265365859
1618992101580,76.81732507222752
1618992102377,76.59861794390288
1618992103159,76.48222065617793
1618992103968,76.31843919633636
1618992104788,76.06635039545951
1618992105580,75.95886675447517
1618992106368,76.01459049388137
1618992107188,75.95726568275421
1618992108016,75.7119382836659
1618992108828,75.4591690436305
1618992109651,75.2823322717479
1618992110484,75.12358298924121
1618992111320,74.7753934120386
1618992112104,74.57141940979702
1618992112875,74.44166887303501
1618992113643,74.48954641639168
1618992114420,74.62017862702724
1618992115188,74.70919446056227
1618992115948,74.8661440136376
1618992116694,75.19650256053491
1618992117482,75.45834815513452
1618992118301,75.36072825593357
1618992119080,75.37197956213406
1618992119864,75.49146833170644
1618992120674,75.53987879248746
1618992121487,75.43577834730388
1618992122266,75.47735654144635
1618992123020,75.79467878404618
1618992124517,72.72312530539922
1618992125296,72.87143893218571
1618992126080,73.04250647795732
1618992126864,73.25740772802159
1618992127703,73.24883104021765
1618992128558,72.93058551955934
1618992129365,72.77358760263124
1618992130160,72.66825289351358
1618992130967,72.52148312959935
1618992131768,72.3734717210611
1618992132523,72.39843028136742
1618992133277,72.38881771325417
1618992134009,72.60927165942142
1618992134776,72.83493158463142
1618992135527,72.96386580072338
1618992136277,73.11270963927103
1618992137076,73.15923143301013
1618992137901,73.11121293878382
1618992138702,73.01353001555798
1618992139505,72.79256545264839
1618992140311,75.97796461744177
1618992141117,75.8482393032176
1618992141880,75.94606968330362
1618992142636,76.08371745043468
1618992143439,76.25604670733694
1618992144251,76.46981191676241
1618992145040,76.55476507798737
1618992145852,76.45137682877274
1618992146666,76.43801889471386
1618992147483,76.35978158302609
1618992148245,76.32890532391576
1618992149011,76.2394001026563
1618992149817,75.91444644324365
1618992150648,75.60420994482651
1618992151454,75.34328283240512
1618992152241,75.1678121406039
1618992153061,75.07292865813336
1618992153890,75.04909148696885
1618992154680,75.10196969935924
1618992155468,75.17646265048528
1618992156282,75.14045159286177
1618992157107,75.04314511824639
1618992157931,74.76404001695398
1618992158721,74.60505946644943
1618992159517,74.63822386404206
1618992160309,74.7260403250358
1618992161083,74.79850218492652
1618992161857,74.98080022884136
1618992162667,74.99239295913924
1618992163518,74.83828849075056
1618992164354,74.49047583398601
1618992165185,74.19395226546591
1618992166012,74.09401542637409
1618992166843,74.09851743686318
1618992167634,74.16256557979374
1618992168417,74.18111926080002
1618992169208,74.31462409000193
1618992169986,74.55375384674072
1618992170765,74.60548155071723
1618992171567,74.53610591083749
1618992172403,74.43541205180037
1618992173212,74.51450539724085
1618992174044,74.47081966431787
1618992174892,74.20661992309233
1618992175729,74.01785705474063
1618992176520,74.02456900120005
1618992177315,73.93035711073264
1618992178111,73.82467881496879
1618992178904,73.90566951330781
1618992179671,74.28802358199015
1618992180442,74.59231106187192
1618992181252,74.68770270709325
1618992182110,74.54316223027173
1618992182948,74.51251583623815
1618992183769,74.37396182471308
1618992184604,74.13557456707443
1618992185445,73.90475918318981
1618992186244,73.80843659953719
1618992187000,73.91471030853978
1618992187752,74.14549174402303
1618992188510,74.49912839123914
1618992189251,74.81746875669263
1618992189989,75.2595938578387
1618992190779,75.53366422113837
1618992191578,75.71325195799194
1618992192356,75.7774816983173
1618992193148,75.7899395928918
1618992193914,75.93529502887053
1618992194692,76.00796056707003
1618992195447,76.0647399679325
1618992196182,76.23912885613547
1618992196926,76.56281941051218
1618992197683,77.0572850278338
1618992198443,77.44424691859017
1618992199194,77.79601806267948
1618992199955,78.17180638693631
1618992200770,78.30386519624179
1618992201523,78.5411556310016
1618992202291,78.4763040799831
1618992203024,78.57278816128093
1618992203791,78.53441689013518
1618992204575,78.30583754357724
1618992205334,78.20299934570161
1618992206126,78.19269573358503
1618992206936,78.13491947219867
1618992207738,78.0125217898726
1618992208529,78.01864372519788
1618992209340,77.78943682975897
1618992210167,77.54790424850066
1618992210965,77.35955340845538
1618992211747,77.12264164585372
1618992212538,76.86040613038598
1618992213341,76.63717114830197
1618992214121,76.53813426434319
1618992214874,76.53305271214006
1618992215640,76.50646489191648
1618992216425,76.6550006272935
1618992217203,76.53047070257327
1618992217959,76.58878650811924
1618992218716,76.47336451832162
1618992219499,76.3938341517872
1618992220294,76.33953944101397
1618992221079,76.2136160960109
1618992221868,76.23241127690808
1618992222665,76.29299944973678
1618992223483,76.21425987855882
1618992224273,76.2177258421725
1618992225053,76.37295664154497
1618992225839,76.56744567874715
1618992226608,76.68659218651821
1618992227356,76.84919332042185
1618992228130,76.9658028110477
1618992228912,77.06793004980706
1618992229709,76.98272372959741
1618992230482,76.88057083823847
1618992231259,76.83045682237164
1618992232073,76.68429382967497
1618992232895,76.47254578252004
1618992233688,76.29028325628549
1618992234482,76.111976955323
1618992235287,76.00486507141328
1618992236088,75.98212115361875
1618992236868,76.001856472014
1618992237652,76.02064847513667
1618992238458,75.98207304295971
1618992239270,76.01307855691965
1618992240046,76.08189404353583
1618992240798,76.21568785610997
1618992241572,76.2783633943185
1618992242367,76.14420468679003
1618992243154,75.95805899814354
1618992243915,76.020393230688
1618992244696,76.02709276135275
1618992245495,76.01676220284415
1618992246307,75.82952284715078
1618992247088,75.81034147820687
1618992247868,75.97383258608843
1618992248664,76.09700491066646
1618992249472,76.0488177640913
1618992250250,76.10243895633114
1618992251000,76.37078883515066
1618992251754,76.59498036072787
1618992252512,76.70958333463852
1618992253264,76.86679170758484
1618992254713,73.82424281088768
1618992255467,74.08964662016923
1618992256246,74.10709747757342
1618992257008,74.02823140632908
1618992257771,74.07367169857353
1618992258577,74.02650519018333
1618992259400,73.86674562201031
1618992260204,73.66808561631251
1618992261015,73.53158346956076
1618992261838,73.42516332968674
1618992262670,73.33591638727721
1618992263477,73.21847997825414
1618992264264,73.18940393085641
1618992265060,73.19133685379596
1618992265884,73.10013658760526
1618992266730,72.81794209820671
1618992267565,72.4410602932377
1618992268364,72.24775779083701
1618992269152,72.11263272104696
1618992269974,71.81356910206823
1618992270806,74.56639177144942
1618992271645,74.17198567368088
1618992272451,74.01450610305113
1618992273236,73.94239271420967
1618992274032,73.79412558173603
1618992274856,73.71768094004784
1618992275683,73.69666526274506
1618992276471,73.76786457892129
1618992277266,73.84308651794483
1618992278083,73.87081533373457
1618992278902,73.92761525407636
1618992279694,73.99580752087218
1618992280485,73.97941695341936
1618992281292,73.92802059881079
1618992282110,73.95416789050542
1618992282906,74.18382950775565
1618992283713,74.30767078704777
1618992284571,74.04060041003675
1618992285450,73.63078945091694
1618992286280,73.59147751817169
1618992287093,73.67917190505122
1618992287929,73.6934338413514
1618992288790,73.44706734122919
1618992289624,73.2274964123103
1618992290436,73.15635469931733
1618992291258,73.16103340935172
1618992292110,73.05122613743664
1618992292949,72.82766897930922
1618992293762,72.74572809804954
1618992294575,72.7603809054446
1618992295401,72.73297234746943
1618992296249,72.48334211992518
1618992297047,72.45403319904165
1618992297815,72.62602764316082
1618992298600,72.77255931145507
1618992299410,72.70901174880672
1618992300231,72.65235274049209
1618992301059,72.7798021008013
1618992301945,72.74563548920067
1618992302870,72.33329300752254
1618992303767,71.96675855422384
1618992304607,71.96081158122902
1618992305452,72.01971611748411
1618992306298,71.9659298894716
1618992307117,71.93750788689857
1618992307894,72.13239468249604
1618992308686,72.3939403134887
1618992309508,72.46626680183235
1618992310358,72.30451915898036
1618992311178,72.2774050171001
1618992311965,72.44566982270196
1618992312769,72.63964730061394
1618992313606,72.48328082523658
1618992314441,72.17298420855093
1618992315252,72.06307825365708
1618992316056,72.0882735327064
1618992316881,72.0733793489829
1618992317686,72.17439499061574
1618992318449,72.71400792946253
1618992319236,73.3203812879788
1618992320062,73.64327907501094
1618992320867,73.79042277792293
1618992321667,74.00378418350428
1618992322487,74.12504190381287
1618992323299,74.15328534585862
1618992324084,74.11987741313474
1618992324883,74.08779403593257
1618992325710,74.06373715372195
1618992326567,74.03442909429678
1618992327367,74.12583403917588
1618992328128,74.24531493501432
1618992328916,74.31712778173636
1618992329709,74.50717693486288
1618992330477,74.83336947161477
1618992331241,75.04896945256782
1618992332005,75.24039777341083
1618992332814,75.31490574245392
1618992333648,75.17643910257358
1618992334421,75.13179055210216
1618992335207,75.1358785403478
1618992336032,75.14329826980045
1618992336832,75.16374892476699
1618992338334,71.99836131729654
1618992339128,72.11397180560044
1618992339909,72.24878870390204
1618992340656,72.41088980130635
1618992341406,72.62501670375376
1618992342167,72.9196613100491
1618992342944,73.27620028705942
1618992343704,73.45018727655457
1618992344463,73.459463231702
1618992345254,73.45009286540096
1618992346050,73.43119304454858
1618992346817,73.43849113276111
1618992347567,73.51042157246626
1618992348332,73.50065103201652
1618992349099,73.6843973227265
1618992349842,74.10280949686789
1618992350584,74.24222354469616
1618992351339,74.38840641808278
1618992352105,74.6599054656276
1618992352854,74.89753081565277
1618992354312,75.10521301528274
1618992355064,75.29855878558486
1618992355822,75.40745949441164
1618992356569,75.40866784932604
1618992358039,72.14416857783594
1618992358800,72.14410785544125
1618992359572,72.16596150499231
1618992360322,72.21000402209724
1618992361747,69.42928491365866
1618992363213,66.81737325203659
1618992364012,66.8298614756201
1618992364797,66.74140962973978
1618992365579,66.61883804199903
1618992366396,66.43050621706503
1618992367222,66.21584710760906
1618992368001,66.08316334816303
1618992368773,65.97207962632103
1618992369561,65.85480135832107
1618992370371,65.69415952644154
1618992371149,65.59299318155374
1618992371914,68.17407887445496
1618992373492,65.12012519561134
1618992374296,64.95751886528754
1618992375062,64.88951937468559
1618992375845,67.39389168723288
1618992376655,67.20775631274056
1618992377488,66.97798031919022
1618992378293,66.77491994104436
1618992379085,69.21284975776369
1618992379906,71.89017481773433
1618992380739,71.71659466420152
1618992381536,71.68808656909975
1618992382294,71.78859980284464
1618992383060,72.01029891295055
1618992383839,72.21650073621713
1618992384613,72.234389034916
1618992385387,72.22766738581355
1618992386184,72.18910513603232
1618992387037,72.0044916401886
1618992387912,71.58561663611539
1618992388735,71.33761172733278
1618992389530,74.81910144129648
1618992390363,74.68681019728875
1618992391203,74.34449529194887
1618992391992,74.31637757699015
1618992392736,74.62577969947453
1618992393472,75.07436585152374
1618992394209,75.39482858074696
1618992394972,75.53296056978041
1618992395732,75.8232269923107
1618992396473,76.2678432591589
1618992397258,76.32735658328218
1618992398078,76.02719873034573
1618992398907,75.72389201116711
1618992399692,75.69307894655684
1618992400481,75.62861559928426
1618992401274,75.53715890015621
1618992402095,75.41916558120674
1618992402896,75.66516776071128
1618992403684,76.08495722408601
1618992404472,76.25451061316616
1618992405261,76.284769008448
1618992406019,76.64826831441717
1618992407477,73.73666510816051
1618992408223,73.93175999976339
1618992408999,73.78499630060483
1618992409751,73.71538954959037
1618992411227,70.51705869352229
1618992412011,70.42609371283363
1618992412818,70.23229389733453
1618992413630,69.98884669403901
1618992414407,69.97305687445056
1618992415223,69.99022644812845
1618992416056,69.97429319403797
1618992416852,69.93189973327377
1618992417624,69.99968616807365
1618992418399,70.07084454345186
1618992419154,70.34213712074171
1618992419900,70.57336507095978
1618992421362,67.87900838271804
1618992422125,67.97652521337126
1618992422935,67.8957187392693
1618992423744,67.69893628610514
1618992424557,70.26061829695392
1618992425393,69.88903659419071
1618992426241,69.59685269112767
1618992427116,69.10322328529853
1618992427946,71.7718115731567
1618992428756,71.66310172595219
1618992429592,71.53703093541412
1618992430423,71.4100983162331
1618992431230,71.33170043182427
1618992432003,71.51338715708954
1618992432798,71.67696624851109
1618992433591,71.68879749629268
1618992434376,71.63352432223809
1618992435136,71.69978439874835
1618992435923,71.56259795130585
1618992436733,71.2857876931027
1618992437560,74.08261643996983
1618992438355,73.93689830768307
1618992439128,74.10466283212078
1618992439915,74.20815263132842
1618992440707,74.3112922325006
1618992441473,74.62657329141078
1618992442208,75.15474832397086
1618992443674,72.47349251813864
1618992444447,72.72384368785524
1618992445238,72.80976398350938
1618992446012,73.08288518806611
1618992446831,73.13435628388974
1618992447663,73.02539780737581
1618992448489,72.79115689351376
1618992449277,72.81792884207728
1618992450042,72.94538828009546
1618992450824,72.95647987902838
1618992451613,72.82819937010908
1618992452375,72.94098096015493
1618992453114,73.25607950677667
1618992453861,73.61670981526072
1618992454639,73.69070952976857
1618992455431,73.60795397736307
1618992456179,73.78124451252006
1618992456928,73.9681580640364
1618992457693,73.98481732901988
1618992458487,73.71526275743958
1618992459264,76.97367230999153
1618992460007,77.12333557398067
1618992460773,77.24172876257992
1618992461561,77.17485494021342
1618992462342,77.36494482170951
1618992463083,77.81806447797321
1618992464549,74.71654411077968
1618992465316,74.8220031309266
1618992466095,74.74605029412577
1618992466862,74.8204636212619
1618992467654,74.80662021133976
1618992468472,74.5445977343661
1618992469272,74.26583579699937
1618992470021,74.2550731065947
1618992470762,74.42914243300305
1618992471530,74.53845786887572
1618992472313,74.37809684052998
1618992473071,74.33624700448159
1618992474516,71.33111105219679
1618992475267,71.5125689001254
1618992476016,71.63402463350843
1618992477451,68.83980941928215
1618992478913,66.15106322950149
1618992479689,66.19644390496786
1618992480428,66.34882263184882
1618992481183,66.29793962578111
1618992481976,68.86081318767208
1618992482766,68.76690734702217
1618992483503,68.93644111831232
1618992484981,66.2275303097191
1618992485749,66.31813905554235
1618992486485,66.61981443161729
1618992487973,64.16969890775138
1618992488731,64.13962255114919
1618992489479,64.11446226719633
1618992490946,61.80563302719971
1618992491712,61.85828792032899
1618992492490,61.794378997903124
1618992493236,64.101916919749
1618992494694,61.77070036546639
1618992496181,59.50772236672126
1618992497622,59.455076388377655
1618992498370,61.67576127163076
1618992499124,61.74351968316515
1618992499887,61.66856323193847
1618992500638,61.68276758241587
1618992502079,59.691621146831174
1618992503534,57.78017522704839
1618992504951,55.94914222971307
1618992506398,56.0314545644203
1618992507159,56.04837647470284
1618992507934,55.9474075719687
1618992508683,57.94076773255474
1618992509419,58.0029245074536
1618992510168,58.00159562389558
1618992510916,60.08865781016607
1618992511657,60.16679740410355
1618992513091,58.24998690588849
1618992514503,56.42540277275371
1618992515883,56.632231281124405
1618992517374,56.622071594929004
1618992518182,58.365239258813936
1618992518985,58.20826237180252
1618992519779,58.09822434396944
1618992520590,57.96162582940067
1618992521398,57.80354338611134
1618992522157,59.76754012942063
1618992522937,61.847336652679886
1618992523764,63.78758563882056
1618992524605,65.90731915059087
1618992525395,65.80234554654102
1618992526155,65.85532178501732
1618992526950,65.71329453875968
1618992527702,65.63422571085138
1618992528438,65.67970144197052
1618992529906,63.192324576000416
1618992530653,63.17028276176694
1618992531403,65.53140068126446
1618992532139,68.04277894874346
1618992533600,67.73166048173128
1618992534382,70.5546056488489
1618992535187,70.56681204018018
1618992535956,70.71146041263059
1618992536700,70.91645751728946
1618992537463,71.12065708375086
1618992538253,71.19437583416091
1618992539027,71.13041221674301
1618992540452,68.5104894697663
1618992541904,66.15119450865708
1618992542664,66.45063197042913
1618992544161,63.94628512049878
1618992544938,63.89053421803976
1618992545704,63.969437961319656
1618992546484,63.892432404602076
1618992547938,61.53922525602616
1618992548990,62.902889732545084
1618992550059,61.837775398397405
1618992551421,59.9472464231477
1618992552369,59.31809988505652
1618992553265,61.02241841607776
1618992554516,59.60070507634108
1618992555807,58.209372029048325
1618992557112,56.721333900483685
1618992558467,55.12991939776072
1618992559243,55.09732437291671
1618992560586,53.732044206069155
1618992561911,52.43884319911919
