timestamp,value
1620700547493,58.58279147098997
1620700548497,57.98108415447031
1620700549713,56.6808301039824
1620700551035,57.054770011746626
1620700552392,55.45871078185275
1620700553725,55.69488300941731
1620700555446,54.95532887398317
1620700556436,54.356114902122975
1620700557799,52.905107635441475
1620700559129,51.58323787210375
1620700560496,50.24042345308374
1620700561786,49.14444839329188
1620700563072,48.10752995094636
1620700564339,47.15374123677191
1620700565664,47.40026155464326
1620700567001,47.59932789749009
1620700568308,47.78364521121267
1620700569606,48.088789216858444
1620700570931,47.05554071345375
1620700572261,46.31972421236203
1620700573653,45.87263455370725
1620700575036,45.21634097461864
1620700576387,44.98822377007538
1620700577740,44.93601112016488
1620700579086,44.954774373111285
1620700580525,44.77610770773306
1620700581865,45.422488189396034
1620700583282,44.69911183982253
1620700584740,44.54087709301293
1620700586010,44.64137906148197
1620700587180,44.972081893711426
1620700588147,45.52237551840029
1620700589549,45.32109029400131
1620700590837,45.286493110962056
1620700592197,45.22684201012809
1620700593519,45.25139582644114
1620700594905,45.11741412248002
1620700596315,44.92997270616482
1620700597691,44.843218578665045
1620700599047,44.79964757610574
1620700600443,44.79214262206409
1620700601841,44.768044450489796
1620700603156,44.82725592791897
1620700604585,44.70052381191315
1620700606002,44.582547968406736
1620700607414,44.62758614072462
1620700608858,44.45622534416064
1620700610290,44.431185849467056
1620700612303,43.5369189807688
1620700613704,43.329601089999436
1620700615197,42.830433492885014
1620700615962,43.14101691142242
1620700616730,44.155979968934055
1620700618149,43.936544499151964
1620700619571,43.83760534450549
1620700620986,43.689609354819154
1620700622375,43.68456280016301
1620700623723,43.78269495549289
1620700625150,43.70106982403982
1620700625883,44.71590143288753
1620700626623,45.8364971657193
1620700628042,45.80006705893151
1620700629448,45.64165896780629
1620700630900,45.60148761172888
1620700632342,45.558048508843314
1620700633755,45.557214850558665
1620700635136,45.6660988467826
1620700635945,46.77570942087345
1620700637354,47.902679001233935
1620700638806,47.8060756104079
1620700639541,49.29312427462087
1620700640286,49.33490991260446
1620700641710,48.02935938680598
1620700643161,47.979443687146684
1620700644637,47.87358119161893
1620700645407,49.13839710794327
1620700646770,49.191041032460916
1620700648262,48.90208502597372
1620700649729,48.821487931674
1620700651163,47.46687484583155
1620700652608,46.18124761950099
1620700653368,47.38229034777734
1620700654109,48.6602238637929
1620700655568,48.645772631685624
1620700657026,48.61407156177686
1620700657761,49.98710749185938
1620700659165,49.93755101172856
1620700659900,50.092905642331345
1620700660649,51.513419181304926
1620700661403,53.102772894043625
1620700662156,53.06245304802008
1620700663447,51.81058791676058
1620700664262,53.2109481525824
1620700665679,53.287733243738856
1620700667055,53.52916920409796
1620700668501,51.96037622949618
1620700669260,53.35697877490507
1620700670031,55.12360089410478
1620700670797,56.98312530218869
1620700672218,56.99440571410716
1620700673600,57.164519773731435
1620700674965,55.56282245247348
1620700676310,54.05171181320882
1620700677616,54.426357306042256
1620700678968,54.68951169102252
1620700680424,52.94940075839425
1620700681863,52.86834100115191
1620700683263,51.363974626538926
1620700685417,48.4479047552951
1620700686864,47.13209823146228
1620700688221,46.03962361840364
1620700689677,45.750422447963274
1620700690451,45.820771441562684
1620700691224,46.974792073912056
1620700691980,48.1802094008261
1620700693412,48.17224274426668
1620700694874,46.8490884280058
1620700695608,46.917684096195345
1620700696349,46.94594522589661
1620700697083,48.26097799504511
1620700698508,48.17580507491157
1620700699977,47.97654330844564
1620700700744,49.112058082539185
1620700701492,50.26107066048952
1620700702278,51.480722871718285
1620700703674,51.6137667851733
1620700705119,51.59949845287502
1620700705922,52.957822360222494
1620700706698,56.390524305467274
1620700707491,58.17481463928486
1620700708276,59.833924957886836
1620700709039,61.9760954068276
1620700709817,61.963115422826014
1620700710632,61.83215476093671
1620700711465,61.52596703438689
1620700712824,61.816056844397444
1620700714208,62.067528332921476
1620700715630,59.93311464405721
1620700716372,59.93298892508288
1620700717148,59.80509817530159
1620700718563,59.836959245296306
1620700719319,62.041291892025214
1620700720098,62.00133809221159
1620700720874,61.911080520158364
1620700721662,61.90664416153792
1620700722414,64.03203309175471
1620700723832,64.12920238663234
1620700725230,62.15082243665408
1620700726651,60.14068710935489
1620700728041,58.39380539047816
1620700729448,56.67888915423011
1620700730189,56.73832370216051
1620700730942,56.80541673731837
1620700731715,56.916772879688956
1620700732472,57.123149656225756
1620700733210,58.86401573552865
1620700734583,58.89557833592901
1620700735986,58.949916298487665
1620700736800,58.7414871347332
1620700738126,57.202562998970194
1620700739357,57.709626129148944
1620700740296,57.20434364022133
1620700741045,57.289201042892614
1620700741798,57.351151061498086
1620700742553,57.44101430108929
1620700743305,57.442171888519155
1620700744766,57.322631834887936
1620700745841,58.22139461587947
1620700746893,59.28676246155871
1620700748237,59.41912163782471
1620700749707,59.232395539721615
1620700750449,59.22971167667365
1620700751202,59.23167046341674
1620700752575,57.526619963999856
1620700753840,56.1593833250436
1620700754592,56.122446832049256
1620700756010,56.00328627283853
1620700756753,57.783614136818976
1620700757522,57.91079565813811
1620700758301,59.47941239098916
1620700759076,60.852510199007526
1620700759848,61.37627708688542
1620700760604,61.350615392685334
1620700761352,61.36812878960986
1620700762089,61.42545130814716
1620700763544,59.29200601458103
1620700764990,59.33363580302338
1620700766460,58.19889832395413
1620700767227,59.01130395950605
1620700768020,60.65616934151103
1620700768831,62.75045274451659
1620700769639,62.53134383609788
1620700770443,62.36446447868224
1620700771235,64.30872302811777
1620700772008,66.05190689103021
1620700772765,66.03153501033252
1620700774161,66.11334571158814
1620700774895,66.14680058674415
1620700776343,63.759238315136635
1620700777112,63.79464927695407
1620700777869,63.85663759149791
1620700778632,63.88487434563925
1620700779397,63.85412312724507
1620700780135,63.889945735074555
1620700781527,61.73267570199826
1620700782913,61.95447471614658
1620700783655,64.29229506134452
1620700784425,66.79645217323922
1620700785910,64.28322331081104
1620700786664,64.36502348840621
1620700787472,64.37374192920915
1620700788245,64.49533102174894
1620700789041,64.52565523920902
1620700789795,64.65510274234622
1620700790541,64.74680169684113
1620700791310,64.7492856400167
1620700792048,67.08574760496884
1620700792799,67.02253023791258
1620700793556,69.71311021846044
1620700794298,69.8215373143169
1620700795732,67.17716836143467
1620700797186,64.67369641002776
1620700797943,64.70458286923525
1620700798695,64.65395318515004
1620700799433,67.01903787469233
1620700800893,66.73900062017213
1620700801642,66.71526873994377
1620700802401,66.75609758539858
1620700803168,69.46906415213358
1620700803935,69.48176274537275
1620700804686,69.71036852270137
1620700806111,67.16661389423139
1620700806848,67.38688269403774
1620700808297,64.85754823226158
1620700809033,64.89407070446948
1620700810459,62.62778024287679
1620700811203,62.64702146563649
1620700812917,59.65260114670199
1620700814101,58.40723755231044
1620700815531,56.515353714528125
1620700816293,58.36155763106552
1620700817623,58.71749540131922
1620700818915,57.21977141464251
1620700820172,55.87318946421614
1620700821503,54.37899549669416
1620700823005,54.270736079420516
1620700823773,54.222801763560426
1620700825165,52.71479896816054
1620700826609,51.19218056505925
1620700827404,51.130103103852825
1620700828173,51.09114942057951
1620700828945,52.55437933015233
1620700829684,52.54871101296176
1620700831105,52.61341808770395
1620700831844,52.605518450399146
1620700832611,54.171383903253265
1620700833814,53.0714833519401
1620700834904,54.57317275601708
1620700836220,54.251534527258904
1620700836973,55.96725169545797
1620700838402,54.275935054501524
1620700839817,54.06825062310272
1620700841267,53.686725608129606
1620700842034,54.889491900781
1620700842803,56.330813593451495
1620700843560,58.379331381517765
1620700844991,56.55465106864258
1620700846421,56.45597875636791
1620700847859,56.470513827087686
1620700849234,54.97105796702645
1620700850629,53.43739137180288
1620700852117,51.7865876449372
1620700852890,51.711633523100694
1620700853667,53.187337637341344
1620700854409,53.18073534952734
1620700855844,51.65396646288748
1620700856587,52.69454430548504
1620700857347,53.470474406090034
1620700858110,54.82048893845882
1620700858874,54.79075024380732
1620700859634,56.520823943615326
1620700861043,56.53516336400805
1620700862439,56.67735790561302
1620700863942,54.774876626437276
1620700865487,52.8999417439391
1620700866962,51.276934545206664
1620700868446,51.16266298932186
1620700869793,51.34332756876129
1620700871154,51.51260762486188
1620700872606,51.34282231408699
1620700873427,52.6378008277733
1620700874176,54.398065459730724
1620700874943,54.41316377768281
1620700876330,52.949368049292254
1620700877713,51.49313130975906
1620700879124,51.54397618221583
1620700880490,50.2024686478261
1620700881832,49.009031261758345
1620700883240,47.751178160839466
1620700884711,46.44522024304093
1620700885461,46.46232201881574
1620700886877,46.459443867293416
1620700888281,46.43615475668941
1620700889728,46.537605992306254
1620700891134,46.78912915409971
1620700892496,46.99611044524587
1620700893950,47.05119201058213
1620700894715,48.150232577660866
1620700895482,49.32657509927897
1620700896231,50.79358414386839
1620700897622,49.59677409355483
1620700899000,48.357298538860036
1620700900423,47.095670812877955
1620700901191,48.26740528668059
1620700901958,49.49577009148801
1620700902702,50.89303492767784
1620700903440,52.28698478474889
1620700904197,53.65524333122343
1620700904956,55.261324818422814
1620700905714,57.135448579691314
1620700906459,57.147886156838936
1620700907194,59.04925096271201
1620700908627,58.979254882634514
1620700910021,59.13338545284229
1620700911415,59.16963406490502
1620700912869,58.901591344293415
1620700914313,58.930161227519186
1620700915059,58.98566771161419
1620700915820,59.001917660660375
1620700916592,58.93774440438914
1620700917379,60.73610027773095
1620700918149,62.63844401094016
1620700918913,64.90295061794089
1620700920372,62.561443809683354
1620700921892,60.19606762165382
1620700923366,58.07431663830622
1620700924121,58.02455125141788
1620700925569,56.14873575506569
1620700927052,54.307457051965855
1620700927802,54.32864866450675
1620700928564,54.286571755040555
1620700929324,54.225602365103775
1620700930773,54.18597493573546
1620700931529,55.7918910391806
1620700932304,57.445163684488854
1620700933097,59.32510279927963
1620700933888,61.30398166806595
1620700934669,61.191377767724354
1620700935425,61.209474737013615
1620700936839,59.2662629218356
1620700938307,57.34195934799141
1620700939081,57.32831150064199
1620700939873,57.24950206052887
1620700940623,59.258085802844064
1620700942085,59.427961301502194
1620700942855,61.57027916426347
1620700943650,61.44879986141254
1620700944455,63.539159793097504
1620700945247,65.9535983458838
1620700946715,63.44664039729012
1620700947482,63.43039505242918
1620700948255,63.38668731664085
1620700949028,65.73622517943927
1620700949791,65.71004882420917
1620700950533,65.82909023703559
1620700951951,63.6475250978103
1620700952689,63.82408041068249
1620700953477,63.80194854340936
1620700954230,63.823106176970434
1620700954985,66.13295170211336
1620700956332,66.57160980471112
1620700957685,64.502150098546
1620700959084,62.4679558907517
1620700960523,60.30060151357525
1620700961903,60.54991737711484
1620700963331,58.60783820251326
1620700964068,58.770889133027524
1620700964803,58.973683927297415
1620700965540,59.13049494146004
1620700966938,59.33857075338324
1620700968360,57.50022101647457
1620700969774,55.76436211146182
1620700971151,54.24169366433971
1620700972540,52.750791108010176
1620700973968,51.20537014612571
1620700975346,51.292535564000104
1620700976699,49.98078447090359
1620700978118,48.69962267532352
1620700979596,47.301342147990965
1620700980333,47.34107099468209
1620700981713,47.280295558583546
1620700983135,47.15178095420116
1620700984604,47.021622971692906
1620700985371,48.29345615217783
1620700986138,49.516455308428064
1620700986871,50.976683519841444
1620700987612,50.967973127306095
1620700988368,50.9227412899834
1620700989149,50.830534935890164
1620700989923,52.208702198691185
1620700990699,53.69876896914595
1620700991471,55.30776142112193
1620700992911,55.147649329149544
1620700993664,56.80710550849977
1620700995030,56.976964640522965
1620700996479,56.782582472797294
1620700997223,58.46882997439651
1620700997988,60.39438438921927
1620700998773,62.576953356546866
1620700999560,62.41064550862569
1620701000300,64.55855372054441
1620701001038,67.02840406822193
1620701001805,69.76323578630749
1620701002552,69.84500636433528
1620701003306,69.89584296221382
1620701004078,69.73776681887509
1620701004825,69.71542280602937
1620701005561,69.79593239775356
1620701006991,67.25525476514686
1620701007730,67.38636805221277
1620701008491,67.4439924010855
1620701009278,67.39116285080118
1620701010065,69.95236418879647
1620701010811,69.98264663638903
1620701011552,72.62645400430506
1620701012317,75.76993620676491
1620701013088,75.63622831627515
1620701013873,75.54356427378644
1620701014662,75.52117160524794
1620701016123,72.45161409517175
1620701016879,72.38527642459202
1620701017628,72.33112610883609
1620701018393,72.33760539137003
1620701019151,72.29476164808686
1620701020512,69.74532610415268
1620701021835,67.57805434221659
1620701023248,65.13616579759639
1620701024035,64.95703714497816
1620701024828,67.27557792244272
1620701025629,67.04611414969682
1620701026420,66.92995423329737
1620701027218,66.92311604736003
1620701027988,66.95642057671225
1620701028765,66.83616317648217
1620701029542,66.70693912819466
1620701030316,66.66804076906267
1620701031100,66.61959991932365
1620701031894,66.58660736907328
1620701032691,66.55843894724728
1620701033493,69.08298610977182
1620701034285,68.94082929268272
1620701035024,68.98213638596165
1620701035771,69.05609979435103
1620701036513,69.11590391507032
1620701037305,71.47004106906802
1620701038145,73.57809864505317
1620701039027,76.04848039926468
1620701039891,75.67933078281358
1620701040720,75.51020356795783
1620701041565,75.30357223203387
1620701042414,75.03110508250063
1620701043244,74.83371014185103
1620701044076,74.59703613542598
1620701044872,74.50468355066972
1620701045637,74.55483772362969
1620701046407,74.57787060789163
1620701047199,74.54125448458798
1620701047998,74.51586113571874
1620701048838,74.31910692215625
1620701049662,74.21766234402386
1620701050487,74.0885076129644
1620701051293,73.75820229625248
1620701052187,73.09814613964133
1620701053588,70.27920111055182
1620701055016,67.74059596821499
1620701056444,65.5755621738301
1620701057787,63.96794438371061
1620701059201,62.14258304967854
1620701060675,60.13348430846796
1620701061439,60.376006675573784
1620701062212,60.61316275442377
1620701062973,60.823594039814964
1620701063723,61.07096486831694
1620701065134,59.22298262338472
1620701066580,57.297535933791686
1620701068074,55.38409562617952
1620701069482,53.85169297606109
1620701070869,52.467794284097124
1620701071618,52.676631329426485
1620701073053,51.302403427821254
1620701073790,51.48451082056393
1620701074531,51.6391225738489
1620701075269,51.98758727037119
1620701076667,51.99414667228157
1620701078073,52.04641516653358
1620701079475,52.10297371209576
1620701080920,51.87365031246097
1620701082330,51.88281211932333
1620701083706,52.10512295397839
1620701085126,50.661268877338564
1620701085865,50.73131944932674
1620701086616,50.75686737243235
1620701087366,50.7564551742461
1620701088122,52.20111436328884
1620701088873,53.8306592429999
1620701090269,54.06602894884425
1620701091020,55.71683774444288
1620701092370,55.812588026916295
1620701093801,54.09643202925305
1620701095165,54.26789400141694
1620701096479,52.8898484282724
1620701097864,51.43037736953659
1620701098600,51.434704649710206
1620701099349,52.90619924862615
1620701100084,54.51832424482586
1620701101479,54.5372243825024
1620701102915,54.57332414985559
1620701104346,54.51522832931093
1620701105746,54.44591009809656
1620701107099,54.61261565074699
1620701108506,53.00218510341786
1620701109915,51.50271178945154
1620701110707,51.411449946840705
1620701112040,50.18932039017671
1620701113429,48.8663177177214
1620701114891,48.73725627361194
1620701115664,48.693214125852926
1620701116431,49.873510387343146
1620701117856,49.885998023017855
1620701119288,49.74509782788034
1620701120745,49.449788684569846
1620701122166,49.378058662121454
1620701123523,48.14761094563717
1620701124929,46.911460833445425
1620701126369,45.652950757547956
1620701127736,45.70089056563761
1620701129102,45.81242028161655
1620701130501,45.87393574858328
1620701131946,45.80219452054603
1620701133310,45.782387233306665
1620701134689,45.83230783544555
1620701136061,45.8965220074588
1620701137411,44.93676834983564
1620701138787,44.851013902020426
1620701140239,44.76013268693746
1620701140974,46.00584887692053
1620701142393,44.894377559096384
1620701143130,44.94429660059682
1620701143890,46.093283125456445
1620701144670,47.27787024541246
1620701145451,48.57257153029609
1620701146881,48.5541936823549
1620701148285,48.46114070740664
1620701149686,48.470532541701715
1620701151070,48.58917484203165
1620701152446,48.564415638551104
1620701153920,48.35336445329011
1620701154699,49.59597055883979
1620701155472,51.00730067494562
1620701156941,50.7803995274883
1620701157679,52.19537896041688
1620701158422,53.66387177769119
1620701159165,55.16125980594838
1620701160558,55.11992948323668
1620701161963,55.23902825158654
1620701163444,53.40475566678978
1620701164188,55.07883295663995
1620701165576,53.462098579832904
1620701167048,51.81902705717545
1620701167811,51.856187925442164
1620701168560,51.92793942536645
1620701169979,51.95279966926829
1620701171444,51.81535081583262
1620701172195,53.313365700766425
1620701172961,54.80595221870929
1620701174389,54.68653337279879
1620701175841,54.74041502175504
1620701177285,53.12656709537911
1620701178661,51.75251258448591
1620701180057,51.91264348005738
1620701180799,51.90316582062328
1620701181550,51.88516981756672
1620701182966,50.419723187316244
1620701183733,51.79737316528314
1620701184484,53.28189617480827
1620701185249,55.03529872334597
1620701186672,53.35240741178756
1620701188086,53.31124115499865
1620701189555,53.31622238036402
1620701190993,51.76394261794407
1620701192464,50.199799384868385
1620701193229,51.61258134089052
1620701194022,53.149356246139014
1620701194813,53.053934806971014
1620701195560,53.10082488148898
1620701196311,54.739039157434995
1620701197091,56.47112770065516
1620701197875,58.278978068406104
1620701198662,59.991049335439335
1620701199439,61.913635946892114
1620701200907,59.678028086767874
1620701202474,57.35266685360443
1620701204475,55.790583721070306
1620701205772,54.42976408189833
1620701207145,52.9551301473823
1620701208555,51.48782214321329
1620701209975,51.49618297417755
1620701211330,51.62601068133568
1620701212748,51.74035808725737
1620701213507,53.30111103500907
1620701214276,55.014369524093134
1620701215050,54.99204746253647
1620701215810,55.0761659773503
1620701217237,53.51564567808332
1620701218725,51.80137556826097
1620701219509,51.73210289101392
1620701220271,51.76839767965431
1620701221007,51.87678761465929
1620701222382,50.58957085878831
1620701223680,49.50282048507553
1620701225069,49.66446891734719
1620701226524,49.894373611065454
1620701227286,52.6042247504981
1620701228685,52.372169027858725
1620701230075,52.33353944025612
1620701231501,52.29570747245518
1620701232234,53.911923282254925
1620701232975,55.43846745900557
1620701233716,57.229390706814996
1620701234450,57.298326602371525
1620701235847,55.63125269203095
1620701237217,54.13573317038477
1620701238696,52.43350906715189
1620701239470,53.972443829078415
1620701240225,55.813519960100734
1620701240985,55.873910092080656
1620701242403,54.220731513577014
1620701243815,52.61380102091813
1620701245278,52.41098616380541
1620701246047,53.6504983885403
1620701246827,55.15384406436405
1620701247565,57.03156140866238
1620701248982,55.31108822768467
1620701250423,55.2025175660162
1620701251155,56.9249700432345
1620701251907,58.80558794218849
1620701252681,58.74237566796823
1620701253419,58.69755697343831
1620701254838,56.81143277060515
1620701256336,54.82997225603412
1620701257113,56.42935364689764
1620701257917,57.970221953004064
1620701258713,59.95017840423703
1620701259490,59.941230620438375
1620701260237,59.965247141019375
1620701261656,58.052113575864276
1620701262405,59.993037807962395
1620701263139,62.09694875775299
1620701264540,62.299615881334844
1620701265929,60.35441622065192
1620701267228,58.819259248875035
1620701268512,57.28885095942579
1620701269780,57.69633811438874
1620701271066,58.13039849744528
1620701272353,56.60903395268326
1620701273623,55.26116958331302
1620701274889,53.98828319283997
1620701276210,52.65324067533047
1620701277656,52.590523739822586
1620701278409,54.36563033844985
1620701279151,54.450268051863254
1620701280595,52.91578078667704
1620701281982,51.57194511971467
1620701283370,50.2704887430969
1620701284807,48.83966321145039
1620701285560,50.20019839118392
1620701286315,50.18984308145566
1620701287064,50.157186352380045
1620701287814,51.559897433614694
1620701289212,51.54114907899399
1620701290639,51.25879862617879
1620701292126,50.81779812070706
1620701292901,51.901504611643176
1620701293682,53.060202990650026
1620701295128,52.69035874011218
1620701296588,52.25114022873621
1620701297344,53.439599758773575
1620701298110,54.79259655220333
1620701299538,54.83907291256872
1620701300987,53.148183957557315
1620701302450,51.503454508372194
1620701303777,51.76406096305207
1620701305123,51.85454092591553
1620701306570,51.703336252561336
1620701307318,53.30790427837271
1620701308768,51.70733304779412
1620701310123,50.403287201584675
1620701311535,49.05542351243623
1620701313025,47.598127108894516
1620701313799,48.80667476830357
1620701314570,50.14327605411195
1620701315326,51.72407550542626
1620701316751,50.31489155589504
1620701318210,48.9248977948693
1620701318976,50.31880105392715
1620701319767,51.77203822415888
1620701320560,51.68885583099396
1620701321331,51.67742999872218
1620701322772,51.649508843299785
1620701324229,51.62932246065714
1620701324964,53.30242740142739
1620701325741,54.63339941850028
1620701326535,56.04507817727952
1620701327335,57.78988925434565
1620701328131,57.65600104318925
1620701328888,59.63957123323034
1620701330291,59.49769664583719
1620701331679,59.54538291055451
1620701333124,59.70462034652882
1620701334535,57.8701722230793
1620701335958,56.106479625119
1620701336749,56.01352315818422
1620701337585,57.59809880195456
1620701338453,59.27657680140026
1620701339342,58.91982288701231
1620701340210,58.69994301213846
1620701341010,58.678332179896806
1620701341763,58.73222096138292
1620701343180,58.798928977508915
1620701344592,58.93223627701458
1620701345329,58.92337275617967
1620701346796,56.99359092821627
1620701347561,57.070535186553215
1620701348297,57.24728436772744
1620701349720,55.583862152021865
1620701351094,54.0404709086636
1620701352510,54.00809122218635
1620701353263,55.59736683457676
1620701354030,57.40001742090524
1620701354779,59.27510107886581
1620701355518,61.35048992967482
1620701356930,59.46073866886445
1620701358322,57.86866523174905
1620701359725,56.41364363971439
1620701361186,54.93741552513963
1620701361952,55.19238455477912
1620701362713,55.291525721272144
1620701363473,55.275554165068364
1620701364226,57.017985040476255
1620701365638,57.01647605108462
1620701367029,55.299875556846665
1620701368478,55.347288321874416
1620701369800,53.96695819017853
1620701371141,52.5292942741842
1620701372501,52.674931802424
1620701373785,52.88395136897596
1620701375149,53.0070853245776
1620701376589,51.443564287929256
1620701378054,49.952740544716306
1620701379498,48.54603610490083
1620701380902,47.27381557326344
1620701382196,47.4958956619663
1620701383462,47.73196401996363
1620701384931,47.60620905568466
1620701385750,48.85110744239301
1620701386576,48.73250015919297
1620701387396,48.618107279256954
1620701388231,48.46805797458282
1620701389065,48.311998888823936
1620701389860,49.54153029328347
1620701390607,50.895549608316436
1620701391350,52.463890088150265
1620701392807,52.15096888460232
1620701393556,53.534869513439816
1620701395066,53.180318194684325
1620701396396,53.071361300319246
1620701397157,54.5248540642283
1620701398595,54.533028451289624
1620701399994,54.69035913791567
1620701401452,54.66108759165991
1620701402201,56.338443433597156
1620701402977,57.745036128422505
1620701403753,59.14090152221794
1620701404532,61.22405872856635
1620701405295,61.39595051752426
1620701406047,61.63160111041632
1620701406787,61.88428999225812
1620701407520,62.212561763464734
1620701408979,60.26931645404083
1620701410404,58.41228402544731
1620701411765,56.71391361024745
1620701413072,55.24344543425357
1620701414540,55.215464084595204
1620701415319,55.140153634253124
1620701416121,56.9935719799841
1620701416905,58.5106979497362
1620701417642,58.58123569794051
1620701418377,60.658606890170724
1620701419140,62.67695794459724
1620701419905,65.02762373456245
1620701420678,64.9456080532554
1620701421417,65.07381865531887
1620701422836,62.88284517205942
1620701424271,60.791680942157384
1620701425727,58.732402059314964
1620701427067,57.08790052395271
1620701428389,55.54999284099482
1620701429699,54.104339406981346
1620701430984,54.52354103864269
1620701432295,54.816935418112934
1620701433623,54.901726824013714
1620701434986,54.761158749769734
1620701436362,54.99129144160911
1620701437727,53.55199445701166
1620701439067,52.29565277569204
1620701440368,51.14582852065289
1620701441675,49.929277259148975
1620701442996,48.742522135502576
1620701444346,47.60689652545821
1620701445660,46.592994083272046
1620701446975,45.63279336809483
1620701448347,44.56049648116895
1620701449635,44.77808095026252
1620701450931,45.01137268595126
1620701452174,45.37420561109516
1620701453441,45.49920533742088
1620701454805,45.426327789794556
1620701456251,45.19435096223098
1620701457650,45.0024430701281
1620701458997,44.94017451617955
1620701460384,44.840872634770086
1620701461809,44.739032748077165
1620701463163,44.77420814574189
1620701464482,44.85262492698832
1620701465766,44.946341933341465
1620701467092,44.9038003433345
1620701468477,44.773549935828214
1620701469911,44.584149703171704
1620701470648,45.62460772342481
1620701471383,46.65188372142386
1620701472811,46.45203966260951
1620701474179,46.4536544664144
1620701475461,46.46343380031268
1620701476742,46.491443772802356
1620701478125,46.240691507962524
1620701478876,47.17966638157045
1620701479641,48.31810903536965
1620701480414,49.662989025762364
1620701481205,50.94271402657952
1620701481990,52.19079336138331
1620701482756,53.63821773075651
1620701483489,55.347492544116456
1620701484883,55.248341525357766
1620701486323,54.94144501036662
1620701487076,56.31090111941864
1620701487831,57.86077713388386
1620701488591,59.659027775602965
1620701489353,61.72447377957218
1620701490798,59.55296861871219
1620701491547,59.51230558259647
1620701492312,61.528282551819814
1620701493100,63.450796973735336
1620701493860,65.21981932479571
1620701494618,67.1301706594387
1620701495377,69.55583037836989
1620701496809,66.92340716435152
1620701498288,64.37371084938421
1620701499030,64.45946015631864
1620701500413,62.476096385205885
1620701501772,60.66000511970446
1620701503202,58.691792231642445
1620701503950,58.68244128931773
1620701504699,60.55610182205752
1620701505448,62.745547510588665
1620701506195,62.7664205717361
1620701507598,60.706606689888275
1620701508935,58.985560433115076
1620701510254,57.41199088661186
1620701511618,57.6386843182575
1620701513061,55.77714057559235
1620701513808,55.82289813414306
1620701514563,55.90563873589899
1620701515304,55.96066152030659
1620701516728,54.274120945808
1620701518125,52.752006224736576
1620701519522,52.828948361860114
1620701520910,53.031667993121125
1620701522266,51.64588328727586
1620701523679,51.577683986625026
1620701525131,51.3717784597192
1620701526558,51.37745746406774
1620701527941,49.99371953898289
1620701529356,48.66852053172798
1620701530805,47.32303825894142
1620701532222,46.10612631311203
1620701533658,46.04690752422589
1620701534399,47.12588088580168
1620701535158,48.18586637866515
1620701536564,48.10225963170585
1620701537948,48.217999361272106
1620701539392,46.90399986366567
1620701540897,45.55686721369082
1620701541631,45.58157647376826
1620701543031,45.62205790001821
1620701544437,45.60694000806117
1620701545814,45.641362119289724
1620701546552,46.79742777938222
1620701547992,46.6445413467515
1620701549382,46.686152688696254
1620701550722,46.89268183819457
1620701552129,46.929133488747034
1620701552862,48.152769476440845
1620701554312,48.083588510266175
1620701555683,48.23547982424442
1620701557028,48.374917218423015
1620701558325,48.6496972468528
1620701559638,47.54497368207402
1620701560913,46.59198463334219
1620701562211,46.79008878302362
1620701563518,46.92908026550449
1620701564833,47.167805205769056
1620701566099,47.61420117357091
1620701567361,46.6364780971198
1620701568645,46.85012551148635
1620701569907,47.11320325142342
1620701571217,47.23734363947199
1620701572566,46.12988345361819
