timestamp,value
1620699166524,73.03919879894342
1620699167336,73.2305843141553
1620699168139,73.4415608975587
1620699168983,73.18514114760765
1620699169774,73.25158537795804
1620699170533,73.64433664004588
1620699171307,73.94526325129928
1620699172130,73.83230063479166
1620699172879,74.08866313798829
1620699174412,71.02475763245363
1620699175227,70.93211418368011
1620699176608,68.56616269013396
1620699177889,66.84997300653797
1620699179230,65.00018470885823
1620699180574,63.15546158958507
1620699181315,63.44654646965176
1620699182680,61.773520872938086
1620699184074,59.92982816420254
1620699184841,60.04863639304656
1620699186242,58.41402703819804
1620699187630,56.85517806402149
1620699189000,55.42271295750238
1620699190381,53.95037455721915
1620699191131,54.180763824154155
1620699192511,52.77714665106574
1620699193259,52.803182342193395
1620699194021,52.83156961008364
1620699195449,51.46100583023178
1620699196265,51.313850519075935
1620699197111,52.864598212973924
1620699197867,53.001911204749774
1620699198605,54.55179247188901
1620699200123,53.97188065018127
1620699200874,55.44124904698803
1620699201640,56.963276345372904
1620699202468,56.72810178269477
1620699203331,58.10725776597448
1620699204165,59.72903029471349
1620699204965,59.63123151959807
1620699205771,61.44797860217524
1620699206575,63.34110387919922
1620699207357,65.32736850907264
1620699208181,67.41634011408755
1620699209052,66.96019411760274
1620699209909,68.97509447288775
1620699210736,68.6619367747154
1620699211574,68.36295671155035
1620699212438,70.63693322690702
1620699213258,70.6178989656773
1620699214049,70.84793046700712
1620699214850,70.67573185014814
1620699215657,70.40015093792358
1620699216433,73.57397541341678
1620699217184,73.57453026341155
1620699217973,73.4727854965701
1620699218803,73.46326331774178
1620699219626,73.64364063228953
1620699220399,73.9169594702224
1620699221204,73.8945877694974
1620699222043,73.74399685457273
1620699222889,73.55497572440618
1620699223677,73.52886210041814
1620699224479,73.62746893611069
1620699225322,73.75620758365017
1620699226119,74.02994400189961
1620699226899,74.24274717962628
1620699227692,74.45118772289987
1620699228486,74.77422390430992
1620699229885,72.17201622691556
1620699230642,72.31921702394372
1620699231456,72.24856250948636
1620699232875,69.66951164052716
1620699233616,69.83802699193181
1620699234405,69.68373629792721
1620699235882,67.00555470464704
1620699236673,67.15262785020938
1620699237462,67.28130380401764
1620699238894,64.88223576831136
1620699239657,65.03215921563412
1620699240407,65.34551112278618
1620699241816,63.402357542695825
1620699242577,63.49270849735615
1620699243386,63.46841227366964
1620699244778,61.67758402735607
1620699246263,59.57012115619448
1620699247075,59.47646142215456
1620699248461,57.778650663392796
1620699249941,55.931070548655846
1620699250690,57.67824030225704
1620699252094,55.938493388979076
1620699252833,56.135219264634244
1620699253575,57.97006512791894
1620699254890,56.40618962040562
1620699256262,54.90130986290136
1620699257018,56.77377085850601
1620699258342,55.37895054396666
1620699259726,53.8967701686767
1620699260531,55.46226340665029
1620699261980,53.75524511204678
1620699262726,53.76611712169007
1620699263500,55.34090203179971
1620699264872,53.821870867068995
1620699266302,52.365870386877745
1620699267714,52.34217036373228
1620699269168,52.39019800351434
1620699269909,52.55396043580197
1620699271355,52.41606386373222
1620699272119,54.109628542360085
1620699273503,52.601632930024934
1620699274991,52.41010716687686
1620699276365,50.99295608801082
1620699277913,49.30644526867471
1620699278673,50.45612123361349
1620699280098,50.345371345151584
1620699280856,50.33988863558133
1620699282249,50.19346233499315
1620699283688,50.08003833460002
1620699285070,48.90094913074689
1620699286425,49.09061477035959
1620699287780,47.89653773091667
1620699289124,46.831260334585934
1620699289868,48.00824013433665
1620699291200,48.19703913539335
1620699292604,48.19424981553653
1620699293350,49.6276376313969
1620699294710,48.40794146802166
1620699296131,48.433395585045744
1620699297522,47.236908526986284
1620699298896,47.25575400828227
1620699299635,48.692593714476
1620699300993,48.726181880949966
1620699302493,48.8205802179497
1620699303255,48.81731511113138
1620699304005,50.19342664375001
1620699304800,50.118241461167266
1620699305626,51.33218791259585
1620699306387,52.86486370755294
1620699307835,52.71198553266847
1620699308607,54.09798063959504
1620699309375,55.572708483678774
1620699310745,55.499706406553095
1620699311494,55.49021326045003
1620699312286,56.90954427121492
1620699313039,58.72081404273033
1620699313836,58.57055628850103
1620699314673,60.075818686973925
1620699315508,61.92996690978653
1620699316314,63.856352155862275
1620699317143,65.7677602274074
1620699317941,65.55329135701157
1620699318682,67.83871616586433
1620699319456,70.74393020026554
1620699320266,70.53955470260176
1620699321064,70.34637617677761
1620699322497,67.8060072393084
1620699323262,68.043882407016
1620699324026,68.03207031794791
1620699325428,68.20960196798342
1620699326197,68.21726790524215
1620699326974,68.18126420904645
1620699328372,68.07891071927415
1620699329112,68.11262194997353
1620699329911,68.08395909583825
1620699331314,65.66380885002586
1620699332800,63.27760263943532
1620699334190,61.485016869951465
1620699335587,59.76330146820503
1620699336900,58.291420183015624
1620699338385,56.49128930210805
1620699339131,56.62861003849702
1620699339923,56.49282115121357
1620699340715,56.44501930560768
1620699342154,54.82434849828116
1620699342898,54.96069508791077
1620699343694,56.613560787749414
1620699344437,56.67091793002676
1620699345814,55.07729340817054
1620699347282,54.91089152042221
1620699348042,54.93483766892805
1620699348778,55.0350841782251
1620699349552,56.65780160930816
1620699350369,56.45072023827475
1620699351140,56.527858271092576
1620699351907,58.27344522806039
1620699352704,60.289101313071505
1620699353534,62.03542895043549
1620699354291,64.15564673142218
1620699355778,63.565776249633025
1620699356570,65.9874577639028
1620699357341,65.89816953556182
1620699358134,65.89424698196105
1620699358969,65.73814099001535
1620699359734,68.26048839469301
1620699361159,65.7117292151063
1620699361935,65.78482835203303
1620699363395,63.29608341242267
1620699364169,65.3776945689223
1620699364992,67.75706989971785
1620699365745,67.78253284798025
1620699367154,65.30180453374105
1620699367919,65.33459233092759
1620699368689,65.50240150908795
1620699370172,63.0510033752779
1620699370977,62.924194279288855
1620699371747,63.014834479722026
1620699373163,61.133547406034786
1620699373909,61.18799240718205
1620699374715,63.36828076415178
1620699375486,63.4387179077403
1620699376253,63.45193769527337
1620699377062,63.398066633692636
1620699377901,63.384554567947895
1620699378666,63.38352340027253
1620699379425,65.6961843820351
1620699380234,65.57799901851592
1620699381046,67.98576423420772
1620699382491,65.49234525468671
1620699383265,65.67252689987747
1620699384113,65.33182852354972
1620699384910,67.58106856031817
1620699385692,67.51835824160594
1620699386493,67.39906232177873
1620699387308,70.0287018470245
1620699388058,70.26237081750799
1620699389535,67.46375846895045
1620699390290,70.06323907959327
1620699391692,67.45846413716907
1620699392460,67.62342924157666
1620699393268,67.48284164397657
1620699394724,64.96905767416943
1620699395496,65.09768585863986
1620699396309,65.18920405937517
1620699397695,63.06163612784315
1620699399167,60.78372406377487
1620699400607,58.900371298123936
1620699401384,59.00264292505213
1620699402210,60.85506848172988
1620699402974,60.88692769839695
1620699403719,61.20487300957926
1620699404495,61.27260754976559
1620699405307,61.177763718221335
1620699406042,61.38379326675027
1620699407479,59.490201691117974
1620699408253,59.413776153449206
1620699409642,59.69632479576389
1620699411031,57.856229968485714
1620699411783,59.72824841535984
1620699413197,57.86986802776598
1620699413974,57.95307143793012
1620699414802,59.76713231073425
1620699415539,59.87153365024661
1620699416942,58.160699855456116
1620699417675,60.061860713441774
1620699419045,60.36769054797407
1620699420502,60.31732643852671
1620699421917,58.441829778625234
1620699423410,56.60386436468809
1620699424815,54.941618578251905
1620699426251,53.25923435234817
1620699427589,51.96217621231332
1620699429019,50.631435176299306
1620699430402,49.26243057384081
1620699431827,49.2866962351249
1620699433196,48.109657304086255
1620699434654,47.976336151956396
1620699435436,49.170596524155066
1620699436204,49.13719185862251
1620699437530,49.31431729423525
1620699438921,48.10317939567657
1620699439688,48.21951839309426
1620699441087,46.96950043317621
1620699442477,46.99404914355698
1620699443884,45.787254026578886
1620699445258,45.77964684207037
1620699445992,47.0771208370438
1620699447433,47.029698313891224
1620699448179,48.447851943364526
1620699448952,49.71613948708116
1620699449745,51.074864131284855
1620699451151,50.92779190293098
1620699452566,50.93845615727073
1620699453853,51.17004791947066
1620699455135,51.48262229825631
1620699456513,51.46560313569628
1620699457872,51.67209166215693
1620699458610,51.78214509348425
1620699459984,50.46513504701436
1620699461406,50.26051911828464
1620699462144,51.671735663935316
1620699463475,50.446822218041575
1620699464840,50.52088718719579
1620699466099,50.80020912752755
1620699467396,51.03561252282936
1620699468688,51.21584058147736
1620699470041,49.89768479732309
1620699470778,51.403010914229995
1620699472151,50.058209354444315
1620699473531,48.821303208202416
1620699474824,47.849520912653084
1620699476117,48.06632961221169
1620699477389,48.34121355540805
1620699478691,48.31333322382311
1620699480120,48.030445538818164
1620699481483,48.05832165682993
1620699482932,47.88611723598934
1620699484270,46.765579504641856
1620699485716,46.63283713403909
1620699487077,46.74531826160401
1620699488452,45.61462861139562
1620699489791,45.599368357549544
1620699491102,45.693529537287525
1620699492539,45.38445569533504
1620699493883,45.30568025629424
1620699495359,44.99241877743604
1620699496765,44.903208888081316
1620699498171,43.80650651470288
1620699499506,43.8684228073685
1620699500915,43.82067018821745
1620699502293,43.68543747397985
1620699503753,43.42213147157563
1620699505114,43.28158839101239
1620699506610,42.98112190327285
1620699508011,43.02436010586282
1620699509474,42.86976187776411
1620699510817,43.033086705931936
1620699512216,42.94011389221109
1620699513002,43.97923857424877
1620699514440,43.85504722804848
1620699515193,44.87469135093801
1620699516520,44.89537357664834
1620699517882,44.81019354232088
1620699518679,45.906234984835656
1620699519422,46.986929841504875
1620699520891,47.000091846012836
1620699521680,48.16456096557737
1620699522419,49.48938910380578
1620699523862,49.269807088586674
1620699524645,50.57068597702689
1620699525436,51.85290747462254
1620699526210,53.434383690044925
1620699526997,54.837529196414444
1620699527772,56.705152768879536
1620699529155,56.753189742088004
1620699530598,56.80789076751532
1620699531340,58.47178721648859
1620699532675,58.65450380807031
1620699534064,56.97339655734453
1620699535503,56.97330999833177
1620699536279,56.91054828475873
1620699537084,58.35506694858002
1620699537851,60.11075105327807
1620699539287,58.23286263872228
1620699540035,58.21385908986112
1620699541384,58.55716320993964
1620699542782,56.86553206661572
1620699544118,55.30207491080811
1620699545518,55.41176459179937
1620699546860,54.01622080102545
1620699548165,52.795560104577426
1620699549486,51.55654582313574
1620699550719,50.58650414459438
1620699552031,49.46653026545762
1620699553313,49.67309515167
1620699554739,49.70910439230892
1620699556019,48.62438179670087
1620699557369,48.5954163102497
1620699558679,48.75228876760675
1620699559988,49.0090012382124
1620699561283,47.99120225280305
1620699562526,47.16559163181782
1620699563821,46.1958239437113
1620699565037,46.601807823930876
1620699566416,45.48807912863642
1620699567762,45.49300427535677
1620699569046,45.69096156628612
1620699570342,45.76526909577775
1620699571541,46.111815234260085
1620699572812,46.23876364327705
1620699574027,46.40820237131998
1620699575257,46.56283077798455
1620699576536,46.48131236266953
1620699577713,46.7248289550027
1620699578931,46.8412870814658
1620699580069,47.373661452260876
1620699581219,47.61792708608088
1620699582390,47.957674474815484
1620699583521,48.30364249314902
1620699584718,48.523467283173446
1620699585858,48.831141181327816
1620699587031,48.96917239609387
1620699588174,49.275231156268774
1620699589354,49.347861837336865
1620699590543,49.736714556767595
1620699591674,50.182071008215914
1620699592892,50.3233421509615
1620699594074,50.55726109071479
1620699595253,50.60737495371012
1620699596430,50.81321253621229
1620699597582,50.93519349791871
1620699598863,50.83411582570232
1620699600130,50.85953245594707
1620699601516,50.41501006094545
1620699602853,50.162987908211726
1620699604179,49.771333901611435
1620699605498,49.42550063398508
1620699606784,49.20392760511318
1620699608130,48.763525630535696
1620699609394,48.6292705414902
1620699610805,48.10191063194129
1620699612195,47.68851388761054
1620699613514,47.35545998785255
1620699614976,46.83397819167998
1620699616303,46.58378583011293
1620699617719,46.074797749875785
1620699618469,46.91647342944163
1620699619859,46.539829600619264
1620699620602,47.339933624679105
1620699621403,48.049023457653455
1620699622808,47.56903217949892
1620699624287,47.20094836145449
1620699625037,48.17943176696385
1620699626450,48.126810294982384
1620699627221,49.245139720157134
1620699628029,50.315912650569295
1620699628786,51.52844090825738
1620699630158,51.32813253881953
1620699630892,52.720028356346006
1620699631673,53.86468329720806
1620699633070,53.89430841071891
1620699634548,53.68422055678864
1620699635345,54.96772157969535
1620699636753,55.10408978880808
1620699637492,56.63367456223475
1620699638279,58.36575023846066
1620699639069,58.25194080903801
1620699640477,58.20847978223039
1620699641940,56.23639869975818
1620699643339,54.70352286128587
1620699644124,56.297652444190696
1620699644934,58.117357930665634
1620699645695,58.08746723685328
1620699647084,58.15746958788403
1620699648548,56.26948770617197
1620699649842,55.01339599114631
1620699651249,53.421419318075664
1620699652030,54.86520647491741
1620699653368,53.38824492284463
1620699654699,52.113083480339256
1620699655995,52.344601962922575
1620699657324,52.68703204859951
1620699658705,51.36997076749005
1620699660002,51.618569057558545
1620699661206,50.60175394956179
1620699662452,49.643811855413794
1620699663641,48.83537996306339
1620699664815,49.2989605642825
1620699666036,49.802084441343176
1620699667275,50.13353694233809
1620699668550,49.127537913256276
1620699669921,48.0252209250209
1620699671171,47.10432815764064
1620699672562,47.0988557097511
1620699673919,47.29673165395259
1620699675250,47.22795331249183
1620699676012,48.45988038809261
1620699677357,47.37992190525393
1620699678846,47.09996488697624
1620699680198,47.061087998234186
1620699681607,46.85393769082236
1620699682962,46.80471066010448
1620699684307,46.872337797689205
1620699685622,46.83626677328687
1620699686902,46.70086960521774
1620699688262,46.492338992380894
1620699689584,46.25567802902695
1620699690857,46.08037808028611
1620699692062,46.107043957533584
1620699693203,46.28292924350634
1620699694272,46.65213582225062
1620699695364,47.164227254226056
1620699696458,47.45502084600201
1620699697576,47.97352628925259
1620699698690,48.442504842433735
1620699699755,48.974454516403895
1620699700837,48.337936313318636
1620699701893,48.90693210523684
1620699702973,49.73633937558015
1620699704093,50.222565484156846
1620699705293,50.66187630480728
1620699706495,50.9919593328924
1620699707650,51.40605851243198
1620699708796,51.78067260504671
1620699710040,51.86330595901596
1620699711287,52.116295080378194
1620699712497,52.37160446520315
1620699713665,52.61200866467164
1620699714859,52.63854201064506
1620699716054,52.51335710058695
