timestamp,value
1618990792512,0.0
1618990792512,0.0
1618990792966,0.0
1618990792966,0.0
1618990793482,0.0
1618990793482,0.0
1618990794566,0.0
1618990794566,0.0
1618990795598,0.0
1618990795598,0.0
1618990796535,0.0
1618990796535,0.0
1618990797428,0.0
1618990797428,0.0
1618990798391,0.0
1618990798391,0.0
1618990799162,0.0
1618990799162,0.0
1618990799999,0.0
1618990799999,0.0
1618990800836,0.0
1618990800836,0.0
1618990801670,0.0
1618990801670,0.0
1618990802121,1.0
1618990802121,1.0
1618990802527,0.0
1618990802527,0.0
1618990802747,0.0
1618990802747,0.0
1618990803087,1.0
1618990803087,1.0
1618990803528,0.0
1618990803528,0.0
1618990804288,0.0
1618990804288,0.0
1618990804727,1.0
1618990804727,1.0
1618990805066,0.0
1618990805066,0.0
1618990805432,0.0
1618990805432,0.0
1618990805859,1.0
1618990805859,1.0
1618990806269,1.0
1618990806269,1.0
1618990806633,0.0
1618990806633,0.0
1618990807060,0.0
1618990807060,0.0
1618990807521,10.0
1618990807521,10.0
1618990807933,1.0
1618990807933,1.0
1618990808426,0.0
1618990808426,0.0
1618990808799,0.0
1618990808799,0.0
1618990809127,1.0
1618990809127,1.0
1618990809498,0.0
1618990809498,0.0
1618990809919,0.0
1618990809919,0.0
1618990810362,0.0
1618990810362,0.0
1618990810791,0.0
1618990810791,0.0
1618990811161,1.0
1618990811161,1.0
1618990811570,1.0
1618990811570,1.0
1618990812071,0.0
1618990812071,0.0
1618990812513,0.0
1618990812513,0.0
1618990813021,0.0
1618990813021,0.0
1618990813383,0.0
1618990813383,0.0
1618990813743,1.0
1618990813743,1.0
1618990814097,0.0
1618990814097,0.0
1618990814500,1.0
1618990814500,1.0
1618990814879,0.0
1618990814879,0.0
1618990815292,1.0
1618990815292,1.0
1618990815854,0.0
1618990815854,0.0
1618990816708,0.0
1618990816708,0.0
1618990817563,0.0
1618990817563,0.0
1618990818807,0.0
1618990818807,0.0
1618990819279,0.0
1618990819279,0.0
1618990819711,1.0
1618990819711,1.0
1618990820183,0.0
1618990820183,0.0
1618990820561,0.0
1618990820561,0.0
1618990821007,1.0
1618990821007,1.0
1618990821480,0.0
1618990821480,0.0
1618990821884,0.0
1618990821884,0.0
1618990822380,1.0
1618990822380,1.0
1618990822877,1.0
1618990822877,1.0
1618990823343,0.0
1618990823343,0.0
1618990824166,0.0
1618990824166,0.0
1618990824991,0.0
1618990824991,0.0
1618990825783,0.0
1618990825783,0.0
1618990826564,0.0
1618990826564,0.0
1618990827274,0.0
1618990827274,0.0
1618990827622,1.0
1618990827622,1.0
1618990828033,1.0
1618990828033,1.0
1618990828386,0.0
1618990828386,0.0
1618990828814,0.0
1618990828814,0.0
1618990829274,1.0
1618990829274,1.0
1618990829737,1.0
1618990829737,1.0
1618990830195,0.0
1618990830195,0.0
1618990830575,1.0
1618990830575,1.0
1618990830871,1.0
1618990830871,1.0
1618990831264,1.0
1618990831264,1.0
1618990831637,0.0
1618990831637,0.0
1618990832003,0.0
1618990832003,0.0
1618990832421,0.0
1618990832421,0.0
1618990832907,1.0
1618990832907,1.0
1618990833311,0.0
1618990833311,0.0
1618990833721,0.0
1618990833721,0.0
1618990834138,0.0
1618990834138,0.0
1618990834574,1.0
1618990834574,1.0
1618990835002,1.0
1618990835002,1.0
1618990835485,1.0
1618990835485,1.0
1618990835842,0.0
1618990835842,0.0
1618990836199,0.0
1618990836199,0.0
1618990836618,1.0
1618990836618,1.0
1618990837094,0.0
1618990837094,0.0
1618990837460,0.0
1618990837460,0.0
1618990837938,0.0
1618990837938,0.0
1618990838350,0.0
1618990838350,0.0
1618990838730,0.0
1618990838730,0.0
1618990839094,0.0
1618990839094,0.0
1618990839585,0.0
1618990839585,0.0
1618990840025,0.0
1618990840025,0.0
1618990840439,1.0
1618990840439,1.0
1618990840845,1.0
1618990840845,1.0
1618990841385,0.0
1618990841385,0.0
1618990841903,1.0
1618990841903,1.0
1618990842264,1.0
1618990842264,1.0
1618990842653,1.0
1618990842653,1.0
1618990843011,1.0
1618990843011,1.0
1618990843455,0.0
1618990843455,0.0
1618990843923,1.0
1618990843923,1.0
1618990844336,1.0
1618990844336,1.0
1618990844706,0.0
1618990844706,0.0
1618990845151,0.0
1618990845151,0.0
1618990845594,0.0
1618990845594,0.0
1618990846029,0.0
1618990846029,0.0
1618990846494,0.0
1618990846494,0.0
1618990846866,0.0
1618990846866,0.0
1618990847236,0.0
1618990847236,0.0
1618990847636,1.0
1618990847636,1.0
1618990848078,0.0
1618990848078,0.0
1618990848647,0.0
1618990848647,0.0
1618990849046,0.0
1618990849046,0.0
1618990849491,1.0
1618990849491,1.0
1618990849999,0.0
1618990849999,0.0
1618990850554,0.0
1618990850554,0.0
1618990851040,0.0
1618990851040,0.0
1618990851486,0.0
1618990851486,0.0
1618990851849,1.0
1618990851849,1.0
1618990852326,1.0
1618990852326,1.0
1618990852770,0.0
1618990852770,0.0
1618990853181,0.0
1618990853181,0.0
1618990853595,0.0
1618990853595,0.0
1618990854013,1.0
1618990854013,1.0
1618990854430,0.0
1618990854430,0.0
1618990854880,0.0
1618990854880,0.0
1618990855269,0.0
1618990855269,0.0
1618990855678,1.0
1618990855678,1.0
1618990856125,1.0
1618990856125,1.0
1618990856629,0.0
1618990856629,0.0
1618990857103,0.0
1618990857103,0.0
1618990857671,0.0
1618990857671,0.0
1618990858201,1.0
1618990858201,1.0
1618990858812,1.0
1618990858812,1.0
1618990859237,0.0
1618990859237,0.0
1618990859635,1.0
1618990859635,1.0
1618990860013,0.0
1618990860013,0.0
1618990860379,0.0
1618990860379,0.0
1618990860784,0.0
1618990860784,0.0
1618990861204,1.0
1618990861204,1.0
1618990861624,1.0
1618990861624,1.0
1618990862075,0.0
1618990862075,0.0
1618990862553,0.0
1618990862553,0.0
1618990862953,1.0
1618990862953,1.0
1618990863441,0.0
1618990863441,0.0
1618990863882,1.0
1618990863882,1.0
1618990864243,0.0
1618990864243,0.0
1618990864710,0.0
1618990864710,0.0
1618990865164,1.0
1618990865164,1.0
1618990865557,0.0
1618990865557,0.0
1618990865952,0.0
1618990865952,0.0
1618990866416,0.0
1618990866416,0.0
1618990866829,1.0
1618990866829,1.0
1618990867298,0.0
1618990867298,0.0
1618990867776,0.0
1618990867776,0.0
1618990868196,0.0
1618990868196,0.0
1618990868628,1.0
1618990868628,1.0
1618990869039,1.0
1618990869039,1.0
1618990869447,0.0
1618990869447,0.0
1618990869866,1.0
1618990869866,1.0
1618990870277,1.0
1618990870277,1.0
1618990870634,0.0
1618990870634,0.0
1618990871050,1.0
1618990871050,1.0
1618990871430,10.0
1618990871430,10.0
1618990871840,0.0
1618990871840,0.0
1618990872258,0.0
1618990872258,0.0
1618990872737,1.0
1618990872737,1.0
1618990873215,0.0
1618990873215,0.0
1618990873601,0.0
1618990873601,0.0
1618990873997,0.0
1618990873997,0.0
1618990874422,0.0
1618990874422,0.0
1618990874868,15.0
1618990874868,15.0
1618990875341,1.0
1618990875341,1.0
1618990875818,1.0
1618990875818,1.0
1618990876159,1.0
1618990876159,1.0
1618990876544,1.0
1618990876544,1.0
1618990876956,1.0
1618990876956,1.0
1618990877264,1.0
1618990877264,1.0
1618990877665,1.0
1618990877665,1.0
1618990878066,1.0
1618990878066,1.0
1618990878462,1.0
1618990878462,1.0
1618990878860,0.0
1618990878860,0.0
1618990879254,1.0
1618990879254,1.0
1618990879645,1.0
1618990879645,1.0
1618990879999,0.0
1618990879999,0.0
1618990880451,0.0
1618990880451,0.0
1618990880856,0.0
1618990880856,0.0
1618990881404,1.0
1618990881404,1.0
1618990881887,0.0
1618990881887,0.0
1618990882348,1.0
1618990882348,1.0
1618990882747,0.0
1618990882747,0.0
1618990883136,1.0
1618990883136,1.0
1618990883545,0.0
1618990883545,0.0
1618990883925,0.0
1618990883925,0.0
1618990884312,0.0
1618990884312,0.0
1618990884791,1.0
1618990884791,1.0
1618990885234,1.0
1618990885234,1.0
1618990885718,0.0
1618990885718,0.0
1618990886210,1.0
1618990886210,1.0
1618990886628,0.0
1618990886628,0.0
1618990887105,1.0
1618990887105,1.0
1618990887536,0.0
1618990887536,0.0
1618990887968,1.0
1618990887968,1.0
1618990888413,1.0
1618990888413,1.0
1618990888782,0.0
1618990888782,0.0
1618990889171,0.0
1618990889171,0.0
1618990889585,0.0
1618990889585,0.0
1618990890036,1.0
1618990890036,1.0
1618990890428,0.0
1618990890428,0.0
1618990890839,1.0
1618990890839,1.0
1618990891297,0.0
1618990891297,0.0
1618990891775,0.0
1618990891775,0.0
1618990892242,1.0
1618990892242,1.0
1618990892637,1.0
1618990892637,1.0
1618990893052,1.0
1618990893052,1.0
1618990893505,1.0
1618990893505,1.0
1618990893972,0.0
1618990893972,0.0
1618990894407,1.0
1618990894407,1.0
1618990894685,1.0
1618990894685,1.0
1618990895135,1.0
1618990895135,1.0
1618990895573,1.0
1618990895573,1.0
1618990895977,1.0
1618990895977,1.0
1618990896372,1.0
1618990896372,1.0
1618990896798,1.0
1618990896798,1.0
1618990897236,0.0
1618990897236,0.0
1618990897647,0.0
1618990897647,0.0
1618990898098,0.0
1618990898098,0.0
1618990898501,0.0
1618990898501,0.0
1618990898936,0.0
1618990898936,0.0
1618990899289,0.0
1618990899289,0.0
1618990899659,0.0
1618990899659,0.0
1618990900069,0.0
1618990900069,0.0
1618990900466,1.0
1618990900466,1.0
1618990900858,1.0
1618990900858,1.0
1618990901230,1.0
1618990901230,1.0
1618990901613,0.0
1618990901613,0.0
1618990902028,0.0
1618990902028,0.0
1618990902493,0.0
1618990902493,0.0
1618990902878,0.0
1618990902878,0.0
1618990903337,1.0
1618990903337,1.0
1618990903773,0.0
1618990903773,0.0
1618990904245,1.0
1618990904245,1.0
1618990904757,0.0
1618990904757,0.0
1618990905274,8.0
1618990905274,8.0
1618990905698,0.0
1618990905698,0.0
1618990906149,0.0
1618990906149,0.0
1618990906554,1.0
1618990906554,1.0
1618990906910,1.0
1618990906910,1.0
1618990907382,0.0
1618990907382,0.0
1618990907780,0.0
1618990907780,0.0
1618990908228,1.0
1618990908228,1.0
1618990908741,1.0
1618990908741,1.0
1618990909303,0.0
1618990909303,0.0
1618990909768,1.0
1618990909768,1.0
1618990910169,0.0
1618990910169,0.0
1618990910602,0.0
1618990910602,0.0
1618990911172,0.0
1618990911172,0.0
1618990911635,0.0
1618990911635,0.0
1618990912045,1.0
1618990912045,1.0
1618990912535,0.0
1618990912535,0.0
1618990913019,1.0
1618990913019,1.0
1618990913480,1.0
1618990913480,1.0
1618990913865,0.0
1618990913865,0.0
1618990914305,1.0
1618990914305,1.0
1618990914810,0.0
1618990914810,0.0
1618990915197,1.0
1618990915197,1.0
1618990915588,0.0
1618990915588,0.0
1618990916035,1.0
1618990916035,1.0
1618990916380,1.0
1618990916380,1.0
1618990916783,0.0
1618990916783,0.0
1618990917228,0.0
1618990917228,0.0
1618990917605,0.0
1618990917605,0.0
1618990918059,0.0
1618990918059,0.0
1618990918492,0.0
1618990918492,0.0
1618990918904,0.0
1618990918904,0.0
1618990919381,1.0
1618990919381,1.0
1618990919806,0.0
1618990919806,0.0
1618990920126,1.0
1618990920126,1.0
1618990920600,0.0
1618990920600,0.0
1618990921031,0.0
1618990921031,0.0
1618990921464,0.0
1618990921464,0.0
1618990921939,0.0
1618990921939,0.0
1618990922268,0.0
1618990922268,0.0
1618990922713,1.0
1618990922713,1.0
1618990923168,1.0
1618990923168,1.0
1618990923533,0.0
1618990923533,0.0
1618990923944,0.0
1618990923944,0.0
1618990924397,0.0
1618990924397,0.0
1618990924824,0.0
1618990924824,0.0
1618990925302,1.0
1618990925302,1.0
1618990925726,0.0
1618990925726,0.0
1618990926100,0.0
1618990926100,0.0
1618990926547,0.0
1618990926547,0.0
1618990926978,0.0
1618990926978,0.0
1618990927413,1.0
1618990927413,1.0
1618990927792,0.0
1618990927792,0.0
1618990928174,0.0
1618990928174,0.0
1618990928605,1.0
1618990928605,1.0
1618990929103,0.0
1618990929103,0.0
1618990929485,0.0
1618990929485,0.0
1618990929934,0.0
1618990929934,0.0
1618990930348,1.0
1618990930348,1.0
1618990930749,1.0
1618990930749,1.0
1618990931211,1.0
1618990931211,1.0
1618990931623,1.0
1618990931623,1.0
1618990932092,1.0
1618990932092,1.0
1618990932509,1.0
1618990932509,1.0
1618990932911,1.0
1618990932911,1.0
1618990933342,0.0
1618990933342,0.0
1618990933789,0.0
1618990933789,0.0
1618990934156,1.0
1618990934156,1.0
1618990934549,1.0
1618990934549,1.0
1618990934900,1.0
1618990934900,1.0
1618990935312,0.0
1618990935312,0.0
1618990935740,0.0
1618990935740,0.0
1618990936145,0.0
1618990936145,0.0
1618990936464,30.0
1618990936464,30.0
1618990936870,1.0
1618990936870,1.0
1618990937272,1.0
1618990937272,1.0
1618990937699,0.0
1618990937699,0.0
1618990938143,0.0
1618990938143,0.0
1618990938518,31.0
1618990938518,31.0
1618990938960,0.0
1618990938960,0.0
1618990939458,0.0
1618990939458,0.0
1618990939891,0.0
1618990939891,0.0
1618990940305,0.0
1618990940305,0.0
1618990940701,0.0
1618990940701,0.0
1618990941104,0.0
1618990941104,0.0
1618990941480,1.0
1618990941480,1.0
1618990941802,1.0
1618990941802,1.0
1618990942180,1.0
1618990942180,1.0
1618990942523,1.0
1618990942523,1.0
1618990942879,10.0
1618990942879,10.0
1618990943296,1.0
1618990943296,1.0
1618990943653,0.0
1618990943653,0.0
1618990944008,1.0
1618990944008,1.0
1618990944463,0.0
1618990944463,0.0
1618990944873,0.0
1618990944873,0.0
1618990945246,0.0
1618990945246,0.0
1618990945752,0.0
1618990945752,0.0
1618990946215,0.0
1618990946215,0.0
1618990946676,1.0
1618990946676,1.0
1618990947158,0.0
1618990947158,0.0
1618990947548,1.0
1618990947548,1.0
1618990948017,1.0
1618990948017,1.0
1618990948424,0.0
1618990948424,0.0
1618990948855,1.0
1618990948855,1.0
1618990949292,0.0
1618990949292,0.0
1618990949749,0.0
1618990949749,0.0
1618990950171,1.0
1618990950171,1.0
1618990950630,0.0
1618990950630,0.0
1618990951020,0.0
1618990951020,0.0
1618990951495,1.0
1618990951495,1.0
1618990951970,0.0
1618990951970,0.0
1618990952389,1.0
1618990952389,1.0
1618990952842,2.0
1618990952842,2.0
1618990953299,2.0
1618990953299,2.0
1618990953781,1.0
1618990953781,1.0
1618990954234,1.0
1618990954234,1.0
1618990954628,0.0
1618990954628,0.0
1618990955101,0.0
1618990955101,0.0
1618990955612,0.0
1618990955612,0.0
1618990956036,1.0
1618990956036,1.0
1618990956482,1.0
1618990956482,1.0
1618990956881,1.0
1618990956881,1.0
1618990957355,0.0
1618990957355,0.0
1618990957718,1.0
1618990957718,1.0
1618990958100,0.0
1618990958100,0.0
1618990958496,0.0
1618990958496,0.0
1618990958887,8.0
1618990958887,8.0
1618990959270,0.0
1618990959270,0.0
1618990959662,0.0
1618990959662,0.0
1618990960047,0.0
1618990960047,0.0
1618990960493,1.0
1618990960493,1.0
1618990960912,0.0
1618990960912,0.0
1618990961340,0.0
1618990961340,0.0
1618990961814,0.0
1618990961814,0.0
1618990962203,1.0
1618990962203,1.0
1618990962615,0.0
1618990962615,0.0
1618990963040,1.0
1618990963040,1.0
1618990963438,0.0
1618990963438,0.0
1618990963890,1.0
1618990963890,1.0
1618990964257,0.0
1618990964257,0.0
1618990964658,0.0
1618990964658,0.0
1618990965090,0.0
1618990965090,0.0
1618990965502,0.0
1618990965502,0.0
1618990965844,0.0
1618990965844,0.0
1618990966254,1.0
1618990966254,1.0
1618990966616,1.0
1618990966616,1.0
1618990967029,1.0
1618990967029,1.0
1618990967485,1.0
1618990967485,1.0
1618990967883,0.0
1618990967883,0.0
1618990968345,1.0
1618990968345,1.0
1618990968742,1.0
1618990968742,1.0
1618990969123,0.0
1618990969123,0.0
1618990969502,1.0
1618990969502,1.0
1618990969866,0.0
1618990969866,0.0
1618990970200,1.0
1618990970200,1.0
1618990970642,0.0
1618990970642,0.0
1618990971056,0.0
1618990971056,0.0
1618990971522,0.0
1618990971522,0.0
1618990971911,1.0
1618990971911,1.0
1618990972285,1.0
1618990972285,1.0
1618990972688,0.0
1618990972688,0.0
1618990973102,1.0
1618990973102,1.0
1618990973458,1.0
1618990973458,1.0
1618990973938,0.0
1618990973938,0.0
1618990974406,1.0
1618990974406,1.0
1618990974879,0.0
1618990974879,0.0
1618990975327,0.0
1618990975327,0.0
1618990975821,0.0
1618990975821,0.0
1618990976595,0.0
1618990976595,0.0
1618990977507,0.0
1618990977507,0.0
1618990978355,0.0
1618990978355,0.0
1618990979194,0.0
1618990979194,0.0
1618990980281,0.0
1618990980281,0.0
1618990981669,0.0
1618990981669,0.0
1618990982682,0.0
1618990982682,0.0
1618990983615,0.0
1618990983615,0.0
1618990984985,0.0
1618990984985,0.0
1618990985869,0.0
1618990985869,0.0
1618990986665,0.0
1618990986665,0.0
1618990987671,0.0
1618990987671,0.0
1618990988455,0.0
1618990988455,0.0
1618990988891,0.0
1618990988891,0.0
1618990989391,1.0
1618990989391,1.0
1618990989818,1.0
1618990989818,1.0
1618990990194,1.0
1618990990194,1.0
1618990990673,0.0
1618990990673,0.0
1618990991149,1.0
1618990991149,1.0
1618990991534,2.0
1618990991534,2.0
1618990991943,0.0
1618990991943,0.0
1618990992353,1.0
1618990992353,1.0
1618990992806,1.0
1618990992806,1.0
1618990993216,1.0
1618990993216,1.0
1618990993563,0.0
1618990993563,0.0
1618990993947,0.0
1618990993947,0.0
1618990994320,1.0
1618990994320,1.0
1618990994706,0.0
1618990994706,0.0
1618990995091,1.0
1618990995091,1.0
1618990995515,1.0
1618990995515,1.0
1618990995953,0.0
1618990995953,0.0
1618990996346,2.0
1618990996346,2.0
1618990996726,1.0
1618990996726,1.0
1618990997107,1.0
1618990997107,1.0
1618990997485,0.0
1618990997485,0.0
1618990997878,0.0
1618990997878,0.0
1618990998320,0.0
1618990998320,0.0
1618990998699,0.0
1618990998699,0.0
1618990999109,0.0
1618990999109,0.0
1618990999501,0.0
1618990999501,0.0
1618990999911,1.0
1618990999911,1.0
1618991000317,0.0
1618991000317,0.0
1618991000744,1.0
1618991000744,1.0
1618991001112,0.0
1618991001112,0.0
1618991001541,1.0
1618991001541,1.0
1618991001916,0.0
1618991001916,0.0
1618991002291,0.0
1618991002291,0.0
1618991002766,0.0
1618991002766,0.0
1618991003235,1.0
1618991003235,1.0
1618991003727,0.0
1618991003727,0.0
1618991004220,0.0
1618991004220,0.0
1618991004683,8.0
1618991004683,8.0
1618991005193,0.0
1618991005193,0.0
1618991005534,31.0
1618991005534,31.0
1618991006001,0.0
1618991006001,0.0
1618991006488,0.0
1618991006488,0.0
1618991006884,0.0
1618991006884,0.0
1618991007307,1.0
1618991007307,1.0
1618991007655,0.0
1618991007655,0.0
1618991008009,0.0
1618991008009,0.0
1618991008416,1.0
1618991008416,1.0
1618991008816,1.0
1618991008816,1.0
1618991009249,1.0
1618991009249,1.0
1618991009651,0.0
1618991009651,0.0
1618991010028,1.0
1618991010028,1.0
1618991010395,1.0
1618991010395,1.0
1618991010780,1.0
1618991010780,1.0
1618991011209,0.0
1618991011209,0.0
1618991011676,1.0
1618991011676,1.0
1618991012106,0.0
1618991012106,0.0
1618991012528,0.0
1618991012528,0.0
1618991012891,0.0
1618991012891,0.0
1618991013306,1.0
1618991013306,1.0
1618991013771,1.0
1618991013771,1.0
1618991014260,1.0
1618991014260,1.0
1618991014648,0.0
1618991014648,0.0
1618991015100,0.0
1618991015100,0.0
1618991015559,1.0
1618991015559,1.0
1618991015925,1.0
1618991015925,1.0
1618991016321,0.0
1618991016321,0.0
1618991016753,1.0
1618991016753,1.0
1618991017173,0.0
1618991017173,0.0
1618991017545,0.0
1618991017545,0.0
1618991017944,1.0
1618991017944,1.0
1618991018382,0.0
1618991018382,0.0
1618991018799,1.0
1618991018799,1.0
1618991019232,1.0
1618991019232,1.0
1618991019694,0.0
1618991019694,0.0
1618991020124,0.0
1618991020124,0.0
1618991020551,1.0
1618991020551,1.0
1618991021018,1.0
1618991021018,1.0
1618991021344,1.0
1618991021344,1.0
1618991021746,0.0
1618991021746,0.0
1618991022071,0.0
1618991022071,0.0
1618991022467,1.0
1618991022467,1.0
1618991022914,0.0
1618991022914,0.0
1618991023375,0.0
1618991023375,0.0
1618991023784,0.0
1618991023784,0.0
1618991024209,0.0
1618991024209,0.0
1618991024572,0.0
1618991024572,0.0
1618991024971,0.0
1618991024971,0.0
1618991025372,0.0
1618991025372,0.0
1618991025755,0.0
1618991025755,0.0
1618991026188,0.0
1618991026188,0.0
1618991026616,0.0
1618991026616,0.0
1618991027093,0.0
1618991027093,0.0
1618991027595,1.0
1618991027595,1.0
1618991028029,1.0
1618991028029,1.0
1618991028471,0.0
1618991028471,0.0
1618991028874,1.0
1618991028874,1.0
1618991029231,0.0
1618991029231,0.0
1618991029650,1.0
1618991029650,1.0
1618991030044,0.0
1618991030044,0.0
1618991030460,1.0
1618991030460,1.0
1618991030876,1.0
1618991030876,1.0
1618991031288,0.0
1618991031288,0.0
1618991031760,1.0
1618991031760,1.0
1618991032183,0.0
1618991032183,0.0
1618991032599,0.0
1618991032599,0.0
1618991033051,1.0
1618991033051,1.0
1618991033468,0.0
1618991033468,0.0
1618991033846,0.0
1618991033846,0.0
1618991034242,0.0
1618991034242,0.0
1618991034708,0.0
1618991034708,0.0
1618991035239,1.0
1618991035239,1.0
1618991035689,1.0
1618991035689,1.0
1618991036096,1.0
1618991036096,1.0
1618991036516,0.0
1618991036516,0.0
1618991036872,1.0
1618991036872,1.0
1618991037253,0.0
1618991037253,0.0
1618991037673,0.0
1618991037673,0.0
1618991038033,0.0
1618991038033,0.0
1618991038407,0.0
1618991038407,0.0
1618991038785,1.0
1618991038785,1.0
1618991039221,0.0
1618991039221,0.0
1618991039673,1.0
1618991039673,1.0
1618991040060,0.0
1618991040060,0.0
1618991040427,0.0
1618991040427,0.0
1618991040852,10.0
1618991040852,10.0
1618991041362,1.0
1618991041362,1.0
1618991041784,1.0
1618991041784,1.0
1618991042186,0.0
1618991042186,0.0
1618991042576,0.0
1618991042576,0.0
1618991043017,1.0
1618991043017,1.0
1618991043429,1.0
1618991043429,1.0
1618991043870,0.0
1618991043870,0.0
1618991044315,0.0
1618991044315,0.0
1618991044787,0.0
1618991044787,0.0
1618991045290,1.0
1618991045290,1.0
1618991045766,0.0
1618991045766,0.0
1618991046221,1.0
1618991046221,1.0
1618991046680,0.0
1618991046680,0.0
1618991047107,0.0
1618991047107,0.0
1618991047563,0.0
1618991047563,0.0
1618991048066,0.0
1618991048066,0.0
1618991048539,0.0
1618991048539,0.0
1618991048966,0.0
1618991048966,0.0
1618991049474,0.0
1618991049474,0.0
1618991049832,0.0
1618991049832,0.0
1618991050251,0.0
1618991050251,0.0
1618991050614,0.0
1618991050614,0.0
1618991050973,0.0
1618991050973,0.0
1618991051444,1.0
1618991051444,1.0
1618991051815,0.0
1618991051815,0.0
1618991052183,0.0
1618991052183,0.0
1618991052594,1.0
1618991052594,1.0
1618991053022,0.0
1618991053022,0.0
1618991053418,0.0
1618991053418,0.0
1618991053873,0.0
1618991053873,0.0
1618991054339,2.0
1618991054339,2.0
1618991054874,1.0
1618991054874,1.0
1618991055293,0.0
1618991055293,0.0
1618991055678,0.0
1618991055678,0.0
1618991056055,0.0
1618991056055,0.0
1618991056414,0.0
1618991056414,0.0
1618991056848,1.0
1618991056848,1.0
1618991057311,1.0
1618991057311,1.0
1618991057672,0.0
1618991057672,0.0
1618991058109,0.0
1618991058109,0.0
1618991058493,0.0
1618991058493,0.0
1618991058837,0.0
1618991058837,0.0
1618991059275,1.0
1618991059275,1.0
1618991059616,1.0
1618991059616,1.0
1618991060093,0.0
1618991060093,0.0
1618991060504,1.0
1618991060504,1.0
1618991060877,0.0
1618991060877,0.0
1618991061289,0.0
1618991061289,0.0
1618991061734,0.0
1618991061734,0.0
1618991062114,0.0
1618991062114,0.0
1618991062526,0.0
1618991062526,0.0
1618991062842,0.0
1618991062842,0.0
1618991063251,0.0
1618991063251,0.0
1618991063688,0.0
1618991063688,0.0
1618991064052,1.0
1618991064052,1.0
1618991064424,0.0
1618991064424,0.0
1618991064888,0.0
1618991064888,0.0
1618991065275,0.0
1618991065275,0.0
1618991065718,1.0
1618991065718,1.0
1618991066127,0.0
1618991066127,0.0
1618991066526,0.0
1618991066526,0.0
1618991066917,0.0
1618991066917,0.0
1618991067360,0.0
1618991067360,0.0
1618991067871,1.0
1618991067871,1.0
1618991068308,1.0
1618991068308,1.0
1618991068732,1.0
1618991068732,1.0
1618991069126,0.0
1618991069126,0.0
1618991069331,0.0
1618991069331,0.0
1618991069658,1.0
1618991069658,1.0
1618991070073,1.0
1618991070073,1.0
1618991070532,0.0
1618991070532,0.0
1618991070999,0.0
1618991070999,0.0
1618991071459,0.0
1618991071459,0.0
1618991071889,0.0
1618991071889,0.0
1618991072329,1.0
1618991072329,1.0
1618991072659,1.0
1618991072659,1.0
1618991073041,0.0
1618991073041,0.0
1618991073456,0.0
1618991073456,0.0
1618991073859,0.0
1618991073859,0.0
1618991074233,1.0
1618991074233,1.0
1618991074645,0.0
1618991074645,0.0
1618991075008,1.0
1618991075008,1.0
1618991075443,0.0
1618991075443,0.0
1618991075861,0.0
1618991075861,0.0
1618991076279,0.0
1618991076279,0.0
1618991076701,1.0
1618991076701,1.0
1618991077052,0.0
1618991077052,0.0
1618991077425,1.0
1618991077425,1.0
1618991077825,0.0
1618991077825,0.0
1618991078208,1.0
1618991078208,1.0
1618991078620,0.0
1618991078620,0.0
1618991079071,1.0
1618991079071,1.0
1618991079838,0.0
1618991079838,0.0
1618991080847,0.0
1618991080847,0.0
1618991081871,0.0
1618991081871,0.0
1618991082679,0.0
1618991082679,0.0
1618991083431,0.0
1618991083431,0.0
1618991084176,0.0
1618991084176,0.0
1618991085008,0.0
1618991085008,0.0
1618991085894,0.0
1618991085894,0.0
1618991086698,0.0
1618991086698,0.0
1618991087510,0.0
1618991087510,0.0
1618991087989,0.0
1618991087989,0.0
1618991088318,1.0
1618991088318,1.0
1618991088749,0.0
1618991088749,0.0
1618991089238,0.0
1618991089238,0.0
1618991089731,0.0
1618991089731,0.0
1618991090195,1.0
1618991090195,1.0
1618991090743,0.0
1618991090743,0.0
1618991091220,1.0
1618991091220,1.0
1618991091665,1.0
1618991091665,1.0
1618991092060,0.0
1618991092060,0.0
1618991092505,0.0
1618991092505,0.0
1618991092912,0.0
1618991092912,0.0
1618991093330,0.0
1618991093330,0.0
1618991093728,1.0
1618991093728,1.0
1618991094206,0.0
1618991094206,0.0
1618991094639,1.0
1618991094639,1.0
1618991095076,0.0
1618991095076,0.0
1618991095544,1.0
1618991095544,1.0
1618991095978,0.0
1618991095978,0.0
1618991096457,0.0
1618991096457,0.0
1618991096881,0.0
1618991096881,0.0
1618991097313,0.0
1618991097313,0.0
1618991097707,1.0
1618991097707,1.0
1618991098103,0.0
1618991098103,0.0
1618991098490,1.0
1618991098490,1.0
1618991098877,0.0
1618991098877,0.0
1618991099309,1.0
1618991099309,1.0
1618991099710,0.0
1618991099710,0.0
1618991100207,1.0
1618991100207,1.0
1618991100704,1.0
1618991100704,1.0
1618991101128,1.0
1618991101128,1.0
1618991101512,0.0
1618991101512,0.0
1618991101875,1.0
1618991101875,1.0
1618991102301,0.0
1618991102301,0.0
1618991102676,1.0
1618991102676,1.0
1618991103062,0.0
1618991103062,0.0
1618991103508,1.0
1618991103508,1.0
1618991103841,0.0
1618991103841,0.0
1618991104228,0.0
1618991104228,0.0
1618991104645,1.0
1618991104645,1.0
1618991105010,1.0
1618991105010,1.0
1618991105344,1.0
1618991105344,1.0
1618991105716,1.0
1618991105716,1.0
1618991106063,0.0
1618991106063,0.0
1618991106485,1.0
1618991106485,1.0
1618991106886,0.0
1618991106886,0.0
1618991107320,0.0
1618991107320,0.0
1618991107804,0.0
1618991107804,0.0
1618991108235,0.0
1618991108235,0.0
1618991108657,0.0
1618991108657,0.0
1618991109115,0.0
1618991109115,0.0
1618991109591,1.0
1618991109591,1.0
1618991110032,0.0
1618991110032,0.0
1618991110460,0.0
1618991110460,0.0
1618991110821,0.0
1618991110821,0.0
1618991111217,0.0
1618991111217,0.0
1618991111633,1.0
1618991111633,1.0
1618991112042,0.0
1618991112042,0.0
1618991112461,1.0
1618991112461,1.0
1618991112885,1.0
1618991112885,1.0
1618991113243,0.0
1618991113243,0.0
1618991113614,1.0
1618991113614,1.0
1618991113947,1.0
1618991113947,1.0
1618991114327,0.0
1618991114327,0.0
1618991114740,0.0
1618991114740,0.0
1618991115084,0.0
1618991115084,0.0
1618991115475,0.0
1618991115475,0.0
1618991115896,0.0
1618991115896,0.0
1618991116320,0.0
1618991116320,0.0
1618991116804,1.0
1618991116804,1.0
1618991117294,0.0
1618991117294,0.0
1618991117794,0.0
1618991117794,0.0
1618991118284,0.0
1618991118284,0.0
1618991118650,1.0
1618991118650,1.0
1618991119138,1.0
1618991119138,1.0
1618991119605,0.0
1618991119605,0.0
1618991120020,0.0
1618991120020,0.0
1618991120406,0.0
1618991120406,0.0
1618991120731,0.0
1618991120731,0.0
1618991121110,1.0
1618991121110,1.0
1618991121482,0.0
1618991121482,0.0
1618991121875,1.0
1618991121875,1.0
1618991122352,0.0
1618991122352,0.0
1618991122719,0.0
1618991122719,0.0
1618991123131,0.0
1618991123131,0.0
1618991123564,0.0
1618991123564,0.0
1618991123973,0.0
1618991123973,0.0
1618991124354,1.0
1618991124354,1.0
1618991124758,1.0
1618991124758,1.0
1618991125119,0.0
1618991125119,0.0
1618991125528,1.0
1618991125528,1.0
1618991125927,0.0
1618991125927,0.0
1618991126338,0.0
1618991126338,0.0
1618991126702,0.0
1618991126702,0.0
1618991127149,0.0
1618991127149,0.0
1618991127553,0.0
1618991127553,0.0
1618991127933,0.0
1618991127933,0.0
1618991128359,0.0
1618991128359,0.0
1618991128766,1.0
1618991128766,1.0
1618991129218,0.0
1618991129218,0.0
1618991129621,0.0
1618991129621,0.0
1618991130017,1.0
1618991130017,1.0
1618991130435,1.0
1618991130435,1.0
1618991130819,1.0
1618991130819,1.0
1618991131172,0.0
1618991131172,0.0
1618991131586,0.0
1618991131586,0.0
1618991132006,0.0
1618991132006,0.0
1618991132437,0.0
1618991132437,0.0
1618991132893,1.0
1618991132893,1.0
1618991133317,0.0
1618991133317,0.0
1618991133722,0.0
1618991133722,0.0
1618991134130,1.0
1618991134130,1.0
1618991134504,0.0
1618991134504,0.0
1618991134909,0.0
1618991134909,0.0
1618991135294,1.0
1618991135294,1.0
1618991135713,1.0
1618991135713,1.0
1618991136158,0.0
1618991136158,0.0
1618991136575,1.0
1618991136575,1.0
1618991136994,0.0
1618991136994,0.0
1618991137447,0.0
1618991137447,0.0
1618991137884,1.0
1618991137884,1.0
1618991138298,1.0
1618991138298,1.0
1618991138732,0.0
1618991138732,0.0
1618991139119,1.0
1618991139119,1.0
1618991139556,0.0
1618991139556,0.0
1618991140049,0.0
1618991140049,0.0
1618991140484,1.0
1618991140484,1.0
1618991140904,0.0
1618991140904,0.0
1618991141318,0.0
1618991141318,0.0
1618991141718,0.0
1618991141718,0.0
1618991142159,0.0
1618991142159,0.0
1618991142596,0.0
1618991142596,0.0
1618991143005,1.0
1618991143005,1.0
1618991143381,0.0
1618991143381,0.0
1618991143708,0.0
1618991143708,0.0
1618991144071,1.0
1618991144071,1.0
1618991144493,0.0
1618991144493,0.0
1618991144853,0.0
1618991144853,0.0
1618991145223,0.0
1618991145223,0.0
1618991145612,0.0
1618991145612,0.0
1618991145897,0.0
1618991145897,0.0
1618991146325,1.0
1618991146325,1.0
1618991146711,1.0
1618991146711,1.0
1618991147113,0.0
1618991147113,0.0
1618991147519,1.0
1618991147519,1.0
1618991147923,0.0
1618991147923,0.0
1618991148287,1.0
1618991148287,1.0
1618991148783,0.0
1618991148783,0.0
1618991149205,1.0
1618991149205,1.0
1618991149623,1.0
1618991149623,1.0
1618991150057,0.0
1618991150057,0.0
1618991150501,0.0
1618991150501,0.0
1618991150964,0.0
1618991150964,0.0
1618991151747,0.0
1618991151747,0.0
1618991152158,1.0
1618991152158,1.0
1618991152641,1.0
1618991152641,1.0
1618991153093,0.0
1618991153093,0.0
1618991153563,0.0
1618991153563,0.0
1618991154046,0.0
1618991154046,0.0
1618991154533,0.0
1618991154533,0.0
1618991154934,1.0
1618991154934,1.0
1618991155637,0.0
1618991155637,0.0
1618991156560,0.0
1618991156560,0.0
1618991157647,0.0
1618991157647,0.0
1618991158943,0.0
1618991158943,0.0
1618991159703,0.0
1618991159703,0.0
1618991160219,0.0
1618991160219,0.0
1618991160665,0.0
1618991160665,0.0
1618991161075,0.0
1618991161075,0.0
1618991161504,0.0
1618991161504,0.0
1618991161879,1.0
1618991161879,1.0
1618991162304,0.0
1618991162304,0.0
1618991162699,1.0
1618991162699,1.0
1618991163077,0.0
1618991163077,0.0
1618991163500,1.0
1618991163500,1.0
1618991163969,0.0
1618991163969,0.0
1618991164479,0.0
1618991164479,0.0
1618991164878,1.0
1618991164878,1.0
1618991165285,0.0
1618991165285,0.0
1618991165686,0.0
1618991165686,0.0
1618991166031,1.0
1618991166031,1.0
1618991166441,0.0
1618991166441,0.0
1618991166827,0.0
1618991166827,0.0
1618991167342,1.0
1618991167342,1.0
1618991167755,0.0
1618991167755,0.0
1618991168166,0.0
1618991168166,0.0
1618991168616,0.0
1618991168616,0.0
1618991169048,0.0
1618991169048,0.0
1618991169439,0.0
1618991169439,0.0
1618991169914,0.0
1618991169914,0.0
1618991170329,0.0
1618991170329,0.0
1618991170705,1.0
1618991170705,1.0
1618991171108,0.0
1618991171108,0.0
1618991171467,0.0
1618991171467,0.0
1618991171821,0.0
1618991171821,0.0
1618991172178,1.0
1618991172178,1.0
1618991172490,1.0
1618991172490,1.0
1618991172831,0.0
1618991172831,0.0
1618991173247,1.0
1618991173247,1.0
1618991173620,1.0
1618991173620,1.0
1618991174037,1.0
1618991174037,1.0
1618991174435,8.0
1618991174435,8.0
1618991174775,1.0
1618991174775,1.0
1618991175198,1.0
1618991175198,1.0
1618991175624,0.0
1618991175624,0.0
1618991176087,1.0
1618991176087,1.0
1618991176566,1.0
1618991176566,1.0
1618991177059,1.0
1618991177059,1.0
1618991177442,0.0
1618991177442,0.0
1618991177888,1.0
1618991177888,1.0
1618991178318,1.0
1618991178318,1.0
1618991178696,0.0
1618991178696,0.0
1618991179113,1.0
1618991179113,1.0
1618991179479,0.0
1618991179479,0.0
1618991179843,0.0
1618991179843,0.0
1618991180233,0.0
1618991180233,0.0
1618991180531,0.0
1618991180531,0.0
1618991180899,1.0
1618991180899,1.0
1618991181324,0.0
1618991181324,0.0
1618991181769,1.0
1618991181769,1.0
1618991182218,0.0
1618991182218,0.0
1618991182643,0.0
1618991182643,0.0
1618991183014,1.0
1618991183014,1.0
1618991183609,0.0
1618991183609,0.0
1618991184693,0.0
1618991184693,0.0
1618991185561,0.0
1618991185561,0.0
1618991186470,0.0
1618991186470,0.0
1618991187345,0.0
1618991187345,0.0
1618991188045,0.0
1618991188045,0.0
1618991188841,0.0
1618991188841,0.0
1618991189735,0.0
1618991189735,0.0
1618991190597,0.0
1618991190597,0.0
1618991191116,0.0
1618991191116,0.0
1618991191508,0.0
1618991191508,0.0
1618991191930,0.0
1618991191930,0.0
1618991192416,1.0
1618991192416,1.0
1618991192849,0.0
1618991192849,0.0
1618991193339,0.0
1618991193339,0.0
1618991193771,1.0
1618991193771,1.0
1618991194219,1.0
1618991194219,1.0
1618991194651,0.0
1618991194651,0.0
1618991195076,1.0
1618991195076,1.0
1618991195466,1.0
1618991195466,1.0
1618991195956,0.0
1618991195956,0.0
1618991196632,0.0
1618991196632,0.0
1618991197405,0.0
1618991197405,0.0
1618991197903,0.0
1618991197903,0.0
1618991198330,0.0
1618991198330,0.0
1618991198736,0.0
1618991198736,0.0
1618991199161,0.0
1618991199161,0.0
1618991199618,1.0
1618991199618,1.0
1618991200012,0.0
1618991200012,0.0
1618991200442,0.0
1618991200442,0.0
1618991200826,0.0
1618991200826,0.0
1618991201208,0.0
1618991201208,0.0
1618991201648,0.0
1618991201648,0.0
1618991202041,0.0
1618991202041,0.0
1618991202416,0.0
1618991202416,0.0
1618991202898,1.0
1618991202898,1.0
1618991203321,1.0
1618991203321,1.0
1618991203763,1.0
1618991203763,1.0
1618991204200,0.0
1618991204200,0.0
1618991204620,0.0
1618991204620,0.0
1618991205063,0.0
1618991205063,0.0
1618991205495,0.0
1618991205495,0.0
1618991205936,0.0
1618991205936,0.0
1618991206364,0.0
1618991206364,0.0
1618991206735,0.0
1618991206735,0.0
1618991207128,0.0
1618991207128,0.0
1618991207549,1.0
1618991207549,1.0
1618991207944,0.0
1618991207944,0.0
1618991208444,0.0
1618991208444,0.0
1618991208915,1.0
1618991208915,1.0
1618991209294,0.0
1618991209294,0.0
1618991209761,0.0
1618991209761,0.0
1618991210213,0.0
1618991210213,0.0
1618991210662,0.0
1618991210662,0.0
1618991211070,0.0
1618991211070,0.0
1618991211422,1.0
1618991211422,1.0
1618991211805,0.0
1618991211805,0.0
1618991212167,0.0
1618991212167,0.0
1618991212549,0.0
1618991212549,0.0
1618991212960,1.0
1618991212960,1.0
1618991213374,0.0
1618991213374,0.0
1618991213699,0.0
1618991213699,0.0
1618991214068,0.0
1618991214068,0.0
1618991214400,1.0
1618991214400,1.0
1618991214746,1.0
1618991214746,1.0
1618991215096,0.0
1618991215096,0.0
1618991215402,0.0
1618991215402,0.0
1618991215769,0.0
1618991215769,0.0
1618991216165,0.0
1618991216165,0.0
1618991216531,1.0
1618991216531,1.0
1618991216922,0.0
1618991216922,0.0
1618991217270,0.0
1618991217270,0.0
1618991217636,0.0
1618991217636,0.0
1618991218012,1.0
1618991218012,1.0
1618991218368,1.0
1618991218368,1.0
1618991218758,1.0
1618991218758,1.0
1618991219225,0.0
1618991219225,0.0
1618991219730,0.0
1618991219730,0.0
1618991220108,0.0
1618991220108,0.0
1618991220529,1.0
1618991220529,1.0
1618991220918,1.0
1618991220918,1.0
1618991221288,0.0
1618991221288,0.0
1618991221697,0.0
1618991221697,0.0
1618991222082,0.0
1618991222082,0.0
1618991222528,1.0
1618991222528,1.0
1618991223006,0.0
1618991223006,0.0
1618991223386,0.0
1618991223386,0.0
1618991223801,1.0
1618991223801,1.0
1618991224173,0.0
1618991224173,0.0
1618991224570,1.0
1618991224570,1.0
1618991225044,0.0
1618991225044,0.0
1618991225530,1.0
1618991225530,1.0
1618991225930,0.0
1618991225930,0.0
1618991226368,1.0
1618991226368,1.0
1618991226838,1.0
1618991226838,1.0
1618991227238,0.0
1618991227238,0.0
1618991227677,0.0
1618991227677,0.0
1618991228121,0.0
1618991228121,0.0
1618991228591,0.0
1618991228591,0.0
1618991229101,0.0
1618991229101,0.0
1618991229594,0.0
1618991229594,0.0
1618991230088,1.0
1618991230088,1.0
1618991230527,0.0
1618991230527,0.0
1618991230887,0.0
1618991230887,0.0
1618991231243,0.0
1618991231243,0.0
1618991231572,0.0
1618991231572,0.0
1618991231961,1.0
1618991231961,1.0
1618991232388,0.0
1618991232388,0.0
1618991232754,0.0
1618991232754,0.0
1618991233197,0.0
1618991233197,0.0
1618991233649,0.0
1618991233649,0.0
1618991234081,0.0
1618991234081,0.0
1618991234604,0.0
1618991234604,0.0
1618991235076,0.0
1618991235076,0.0
1618991235497,1.0
1618991235497,1.0
1618991235930,1.0
1618991235930,1.0
1618991236330,0.0
1618991236330,0.0
1618991236760,1.0
1618991236760,1.0
1618991237162,0.0
1618991237162,0.0
1618991237553,0.0
1618991237553,0.0
1618991237915,0.0
1618991237915,0.0
1618991238286,1.0
1618991238286,1.0
1618991238646,1.0
1618991238646,1.0
1618991239051,0.0
1618991239051,0.0
1618991239428,1.0
1618991239428,1.0
1618991239752,1.0
1618991239752,1.0
1618991240149,1.0
1618991240149,1.0
1618991240537,1.0
1618991240537,1.0
1618991240986,0.0
1618991240986,0.0
1618991241487,1.0
1618991241487,1.0
1618991241947,0.0
1618991241947,0.0
1618991242378,0.0
1618991242378,0.0
1618991242856,0.0
1618991242856,0.0
1618991243246,1.0
1618991243246,1.0
1618991243676,0.0
1618991243676,0.0
1618991244061,1.0
1618991244061,1.0
1618991244469,1.0
1618991244469,1.0
1618991244865,1.0
1618991244865,1.0
1618991245272,1.0
1618991245272,1.0
1618991245607,0.0
1618991245607,0.0
1618991246014,0.0
1618991246014,0.0
1618991246416,0.0
1618991246416,0.0
1618991246816,1.0
1618991246816,1.0
1618991247306,0.0
1618991247306,0.0
1618991247979,0.0
1618991247979,0.0
1618991248724,0.0
1618991248724,0.0
1618991249236,0.0
1618991249236,0.0
1618991249666,1.0
1618991249666,1.0
1618991250082,1.0
1618991250082,1.0
1618991250566,0.0
1618991250566,0.0
1618991250948,1.0
1618991250948,1.0
1618991251335,1.0
1618991251335,1.0
1618991251749,0.0
1618991251749,0.0
1618991252147,0.0
1618991252147,0.0
1618991252567,0.0
1618991252567,0.0
1618991253115,0.0
1618991253115,0.0
1618991253607,1.0
1618991253607,1.0
1618991254023,0.0
1618991254023,0.0
1618991254447,1.0
1618991254447,1.0
1618991254815,1.0
1618991254815,1.0
1618991255180,1.0
1618991255180,1.0
1618991255559,0.0
1618991255559,0.0
1618991255945,1.0
1618991255945,1.0
1618991256332,1.0
1618991256332,1.0
1618991256782,0.0
1618991256782,0.0
1618991257176,1.0
1618991257176,1.0
1618991257599,0.0
1618991257599,0.0
1618991257964,0.0
1618991257964,0.0
1618991258317,0.0
1618991258317,0.0
1618991258782,0.0
1618991258782,0.0
1618991259209,0.0
1618991259209,0.0
1618991259605,0.0
1618991259605,0.0
1618991260011,0.0
1618991260011,0.0
1618991260503,0.0
1618991260503,0.0
1618991260957,0.0
1618991260957,0.0
1618991261397,0.0
1618991261397,0.0
1618991261855,1.0
1618991261855,1.0
1618991262238,0.0
1618991262238,0.0
1618991262729,10.0
1618991262729,10.0
1618991263164,1.0
1618991263164,1.0
1618991263547,1.0
1618991263547,1.0
1618991263982,0.0
1618991263982,0.0
1618991264379,0.0
1618991264379,0.0
1618991264801,1.0
1618991264801,1.0
1618991265197,0.0
1618991265197,0.0
1618991265558,0.0
1618991265558,0.0
1618991266009,0.0
1618991266009,0.0
1618991266394,1.0
1618991266394,1.0
1618991266814,0.0
1618991266814,0.0
1618991267195,0.0
1618991267195,0.0
1618991267499,0.0
1618991267499,0.0
1618991267899,0.0
1618991267899,0.0
1618991268308,1.0
1618991268308,1.0
1618991268692,0.0
1618991268692,0.0
1618991269089,0.0
1618991269089,0.0
1618991269493,1.0
1618991269493,1.0
1618991269934,0.0
1618991269934,0.0
1618991270395,0.0
1618991270395,0.0
1618991270831,1.0
1618991270831,1.0
1618991271219,0.0
1618991271219,0.0
1618991271638,1.0
1618991271638,1.0
1618991272054,0.0
1618991272054,0.0
1618991272420,0.0
1618991272420,0.0
1618991272857,0.0
1618991272857,0.0
1618991273253,0.0
1618991273253,0.0
1618991273699,0.0
1618991273699,0.0
1618991274136,0.0
1618991274136,0.0
1618991274516,10.0
1618991274516,10.0
1618991274929,1.0
1618991274929,1.0
1618991275296,1.0
1618991275296,1.0
1618991275678,0.0
1618991275678,0.0
1618991276081,1.0
1618991276081,1.0
1618991276432,2.0
1618991276432,2.0
1618991276851,1.0
1618991276851,1.0
1618991277240,0.0
1618991277240,0.0
1618991277631,1.0
1618991277631,1.0
1618991278057,0.0
1618991278057,0.0
1618991278468,2.0
1618991278468,2.0
1618991278923,2.0
1618991278923,2.0
1618991279397,1.0
1618991279397,1.0
1618991279825,1.0
1618991279825,1.0
1618991280225,1.0
1618991280225,1.0
1618991280631,0.0
1618991280631,0.0
1618991281029,0.0
1618991281029,0.0
1618991281468,0.0
1618991281468,0.0
1618991281840,1.0
1618991281840,1.0
1618991282208,1.0
1618991282208,1.0
1618991282606,1.0
1618991282606,1.0
1618991283054,0.0
1618991283054,0.0
1618991283455,1.0
1618991283455,1.0
1618991283872,1.0
1618991283872,1.0
1618991284269,0.0
1618991284269,0.0
1618991284792,1.0
1618991284792,1.0
1618991285502,0.0
1618991285502,0.0
1618991286226,0.0
1618991286226,0.0
1618991287012,0.0
1618991287012,0.0
1618991288055,0.0
1618991288055,0.0
1618991288818,0.0
1618991288818,0.0
1618991289309,1.0
1618991289309,1.0
1618991289760,0.0
1618991289760,0.0
1618991290188,0.0
1618991290188,0.0
1618991290597,0.0
1618991290597,0.0
1618991290973,1.0
1618991290973,1.0
1618991291341,1.0
1618991291341,1.0
1618991291744,1.0
1618991291744,1.0
1618991292122,0.0
1618991292122,0.0
1618991292466,0.0
1618991292466,0.0
1618991292861,0.0
1618991292861,0.0
1618991293313,0.0
1618991293313,0.0
1618991293764,0.0
1618991293764,0.0
1618991294277,0.0
1618991294277,0.0
1618991294748,8.0
1618991294748,8.0
1618991295215,0.0
1618991295215,0.0
1618991295620,0.0
1618991295620,0.0
1618991295993,1.0
1618991295993,1.0
1618991296410,0.0
1618991296410,0.0
1618991296821,1.0
1618991296821,1.0
1618991297197,0.0
1618991297197,0.0
1618991297644,1.0
1618991297644,1.0
1618991297992,1.0
1618991297992,1.0
1618991298388,0.0
1618991298388,0.0
1618991298775,0.0
1618991298775,0.0
1618991299171,1.0
1618991299171,1.0
1618991299535,1.0
1618991299535,1.0
1618991299914,0.0
1618991299914,0.0
1618991300227,0.0
1618991300227,0.0
1618991300649,1.0
1618991300649,1.0
1618991301065,1.0
1618991301065,1.0
1618991301427,0.0
1618991301427,0.0
1618991301840,10.0
1618991301840,10.0
1618991302213,0.0
1618991302213,0.0
1618991302539,0.0
1618991302539,0.0
1618991302958,0.0
1618991302958,0.0
1618991303347,0.0
1618991303347,0.0
1618991303701,8.0
1618991303701,8.0
1618991304108,31.0
1618991304108,31.0
1618991304544,0.0
1618991304544,0.0
1618991304938,0.0
1618991304938,0.0
1618991305315,1.0
1618991305315,1.0
1618991305697,0.0
1618991305697,0.0
1618991306133,0.0
1618991306133,0.0
1618991306451,1.0
1618991306451,1.0
1618991306823,1.0
1618991306823,1.0
1618991307229,1.0
1618991307229,1.0
1618991307612,1.0
1618991307612,1.0
1618991307992,1.0
1618991307992,1.0
1618991308377,1.0
1618991308377,1.0
1618991308751,1.0
1618991308751,1.0
1618991309086,1.0
1618991309086,1.0
1618991309462,0.0
1618991309462,0.0
1618991309808,0.0
1618991309808,0.0
1618991310280,10.0
1618991310280,10.0
1618991310723,0.0
1618991310723,0.0
1618991311164,1.0
1618991311164,1.0
1618991311603,1.0
1618991311603,1.0
1618991312003,0.0
1618991312003,0.0
1618991312415,0.0
1618991312415,0.0
1618991312748,8.0
1618991312748,8.0
1618991313129,1.0
1618991313129,1.0
1618991313489,8.0
1618991313489,8.0
1618991313871,0.0
1618991313871,0.0
1618991314219,1.0
1618991314219,1.0
1618991314562,0.0
1618991314562,0.0
1618991314991,31.0
1618991314991,31.0
1618991315389,1.0
1618991315389,1.0
1618991315735,0.0
1618991315735,0.0
1618991316164,0.0
1618991316164,0.0
1618991316618,1.0
1618991316618,1.0
1618991317047,0.0
1618991317047,0.0
1618991317486,0.0
1618991317486,0.0
1618991317842,0.0
1618991317842,0.0
1618991318244,1.0
1618991318244,1.0
1618991318601,1.0
1618991318601,1.0
1618991318974,0.0
1618991318974,0.0
1618991319335,0.0
1618991319335,0.0
1618991319696,0.0
1618991319696,0.0
1618991320065,0.0
1618991320065,0.0
1618991320459,1.0
1618991320459,1.0
1618991320871,0.0
1618991320871,0.0
1618991321258,0.0
1618991321258,0.0
1618991321726,1.0
1618991321726,1.0
1618991322148,1.0
1618991322148,1.0
1618991322481,1.0
1618991322481,1.0
1618991322858,0.0
1618991322858,0.0
1618991323229,0.0
1618991323229,0.0
1618991323542,0.0
1618991323542,0.0
1618991323990,0.0
1618991323990,0.0
1618991324468,0.0
1618991324468,0.0
1618991324866,1.0
1618991324866,1.0
1618991325294,1.0
1618991325294,1.0
1618991325681,10.0
1618991325681,10.0
1618991326099,0.0
1618991326099,0.0
1618991326486,1.0
1618991326486,1.0
1618991326899,0.0
1618991326899,0.0
1618991327240,0.0
1618991327240,0.0
1618991327631,1.0
1618991327631,1.0
1618991328007,1.0
1618991328007,1.0
1618991328367,0.0
1618991328367,0.0
1618991328765,0.0
1618991328765,0.0
1618991329173,1.0
1618991329173,1.0
1618991329532,1.0
1618991329532,1.0
1618991329985,1.0
1618991329985,1.0
1618991330475,1.0
1618991330475,1.0
1618991330905,1.0
1618991330905,1.0
1618991331291,0.0
1618991331291,0.0
1618991331674,0.0
1618991331674,0.0
1618991332051,0.0
1618991332051,0.0
1618991332466,1.0
1618991332466,1.0
1618991332906,0.0
1618991332906,0.0
1618991333399,0.0
1618991333399,0.0
1618991333848,1.0
1618991333848,1.0
1618991334232,0.0
1618991334232,0.0
1618991334666,1.0
1618991334666,1.0
1618991335102,1.0
1618991335102,1.0
1618991335476,1.0
1618991335476,1.0
1618991335933,0.0
1618991335933,0.0
1618991336398,1.0
1618991336398,1.0
1618991336812,1.0
1618991336812,1.0
1618991337249,1.0
1618991337249,1.0
1618991337711,1.0
1618991337711,1.0
1618991338170,0.0
1618991338170,0.0
1618991338581,1.0
1618991338581,1.0
1618991339002,0.0
1618991339002,0.0
1618991339460,0.0
1618991339460,0.0
1618991339885,0.0
1618991339885,0.0
1618991340307,0.0
1618991340307,0.0
1618991340731,1.0
1618991340731,1.0
1618991341149,1.0
1618991341149,1.0
1618991341572,1.0
1618991341572,1.0
1618991341961,1.0
1618991341961,1.0
1618991342283,0.0
1618991342283,0.0
1618991342663,1.0
1618991342663,1.0
1618991343114,0.0
1618991343114,0.0
1618991343527,1.0
1618991343527,1.0
1618991343935,0.0
1618991343935,0.0
1618991344376,1.0
1618991344376,1.0
1618991344772,0.0
1618991344772,0.0
